2-Passive Filters/data/ALL0007/A0007CH2.CSV

Memory Length,4000,
Trigger Level,0.000E+00,
Source,CH2,
Probe,1X,
Vertical Units,V,
Vertical Scale,2.000E-01,
Vertical Position,-8.000E-03,
Horizontal Units,s,
Horizontal Scale,2.500E-03,
Horizontal Position,0.000E+00,
Horizontal Mode,Main,
Sampling Period,1.000E-05,
Firmware,V1.04,
Time, ,
Mode,Fast,
Waveform Data,
22,
22,
23,
23,
22,
23,
23,
24,
23,
23,
23,
23,
23,
23,
24,
24,
22,
21,
21,
23,
23,
22,
24,
24,
22,
23,
22,
21,
21,
24,
22,
24,
25,
23,
22,
24,
23,
22,
21,
21,
22,
23,
22,
23,
22,
23,
22,
23,
22,
22,
22,
23,
22,
23,
23,
22,
22,
21,
21,
21,
21,
22,
22,
22,
22,
23,
22,
22,
22,
22,
21,
22,
23,
24,
21,
21,
21,
21,
21,
22,
21,
21,
23,
21,
21,
22,
21,
20,
20,
20,
20,
21,
22,
19,
21,
23,
21,
21,
20,
21,
19,
20,
19,
19,
21,
19,
19,
21,
19,
18,
19,
17,
18,
19,
18,
18,
21,
18,
19,
19,
19,
18,
18,
18,
17,
19,
18,
17,
20,
19,
19,
17,
16,
17,
15,
17,
17,
16,
18,
17,
15,
14,
17,
15,
17,
19,
18,
17,
17,
17,
14,
14,
13,
15,
17,
17,
17,
15,
17,
17,
14,
16,
15,
17,
17,
17,
13,
14,
12,
14,
16,
13,
13,
15,
14,
13,
15,
13,
13,
14,
11,
13,
13,
14,
12,
11,
12,
11,
9,
10,
9,
10,
13,
8,
12,
12,
10,
11,
11,
11,
10,
11,
9,
8,
9,
8,
7,
9,
11,
9,
10,
10,
10,
7,
6,
6,
9,
7,
8,
5,
9,
8,
6,
8,
5,
5,
8,
7,
9,
5,
4,
6,
7,
7,
7,
5,
5,
6,
4,
4,
2,
3,
3,
4,
2,
4,
2,
3,
3,
2,
0,
2,
1,
1,
3,
1,
3,
1,
3,
1,
4,
1,
1,
1,
-1,
1,
-1,
-1,
1,
1,
0,
2,
-2,
-3,
0,
-1,
-1,
-1,
-3,
1,
-1,
-4,
-3,
-2,
0,
-3,
0,
-1,
-1,
1,
-5,
-3,
0,
-3,
-5,
-3,
-5,
-7,
-3,
-5,
-7,
-3,
-3,
-6,
-3,
-5,
-3,
-7,
-6,
-6,
-8,
-5,
-5,
-3,
-5,
-7,
-8,
-6,
-7,
-8,
-7,
-6,
-5,
-7,
-9,
-6,
-10,
-7,
-8,
-7,
-7,
-9,
-11,
-10,
-11,
-9,
-7,
-11,
-12,
-8,
-10,
-8,
-9,
-11,
-10,
-11,
-13,
-9,
-9,
-10,
-14,
-10,
-11,
-11,
-12,
-11,
-13,
-12,
-12,
-11,
-13,
-14,
-15,
-13,
-11,
-12,
-15,
-11,
-13,
-15,
-15,
-11,
-13,
-13,
-13,
-11,
-14,
-17,
-15,
-15,
-15,
-14,
-14,
-13,
-13,
-13,
-15,
-17,
-18,
-18,
-15,
-15,
-15,
-15,
-15,
-15,
-15,
-17,
-19,
-15,
-17,
-17,
-17,
-17,
-19,
-17,
-18,
-19,
-17,
-19,
-16,
-16,
-17,
-16,
-17,
-17,
-19,
-19,
-18,
-18,
-19,
-19,
-21,
-21,
-19,
-21,
-21,
-19,
-22,
-19,
-18,
-21,
-19,
-19,
-21,
-22,
-19,
-19,
-21,
-19,
-20,
-20,
-19,
-21,
-21,
-21,
-21,
-22,
-22,
-20,
-22,
-21,
-21,
-20,
-22,
-21,
-19,
-21,
-21,
-23,
-23,
-22,
-22,
-22,
-21,
-22,
-23,
-22,
-22,
-23,
-23,
-22,
-22,
-22,
-21,
-23,
-23,
-23,
-23,
-23,
-23,
-23,
-24,
-22,
-23,
-23,
-22,
-22,
-23,
-22,
-21,
-23,
-22,
-21,
-23,
-23,
-22,
-23,
-23,
-21,
-22,
-23,
-22,
-22,
-22,
-23,
-23,
-23,
-23,
-22,
-23,
-22,
-23,
-23,
-23,
-23,
-23,
-21,
-21,
-23,
-23,
-21,
-24,
-23,
-22,
-23,
-22,
-21,
-21,
-21,
-23,
-25,
-23,
-23,
-23,
-23,
-23,
-22,
-22,
-22,
-23,
-23,
-22,
-23,
-23,
-23,
-22,
-23,
-22,
-21,
-22,
-23,
-22,
-21,
-23,
-21,
-22,
-22,
-22,
-21,
-21,
-22,
-22,
-23,
-22,
-22,
-22,
-21,
-20,
-21,
-21,
-23,
-23,
-23,
-19,
-22,
-20,
-20,
-22,
-21,
-20,
-20,
-21,
-22,
-22,
-21,
-19,
-20,
-19,
-21,
-20,
-19,
-21,
-21,
-22,
-22,
-18,
-19,
-19,
-19,
-19,
-19,
-20,
-21,
-20,
-19,
-18,
-19,
-17,
-18,
-21,
-19,
-19,
-19,
-19,
-19,
-21,
-17,
-17,
-17,
-19,
-18,
-19,
-17,
-17,
-18,
-18,
-17,
-18,
-18,
-17,
-18,
-17,
-17,
-15,
-17,
-15,
-15,
-19,
-18,
-15,
-15,
-17,
-15,
-17,
-17,
-14,
-17,
-15,
-14,
-14,
-13,
-13,
-15,
-13,
-17,
-13,
-15,
-15,
-14,
-15,
-16,
-14,
-13,
-16,
-15,
-15,
-14,
-11,
-13,
-14,
-12,
-13,
-13,
-11,
-13,
-15,
-12,
-13,
-13,
-11,
-10,
-11,
-12,
-9,
-11,
-11,
-11,
-11,
-11,
-11,
-11,
-11,
-9,
-11,
-9,
-7,
-10,
-10,
-11,
-11,
-11,
-11,
-9,
-9,
-7,
-7,
-9,
-8,
-7,
-7,
-7,
-7,
-7,
-8,
-7,
-9,
-8,
-8,
-8,
-8,
-7,
-6,
-5,
-5,
-5,
-7,
-7,
-7,
-6,
-4,
-3,
-7,
-4,
-7,
-7,
-6,
-5,
-5,
-5,
-3,
-3,
-5,
-3,
-2,
-3,
-2,
-3,
-2,
-1,
1,
-2,
-2,
0,
-2,
-1,
-3,
0,
1,
0,
-3,
-2,
0,
0,
-1,
-1,
-1,
0,
1,
2,
-2,
2,
2,
3,
1,
1,
1,
1,
3,
3,
1,
3,
3,
3,
1,
3,
3,
3,
4,
2,
5,
3,
2,
3,
3,
3,
4,
5,
5,
5,
6,
2,
4,
4,
3,
7,
5,
5,
6,
7,
7,
5,
5,
5,
5,
6,
6,
8,
5,
7,
7,
6,
5,
7,
7,
10,
9,
9,
11,
9,
7,
11,
11,
11,
11,
11,
9,
10,
13,
8,
11,
9,
9,
10,
9,
11,
13,
13,
10,
9,
11,
9,
10,
14,
10,
12,
14,
12,
12,
13,
13,
13,
13,
14,
11,
13,
15,
15,
13,
15,
15,
17,
15,
13,
13,
13,
15,
15,
15,
14,
16,
17,
15,
15,
13,
15,
14,
15,
19,
17,
17,
16,
14,
17,
17,
15,
15,
17,
17,
17,
18,
18,
17,
16,
17,
17,
18,
17,
19,
21,
18,
16,
17,
17,
16,
17,
19,
19,
21,
19,
18,
19,
19,
19,
17,
20,
19,
19,
19,
21,
21,
20,
21,
20,
21,
22,
19,
21,
20,
20,
20,
21,
21,
20,
21,
21,
21,
21,
23,
21,
21,
21,
21,
21,
22,
21,
21,
21,
22,
21,
22,
22,
23,
24,
23,
22,
22,
23,
22,
23,
23,
22,
22,
22,
21,
23,
23,
21,
21,
23,
23,
23,
25,
22,
23,
23,
22,
22,
23,
22,
22,
23,
23,
23,
23,
25,
23,
25,
23,
22,
22,
22,
23,
23,
23,
24,
23,
23,
23,
23,
23,
22,
22,
23,
23,
23,
21,
21,
21,
22,
24,
21,
25,
23,
22,
22,
22,
21,
22,
22,
22,
24,
24,
23,
23,
24,
22,
22,
21,
21,
22,
22,
22,
23,
23,
23,
23,
22,
23,
21,
22,
23,
21,
23,
23,
22,
22,
22,
20,
21,
21,
21,
21,
22,
22,
23,
22,
22,
21,
21,
22,
21,
22,
22,
19,
20,
21,
21,
21,
21,
19,
21,
22,
21,
22,
22,
22,
23,
20,
21,
20,
20,
21,
21,
20,
21,
19,
19,
21,
20,
18,
19,
18,
19,
19,
18,
19,
21,
21,
20,
21,
19,
18,
17,
20,
19,
19,
20,
21,
19,
20,
17,
17,
17,
17,
17,
17,
17,
19,
16,
17,
16,
17,
18,
16,
18,
17,
18,
19,
17,
17,
15,
19,
15,
17,
18,
15,
15,
17,
17,
14,
15,
15,
15,
14,
17,
16,
14,
15,
16,
14,
16,
15,
17,
14,
12,
17,
17,
15,
13,
13,
15,
11,
12,
12,
13,
13,
9,
11,
13,
13,
11,
10,
13,
13,
10,
10,
13,
13,
12,
11,
11,
13,
9,
12,
9,
7,
10,
11,
13,
11,
9,
9,
9,
9,
8,
9,
10,
8,
10,
9,
8,
8,
9,
9,
9,
7,
9,
8,
9,
9,
6,
6,
5,
5,
5,
8,
5,
5,
6,
7,
6,
5,
5,
5,
3,
3,
7,
4,
6,
1,
3,
5,
5,
2,
6,
5,
3,
2,
0,
3,
2,
3,
0,
5,
5,
2,
2,
0,
-2,
1,
3,
-1,
1,
0,
1,
1,
0,
0,
1,
2,
1,
1,
1,
0,
-3,
1,
0,
-2,
1,
-1,
-1,
0,
0,
-3,
-1,
-2,
-5,
-5,
-4,
-5,
-3,
-2,
-2,
-2,
-3,
-6,
-6,
-2,
-3,
-4,
-3,
-3,
-4,
-3,
-7,
-5,
-6,
-7,
-8,
-7,
-3,
-6,
-4,
-3,
-7,
-9,
-7,
-8,
-7,
-8,
-6,
-7,
-9,
-9,
-9,
-6,
-7,
-11,
-7,
-9,
-7,
-11,
-10,
-10,
-11,
-9,
-7,
-10,
-10,
-11,
-9,
-9,
-11,
-11,
-10,
-10,
-10,
-11,
-9,
-13,
-7,
-13,
-10,
-9,
-11,
-11,
-10,
-12,
-14,
-11,
-14,
-13,
-11,
-13,
-11,
-13,
-14,
-14,
-16,
-14,
-13,
-15,
-13,
-13,
-13,
-14,
-13,
-17,
-15,
-13,
-13,
-13,
-13,
-13,
-15,
-15,
-18,
-18,
-16,
-14,
-17,
-13,
-15,
-15,
-14,
-16,
-17,
-19,
-18,
-17,
-17,
-15,
-17,
-19,
-18,
-19,
-18,
-16,
-19,
-19,
-17,
-18,
-17,
-18,
-17,
-18,
-17,
-18,
-19,
-18,
-21,
-20,
-21,
-19,
-19,
-20,
-17,
-19,
-19,
-19,
-20,
-19,
-19,
-19,
-21,
-19,
-20,
-19,
-20,
-22,
-23,
-22,
-20,
-21,
-21,
-21,
-22,
-22,
-19,
-20,
-21,
-21,
-21,
-22,
-21,
-21,
-19,
-19,
-21,
-23,
-22,
-23,
-23,
-23,
-23,
-21,
-21,
-22,
-22,
-22,
-21,
-23,
-21,
-22,
-23,
-23,
-22,
-23,
-23,
-21,
-24,
-23,
-23,
-23,
-23,
-22,
-23,
-22,
-22,
-21,
-23,
-23,
-22,
-23,
-23,
-23,
-23,
-23,
-22,
-23,
-22,
-22,
-23,
-22,
-23,
-23,
-23,
-22,
-23,
-23,
-21,
-23,
-23,
-24,
-23,
-21,
-21,
-21,
-21,
-23,
-22,
-24,
-23,
-22,
-23,
-22,
-21,
-22,
-21,
-22,
-24,
-23,
-23,
-23,
-23,
-21,
-21,
-22,
-21,
-22,
-23,
-23,
-23,
-23,
-23,
-22,
-23,
-23,
-22,
-21,
-22,
-23,
-23,
-23,
-23,
-23,
-23,
-21,
-22,
-22,
-21,
-22,
-22,
-21,
-22,
-22,
-23,
-22,
-21,
-21,
-20,
-24,
-24,
-22,
-21,
-22,
-19,
-21,
-21,
-19,
-21,
-21,
-21,
-21,
-21,
-20,
-21,
-19,
-19,
-21,
-21,
-20,
-19,
-21,
-21,
-19,
-19,
-19,
-19,
-19,
-19,
-19,
-18,
-21,
-20,
-18,
-21,
-19,
-20,
-21,
-19,
-19,
-15,
-19,
-18,
-19,
-19,
-18,
-18,
-19,
-18,
-18,
-17,
-16,
-18,
-17,
-18,
-19,
-19,
-19,
-16,
-17,
-17,
-15,
-19,
-17,
-17,
-19,
-17,
-14,
-14,
-15,
-15,
-17,
-19,
-17,
-15,
-16,
-14,
-13,
-13,
-14,
-15,
-15,
-17,
-16,
-14,
-15,
-13,
-13,
-14,
-13,
-16,
-15,
-11,
-14,
-13,
-11,
-11,
-13,
-13,
-13,
-14,
-13,
-14,
-13,
-10,
-11,
-11,
-11,
-13,
-13,
-13,
-11,
-13,
-11,
-10,
-10,
-9,
-11,
-9,
-10,
-10,
-10,
-11,
-9,
-10,
-9,
-10,
-11,
-10,
-7,
-9,
-9,
-7,
-7,
-7,
-10,
-9,
-10,
-9,
-7,
-9,
-6,
-6,
-7,
-7,
-8,
-8,
-6,
-7,
-7,
-5,
-7,
-4,
-7,
-6,
-4,
-3,
-6,
-5,
-2,
-4,
-3,
-2,
-3,
-5,
-6,
-7,
-2,
-3,
-2,
-3,
-3,
-6,
-3,
-1,
-3,
1,
1,
-1,
-1,
1,
-5,
-4,
-3,
-1,
0,
1,
-1,
-2,
1,
1,
1,
1,
0,
1,
1,
-1,
-1,
1,
1,
2,
3,
3,
0,
-1,
1,
1,
3,
3,
4,
2,
3,
3,
3,
5,
4,
2,
5,
5,
5,
4,
5,
3,
3,
4,
4,
3,
6,
5,
3,
3,
4,
5,
6,
5,
7,
8,
5,
5,
7,
5,
5,
5,
7,
8,
8,
9,
7,
6,
5,
7,
9,
9,
9,
7,
11,
9,
9,
7,
9,
11,
11,
9,
9,
12,
9,
10,
10,
13,
9,
9,
12,
13,
14,
13,
11,
9,
10,
11,
11,
14,
11,
13,
14,
12,
13,
13,
13,
14,
15,
11,
10,
13,
12,
13,
13,
13,
14,
17,
17,
15,
13,
15,
13,
14,
17,
15,
17,
15,
15,
17,
15,
15,
15,
14,
19,
17,
16,
15,
14,
15,
15,
14,
15,
17,
16,
17,
17,
18,
17,
17,
17,
18,
19,
18,
17,
19,
19,
17,
19,
17,
18,
18,
19,
18,
18,
21,
19,
19,
19,
21,
20,
21,
20,
19,
21,
20,
19,
21,
20,
19,
20,
21,
19,
19,
21,
19,
21,
21,
21,
20,
21,
19,
21,
23,
22,
19,
21,
21,
21,
22,
23,
23,
21,
21,
19,
19,
21,
22,
23,
23,
21,
21,
21,
21,
21,
23,
23,
22,
23,
22,
22,
24,
23,
23,
25,
22,
22,
23,
25,
23,
23,
24,
23,
23,
23,
22,
21,
22,
23,
22,
23,
23,
23,
24,
23,
23,
23,
21,
23,
23,
23,
23,
23,
23,
22,
23,
23,
22,
21,
24,
25,
24,
23,
22,
22,
21,
23,
22,
25,
23,
23,
23,
22,
21,
22,
21,
22,
25,
23,
23,
23,
23,
22,
22,
22,
21,
23,
22,
21,
23,
23,
24,
22,
22,
23,
21,
22,
22,
22,
23,
23,
21,
22,
22,
21,
21,
22,
21,
22,
23,
22,
22,
22,
21,
22,
23,
22,
21,
21,
24,
22,
21,
21,
21,
21,
21,
20,
21,
22,
21,
21,
22,
22,
23,
20,
20,
21,
21,
21,
18,
22,
21,
20,
21,
20,
20,
19,
20,
21,
18,
21,
17,
19,
21,
18,
20,
21,
19,
19,
17,
17,
21,
19,
19,
20,
19,
20,
19,
21,
19,
18,
19,
19,
18,
19,
17,
19,
17,
17,
17,
15,
19,
17,
17,
21,
17,
17,
17,
19,
17,
15,
16,
17,
17,
15,
15,
14,
13,
13,
15,
15,
15,
16,
14,
16,
14,
17,
13,
15,
17,
13,
10,
13,
16,
13,
13,
13,
14,
14,
15,
14,
13,
14,
11,
12,
12,
11,
13,
14,
13,
12,
13,
13,
9,
13,
10,
11,
9,
13,
9,
13,
12,
8,
8,
11,
11,
9,
9,
7,
9,
9,
7,
9,
10,
9,
10,
11,
11,
8,
7,
6,
8,
9,
9,
8,
9,
9,
9,
9,
6,
5,
5,
8,
7,
3,
3,
5,
5,
3,
3,
5,
7,
5,
6,
6,
5,
3,
4,
1,
2,
4,
6,
3,
2,
4,
1,
0,
2,
1,
2,
5,
2,
2,
2,
1,
1,
3,
0,
1,
1,
0,
0,
1,
1,
1,
-1,
1,
1,
-1,
1,
1,
-1,
0,
-1,
-3,
0,
0,
-1,
-3,
1,
-1,
-3,
-1,
-3,
-1,
-1,
-5,
-4,
-3,
-2,
-3,
-3,
-5,
-6,
-5,
-5,
-4,
0,
-3,
-3,
-4,
-7,
-6,
-5,
-6,
-5,
-7,
-5,
-6,
-3,
-5,
-7,
-9,
-7,
-6,
-7,
-7,
-7,
-5,
-7,
-9,
-11,
-9,
-8,
-11,
-7,
-7,
-8,
-11,
-9,
-9,
-9,
-8,
-7,
-12,
-9,
-11,
-11,
-9,
-9,
-10,
-11,
-10,
-9,
-10,
-10,
-13,
-11,
-12,
-11,
-11,
-12,
-11,
-13,
-12,
-10,
-14,
-13,
-15,
-11,
-10,
-11,
-12,
-13,
-14,
-15,
-14,
-13,
-13,
-14,
-14,
-11,
-13,
-13,
-14,
-14,
-15,
-16,
-15,
-15,
-15,
-15,
-14,
-15,
-19,
-17,
-18,
-18,
-15,
-16,
-15,
-14,
-14,
-18,
-16,
-16,
-17,
-18,
-17,
-15,
-16,
-15,
-16,
-17,
-15,
-17,
-16,
-16,
-17,
-17,
-19,
-18,
-18,
-17,
-19,
-20,
-18,
-19,
-20,
-20,
-19,
-20,
-19,
-17,
-19,
-19,
-19,
-20,
-19,
-19,
-19,
-22,
-19,
-19,
-19,
-20,
-21,
-23,
-21,
-22,
-22,
-20,
-21,
-22,
-21,
-20,
-20,
-21,
-22,
-23,
-21,
-21,
-21,
-20,
-20,
-21,
-20,
-22,
-23,
-23,
-22,
-23,
-23,
-21,
-21,
-21,
-21,
-23,
-23,
-21,
-21,
-23,
-23,
-22,
-22,
-22,
-21,
-22,
-23,
-22,
-23,
-22,
-22,
-23,
-22,
-21,
-22,
-21,
-21,
-23,
-23,
-23,
-23,
-23,
-22,
-22,
-23,
-22,
-22,
-23,
-23,
-23,
-23,
-23,
-23,
-23,
-23,
-21,
-21,
-23,
-24,
-25,
-22,
-22,
-21,
-22,
-23,
-23,
-25,
-23,
-23,
-23,
-22,
-22,
-22,
-22,
-22,
-23,
-23,
-23,
-23,
-22,
-23,
-22,
-22,
-21,
-23,
-23,
-21,
-23,
-23,
-23,
-23,
-23,
-23,
-21,
-21,
-22,
-23,
-23,
-23,
-22,
-23,
-22,
-20,
-21,
-21,
-21,
-20,
-23,
-23,
-23,
-23,
-21,
-21,
-21,
-22,
-22,
-23,
-24,
-19,
-22,
-21,
-21,
-21,
-22,
-20,
-22,
-21,
-22,
-21,
-21,
-20,
-22,
-21,
-21,
-20,
-21,
-20,
-19,
-22,
-22,
-19,
-19,
-19,
-19,
-19,
-21,
-19,
-19,
-19,
-19,
-19,
-19,
-18,
-19,
-20,
-19,
-19,
-17,
-17,
-19,
-20,
-19,
-18,
-19,
-20,
-19,
-19,
-16,
-16,
-19,
-19,
-17,
-16,
-17,
-16,
-17,
-15,
-17,
-15,
-15,
-18,
-17,
-19,
-17,
-15,
-15,
-16,
-17,
-17,
-15,
-17,
-18,
-17,
-15,
-17,
-15,
-15,
-13,
-15,
-17,
-17,
-15,
-13,
-14,
-13,
-13,
-13,
-15,
-16,
-13,
-13,
-15,
-11,
-12,
-14,
-15,
-14,
-14,
-14,
-13,
-11,
-11,
-10,
-11,
-9,
-11,
-11,
-13,
-12,
-11,
-11,
-8,
-11,
-9,
-11,
-11,
-10,
-11,
-11,
-9,
-9,
-10,
-7,
-11,
-11,
-11,
-7,
-10,
-11,
-9,
-10,
-9,
-7,
-8,
-9,
-9,
-7,
-8,
-9,
-9,
-7,
-9,
-7,
-5,
-7,
-4,
-7,
-5,
-5,
-5,
-7,
-6,
-5,
-7,
-7,
-6,
-3,
-3,
-3,
-5,
-4,
-6,
-3,
-5,
-3,
-3,
-2,
-3,
-3,
-1,
-3,
-2,
-3,
-1,
0,
-2,
-3,
-1,
-3,
-1,
-1,
1,
-1,
-1,
-1,
-2,
1,
-2,
-1,
-1,
0,
1,
1,
-1,
-1,
3,
-1,
3,
2,
1,
1,
1,
2,
3,
2,
0,
1,
3,
4,
1,
3,
5,
4,
1,
5,
5,
5,
4,
3,
3,
3,
3,
2,
5,
7,
5,
5,
3,
5,
6,
6,
5,
8,
6,
5,
7,
8,
5,
7,
7,
5,
9,
9,
8,
5,
7,
5,
6,
8,
7,
7,
7,
10,
10,
9,
7,
7,
8,
10,
9,
9,
10,
9,
9,
11,
9,
10,
10,
10,
10,
11,
13,
13,
9,
11,
8,
11,
11,
10,
10,
15,
11,
13,
12,
11,
13,
16,
13,
14,
14,
16,
13,
13,
13,
17,
13,
17,
14,
17,
15,
14,
13,
15,
15,
14,
17,
16,
15,
16,
17,
17,
15,
14,
18,
18,
18,
14,
17,
16,
14,
15,
17,
17,
18,
17,
19,
17,
17,
17,
17,
17,
16,
18,
19,
20,
19,
18,
18,
19,
16,
19,
19,
19,
20,
21,
21,
18,
18,
17,
20,
21,
19,
21,
21,
19,
21,
19,
21,
21,
21,
20,
20,
19,
21,
19,
21,
21,
20,
21,
22,
22,
23,
21,
21,
21,
22,
21,
23,
22,
21,
21,
20,
20,
22,
21,
21,
23,
22,
23,
23,
23,
22,
21,
22,
21,
22,
23,
21,
22,
24,
23,
23,
22,
22,
22,
23,
22,
23,
23,
22,
23,
22,
23,
22,
22,
23,
21,
23,
23,
24,
23,
24,
23,
23,
23,
22,
21,
23,
22,
23,
24,
24,
23,
23,
22,
21,
22,
23,
25,
24,
22,
22,
21,
22,
22,
22,
25,
23,
23,
23,
22,
22,
22,
22,
22,
23,
23,
25,
23,
23,
22,
22,
22,
22,
23,
23,
22,
24,
25,
23,
23,
24,
22,
21,
21,
21,
21,
23,
23,
23,
22,
22,
21,
22,
22,
21,
21,
23,
23,
23,
22,
22,
21,
22,
21,
23,
23,
22,
21,
21,
22,
21,
21,
21,
21,
21,
21,
20,
22,
22,
20,
22,
19,
19,
20,
21,
21,
19,
21,
21,
19,
21,
20,
21,
21,
20,
19,
20,
19,
18,
19,
20,
21,
21,
21,
18,
18,
18,
18,
20,
21,
20,
21,
21,
19,
18,
18,
17,
16,
17,
17,
19,
20,
17,
17,
16,
17,
17,
16,
16,
18,
18,
19,
17,
15,
15,
17,
18,
18,
17,
15,
18,
16,
14,
15,
14,
13,
17,
15,
15,
15,
15,
15,
17,
17,
17,
14,
17,
17,
13,
15,
13,
12,
13,
14,
16,
15,
14,
15,
15,
14,
12,
15,
15,
13,
14,
13,
12,
11,
11,
10,
9,
11,
9,
13,
11,
13,
9,
13,
9,
7,
9,
10,
13,
12,
8,
8,
12,
11,
11,
7,
9,
9,
9,
7,
7,
7,
9,
9,
5,
8,
8,
6,
6,
8,
7,
8,
6,
7,
4,
7,
5,
4,
6,
4,
6,
5,
7,
4,
7,
3,
8,
5,
5,
1,
3,
3,
2,
2,
5,
4,
3,
4,
2,
4,
3,
3,
1,
5,
4,
0,
4,
-1,
-1,
1,
3,
1,
1,
1,
1,
1,
-1,
0,
1,
3,
-2,
-1,
-2,
-1,
-2,
1,
1,
-2,
-1,
-2,
-3,
-1,
1,
-1,
-3,
-1,
-2,
-3,
-3,
-4,
-2,
-1,
-3,
-3,
-5,
-5,
-6,
-5,
-6,
-5,
-1,
-2,
-4,
-3,
-6,
-4,
-7,
-5,
-8,
-9,
-5,
-7,
-5,
-5,
-6,
-7,
-7,
-5,
-7,
-7,
-7,
-5,
-6,
-7,
-9,
-7,
-7,
-9,
-7,
-8,
-9,
-11,
-11,
-11,
-10,
-9,
-7,
-10,
-9,
-11,
-9,
-9,
-11,
-11,
-11,
-11,
-13,
-11,
-11,
-10,
-11,
-13,
-13,
-10,
-10,
-13,
-10,
-11,
-13,
-12,
-15,
-15,
-11,
-11,
-13,
-13,
-12,
-13,
-14,
-15,
-17,
-15,
-13,
-14,
-12,
-13,
-15,
-15,
-16,
-13,
-12,
-12,
-13,
-13,
-16,
-17,
-18,
-16,
-18,
-17,
-15,
-14,
-15,
-15,
-16,
-15,
-15,
-16,
-17,
-16,
-17,
-15,
-15,
-17,
-18,
-19,
-17,
-17,
-18,
-16,
-15,
-17,
-15,
-19,
-17,
-19,
-20,
-19,
-19,
-19,
-21,
-20,
-20,
-19,
-19,
-20,
-19,
-19,
-19,
-17,
-20,
-19,
-19,
-21,
-21,
-19,
-21,
-19,
-20,
-19,
-22,
-22,
-19,
-21,
-21,
-21,
-21,
-21,
-19,
-20,
-19,
-22,
-22,
-23,
-21,
-21,
-19,
-19,
-21,
-21,
-20,
-23,
-22,
-20,
-21,
-23,
-22,
-23,
-23,
-21,
-22,
-22,
-21,
-22,
-23,
-22,
-21,
-23,
-23,
-23,
-23,
-22,
-23,
-23,
-23,
-22,
-22,
-22,
-22,
-22,
-22,
-21,
-22,
-23,
-23,
-23,
-23,
-23,
-22,
-23,
-22,
-21,
-23,
-23,
-23,
-24,
-24,
-22,
-23,
-22,
-21,
-22,
-23,
-24,
-24,
-23,
-20,
-22,
-21,
-22,
-22,
-25,
-24,
-23,
-23,
-22,
-22,
-22,
-21,
-23,
-22,
-22,
-23,
-24,
-23,
-23,
-23,
-23,
-22,
-23,
-23,
-23,
-25,
-25,
-23,
-23,
-23,
-23,
-22,
-21,
-22,
-21,
-23,
-22,
-22,
-23,
-22,
-21,
-21,
-21,
-20,
-21,
-20,
-22,
-23,
-23,
-22,
-21,
-21,
-21,
-21,
-23,
-22,
-22,
-22,
-22,
-21,
-21,
-22,
-21,
-22,
-22,
-22,
-19,
-23,
-22,
-22,
-20,
-21,
-22,
-22,
-21,
-18,
-20,
-21,
-18,
-20,
-19,
-21,
-22,
-21,
-19,
-18,
-19,
-18,
-19,
-20,
-16,
-20,
-19,
-19,
-19,
-19,
-18,
-19,
-19,
-19,
-19,
-19,
-19,
-17,
-19,
-19,
-17,
-17,
-19,
-17,
-19,
-19,
-18,
-17,
-15,
-17,
-16,
-16,
-18,
-18,
-19,
-17,
-15,
-15,
-18,
-14,
-18,
-17,
-15,
-15,
-15,
-14,
-14,
-16,
-15,
-15,
-15,
-15,
-13,
-14,
-16,
-15,
-13,
-14,
-13,
-15,
-15,
-15,
-15,
-13,
-12,
-12,
-13,
-13,
-13,
-14,
-13,
-12,
-13,
-11,
-11,
-12,
-11,
-13,
-12,
-11,
-11,
-10,
-10,
-9,
-10,
-9,
-11,
-10,
-10,
-10,
-10,
-10,
-7,
-7,
-7,
-7,
-10,
-11,
-7,
-8,
-11,
-7,
-7,
-9,
-8,
-9,
-10,
-8,
-6,
-7,
-9,
-8,
-9,
-6,
-7,
-7,
-6,
-8,
-7,
-7,
-5,
-4,
-7,
-7,
-3,
-7,
-5,
-4,
-2,
-4,
-5,
-5,
-4,
-6,
-4,
-5,
-1,
-3,
-2,
-3,
-3,
-5,
-3,
-2,
-3,
-1,
-1,
-1,
1,
1,
-4,
-3,
-3,
0,
1,
1,
-2,
-3,
1,
-1,
1,
1,
1,
-1,
1,
0,
0,
2,
1,
1,
4,
1,
1,
2,
2,
2,
3,
3,
1,
1,
3,
3,
3,
6,
4,
3,
6,
4,
3,
2,
3,
3,
4,
7,
5,
5,
3,
2,
5,
7,
5,
5,
7,
5,
6,
8,
8,
7,
7,
5,
6,
9,
9,
9,
6,
9,
8,
6,
7,
7,
7,
11,
9,
9,
10,
9,
7,
7,
11,
11,
13,
9,
9,
12,
10,
12,
11,
10,
9,
13,
12,
13,
11,
12,
13,
9,
10,
10,
13,
14,
11,
13,
14,
10,
13,
12,
12,
15,
16,
13,
13,
13,
13,
14,
14,
14,
15,
17,
16,
14,
14,
13,
13,
12,
14,
15,
15,
17,
13,
16,
15,
15,
15,
16,
17,
16,
17,
15,
15,
17,
16,
17,
15,
17,
16,
15,
18,
18,
15,
16,
17,
17,
19,
17,
18,
19,
18,
17,
20,
17,
19,
17,
20,
19,
18,
19,
17,
19,
19,
21,
18,
19,
21,
19,
21,
19,
18,
21,
19,
20,
21,
21,
19,
21,
19,
21,
19,
20,
21,
20,
20,
20,
21,
23,
21,
19,
20,
19,
23,
22,
22,
23,
21,
21,
21,
21,
21,
20,
21,
22,
22,
23,
22,
21,
21,
21,
23,
21,
21,
22,
23,
24,
23,
23,
23,
22,
22,
23,
22,
23,
23,
23,
23,
23,
23,
23,
22,
23,
21,
23,
22,
23,
24,
23,
22,
23,
