2-Passive Filters/differentiator-integrator_behaviour/data/ALL0047/A0047CH2.CSV

Memory Length,4000,
Trigger Level,0.000E+00,
Source,CH2,
Probe,1X,
Vertical Units,V,
Vertical Scale,2.000E-02,
Vertical Position,8.000E-04,
Horizontal Units,s,
Horizontal Scale,1.000E-02,
Horizontal Position,0.000E+00,
Horizontal Mode,Main,
Sampling Period,4.000E-05,
Firmware,V1.04,
Time, ,
Mode,Fast,
Waveform Data,
-27,
-27,
-31,
-29,
-23,
-29,
-36,
-27,
-25,
-27,
-33,
-33,
-34,
-36,
-18,
-30,
-23,
-24,
-21,
-23,
-38,
-29,
-26,
-41,
-48,
-24,
-39,
-19,
-27,
-25,
-27,
-29,
-35,
-29,
-29,
-33,
-31,
-32,
-43,
-27,
-31,
-25,
-23,
-41,
-22,
-35,
-35,
-31,
-31,
-38,
-27,
-25,
-25,
-33,
-32,
-19,
-38,
-29,
-23,
-29,
-41,
-27,
-29,
-20,
-28,
-24,
-23,
-30,
-37,
-23,
-40,
-43,
-20,
-33,
-42,
-27,
-28,
-34,
-26,
-36,
-17,
-41,
-37,
-19,
-33,
-34,
-28,
-31,
-23,
-36,
-41,
-27,
-39,
-39,
-31,
-40,
-50,
-32,
-34,
-29,
-27,
-29,
-19,
-30,
-41,
-28,
-37,
-40,
-23,
-29,
-19,
-21,
-31,
-25,
-33,
-37,
-23,
-27,
-43,
-27,
-35,
-37,
-27,
-28,
-29,
-36,
-26,
-28,
-29,
-28,
-17,
-27,
-40,
-21,
-35,
-25,
-36,
-27,
-24,
-31,
-39,
-22,
-31,
-37,
-22,
-29,
-28,
-36,
-31,
-25,
-35,
-29,
-17,
-33,
-38,
-20,
-27,
-41,
-29,
-27,
-37,
-34,
-27,
-24,
-33,
-31,
-21,
-31,
-38,
-21,
-24,
-31,
-28,
-26,
-24,
-35,
-35,
-20,
-25,
-41,
-25,
-33,
-37,
-27,
-38,
-21,
-31,
-30,
-27,
-31,
-37,
-25,
-33,
-38,
-25,
-29,
-39,
-32,
-28,
-19,
-31,
-39,
-28,
-23,
-40,
-35,
-35,
-35,
-28,
-28,
-27,
-33,
-41,
-17,
-27,
-41,
-24,
-35,
-37,
-26,
-34,
-15,
-33,
-40,
-25,
-30,
-39,
-36,
-31,
-43,
-29,
-27,
-17,
-35,
-33,
-17,
-33,
-39,
-22,
-32,
-35,
-29,
-29,
-32,
-27,
-29,
-19,
-35,
-30,
-25,
-31,
-44,
-28,
-25,
-31,
-34,
-37,
-17,
-30,
-32,
-30,
-20,
-43,
-21,
-29,
-39,
-39,
-33,
-26,
-34,
-37,
-21,
-32,
-39,
-29,
-19,
-45,
-23,
-27,
-25,
-24,
-42,
-14,
-35,
-40,
-29,
-25,
-41,
-25,
-36,
-37,
-32,
-27,
-27,
-31,
-40,
-24,
-25,
-37,
-31,
-31,
-41,
-29,
-25,
-15,
-23,
-34,
-16,
-28,
-40,
-29,
-17,
-42,
-27,
-40,
-16,
-31,
-32,
-31,
-24,
-41,
-25,
-29,
-33,
-23,
-36,
-17,
-23,
-37,
-17,
-28,
-41,
-29,
-25,
-45,
-29,
-24,
-34,
-37,
-36,
-20,
-28,
-37,
-33,
-28,
-35,
-31,
-29,
-34,
-32,
-43,
-12,
-27,
-41,
-22,
-29,
-43,
-31,
-31,
-41,
-25,
-38,
-16,
-31,
-49,
-25,
-23,
-35,
-29,
-27,
-45,
-29,
-41,
-19,
-19,
-28,
-27,
-30,
-42,
-20,
-21,
-49,
-23,
-37,
-45,
-38,
-28,
-21,
-17,
-33,
-29,
-21,
-38,
-34,
-35,
-31,
-39,
-25,
-21,
-28,
-44,
-29,
-25,
-33,
-19,
-25,
-34,
-22,
-37,
-13,
-41,
-38,
-31,
-19,
-34,
-27,
-21,
-35,
-40,
-21,
-41,
-35,
-34,
-27,
-15,
-51,
-29,
-25,
-42,
-33,
-32,
-26,
-32,
-44,
-27,
-29,
-41,
-36,
-25,
-35,
-33,
-41,
-38,
-15,
-29,
-18,
-27,
-33,
-27,
-21,
-40,
-25,
-25,
-33,
-39,
-36,
-9,
-33,
-37,
-17,
-21,
-45,
-35,
-26,
7,
9,
19,
30,
19,
37,
25,
33,
45,
22,
31,
24,
18,
35,
27,
17,
23,
25,
35,
24,
29,
32,
31,
21,
40,
31,
19,
39,
26,
26,
43,
34,
32,
27,
25,
31,
19,
31,
35,
15,
25,
43,
31,
31,
36,
21,
29,
31,
19,
33,
28,
18,
37,
23,
39,
29,
25,
35,
17,
35,
31,
17,
33,
22,
21,
37,
35,
25,
31,
35,
27,
34,
27,
18,
28,
16,
28,
35,
13,
32,
32,
23,
35,
13,
27,
35,
29,
31,
28,
21,
25,
39,
22,
43,
15,
23,
46,
21,
31,
21,
36,
26,
41,
23,
35,
19,
17,
39,
10,
29,
21,
31,
33,
27,
31,
29,
47,
23,
31,
17,
32,
24,
16,
30,
39,
25,
35,
40,
25,
35,
20,
19,
28,
21,
27,
29,
25,
35,
33,
31,
30,
26,
23,
24,
25,
28,
33,
23,
33,
39,
27,
32,
20,
20,
36,
29,
28,
35,
18,
23,
33,
27,
36,
37,
26,
28,
28,
22,
35,
23,
31,
27,
20,
38,
40,
25,
35,
23,
26,
31,
21,
35,
35,
31,
41,
39,
23,
30,
25,
31,
35,
29,
39,
36,
23,
35,
34,
20,
37,
27,
21,
27,
23,
21,
25,
20,
35,
47,
23,
33,
39,
26,
37,
27,
23,
27,
32,
27,
30,
25,
37,
41,
29,
35,
25,
22,
38,
20,
31,
36,
29,
43,
39,
19,
28,
34,
23,
33,
25,
36,
31,
27,
37,
36,
24,
39,
37,
28,
33,
24,
25,
34,
21,
29,
40,
29,
40,
37,
25,
43,
28,
30,
31,
29,
27,
38,
28,
32,
35,
21,
35,
31,
26,
28,
27,
31,
33,
21,
35,
45,
17,
27,
33,
23,
36,
30,
27,
35,
25,
33,
29,
15,
33,
39,
25,
39,
24,
22,
29,
25,
27,
33,
25,
32,
35,
26,
31,
29,
35,
32,
23,
32,
27,
19,
25,
33,
18,
27,
39,
23,
28,
40,
29,
31,
24,
21,
34,
17,
26,
37,
15,
33,
37,
31,
28,
16,
25,
27,
26,
30,
36,
28,
25,
32,
25,
35,
24,
32,
35,
21,
31,
33,
18,
41,
39,
21,
37,
23,
31,
23,
26,
30,
39,
15,
25,
38,
23,
35,
48,
37,
28,
23,
35,
35,
30,
39,
41,
29,
32,
40,
26,
28,
28,
27,
37,
20,
30,
35,
23,
29,
35,
28,
31,
13,
38,
29,
24,
22,
45,
25,
36,
32,
25,
27,
19,
24,
30,
16,
41,
43,
28,
36,
33,
29,
25,
33,
33,
29,
20,
37,
31,
27,
30,
39,
21,
29,
35,
28,
35,
17,
35,
38,
25,
27,
39,
35,
21,
43,
27,
29,
18,
38,
29,
22,
35,
43,
23,
33,
49,
24,
33,
26,
37,
25,
20,
39,
28,
21,
19,
45,
25,
27,
39,
27,
34,
20,
37,
35,
23,
24,
46,
23,
16,
37,
27,
32,
23,
27,
33,
19,
33,
39,
23,
25,
41,
29,
31,
27,
29,
33,
28,
41,
44,
17,
27,
39,
27,
29,
21,
35,
35,
18,
24,
46,
23,
35,
44,
25,
21,
33,
27,
27,
19,
31,
37,
31,
21,
44,
15,
37,
35,
31,
23,
17,
31,
43,
19,
37,
49,
30,
27,
33,
33,
43,
19,
24,
41,
31,
39,
45,
23,
34,
44,
38,
24,
19,
30,
33,
23,
25,
42,
25,
21,
40,
35,
35,
40,
23,
31,
21,
38,
39,
31,
35,
45,
31,
25,
38,
29,
27,
27,
29,
50,
25,
31,
37,
21,
37,
47,
37,
33,
21,
23,
19,
11,
36,
31,
12,
19,
41,
39,
29,
20,
35,
19,
15,
29,
33,
21,
31,
41,
31,
38,
52,
37,
36,
25,
31,
47,
27,
32,
35,
37,
33,
37,
15,
23,
27,
32,
39,
7,
28,
40,
25,
16,
-3,
-9,
-25,
-13,
-24,
-36,
-27,
-39,
-31,
-20,
-29,
-19,
-15,
-31,
-33,
-26,
-37,
-29,
-45,
-25,
-24,
-31,
-24,
-33,
-25,
-29,
-31,
-50,
-27,
-18,
-23,
-31,
-47,
-43,
-33,
-47,
-24,
-23,
-41,
-27,
-21,
-33,
-19,
-31,
-40,
-15,
-31,
-25,
-25,
-49,
-20,
-33,
-40,
-33,
-33,
-31,
-33,
-39,
-18,
-19,
-25,
-17,
-20,
-37,
-27,
-25,
-38,
-34,
-31,
-17,
-21,
-33,
-17,
-29,
-38,
-27,
-35,
-25,
-27,
-36,
-42,
-33,
-39,
-20,
-13,
-33,
-25,
-17,
-40,
-30,
-26,
-30,
-32,
-41,
-27,
-35,
-32,
-23,
-21,
-32,
-33,
-29,
-37,
-26,
-38,
-25,
-24,
-35,
-28,
-25,
-25,
-22,
-29,
-25,
-26,
-28,
-18,
-22,
-36,
-26,
-31,
-33,
-26,
-25,
-40,
-34,
-34,
-33,
-27,
-36,
-20,
-23,
-46,
-21,
-28,
-29,
-24,
-33,
-33,
-17,
-35,
-29,
-21,
-37,
-31,
-29,
-31,
-20,
-25,
-32,
-28,
-28,
-20,
-28,
-36,
-21,
-25,
-33,
-24,
-34,
-33,
-38,
-32,
-22,
-24,
-43,
-28,
-26,
-28,
-28,
-33,
-40,
-35,
-40,
-38,
-25,
-35,
-32,
-23,
-32,
-28,
-25,
-30,
-35,
-40,
-33,
-27,
-34,
-17,
-21,
-33,
-31,
-29,
-28,
-29,
-23,
-42,
-25,
-35,
-21,
-35,
-37,
-31,
-35,
-21,
-27,
-29,
-40,
-29,
-35,
-24,
-21,
-35,
-25,
-26,
-41,
-33,
-28,
-43,
-28,
-30,
-40,
-32,
-37,
-21,
-27,
-30,
-33,
-32,
-41,
-25,
-39,
-30,
-25,
-33,
-19,
-20,
-29,
-25,
-28,
-33,
-31,
-21,
-33,
-27,
-33,
-23,
-23,
-35,
-32,
-24,
-28,
-21,
-27,
-34,
-25,
-39,
-41,
-21,
-41,
-29,
-21,
-29,
-27,
-33,
-31,
-21,
-33,
-40,
-31,
-37,
-23,
-21,
-33,
-31,
-25,
-33,
-29,
-29,
-41,
-24,
-40,
-28,
-32,
-41,
-21,
-39,
-24,
-27,
-36,
-39,
-27,
-40,
-22,
-23,
-41,
-20,
-27,
-36,
-32,
-35,
-40,
-26,
-25,
-35,
-23,
-40,
-24,
-25,
-35,
-33,
-31,
-28,
-28,
-26,
-35,
-19,
-34,
-38,
-27,
-31,
-29,
-30,
-32,
-21,
-33,
-23,
-24,
-41,
-45,
-29,
-33,
-37,
-24,
-25,
-32,
-39,
-25,
-31,
-35,
-36,
-15,
-29,
-41,
-24,
-26,
-31,
-31,
-23,
-27,
-29,
-40,
-22,
-40,
-47,
-22,
-29,
-25,
-21,
-26,
-17,
-27,
-31,
-19,
-40,
-40,
-15,
-28,
-30,
-28,
-26,
-21,
-33,
-35,
-31,
-33,
-41,
-21,
-31,
-41,
-28,
-33,
-29,
-29,
-30,
-21,
-33,
-49,
-35,
-36,
-45,
-26,
-27,
-27,
-31,
-25,
-15,
-36,
-36,
-16,
-24,
-39,
-25,
-28,
-29,
-33,
-31,
-34,
-33,
-33,
-23,
-37,
-46,
-28,
-29,
-29,
-33,
-37,
-19,
-36,
-31,
-18,
-27,
-37,
-15,
-20,
-55,
-21,
-30,
-25,
-29,
-36,
-27,
-41,
-41,
-31,
-26,
-39,
-25,
-27,
-32,
-29,
-34,
-20,
-27,
-41,
-21,
-26,
-37,
-24,
-30,
-22,
-24,
-22,
-23,
-36,
-36,
-26,
-35,
-42,
-31,
-33,
-30,
-35,
-27,
-25,
-27,
-37,
-13,
-38,
-37,
-26,
-27,
-45,
-29,
-25,
-25,
-25,
-35,
-17,
-36,
-39,
-25,
-25,
-40,
-35,
-25,
-30,
-22,
-25,
-17,
-27,
-34,
-27,
-27,
-35,
-24,
-31,
-24,
-33,
-29,
-30,
-37,
-33,
-20,
-29,
-35,
-24,
-17,
-29,
-34,
-26,
-13,
-31,
-29,
-17,
-28,
-48,
-27,
-34,
-40,
-29,
-38,
-7,
-33,
-41,
-23,
-35,
-35,
-27,
-35,
-47,
-30,
-35,
-25,
-23,
-37,
-25,
-39,
-39,
-25,
-34,
-51,
-32,
-27,
-25,
-25,
-29,
-28,
-43,
-45,
-29,
-28,
-36,
-25,
-25,
-22,
-29,
-27,
-22,
-39,
-32,
-24,
-29,
-41,
-25,
-36,
-50,
-31,
-27,
-31,
-39,
-28,
-22,
-27,
-37,
-21,
-29,
-39,
-20,
-19,
-29,
-33,
-41,
-23,
-42,
-39,
-18,
-34,
-38,
-20,
-40,
-25,
-25,
-27,
-21,
-36,
-35,
-28,
-39,
-46,
-32,
-31,
-22,
-27,
-16,
-26,
-32,
-41,
-25,
-39,
-45,
-17,
-13,
-42,
-32,
-39,
-37,
-30,
-37,
-23,
-43,
-39,
-17,
-27,
3,
26,
30,
19,
35,
29,
30,
31,
39,
31,
31,
16,
30,
40,
18,
27,
42,
28,
21,
34,
38,
31,
16,
39,
33,
19,
29,
31,
23,
19,
34,
40,
21,
25,
24,
37,
27,
31,
28,
34,
35,
26,
37,
32,
39,
27,
29,
29,
17,
38,
27,
23,
47,
19,
36,
38,
33,
19,
18,
25,
28,
31,
27,
31,
30,
36,
37,
28,
25,
15,
15,
40,
20,
20,
39,
27,
21,
28,
29,
21,
17,
35,
36,
28,
33,
29,
26,
14,
42,
22,
37,
24,
23,
39,
15,
30,
30,
21,
20,
29,
31,
18,
27,
32,
33,
17,
29,
42,
23,
31,
38,
21,
29,
42,
33,
30,
13,
33,
37,
24,
23,
28,
29,
15,
28,
22,
38,
17,
23,
40,
32,
29,
32,
32,
28,
37,
31,
26,
37,
35,
31,
18,
25,
41,
29,
28,
33,
37,
27,
39,
33,
37,
23,
29,
39,
31,
31,
33,
32,
19,
32,
31,
35,
20,
27,
34,
19,
29,
39,
25,
27,
39,
27,
33,
20,
31,
37,
21,
26,
32,
22,
27,
39,
36,
25,
33,
35,
39,
27,
27,
37,
26,
26,
32,
37,
29,
28,
25,
35,
29,
25,
31,
28,
19,
47,
21,
27,
36,
30,
39,
11,
36,
36,
20,
23,
35,
25,
28,
32,
31,
33,
13,
20,
39,
23,
24,
35,
35,
33,
33,
25,
32,
36,
27,
41,
22,
28,
36,
19,
21,
35,
29,
35,
44,
23,
33,
15,
26,
39,
19,
25,
39,
35,
20,
34,
31,
36,
15,
33,
39,
24,
28,
30,
27,
21,
31,
31,
33,
27,
23,
31,
27,
25,
33,
23,
23,
39,
35,
39,
34,
25,
47,
15,
32,
35,
29,
24,
35,
23,
31,
39,
34,
39,
22,
31,
31,
28,
23,
35,
31,
27,
35,
33,
35,
20,
33,
35,
22,
23,
35,
22,
31,
22,
24,
25,
39,
20,
28,
38,
23,
37,
23,
28,
31,
34,
28,
37,
31,
39,
39,
21,
39,
19,
26,
22,
29,
28,
35,
25,
28,
28,
25,
35,
45,
20,
31,
35,
31,
25,
20,
33,
31,
25,
38,
40,
24,
26,
27,
23,
27,
25,
31,
31,
23,
43,
28,
24,
37,
29,
22,
35,
17,
29,
33,
23,
32,
35,
31,
25,
29,
23,
33,
21,
29,
35,
27,
31,
39,
18,
31,
35,
19,
36,
31,
30,
28,
23,
32,
28,
26,
29,
37,
29,
41,
29,
17,
35,
20,
34,
25,
26,
35,
29,
23,
30,
25,
29,
23,
24,
35,
29,
18,
37,
41,
25,
35,
23,
29,
36,
30,
24,
25,
24,
35,
31,
26,
29,
48,
22,
24,
25,
33,
31,
29,
33,
35,
21,
38,
35,
21,
31,
35,
23,
29,
19,
36,
41,
23,
29,
41,
29,
39,
27,
29,
34,
26,
31,
33,
23,
33,
37,
27,
31,
21,
32,
31,
21,
32,
30,
30,
31,
31,
18,
33,
37,
15,
27,
27,
26,
32,
23,
39,
37,
17,
39,
35,
21,
26,
27,
35,
36,
12,
33,
38,
25,
35,
45,
25,
34,
23,
29,
33,
23,
33,
20,
32,
32,
32,
24,
26,
35,
19,
32,
39,
33,
30,
15,
32,
31,
35,
27,
48,
30,
27,
22,
33,
21,
23,
35,
31,
24,
26,
32,
25,
35,
32,
29,
33,
33,
37,
25,
16,
21,
37,
23,
27,
20,
30,
42,
24,
30,
28,
17,
34,
47,
29,
37,
19,
24,
32,
20,
37,
34,
9,
41,
33,
17,
36,
39,
36,
41,
33,
33,
17,
16,
33,
31,
26,
21,
32,
9,
39,
31,
31,
34,
29,
27,
24,
39,
35,
43,
18,
26,
22,
21,
21,
24,
30,
39,
29,
43,
39,
27,
31,
13,
14,
20,
23,
39,
33,
22,
20,
46,
27,
19,
-3,
-25,
-42,
-15,
-29,
-47,
-31,
-35,
-51,
-39,
-30,
-21,
-19,
-25,
-29,
-34,
-37,
-28,
-25,
-40,
-39,
-31,
-29,
-35,
-23,
-14,
-24,
-40,
-18,
-36,
-41,
-25,
-22,
-18,
-32,
-45,
-13,
-17,
-28,
-23,
-26,
-27,
-33,
-39,
-27,
-39,
-33,
-18,
-33,
-41,
-17,
-33,
-44,
-39,
-29,
-41,
-34,
-31,
-19,
-27,
-41,
-25,
-25,
-45,
-21,
-33,
-39,
-27,
-41,
-20,
-28,
-37,
-24,
-24,
-36,
-33,
-20,
-29,
-27,
-27,
-28,
-24,
-38,
-20,
-19,
-43,
-21,
-33,
-33,
-36,
-27,
-29,
-24,
-34,
-17,
-36,
-41,
-19,
-28,
-43,
-27,
-27,
-33,
-25,
-32,
-24,
-41,
-40,
-17,
-31,
-37,
-22,
-27,
-36,
-27,
-25,
-13,
-28,
-28,
-21,
-34,
-33,
-33,
-27,
-35,
-36,
-39,
-25,
-35,
-41,
-12,
-26,
-45,
-13,
-20,
-46,
-33,
-17,
-20,
-35,
-38,
-13,
-35,
-39,
-28,
-29,
-37,
-25,
-25,
-43,
-23,
-32,
-25,
-35,
-35,
-24,
-33,
-39,
-27,
-33,
-44,
-29,
-23,
-23,
-28,
-37,
-22,
-26,
-32,
-21,
-24,
-32,
-32,
-29,
-19,
-31,
-36,
-27,
-29,
-39,
-29,
-33,
-38,
-17,
-27,
-19,
-25,
-39,
-25,
-29,
-34,
-29,
-26,
-32,
-33,
-23,
-43,
-28,
-30,
-17,
-28,
-33,
-27,
-36,
-43,
-31,
-41,
-36,
-27,
-38,
-21,
-32,
-33,
-25,
-25,
-32,
-25,
-28,
-35,
-28,
-33,
-23,
-28,
-35,
-10,
-28,
-45,
-28,
-23,
-40,
-29,
-29,
-24,
-25,
-39,
-22,
-29,
-37,
-23,
-29,
-41,
-31,
-30,
-35,
-30,
-41,
-17,
-23,
-39,
-27,
-22,
-41,
-27,
-34,
-33,
-32,
-31,
-19,
-28,
-35,
-13,
-27,
-33,
-30,
-33,
-40,
-29,
-27,
-27,
-32,
-36,
-12,
-25,
-37,
-20,
-24,
-34,
-27,
-31,
-25,
-32,
-45,
-12,
-27,
-45,
-25,
-22,
-37,
-29,
-37,
-33,
-24,
-36,
-13,
-29,
-41,
-24,
-23,
-42,
-31,
-21,
-39,
-33,
-30,
-17,
-34,
-35,
-29,
-35,
-39,
-19,
-17,
-22,
-22,
-25,
-35,
-31,
-40,
-33,
-19,
-33,
-25,
-19,
-29,
-28,
-31,
-36,
-31,
-29,
-25,
-25,
-41,
-26,
-16,
-36,
-29,
-25,
-25,
-26,
-26,
-35,
-27,
-32,
-29,
-20,
-39,
-26,
-31,
-35,
-25,
-29,
-27,
-21,
-37,
-44,
-23,
-35,
-27,
-21,
-32,
-18,
-31,
-29,
-25,
-34,
-37,
-19,
-41,
-27,
-27,
-30,
-32,
-32,
-29,
-29,
-34,
-34,
-26,
-33,
-17,
-31,
-41,
-27,
-33,
-29,
-32,
-37,
-36,
-27,
-29,
-21,
-23,
-44,
-27,
-25,
-31,
-21,
-33,
-39,
-23,
-37,
-45,
-29,
-35,
-23,
-34,
-33,
-30,
-36,
-36,
-34,
-38,
-39,
-29,
-39,
-28,
-29,
-33,
-31,
-27,
-35,
-28,
-36,
-37,
-24,
-44,
-16,
-21,
-37,
-33,
-29,
-37,
-24,
-29,
-31,
-21,
-31,
-22,
-20,
-32,
-29,
-27,
-29,
-25,
-25,
-39,
-23,
-36,
-43,
-21,
-38,
-20,
-31,
-34,
-28,
-25,
-25,
-28,
-40,
-38,
-22,
-47,
-30,
-24,
-34,
-32,
-31,
-29,
-24,
-41,
-34,
-29,
-40,
-21,
-25,
-36,
-23,
-33,
-39,
-27,
-26,
-33,
-26,
-37,
-26,
-30,
-47,
-33,
-25,
-41,
-35,
-37,
-19,
-33,
-35,
-37,
-30,
-41,
-25,
-29,
-32,
-21,
-29,
-40,
-15,
-25,
-29,
-21,
-40,
-20,
-33,
-32,
-28,
-31,
-32,
-34,
-39,
-29,
-32,
-28,
-17,
-22,
-28,
-28,
-26,
-36,
-21,
-39,
-33,
-25,
-41,
-24,
-25,
-29,
-28,
-33,
-33,
-25,
-36,
-35,
-23,
-42,
-42,
-25,
-45,
-32,
-27,
-26,
-22,
-40,
-33,
-17,
-41,
-37,
-31,
-26,
-31,
-23,
-35,
-21,
-34,
-29,
-32,
-27,
-41,
-21,
-31,
-33,
-27,
-27,
-33,
-25,
-37,
-25,
-47,
-42,
-18,
-41,
-29,
-25,
-36,
-24,
-43,
-35,
-31,
-37,
-37,
-20,
-29,
-45,
-17,
-31,
-24,
-25,
-43,
-34,
-37,
-27,
-36,
-33,
-44,
-17,
-27,
-27,
-34,
-33,
-17,
-29,
-37,
-28,
-45,
-36,
-29,
-27,
-21,
-17,
-25,
-20,
-24,
-27,
-37,
-47,
-47,
-21,
-29,
3,
13,
37,
5,
27,
39,
19,
37,
25,
24,
36,
23,
30,
44,
15,
30,
36,
31,
36,
42,
38,
15,
19,
31,
22,
32,
43,
29,
33,
23,
47,
23,
31,
15,
36,
26,
25,
30,
29,
26,
26,
46,
16,
27,
19,
41,
27,
22,
36,
38,
21,
31,
48,
25,
28,
23,
29,
37,
25,
39,
29,
29,
27,
41,
28,
21,
39,
31,
21,
33,
23,
35,
25,
31,
40,
12,
33,
45,
28,
26,
21,
32,
35,
18,
35,
37,
14,
31,
37,
29,
31,
20,
34,
24,
25,
27,
43,
19,
24,
40,
19,
29,
25,
44,
28,
23,
29,
39,
21,
28,
35,
26,
41,
31,
35,
21,
13,
25,
40,
18,
27,
43,
31,
19,
43,
23,
38,
30,
35,
25,
26,
21,
39,
20,
37,
49,
23,
28,
15,
41,
25,
15,
19,
34,
23,
23,
43,
24,
28,
18,
30,
37,
21,
38,
32,
13,
27,
47,
24,
35,
27,
35,
30,
17,
34,
36,
17,
28,
39,
19,
33,
41,
25,
24,
17,
31,
35,
19,
33,
41,
25,
35,
44,
21,
31,
29,
32,
28,
19,
29,
37,
19,
33,
41,
24,
20,
21,
30,
30,
20,
31,
32,
23,
31,
39,
27,
32,
43,
25,
31,
19,
36,
34,
26,
31,
39,
27,
27,
42,
31,
34,
25,
29,
39,
24,
24,
43,
19,
31,
41,
27,
32,
29,
25,
37,
25,
32,
41,
23,
32,
45,
27,
23,
17,
32,
32,
23,
35,
39,
27,
26,
55,
18,
33,
47,
27,
29,
21,
36,
28,
23,
35,
40,
15,
29,
45,
27,
25,
23,
31,
27,
19,
23,
28,
21,
33,
37,
35,
30,
21,
31,
31,
29,
31,
44,
27,
27,
33,
27,
26,
23,
30,
33,
21,
27,
39,
25,
31,
41,
34,
33,
43,
33,
31,
23,
31,
41,
23,
23,
40,
22,
20,
30,
25,
23,
29,
30,
27,
21,
24,
37,
25,
32,
34,
25,
25,
40,
31,
40,
34,
25,
38,
17,
31,
32,
21,
29,
45,
31,
24,
31,
31,
27,
23,
16,
39,
24,
23,
33,
28,
26,
25,
17,
32,
12,
20,
38,
18,
24,
37,
25,
31,
32,
27,
28,
31,
27,
40,
23,
24,
40,
23,
37,
28,
29,
29,
43,
26,
39,
15,
21,
40,
30,
23,
35,
27,
25,
43,
27,
31,
16,
20,
41,
19,
31,
39,
33,
27,
33,
28,
33,
23,
17,
45,
19,
17,
32,
21,
26,
41,
23,
31,
28,
26,
42,
27,
26,
37,
27,
26,
27,
32,
30,
35,
27,
39,
18,
17,
36,
33,
27,
37,
29,
20,
35,
19,
36,
17,
31,
40,
24,
28,
29,
23,
36,
35,
27,
45,
26,
25,
35,
24,
26,
28,
33,
20,
36,
31,
31,
30,
31,
44,
23,
19,
31,
34,
33,
31,
28,
28,
37,
23,
45,
11,
23,
44,
25,
30,
39,
27,
38,
43,
17,
31,
17,
25,
41,
31,
20,
32,
38,
32,
34,
33,
27,
17,
29,
35,
25,
29,
39,
31,
31,
33,
23,
22,
40,
23,
41,
21,
25,
43,
31,
15,
39,
17,
29,
38,
21,
35,
19,
16,
45,
17,
29,
39,
31,
34,
39,
29,
30,
19,
20,
43,
23,
21,
31,
19,
32,
38,
18,
39,
27,
31,
48,
21,
16,
37,
36,
21,
39,
35,
23,
35,
37,
35,
20,
33,
36,
23,
21,
31,
41,
45,
37,
20,
26,
23,
16,
35,
22,
37,
34,
24,
39,
37,
19,
33,
31,
23,
33,
24,
23,
31,
29,
32,
43,
27,
31,
29,
30,
35,
23,
29,
35,
26,
37,
28,
15,
31,
32,
34,
39,
14,
37,
35,
27,
11,
31,
33,
28,
21,
21,
51,
29,
25,
44,
33,
20,
43,
25,
36,
43,
34,
21,
-9,
-32,
-21,
-17,
-24,
-51,
-15,
-26,
-17,
-24,
-35,
-37,
-37,
-39,
-33,
-31,
-30,
-25,
-31,
-33,
-13,
-35,
-19,
-27,
-35,
-23,
-44,
-43,
-31,
-28,
-44,
-33,
-27,
-20,
-19,
-20,
-30,
-37,
-43,
-26,
-30,
-49,
-29,
-27,
-35,
-29,
-22,
-36,
-42,
-35,
-24,
-32,
-28,
-17,
-39,
-21,
-24,
-42,
-30,
-29,
-35,
-17,
-40,
-49,
-19,
-31,
-39,
-33,
-21,
-33,
-43,
-29,
-24,
-53,
-41,
-18,
-25,
-45,
-15,
-24,
-34,
-32,
-28,
-27,
-42,
-39,
-23,
-37,
-38,
-28,
-38,
-19,
-23,
-34,
-21,
-28,
-45,
-19,
-42,
-45,
-17,
-39,
-21,
-40,
-23,
-33,
-31,
-38,
-23,
-27,
-39,
-17,
-40,
-29,
-27,
-23,
-20,
-21,
-39,
-21,
-28,
-46,
-17,
-27,
-41,
-22,
-31,
-17,
-39,
-23,
-21,
-35,
-32,
-21,
-35,
-41,
-33,
-35,
-21,
-33,
-33,
-20,
-33,
-36,
-17,
-39,
-33,
-19,
-33,
-33,
-38,
-31,
-21,
-38,
-43,
-17,
-25,
-35,
-19,
-39,
-27,
-31,
-39,
-23,
-24,
-35,
-27,
-32,
-39,
-33,
-29,
-48,
-25,
-27,
-27,
-32,
-30,
-24,
-41,
-41,
-24,
-43,
-42,
-29,
-21,
-27,
-32,
-40,
-25,
-31,
-37,
-25,
-37,
-37,
-24,
-33,
-29,
-20,
-37,
-31,
-25,
-43,
-28,
-36,
-37,
-25,
-23,
-33,
-28,
-28,
-29,
-29,
-33,
-33,
-35,
-41,
-27,
-39,
-40,
-31,
-33,
-37,
-35,
-29,
-30,
-36,
-33,
-17,
-32,
-44,
-28,
-29,
-24,
-27,
-37,
-31,
-32,
-40,
-33,
-32,
-47,
-21,
-42,
-24,
-34,
-25,
-28,
-35,
-39,
-26,
-39,
-47,
-29,
-34,
-31,
-23,
-33,
-24,
-24,
-38,
-23,
-36,
-41,
-23,
-27,
-47,
-33,
-33,
-34,
-28,
-34,
-21,
-29,
-32,
-15,
-39,
-45,
-29,
-32,
-27,
-27,
-35,
-25,
-35,
-36,
-15,
-35,
-40,
-29,
-30,
-24,
-29,
-33,
-18,
-39,
-37,
-27,
-29,
-37,
-16,
-30,
-29,
-33,
-29,
-26,
-30,
-31,
-21,
-29,
-44,
-19,
-31,
-32,
-21,
-21,
-41,
-34,
-29,
-25,
-37,
-33,
-28,
-31,
-39,
-27,
-28,
-36,
-29,
-28,
-21,
-35,
-38,
-21,
-29,
-41,
-23,
-28,
-39,
-25,
-27,
-42,
-32,
-36,
-15,
-29,
-31,
-29,
-30,
-36,
-38,
-29,
-35,
-35,
-28,
-25,
-34,
-32,
-22,
-24,
-35,
-29,
-35,
-45,
-31,
-40,
-27,
-30,
-39,
-19,
-38,
-35,
-25,
-27,
-33,
-38,
-27,
-39,
-33,
-35,
-25,
-32,
-44,
-25,
-27,
-44,
-27,
-29,
-33,
-36,
-33,
-18,
-29,
-43,
-24,
-29,
-41,
-24,
-23,
-51,
-37,
-33,
-22,
-33,
-33,
-19,
-27,
-52,
-32,
-25,
-43,
-35,
