2-Passive Filters/data/ALL0040/A0040CH2.CSV

Memory Length,4000,
Trigger Level,0.000E+00,
Source,CH2,
Probe,1X,
Vertical Units,V,
Vertical Scale,5.000E+00,
Vertical Position,2.000E-01,
Horizontal Units,s,
Horizontal Scale,2.500E-03,
Horizontal Position,0.000E+00,
Horizontal Mode,Main,
Sampling Period,1.000E-05,
Firmware,V1.04,
Time, ,
Mode,Fast,
Waveform Data,
-4,
-4,
5,
11,
15,
19,
23,
25,
27,
28,
30,
31,
31,
32,
32,
33,
33,
34,
33,
34,
34,
33,
33,
35,
35,
34,
35,
34,
35,
35,
35,
34,
35,
35,
35,
35,
34,
34,
34,
35,
35,
35,
34,
34,
35,
35,
34,
34,
35,
35,
34,
35,
34,
34,
34,
34,
34,
34,
34,
33,
33,
34,
34,
34,
34,
34,
33,
34,
35,
35,
35,
34,
34,
35,
33,
33,
34,
33,
33,
34,
34,
35,
33,
33,
34,
34,
34,
35,
33,
33,
34,
34,
33,
34,
34,
35,
35,
34,
34,
34,
34,
33,
34,
35,
33,
33,
34,
34,
33,
33,
34,
33,
33,
33,
34,
34,
33,
34,
33,
34,
34,
34,
34,
33,
33,
34,
34,
35,
33,
33,
33,
33,
33,
34,
34,
34,
33,
33,
33,
33,
33,
33,
33,
34,
33,
33,
33,
33,
34,
33,
33,
33,
33,
33,
34,
33,
33,
33,
33,
34,
33,
33,
33,
33,
33,
33,
33,
33,
33,
33,
33,
33,
33,
33,
33,
33,
33,
33,
33,
33,
33,
33,
33,
33,
33,
33,
33,
33,
33,
33,
33,
33,
33,
33,
33,
33,
33,
33,
32,
33,
33,
33,
33,
33,
33,
33,
33,
33,
33,
33,
33,
33,
33,
33,
33,
33,
33,
32,
32,
33,
33,
32,
33,
33,
33,
33,
33,
33,
33,
33,
32,
33,
33,
33,
33,
33,
32,
33,
33,
33,
32,
33,
32,
33,
32,
33,
33,
32,
33,
33,
33,
33,
32,
33,
33,
32,
32,
32,
33,
32,
31,
33,
32,
33,
32,
33,
33,
33,
33,
33,
33,
33,
33,
32,
32,
33,
33,
32,
32,
33,
33,
33,
33,
33,
32,
32,
32,
33,
32,
33,
32,
32,
33,
32,
32,
32,
33,
33,
32,
32,
32,
32,
32,
32,
32,
32,
32,
32,
33,
32,
33,
32,
32,
32,
33,
33,
32,
33,
32,
32,
33,
32,
33,
32,
32,
32,
33,
32,
33,
32,
32,
32,
33,
33,
32,
32,
32,
32,
33,
32,
32,
33,
32,
33,
32,
33,
32,
32,
32,
32,
33,
32,
32,
32,
33,
33,
32,
32,
32,
33,
33,
32,
32,
32,
32,
32,
32,
32,
31,
32,
33,
32,
32,
32,
32,
32,
33,
33,
33,
32,
32,
32,
33,
32,
32,
32,
31,
32,
33,
32,
32,
33,
32,
32,
33,
31,
32,
32,
33,
33,
32,
33,
32,
32,
32,
33,
32,
32,
32,
32,
32,
32,
32,
32,
33,
32,
33,
32,
32,
32,
33,
32,
32,
32,
32,
32,
32,
32,
32,
32,
32,
33,
32,
33,
32,
32,
33,
32,
32,
32,
32,
32,
33,
32,
32,
32,
32,
32,
32,
33,
32,
32,
32,
31,
32,
33,
33,
31,
32,
32,
32,
32,
33,
32,
31,
32,
32,
32,
32,
32,
32,
32,
32,
32,
32,
32,
31,
32,
33,
32,
32,
33,
32,
32,
32,
33,
33,
33,
32,
32,
31,
33,
32,
32,
32,
32,
32,
33,
32,
32,
32,
33,
31,
16,
5,
-3,
-11,
-16,
-21,
-25,
-27,
-29,
-31,
-32,
-34,
-35,
-35,
-36,
-36,
-37,
-37,
-39,
-37,
-37,
-38,
-38,
-39,
-39,
-38,
-39,
-39,
-39,
-39,
-38,
-39,
-38,
-39,
-38,
-39,
-39,
-39,
-39,
-39,
-39,
-39,
-39,
-39,
-39,
-38,
-38,
-38,
-38,
-39,
-38,
-39,
-38,
-38,
-39,
-39,
-38,
-39,
-39,
-38,
-39,
-38,
-39,
-38,
-38,
-38,
-39,
-38,
-39,
-38,
-39,
-38,
-38,
-38,
-38,
-39,
-38,
-38,
-38,
-38,
-38,
-39,
-38,
-38,
-38,
-38,
-37,
-38,
-38,
-38,
-38,
-39,
-38,
-38,
-37,
-38,
-38,
-38,
-39,
-37,
-37,
-39,
-38,
-38,
-38,
-39,
-37,
-38,
-37,
-38,
-37,
-37,
-37,
-38,
-38,
-38,
-38,
-37,
-37,
-37,
-37,
-37,
-37,
-38,
-37,
-37,
-37,
-37,
-38,
-38,
-38,
-37,
-37,
-37,
-37,
-38,
-38,
-38,
-37,
-37,
-37,
-37,
-38,
-37,
-37,
-37,
-37,
-37,
-37,
-37,
-37,
-37,
-37,
-38,
-37,
-37,
-37,
-37,
-37,
-37,
-37,
-37,
-37,
-37,
-37,
-37,
-37,
-37,
-37,
-38,
-37,
-37,
-37,
-37,
-37,
-37,
-37,
-37,
-37,
-37,
-37,
-36,
-37,
-37,
-37,
-37,
-37,
-37,
-37,
-37,
-37,
-37,
-37,
-37,
-37,
-37,
-37,
-37,
-37,
-37,
-37,
-37,
-37,
-37,
-37,
-37,
-36,
-37,
-37,
-37,
-37,
-37,
-37,
-37,
-37,
-37,
-37,
-37,
-37,
-37,
-37,
-37,
-37,
-36,
-37,
-36,
-37,
-37,
-37,
-37,
-37,
-37,
-37,
-37,
-37,
-37,
-36,
-37,
-37,
-37,
-37,
-37,
-36,
-37,
-37,
-36,
-36,
-37,
-37,
-37,
-37,
-36,
-36,
-37,
-36,
-36,
-37,
-36,
-36,
-37,
-37,
-36,
-36,
-37,
-37,
-37,
-36,
-37,
-37,
-36,
-37,
-36,
-37,
-36,
-36,
-37,
-36,
-37,
-37,
-36,
-36,
-36,
-35,
-37,
-37,
-36,
-36,
-37,
-37,
-37,
-37,
-37,
-37,
-37,
-37,
-37,
-37,
-36,
-36,
-37,
-37,
-37,
-37,
-37,
-37,
-37,
-37,
-37,
-36,
-36,
-36,
-36,
-37,
-36,
-36,
-37,
-36,
-37,
-36,
-36,
-37,
-36,
-36,
-36,
-36,
-37,
-37,
-37,
-36,
-36,
-37,
-37,
-36,
-37,
-37,
-37,
-36,
-37,
-36,
-37,
-36,
-37,
-37,
-36,
-37,
-36,
-37,
-36,
-36,
-36,
-37,
-36,
-36,
-36,
-36,
-36,
-37,
-37,
-36,
-37,
-36,
-37,
-36,
-36,
-36,
-36,
-37,
-37,
-36,
-37,
-36,
-36,
-37,
-36,
-37,
-37,
-36,
-36,
-37,
-36,
-36,
-36,
-36,
-36,
-36,
-36,
-36,
-36,
-36,
-36,
-36,
-36,
-36,
-37,
-36,
-36,
-36,
-37,
-36,
-36,
-36,
-36,
-36,
-37,
-36,
-37,
-37,
-36,
-36,
-36,
-36,
-36,
-36,
-36,
-37,
-36,
-37,
-36,
-36,
-36,
-37,
-37,
-36,
-36,
-36,
-36,
-36,
-37,
-37,
-36,
-36,
-36,
-36,
-36,
-36,
-36,
-37,
-36,
-36,
-36,
-36,
-36,
-37,
-36,
-36,
-37,
-36,
-36,
-37,
-36,
-36,
-36,
-36,
-36,
-36,
-37,
-36,
-36,
-36,
-37,
-36,
-36,
-35,
-36,
-37,
-36,
-36,
-36,
-37,
-36,
-36,
-36,
-36,
-36,
-36,
-36,
-36,
-36,
-36,
-36,
-36,
-37,
-37,
-36,
-37,
-36,
-36,
-36,
-36,
-37,
-36,
-36,
-37,
-36,
-36,
-36,
-25,
-13,
-3,
4,
11,
15,
19,
23,
25,
27,
29,
30,
31,
32,
32,
33,
33,
33,
33,
34,
34,
34,
35,
35,
35,
35,
34,
35,
35,
35,
35,
35,
34,
35,
35,
35,
35,
35,
35,
34,
35,
34,
35,
35,
34,
35,
35,
35,
35,
34,
34,
35,
35,
35,
35,
33,
35,
34,
34,
35,
34,
35,
34,
34,
35,
35,
35,
35,
34,
35,
34,
35,
33,
34,
34,
35,
34,
34,
35,
35,
34,
34,
34,
34,
35,
34,
34,
33,
34,
35,
33,
35,
34,
34,
34,
34,
34,
34,
35,
35,
35,
33,
34,
34,
33,
35,
34,
34,
35,
34,
33,
34,
33,
34,
33,
33,
33,
34,
34,
34,
33,
33,
33,
33,
34,
33,
34,
34,
33,
34,
33,
34,
33,
33,
34,
34,
33,
33,
33,
33,
33,
34,
33,
33,
34,
33,
33,
34,
33,
33,
34,
33,
33,
33,
33,
33,
34,
33,
33,
33,
33,
33,
33,
33,
33,
33,
33,
33,
33,
34,
33,
33,
33,
33,
33,
33,
33,
33,
33,
33,
33,
33,
33,
33,
33,
33,
33,
34,
33,
33,
33,
33,
33,
33,
33,
33,
33,
33,
33,
33,
33,
33,
33,
32,
33,
33,
33,
33,
33,
33,
33,
33,
33,
33,
33,
33,
32,
33,
33,
33,
33,
32,
33,
33,
33,
33,
33,
33,
32,
33,
33,
33,
33,
33,
33,
33,
33,
32,
33,
33,
33,
33,
32,
32,
32,
32,
32,
32,
32,
32,
33,
33,
33,
33,
33,
33,
32,
33,
32,
32,
33,
33,
33,
32,
33,
32,
31,
32,
33,
32,
33,
33,
33,
33,
32,
33,
33,
32,
32,
32,
32,
33,
33,
32,
33,
32,
32,
33,
33,
33,
33,
33,
33,
32,
32,
32,
32,
32,
32,
33,
33,
33,
32,
32,
32,
33,
33,
32,
32,
32,
32,
33,
33,
31,
32,
33,
32,
33,
32,
32,
31,
32,
32,
32,
32,
32,
32,
32,
33,
32,
32,
32,
32,
33,
32,
33,
32,
32,
32,
32,
32,
31,
32,
32,
31,
32,
32,
32,
32,
32,
32,
32,
31,
32,
32,
32,
32,
32,
32,
32,
32,
32,
32,
32,
32,
32,
32,
33,
32,
32,
33,
32,
32,
32,
32,
32,
32,
32,
32,
32,
32,
32,
33,
32,
32,
32,
31,
33,
31,
32,
32,
32,
32,
32,
32,
32,
31,
32,
32,
33,
32,
32,
32,
32,
32,
32,
32,
32,
32,
32,
32,
32,
32,
32,
32,
32,
32,
31,
32,
32,
32,
32,
32,
32,
31,
32,
32,
31,
33,
32,
32,
32,
32,
32,
33,
32,
32,
32,
32,
32,
32,
32,
32,
32,
32,
31,
32,
32,
31,
32,
31,
31,
33,
31,
32,
32,
32,
32,
32,
32,
32,
32,
32,
31,
32,
33,
32,
32,
32,
32,
32,
32,
32,
32,
31,
31,
32,
32,
32,
32,
32,
32,
32,
33,
33,
32,
33,
33,
32,
32,
32,
32,
32,
32,
32,
32,
32,
32,
32,
32,
32,
32,
31,
31,
16,
5,
-3,
-10,
-16,
-21,
-25,
-27,
-29,
-31,
-33,
-33,
-35,
-35,
-37,
-37,
-37,
-37,
-38,
-37,
-38,
-38,
-38,
-38,
-39,
-38,
-39,
-39,
-38,
-38,
-39,
-39,
-39,
-38,
-39,
-39,
-39,
-39,
-39,
-39,
-38,
-38,
-38,
-39,
-39,
-38,
-39,
-39,
-39,
-38,
-39,
-39,
-38,
-39,
-39,
-38,
-39,
-37,
-37,
-39,
-39,
-38,
-39,
-39,
-38,
-38,
-38,
-38,
-38,
-38,
-39,
-38,
-38,
-37,
-39,
-37,
-38,
-39,
-38,
-38,
-38,
-38,
-37,
-38,
-38,
-38,
-38,
-37,
-39,
-39,
-37,
-37,
-37,
-38,
-38,
-38,
-37,
-38,
-38,
-38,
-37,
-38,
-39,
-37,
-37,
-37,
-37,
-37,
-37,
-37,
-37,
-38,
-38,
-37,
-37,
-37,
-37,
-38,
-37,
-38,
-37,
-37,
-37,
-37,
-38,
-37,
-37,
-37,
-38,
-37,
-38,
-37,
-37,
-37,
-37,
-37,
-37,
-37,
-37,
-37,
-37,
-37,
-37,
-37,
-37,
-37,
-37,
-37,
-37,
-37,
-37,
-37,
-37,
-37,
-37,
-37,
-37,
-37,
-37,
-37,
-37,
-36,
-37,
-37,
-37,
-37,
-37,
-37,
-37,
-37,
-37,
-37,
-37,
-37,
-37,
-37,
-37,
-37,
-37,
-37,
-37,
-37,
-37,
-37,
-37,
-37,
-37,
-37,
-37,
-37,
-37,
-37,
-37,
-36,
-37,
-37,
-37,
-37,
-37,
-37,
-37,
-36,
-36,
-37,
-37,
-37,
-36,
-36,
-37,
-37,
-37,
-37,
-37,
-37,
-37,
-37,
-37,
-37,
-36,
-37,
-37,
-37,
-36,
-37,
-37,
-36,
-37,
-37,
-37,
-36,
-37,
-37,
-37,
-36,
-37,
-37,
-36,
-37,
-36,
-36,
-37,
-37,
-37,
-36,
-36,
-36,
-36,
-36,
-37,
-37,
-37,
-36,
-35,
-37,
-37,
-36,
-37,
-36,
-36,
-36,
-37,
-37,
-37,
-37,
-36,
-37,
-37,
-36,
-36,
-37,
-36,
-37,
-37,
-36,
-36,
-36,
-36,
-36,
-37,
-36,
-37,
-36,
-36,
-36,
-37,
-36,
-36,
-37,
-37,
-36,
-36,
-37,
-36,
-37,
-36,
-36,
-36,
-36,
-37,
-36,
-36,
-37,
-36,
-36,
-36,
-37,
-37,
-37,
-36,
-35,
-36,
-36,
-35,
-36,
-37,
-36,
-36,
-37,
-36,
-36,
-36,
-36,
-35,
-36,
-36,
-37,
-36,
-36,
-37,
-36,
-37,
-36,
-37,
-36,
-36,
-36,
-35,
-36,
-36,
-36,
-36,
-37,
-37,
-37,
-37,
-36,
-36,
-36,
-36,
-36,
-36,
-37,
-36,
-36,
-36,
-36,
-36,
-36,
-37,
-36,
-36,
-37,
-37,
-36,
-37,
-36,
-36,
-36,
-36,
-37,
-36,
-36,
-37,
-36,
-36,
-36,
-36,
-36,
-37,
-36,
-37,
-36,
-37,
-35,
-36,
-37,
-36,
-36,
-37,
-36,
-36,
-36,
-36,
-36,
-36,
-36,
-36,
-37,
-36,
-36,
-36,
-36,
-36,
-37,
-36,
-37,
-36,
-36,
-37,
-36,
-36,
-36,
-36,
-37,
-37,
-36,
-37,
-36,
-36,
-37,
-36,
-36,
-36,
-36,
-37,
-37,
-37,
-36,
-37,
-36,
-37,
-37,
-36,
-37,
-37,
-37,
-36,
-37,
-36,
-36,
-37,
-37,
-37,
-36,
-36,
-36,
-37,
-35,
-36,
-36,
-37,
-36,
-37,
-36,
-37,
-36,
-36,
-36,
-37,
-37,
-37,
-37,
-37,
-36,
-37,
-37,
-37,
-36,
-36,
-36,
-36,
-36,
-36,
-37,
-36,
-36,
-36,
-36,
-36,
-35,
-36,
-37,
-36,
-35,
-37,
-36,
-36,
-36,
-37,
-36,
-37,
-37,
-36,
-36,
-36,
-37,
-26,
-13,
-3,
4,
11,
15,
19,
22,
25,
26,
29,
29,
31,
31,
32,
33,
33,
33,
33,
35,
34,
34,
35,
33,
35,
35,
35,
34,
35,
35,
35,
35,
35,
35,
34,
34,
35,
35,
35,
35,
35,
34,
34,
35,
35,
34,
35,
34,
35,
35,
33,
34,
33,
35,
35,
34,
34,
34,
34,
34,
34,
35,
34,
34,
35,
34,
33,
35,
34,
34,
34,
34,
35,
34,
34,
35,
33,
34,
33,
34,
34,
33,
34,
33,
33,
33,
33,
34,
34,
34,
34,
34,
34,
34,
34,
34,
33,
33,
33,
33,
34,
33,
34,
33,
33,
34,
33,
34,
33,
33,
33,
33,
33,
33,
33,
34,
33,
33,
33,
33,
33,
34,
33,
33,
33,
33,
33,
33,
33,
33,
34,
33,
33,
33,
33,
33,
33,
33,
33,
33,
33,
33,
33,
33,
33,
33,
33,
33,
33,
33,
33,
33,
33,
33,
33,
33,
33,
33,
33,
33,
33,
33,
33,
33,
33,
33,
33,
33,
33,
33,
33,
32,
33,
33,
33,
33,
33,
32,
33,
33,
33,
33,
33,
33,
33,
33,
33,
33,
33,
33,
33,
33,
32,
33,
33,
32,
33,
32,
33,
32,
32,
32,
33,
33,
33,
33,
32,
33,
32,
32,
32,
33,
33,
32,
33,
33,
33,
33,
32,
32,
32,
33,
33,
32,
32,
33,
33,
33,
32,
32,
32,
32,
32,
33,
33,
32,
33,
33,
33,
33,
32,
32,
32,
32,
33,
32,
33,
33,
32,
32,
33,
32,
32,
33,
32,
32,
32,
33,
33,
32,
32,
32,
33,
32,
33,
33,
32,
32,
32,
32,
32,
33,
32,
32,
33,
32,
32,
31,
32,
33,
32,
32,
32,
32,
32,
32,
32,
31,
32,
32,
32,
32,
32,
32,
32,
32,
32,
32,
32,
32,
32,
32,
31,
32,
32,
32,
32,
32,
32,
32,
32,
32,
32,
33,
32,
32,
32,
32,
32,
32,
31,
33,
32,
32,
32,
32,
31,
33,
32,
32,
33,
33,
32,
32,
32,
32,
32,
31,
32,
32,
31,
32,
32,
32,
32,
32,
32,
32,
32,
31,
32,
32,
32,
32,
32,
32,
32,
32,
32,
32,
32,
32,
31,
31,
31,
33,
32,
32,
31,
31,
32,
32,
32,
32,
32,
32,
32,
31,
32,
32,
32,
32,
32,
32,
33,
33,
32,
32,
32,
32,
32,
32,
32,
32,
33,
33,
32,
32,
32,
32,
31,
32,
32,
32,
32,
32,
31,
32,
31,
32,
32,
32,
32,
32,
31,
31,
32,
33,
32,
31,
32,
32,
32,
31,
32,
32,
32,
32,
32,
32,
32,
32,
33,
32,
32,
32,
32,
32,
32,
32,
31,
32,
33,
33,
31,
31,
32,
33,
32,
32,
32,
32,
32,
33,
32,
33,
32,
32,
32,
32,
31,
32,
32,
32,
32,
32,
32,
32,
32,
32,
33,
33,
32,
33,
32,
32,
32,
32,
32,
32,
32,
33,
33,
32,
32,
32,
32,
32,
32,
32,
32,
33,
32,
32,
32,
32,
33,
33,
32,
32,
32,
32,
32,
31,
17,
6,
-3,
-10,
-16,
-21,
-24,
-28,
-29,
-31,
-33,
-33,
-35,
-35,
-36,
-37,
-37,
-37,
-37,
-38,
-38,
-38,
-37,
-39,
-39,
-39,
-39,
-38,
-39,
-38,
-39,
-39,
-39,
-39,
-39,
-39,
-38,
-39,
-39,
-39,
-39,
-39,
-38,
-38,
-39,
-37,
-39,
-39,
-38,
-39,
-38,
-38,
-38,
-39,
-38,
-39,
-38,
-38,
-37,
-39,
-39,
-39,
-38,
-38,
-38,
-38,
-37,
-39,
-39,
-38,
-38,
-39,
-38,
-37,
-38,
-38,
-37,
-37,
-39,
-38,
-38,
-38,
-38,
-38,
-37,
-37,
-37,
-37,
-38,
-37,
-37,
-38,
-37,
-38,
-37,
-38,
-37,
-38,
-37,
-37,
-38,
-38,
-37,
-38,
-37,
-37,
-37,
-37,
-37,
-37,
-37,
-37,
-37,
-38,
-37,
-37,
-37,
-38,
-37,
-37,
-38,
-37,
-37,
-38,
-37,
-37,
-37,
-37,
-37,
-37,
-37,
-37,
-37,
-37,
-37,
-38,
-37,
-37,
-37,
-37,
-37,
-37,
-37,
-37,
-37,
-37,
-37,
-37,
-37,
-37,
-37,
-37,
-37,
-37,
-37,
-37,
-37,
-37,
-37,
-37,
-36,
-37,
-37,
-37,
-37,
-36,
-37,
-37,
-37,
-37,
-37,
-37,
-36,
-37,
-36,
-37,
-37,
-37,
-37,
-37,
-37,
-37,
-37,
-36,
-37,
-37,
-36,
-37,
-37,
-37,
-37,
-36,
-37,
-37,
-37,
-36,
-37,
-37,
-37,
-37,
-37,
-37,
-37,
-37,
-37,
-37,
-37,
-37,
-37,
-37,
-36,
-36,
-37,
-37,
-37,
-36,
-37,
-37,
-36,
-37,
-37,
-37,
-37,
-37,
-36,
-36,
-37,
-36,
-37,
-37,
-36,
-36,
-36,
-36,
-36,
-36,
-36,
-37,
-36,
-36,
-36,
-36,
-37,
-36,
-36,
-37,
-36,
-37,
-36,
-36,
-36,
-37,
-36,
-36,
-36,
-36,
-36,
-36,
-36,
-36,
-37,
-36,
-36,
-36,
-36,
-36,
-36,
-36,
-37,
-36,
-35,
-36,
-36,
-36,
-36,
-36,
-36,
-35,
-36,
-36,
-37,
-36,
-35,
-36,
-36,
-35,
-36,
-36,
-36,
-35,
-36,
-36,
-36,
-36,
-37,
-36,
-36,
-36,
-36,
-36,
-36,
-36,
-36,
-36,
-35,
-35,
-36,
-36,
-36,
-36,
-36,
-36,
-36,
-36,
-36,
-36,
-36,
-37,
-37,
-36,
-35,
-36,
-37,
-36,
-36,
-36,
-36,
-36,
-37,
-36,
-36,
-36,
-36,
-37,
-36,
-36,
-36,
-36,
-36,
-36,
-36,
-35,
-36,
-36,
-36,
-37,
-36,
-36,
-37,
-36,
-35,
-36,
-36,
-36,
-36,
-35,
-36,
-36,
-36,
-36,
-36,
-36,
-36,
-36,
-36,
-36,
-35,
-36,
-36,
-36,
-36,
-36,
-36,
-36,
-36,
-36,
-36,
-36,
-35,
-35,
-36,
-35,
-36,
-36,
-36,
-35,
-36,
-36,
-36,
-36,
-36,
-36,
-37,
-36,
-36,
-36,
-36,
-36,
-36,
-36,
-37,
-36,
-36,
-36,
-37,
-36,
-36,
-35,
-36,
-35,
-36,
-36,
-36,
-36,
-36,
-36,
-36,
-36,
-36,
-36,
-36,
-36,
-36,
-36,
-36,
-36,
-36,
-36,
-36,
-36,
-35,
-36,
-36,
-36,
-36,
-36,
-37,
-35,
-36,
-36,
-37,
-36,
-36,
-36,
-37,
-36,
-36,
-36,
-36,
-36,
-36,
-36,
-36,
-37,
-36,
-36,
-37,
-35,
-36,
-36,
-36,
-36,
-36,
-36,
-37,
-36,
-36,
-36,
-36,
-36,
-37,
-36,
-36,
-36,
-36,
-36,
-37,
-37,
-36,
-37,
-36,
-36,
-36,
-36,
-36,
-36,
-36,
-36,
-36,
-36,
-37,
-36,
-36,
-36,
-36,
-37,
-25,
-13,
-3,
4,
11,
16,
19,
22,
25,
27,
28,
29,
31,
31,
33,
32,
33,
33,
34,
34,
33,
34,
35,
35,
35,
35,
35,
35,
34,
35,
35,
35,
35,
35,
35,
34,
35,
35,
35,
34,
34,
35,
35,
34,
34,
35,
35,
33,
34,
34,
35,
34,
34,
35,
35,
35,
34,
35,
33,
35,
34,
35,
34,
34,
35,
33,
35,
34,
34,
34,
34,
35,
34,
34,
34,
34,
33,
34,
33,
35,
34,
34,
34,
34,
33,
34,
34,
34,
34,
34,
34,
33,
34,
33,
33,
34,
33,
33,
33,
33,
34,
34,
33,
33,
33,
33,
34,
33,
33,
34,
34,
33,
33,
33,
33,
33,
33,
33,
33,
34,
33,
33,
33,
33,
33,
33,
33,
33,
34,
33,
33,
33,
33,
33,
33,
33,
33,
33,
33,
33,
33,
33,
33,
33,
33,
33,
33,
33,
33,
33,
33,
33,
33,
33,
33,
33,
33,
33,
33,
33,
33,
33,
33,
32,
33,
33,
33,
33,
33,
33,
33,
33,
32,
33,
33,
33,
33,
33,
33,
33,
32,
33,
33,
32,
33,
32,
33,
33,
33,
33,
33,
32,
32,
33,
33,
33,
33,
33,
33,
33,
32,
33,
32,
33,
32,
33,
33,
32,
33,
33,
32,
32,
33,
33,
32,
32,
32,
32,
32,
32,
32,
33,
32,
33,
32,
32,
32,
32,
32,
33,
32,
32,
33,
33,
32,
32,
32,
32,
32,
33,
32,
32,
33,
32,
32,
32,
32,
32,
32,
32,
32,
33,
33,
32,
32,
33,
32,
32,
32,
33,
32,
33,
32,
32,
32,
32,
32,
32,
32,
31,
31,
32,
32,
31,
31,
32,
31,
32,
32,
32,
32,
32,
32,
31,
33,
32,
32,
32,
32,
32,
31,
32,
32,
32,
31,
32,
32,
31,
31,
32,
31,
31,
32,
32,
32,
32,
32,
32,
31,
32,
31,
31,
32,
32,
32,
31,
31,
31,
32,
32,
31,
32,
32,
33,
32,
32,
32,
31,
32,
32,
31,
31,
32,
32,
32,
32,
31,
32,
32,
32,
31,
32,
32,
31,
31,
32,
31,
31,
32,
32,
32,
32,
32,
32,
32,
31,
32,
33,
32,
32,
32,
32,
31,
33,
31,
32,
32,
31,
31,
33,
32,
32,
32,
32,
32,
31,
32,
31,
32,
32,
32,
32,
32,
31,
32,
32,
32,
32,
32,
32,
31,
32,
32,
33,
32,
32,
32,
33,
32,
32,
32,
31,
32,
31,
32,
32,
32,
32,
32,
32,
32,
32,
31,
32,
32,
32,
32,
32,
31,
32,
32,
32,
32,
32,
32,
32,
32,
32,
32,
32,
32,
32,
32,
32,
31,
32,
33,
32,
32,
33,
32,
31,
32,
33,
31,
32,
32,
32,
32,
32,
32,
33,
32,
32,
32,
32,
32,
32,
32,
32,
32,
32,
33,
32,
32,
33,
32,
32,
32,
32,
32,
32,
32,
32,
32,
32,
32,
32,
32,
32,
31,
32,
32,
32,
32,
33,
32,
32,
32,
31,
32,
32,
32,
31,
32,
32,
32,
32,
33,
31,
32,
32,
32,
31,
17,
5,
-3,
-11,
-16,
-21,
-24,
-28,
-29,
-31,
-33,
-34,
-34,
-35,
-36,
-37,
-37,
-37,
-37,
-37,
-38,
-39,
-38,
-38,
-38,
-38,
-38,
-39,
-39,
-39,
-39,
-39,
-39,
-39,
-38,
-39,
-38,
-39,
-38,
-37,
-38,
-38,
-39,
-39,
-38,
-39,
-39,
-39,
-39,
-38,
-39,
-38,
-38,
-38,
-37,
-39,
-39,
-38,
-39,
-38,
-39,
-38,
-38,
-38,
-38,
-38,
-38,
-38,
-38,
-39,
-37,
-39,
-38,
-38,
-38,
-38,
-37,
-37,
-38,
-38,
-37,
-39,
-39,
-38,
-38,
-37,
-37,
-38,
-38,
-38,
-38,
-39,
-38,
-37,
-38,
-37,
-38,
-37,
-38,
-38,
-38,
-37,
-37,
-38,
-37,
-37,
-38,
-37,
-37,
-37,
-37,
-37,
-38,
-37,
-37,
-38,
-37,
-37,
-37,
-37,
-37,
-37,
-37,
-37,
-37,
-37,
-37,
-37,
-37,
-37,
-37,
-37,
-37,
-37,
-37,
-37,
-37,
-37,
-37,
-37,
-37,
-37,
-36,
-37,
-37,
-37,
-38,
-37,
-37,
-37,
-37,
-37,
-37,
-37,
-37,
-37,
-37,
-37,
-37,
-37,
-37,
-37,
-37,
-37,
-37,
-37,
-37,
-37,
-37,
-37,
-37,
-37,
-37,
-37,
-37,
-37,
-36,
-37,
-37,
-37,
-37,
-36,
-37,
-37,
-37,
-37,
-36,
-37,
-37,
-37,
-37,
-37,
-37,
-37,
-36,
-36,
-37,
-36,
-36,
-37,
-36,
-37,
-37,
-37,
-37,
-37,
-37,
-37,
-37,
-37,
-37,
-37,
-37,
-37,
-37,
-37,
-36,
-36,
-37,
-36,
-36,
-36,
-36,
-36,
-36,
-37,
-37,
-36,
-37,
-36,
-36,
-36,
-36,
-37,
-37,
-37,
-36,
-37,
-36,
-37,
-36,
-37,
-36,
-36,
-36,
-36,
-36,
-36,
-37,
-36,
-36,
-37,
-36,
-36,
-36,
-36,
-36,
-36,
-36,
-37,
-37,
-37,
-35,
-35,
-36,
-36,
-37,
-36,
-36,
-36,
-36,
-36,
-37,
-36,
-36,
-35,
-37,
-36,
-36,
-36,
-36,
-36,
-36,
-36,
-36,
-36,
-36,
-36,
-36,
-36,
-36,
-36,
-36,
-36,
-36,
-36,
-36,
-37,
-36,
-36,
-36,
-36,
-35,
-36,
-36,
-36,
-37,
-36,
-36,
-36,
-36,
-35,
-37,
-36,
-37,
-36,
-36,
-36,
-36,
-37,
-36,
-36,
-35,
-36,
-36,
-36,
-36,
-35,
-35,
-36,
-36,
-36,
-36,
-37,
-36,
-36,
-36,
-36,
-36,
-36,
-36,
-36,
-36,
-36,
-36,
-36,
-36,
-36,
-36,
-37,
-36,
-36,
-36,
-36,
-36,
-35,
-37,
-36,
-36,
-36,
-36,
-36,
-36,
-36,
-36,
-36,
-36,
-37,
-36,
-36,
-36,
-36,
-36,
-36,
-36,
-36,
-36,
-36,
-36,
-36,
-36,
-36,
-36,
-35,
-36,
-37,
-36,
-36,
-36,
-36,
-36,
-36,
-36,
-35,
-35,
-36,
-35,
-37,
-36,
-36,
-36,
-36,
-36,
-36,
-36,
-36,
-35,
-36,
-37,
-35,
-36,
-36,
-36,
-36,
-36,
-36,
-36,
-36,
-36,
-36,
-36,
-36,
-36,
-36,
-36,
-36,
-36,
-36,
-36,
-37,
-36,
-36,
-36,
-36,
-37,
-36,
-36,
-36,
-36,
-36,
-35,
-36,
-36,
-36,
-36,
-36,
-36,
-37,
-36,
-36,
-36,
-36,
-36,
-36,
-36,
-36,
-36,
-36,
-36,
-36,
-36,
-37,
-36,
-36,
-35,
-36,
-36,
-36,
-36,
-36,
-36,
-36,
-36,
-36,
-36,
-36,
-37,
-36,
-37,
-37,
-37,
-36,
-36,
-36,
-36,
-36,
-36,
-37,
-36,
-36,
-36,
-36,
-36,
-36,
-36,
-36,
-27,
