2-Passive Filters/data/ALL0036/A0036CH2.CSV

Memory Length,4000,
Trigger Level,0.000E+00,
Source,CH2,
Probe,1X,
Vertical Units,V,
Vertical Scale,1.000E-01,
Vertical Position,4.000E-03,
Horizontal Units,s,
Horizontal Scale,2.500E-06,
Horizontal Position,0.000E+00,
Horizontal Mode,Main,
Sampling Period,1.000E-08,
Firmware,V1.04,
Time, ,
Mode,Fast,
Waveform Data,
-92,
-92,
-91,
-91,
-90,
-89,
-89,
-88,
-88,
-88,
-87,
-88,
-88,
-87,
-88,
-87,
-87,
-87,
-87,
-87,
-87,
-87,
-87,
-87,
-87,
-88,
-87,
-88,
-88,
-89,
-89,
-89,
-88,
-89,
-88,
-87,
-88,
-87,
-87,
-87,
-87,
-86,
-86,
-85,
-85,
-85,
-85,
-85,
-84,
-84,
-83,
-83,
-83,
-83,
-84,
-83,
-83,
-84,
-83,
-83,
-83,
-84,
-84,
-84,
-84,
-83,
-83,
-83,
-82,
-81,
-81,
-81,
-81,
-81,
-80,
-79,
-78,
-78,
-77,
-77,
-76,
-75,
-75,
-75,
-74,
-74,
-73,
-73,
-73,
-73,
-73,
-74,
-74,
-75,
-75,
-75,
-75,
-75,
-75,
-75,
-75,
-75,
-75,
-75,
-74,
-73,
-72,
-73,
-71,
-71,
-71,
-71,
-69,
-69,
-68,
-67,
-67,
-67,
-67,
-68,
-67,
-67,
-67,
-67,
-66,
-66,
-66,
-66,
-65,
-65,
-65,
-65,
-65,
-64,
-64,
-64,
-63,
-64,
-63,
-62,
-61,
-61,
-61,
-59,
-60,
-59,
-58,
-58,
-57,
-57,
-57,
-57,
-56,
-56,
-56,
-55,
-55,
-56,
-55,
-55,
-55,
-55,
-55,
-55,
-54,
-54,
-54,
-53,
-53,
-53,
-52,
-51,
-51,
-51,
-49,
-49,
-49,
-47,
-47,
-47,
-46,
-46,
-45,
-45,
-45,
-44,
-43,
-43,
-43,
-43,
-42,
-43,
-42,
-41,
-41,
-41,
-41,
-41,
-41,
-41,
-41,
-40,
-39,
-39,
-38,
-37,
-36,
-35,
-35,
-33,
-33,
-33,
-33,
-32,
-32,
-32,
-31,
-31,
-31,
-31,
-31,
-30,
-29,
-29,
-29,
-29,
-29,
-29,
-29,
-29,
-29,
-27,
-27,
-26,
-25,
-26,
-25,
-25,
-25,
-25,
-24,
-22,
-23,
-21,
-21,
-20,
-20,
-19,
-17,
-17,
-16,
-16,
-14,
-15,
-14,
-14,
-13,
-13,
-13,
-13,
-13,
-13,
-13,
-13,
-13,
-13,
-12,
-13,
-12,
-11,
-12,
-12,
-11,
-11,
-11,
-9,
-9,
-9,
-8,
-7,
-7,
-7,
-5,
-5,
-4,
-4,
-3,
-3,
-3,
-2,
-1,
-1,
-1,
-1,
0,
0,
0,
0,
0,
1,
0,
1,
1,
2,
2,
2,
3,
4,
3,
5,
5,
5,
6,
7,
7,
8,
8,
8,
9,
9,
10,
10,
10,
11,
11,
11,
11,
11,
11,
12,
13,
13,
13,
13,
13,
13,
13,
13,
13,
13,
13,
13,
13,
15,
15,
15,
15,
16,
17,
18,
18,
19,
19,
19,
19,
19,
20,
21,
23,
23,
23,
23,
23,
22,
22,
23,
23,
23,
23,
23,
23,
24,
25,
25,
25,
27,
27,
27,
28,
28,
29,
28,
28,
28,
29,
29,
31,
31,
31,
31,
31,
31,
31,
31,
31,
31,
31,
30,
30,
31,
30,
31,
31,
31,
32,
32,
32,
32,
33,
33,
33,
34,
33,
34,
35,
35,
35,
36,
36,
37,
37,
37,
37,
37,
37,
37,
37,
37,
37,
37,
38,
39,
39,
39,
39,
39,
39,
38,
39,
39,
39,
39,
39,
39,
39,
38,
39,
39,
39,
39,
39,
39,
39,
39,
39,
39,
40,
40,
40,
40,
40,
39,
39,
39,
39,
39,
39,
39,
39,
39,
39,
39,
39,
39,
39,
39,
39,
39,
39,
40,
40,
40,
41,
41,
42,
42,
42,
41,
42,
41,
41,
41,
41,
43,
43,
43,
43,
43,
43,
43,
43,
42,
42,
42,
41,
41,
40,
40,
40,
39,
41,
40,
40,
40,
40,
39,
39,
39,
39,
39,
39,
39,
39,
39,
39,
39,
39,
40,
40,
40,
41,
40,
40,
39,
40,
39,
39,
39,
39,
39,
38,
37,
37,
37,
36,
36,
35,
35,
35,
35,
35,
35,
35,
36,
35,
36,
36,
36,
36,
37,
36,
35,
35,
35,
35,
34,
34,
34,
34,
33,
33,
32,
33,
32,
31,
31,
31,
31,
30,
29,
28,
27,
27,
27,
27,
27,
27,
27,
27,
27,
25,
26,
26,
27,
27,
26,
26,
27,
27,
26,
26,
25,
25,
26,
25,
25,
24,
23,
23,
23,
23,
21,
21,
21,
21,
20,
19,
19,
19,
19,
19,
19,
19,
19,
18,
18,
17,
17,
17,
17,
16,
17,
16,
16,
15,
15,
15,
15,
15,
14,
13,
13,
12,
12,
11,
11,
11,
11,
11,
11,
10,
10,
9,
9,
9,
9,
8,
8,
8,
8,
7,
7,
7,
7,
7,
5,
5,
5,
5,
4,
3,
3,
3,
1,
1,
1,
1,
1,
0,
0,
-1,
-1,
-2,
-3,
-3,
-4,
-5,
-5,
-5,
-7,
-7,
-7,
-7,
-7,
-8,
-8,
-7,
-8,
-8,
-9,
-8,
-9,
-9,
-9,
-10,
-10,
-11,
-12,
-13,
-13,
-13,
-13,
-13,
-15,
-15,
-16,
-17,
-17,
-17,
-18,
-19,
-19,
-19,
-18,
-19,
-19,
-20,
-19,
-19,
-20,
-20,
-21,
-21,
-21,
-21,
-22,
-22,
-22,
-23,
-23,
-24,
-24,
-25,
-25,
-27,
-28,
-28,
-29,
-29,
-31,
-31,
-33,
-33,
-33,
-33,
-33,
-34,
-34,
-33,
-33,
-34,
-35,
-35,
-35,
-35,
-35,
-35,
-35,
-35,
-36,
-35,
-36,
-36,
-37,
-36,
-37,
-37,
-39,
-39,
-40,
-41,
-41,
-42,
-43,
-43,
-44,
-44,
-45,
-45,
-45,
-46,
-47,
-47,
-47,
-47,
-47,
-47,
-47,
-47,
-47,
-47,
-47,
-47,
-48,
-48,
-49,
-49,
-51,
-51,
-52,
-52,
-53,
-53,
-55,
-56,
-57,
-57,
-58,
-58,
-58,
-59,
-59,
-59,
-59,
-59,
-60,
-61,
-59,
-60,
-59,
-59,
-60,
-60,
-60,
-61,
-60,
-61,
-60,
-61,
-60,
-61,
-62,
-62,
-63,
-63,
-64,
-65,
-65,
-65,
-65,
-67,
-67,
-67,
-67,
-68,
-68,
-69,
-69,
-70,
-70,
-70,
-71,
-70,
-70,
-70,
-71,
-71,
-71,
-71,
-71,
-73,
-73,
-73,
-73,
-74,
-74,
-74,
-74,
-75,
-75,
-75,
-75,
-75,
-76,
-76,
-77,
-77,
-77,
-78,
-79,
-79,
-79,
-78,
-78,
-79,
-78,
-77,
-77,
-77,
-77,
-77,
-78,
-79,
-79,
-79,
-79,
-79,
-79,
-80,
-80,
-80,
-81,
-81,
-81,
-81,
-83,
-83,
-84,
-85,
-84,
-84,
-84,
-85,
-84,
-84,
-85,
-85,
-85,
-85,
-86,
-85,
-85,
-85,
-86,
-87,
-86,
-86,
-85,
-85,
-85,
-85,
-85,
-85,
-85,
-85,
-86,
-86,
-86,
-87,
-87,
-87,
-88,
-88,
-88,
-87,
-88,
-88,
-89,
-88,
-88,
-89,
-89,
-89,
-87,
-87,
-87,
-87,
-86,
-87,
-87,
-87,
-87,
-87,
-87,
-87,
-86,
-87,
-87,
-88,
-88,
-87,
-89,
-88,
-89,
-89,
-89,
-89,
-90,
-90,
-90,
-91,
-91,
-91,
-91,
-92,
-91,
-91,
-91,
-90,
-90,
-89,
-89,
-89,
-87,
-87,
-87,
-86,
-86,
-87,
-87,
-87,
-88,
-87,
-88,
-88,
-88,
-88,
-87,
-87,
-87,
-87,
-88,
-87,
-88,
-88,
-88,
-88,
-88,
-87,
-88,
-88,
-87,
-87,
-87,
-87,
-87,
-87,
-86,
-86,
-86,
-85,
-85,
-86,
-85,
-84,
-84,
-84,
-83,
-83,
-83,
-83,
-84,
-84,
-84,
-85,
-85,
-84,
-85,
-85,
-84,
-83,
-83,
-83,
-82,
-81,
-81,
-81,
-81,
-81,
-81,
-81,
-80,
-80,
-79,
-79,
-78,
-77,
-77,
-77,
-77,
-76,
-77,
-76,
-77,
-76,
-76,
-76,
-77,
-76,
-76,
-76,
-75,
-75,
-75,
-75,
-75,
-75,
-75,
-74,
-74,
-73,
-73,
-73,
-73,
-72,
-73,
-72,
-71,
-72,
-71,
-71,
-71,
-70,
-70,
-71,
-70,
-69,
-69,
-69,
-68,
-69,
-68,
-67,
-67,
-65,
-65,
-65,
-64,
-65,
-64,
-64,
-64,
-63,
-64,
-63,
-63,
-63,
-62,
-62,
-61,
-61,
-61,
-60,
-60,
-59,
-60,
-59,
-59,
-58,
-59,
-59,
-57,
-58,
-57,
-57,
-57,
-57,
-57,
-56,
-56,
-56,
-57,
-55,
-55,
-55,
-55,
-55,
-53,
-53,
-53,
-53,
-51,
-51,
-50,
-50,
-49,
-49,
-49,
-48,
-48,
-48,
-47,
-46,
-45,
-44,
-44,
-43,
-43,
-43,
-43,
-42,
-41,
-41,
-41,
-41,
-41,
-41,
-40,
-40,
-40,
-39,
-39,
-39,
-37,
-37,
-37,
-37,
-36,
-35,
-35,
-35,
-34,
-33,
-33,
-33,
-33,
-32,
-31,
-30,
-29,
-30,
-29,
-29,
-29,
-29,
-29,
-29,
-29,
-28,
-28,
-28,
-28,
-28,
-27,
-28,
-27,
-27,
-27,
-26,
-26,
-25,
-25,
-23,
-23,
-21,
-21,
-19,
-18,
-17,
-17,
-17,
-16,
-15,
-15,
-15,
-15,
-15,
-15,
-15,
-15,
-15,
-15,
-14,
-13,
-13,
-13,
-13,
-13,
-13,
-13,
-12,
-12,
-13,
-12,
-11,
-10,
-9,
-9,
-9,
-8,
-7,
-7,
-6,
-6,
-5,
-5,
-5,
-4,
-4,
-4,
-3,
-3,
-2,
-3,
-1,
-1,
-2,
-1,
-1,
-1,
-1,
0,
0,
1,
1,
1,
3,
3,
3,
3,
5,
5,
6,
6,
7,
7,
8,
8,
9,
10,
11,
11,
11,
11,
12,
12,
12,
13,
13,
13,
13,
13,
13,
13,
13,
13,
13,
13,
13,
13,
13,
13,
14,
15,
15,
16,
17,
17,
18,
18,
18,
19,
19,
20,
19,
21,
20,
21,
21,
21,
21,
21,
22,
23,
23,
23,
23,
23,
23,
23,
24,
25,
25,
25,
25,
25,
25,
25,
25,
26,
26,
26,
27,
27,
28,
28,
29,
29,
31,
31,
31,
31,
31,
31,
31,
29,
29,
30,
31,
31,
31,
31,
31,
31,
31,
31,
31,
31,
31,
31,
31,
31,
32,
32,
33,
34,
35,
35,
35,
35,
35,
36,
36,
36,
37,
37,
37,
38,
39,
39,
38,
39,
37,
37,
37,
37,
37,
36,
36,
37,
36,
36,
36,
37,
38,
39,
39,
39,
40,
39,
40,
40,
41,
41,
42,
42,
42,
41,
41,
41,
42,
42,
41,
41,
41,
40,
39,
39,
39,
40,
39,
39,
39,
39,
39,
39,
39,
39,
40,
40,
40,
41,
41,
41,
41,
42,
43,
43,
43,
43,
43,
43,
44,
44,
43,
43,
43,
43,
43,
43,
42,
40,
39,
39,
39,
39,
39,
38,
39,
38,
38,
39,
39,
39,
39,
39,
39,
39,
39,
39,
39,
39,
39,
39,
40,
40,
40,
41,
40,
39,
39,
39,
39,
38,
38,
37,
37,
37,
37,
37,
37,
36,
36,
37,
37,
37,
36,
36,
36,
35,
35,
36,
37,
37,
37,
37,
37,
36,
36,
35,
35,
35,
35,
34,
34,
33,
33,
33,
33,
33,
33,
33,
32,
33,
31,
31,
31,
30,
30,
29,
30,
29,
29,
28,
29,
28,
29,
28,
28,
29,
29,
28,
28,
28,
27,
27,
27,
27,
28,
27,
27,
25,
25,
25,
25,
25,
25,
24,
24,
23,
23,
23,
22,
22,
22,
22,
22,
22,
21,
21,
20,
20,
19,
20,
20,
19,
19,
18,
17,
17,
17,
17,
17,
16,
15,
16,
15,
13,
13,
12,
12,
11,
11,
11,
10,
11,
10,
10,
9,
9,
9,
9,
9,
9,
9,
9,
7,
7,
7,
7,
7,
7,
7,
7,
7,
6,
5,
5,
5,
4,
4,
3,
3,
2,
1,
1,
1,
0,
0,
-1,
-1,
-1,
-2,
-3,
-4,
-5,
-5,
-5,
-5,
-5,
-5,
-4,
-5,
-5,
-5,
-6,
-5,
-6,
-7,
-7,
-8,
-9,
-9,
-11,
-11,
-12,
-12,
-12,
-13,
-13,
-14,
-15,
-15,
-15,
-15,
-15,
-16,
-17,
-17,
-17,
-17,
-17,
-17,
-17,
-18,
-17,
-18,
-19,
-18,
-19,
-20,
-20,
-20,
-21,
-21,
-21,
-21,
-22,
-23,
-24,
-24,
-25,
-25,
-25,
-25,
-27,
-28,
-29,
-29,
-29,
-31,
-30,
-31,
-31,
-31,
-31,
-31,
-33,
-32,
-33,
-33,
-33,
-33,
-34,
-35,
-36,
-36,
-35,
-36,
-36,
-37,
-37,
-37,
-37,
-37,
-38,
-39,
-39,
-40,
-41,
-41,
-41,
-42,
-42,
-43,
-43,
-44,
-44,
-44,
-45,
-45,
-45,
-46,
-47,
-46,
-47,
-47,
-47,
-47,
-48,
-48,
-48,
-49,
-49,
-49,
-51,
-51,
-51,
-51,
-53,
-53,
-53,
-53,
-54,
-54,
-55,
-55,
-55,
-56,
-56,
-57,
-57,
-58,
-59,
-59,
-59,
-60,
-61,
-61,
-61,
-61,
-61,
-61,
-61,
-61,
-61,
-61,
-62,
-62,
-62,
-62,
-62,
-61,
-62,
-63,
-63,
-64,
-65,
-65,
-65,
-65,
-67,
-67,
-67,
-68,
-69,
-69,
-69,
-70,
-70,
-70,
-70,
-71,
-70,
-71,
-71,
-70,
-72,
-71,
-72,
-73,
-72,
-73,
-73,
-73,
-73,
-73,
-73,
-73,
-73,
-73,
-75,
-76,
-75,
-76,
-77,
-77,
-77,
-78,
-78,
-79,
-78,
-78,
-78,
-77,
-77,
-77,
-77,
-78,
-77,
-78,
-79,
-77,
-79,
-78,
-79,
-79,
-79,
-79,
-79,
-80,
-80,
-80,
-81,
-81,
-82,
-83,
-83,
-83,
-84,
-84,
-85,
-84,
-85,
-85,
-85,
-85,
-85,
-86,
-86,
-86,
-86,
-85,
-85,
-86,
-85,
-85,
-85,
-85,
-85,
-85,
-85,
-85,
-85,
-86,
-87,
-87,
-88,
-88,
-88,
-89,
-89,
-89,
-89,
-89,
-90,
-90,
-90,
-89,
-89,
-89,
-89,
-89,
-89,
-89,
-89,
-88,
-88,
-88,
-87,
-87,
-87,
-88,
-88,
-87,
-88,
-88,
-88,
-88,
-89,
-89,
-89,
-89,
-90,
-90,
-90,
-91,
-90,
-91,
-91,
-91,
-91,
-91,
-91,
-92,
-91,
-90,
-91,
-91,
-91,
-90,
-89,
-89,
-88,
-88,
-88,
-87,
-87,
-88,
-88,
-88,
-86,
-87,
-87,
-87,
-86,
-87,
-86,
-85,
-85,
-85,
-85,
-85,
-86,
-87,
-87,
-87,
-87,
-88,
-88,
-87,
-87,
-86,
-87,
-86,
-86,
-86,
-85,
-86,
-85,
-85,
-84,
-85,
-84,
-84,
-83,
-83,
-83,
-83,
-83,
-83,
-83,
-85,
-85,
-85,
-85,
-85,
-85,
-85,
-85,
-84,
-84,
-84,
-83,
-83,
-83,
-83,
-82,
-83,
-82,
-81,
-81,
-81,
-81,
-80,
-80,
-79,
-78,
-77,
-77,
-77,
-77,
-77,
-77,
-77,
-77,
-76,
-76,
-76,
-77,
-77,
-77,
-77,
-77,
-76,
-77,
-76,
-77,
-76,
-75,
-76,
-75,
-75,
-73,
-73,
-72,
-73,
-72,
-71,
-71,
-71,
-71,
-70,
-69,
-70,
-69,
-69,
-69,
-70,
-69,
-69,
-69,
-68,
-68,
-68,
-68,
-68,
-68,
-68,
-67,
-66,
-66,
-65,
-65,
-64,
-64,
-63,
-61,
-61,
-60,
-59,
-58,
-57,
-57,
-57,
-57,
-56,
-57,
-56,
-57,
-56,
-57,
-57,
-57,
-57,
-56,
-57,
-57,
-57,
-56,
-56,
-56,
-55,
-55,
-54,
-54,
-53,
-53,
-52,
-52,
-51,
-51,
-50,
-49,
-49,
-49,
-48,
-48,
-48,
-48,
-47,
-47,
-47,
-46,
-45,
-45,
-45,
-45,
-44,
-44,
-44,
-44,
-45,
-44,
-43,
-43,
-43,
-42,
-42,
-41,
-41,
-41,
-39,
-39,
-38,
-37,
-37,
-37,
-36,
-35,
-35,
-34,
-33,
-33,
-33,
-32,
-32,
-33,
-32,
-32,
-31,
-31,
-31,
-31,
-31,
-31,
-30,
-31,
-29,
-29,
-29,
-28,
-28,
-28,
-27,
-27,
-27,
-26,
-26,
-25,
-25,
-23,
-23,
-22,
-22,
-21,
-20,
-19,
-19,
-18,
-17,
-17,
-17,
-17,
-17,
-16,
-16,
-16,
-15,
-15,
-15,
-15,
-13,
-13,
-13,
-13,
-12,
-11,
-11,
-11,
-11,
-11,
-11,
-10,
-10,
-9,
-9,
-9,
-7,
-7,
-7,
-6,
-5,
-5,
-5,
-4,
-4,
-3,
-2,
-2,
-1,
-1,
-1,
-1,
-1,
-1,
-1,
-1,
-1,
-1,
-1,
-1,
0,
0,
0,
2,
3,
3,
3,
4,
5,
6,
6,
7,
7,
7,
7,
7,
8,
9,
9,
10,
11,
11,
11,
11,
11,
10,
11,
11,
11,
11,
12,
12,
12,
12,
13,
13,
13,
14,
15,
15,
15,
15,
15,
15,
16,
17,
18,
18,
17,
18,
19,
19,
19,
20,
20,
20,
20,
21,
20,
21,
21,
21,
22,
22,
22,
23,
23,
24,
24,
25,
25,
25,
25,
27,
27,
27,
27,
27,
27,
28,
28,
29,
29,
30,
31,
31,
31,
31,
31,
31,
30,
30,
30,
30,
30,
29,
30,
30,
31,
31,
31,
31,
31,
31,
32,
31,
32,
32,
32,
33,
33,
34,
35,
35,
35,
36,
36,
36,
36,
36,
36,
36,
36,
36,
36,
37,
37,
38,
38,
39,
39,
39,
38,
38,
38,
39,
39,
39,
39,
39,
39,
39,
39,
40,
39,
40,
40,
39,
40,
40,
39,
39,
39,
41,
41,
41,
42,
42,
41,
41,
41,
41,
41,
40,
41,
40,
40,
40,
39,
40,
39,
39,
40,
39,
39,
39,
39,
39,
39,
39,
40,
41,
41,
41,
41,
42,
43,
43,
43,
43,
44,
44,
44,
44,
44,
44,
43,
43,
43,
43,
43,
42,
41,
40,
40,
40,
40,
40,
40,
39,
39,
39,
39,
40,
39,
39,
39,
39,
38,
39,
39,
39,
39,
39,
39,
39,
39,
39,
39,
39,
39,
39,
39,
39,
39,
39,
38,
38,
39,
37,
37,
37,
36,
35,
35,
35,
35,
35,
35,
36,
36,
36,
37,
37,
37,
37,
37,
37,
37,
36,
36,
35,
36,
35,
35,
35,
35,
35,
34,
33,
32,
32,
32,
31,
31,
30,
31,
30,
30,
30,
29,
30,
29,
29,
29,
28,
28,
28,
28,
28,
29,
29,
28,
28,
28,
27,
27,
27,
27,
26,
25,
25,
23,
23,
23,
23,
23,
23,
23,
23,
23,
22,
21,
21,
21,
21,
21,
22,
21,
20,
21,
20,
19,
19,
19,
19,
18,
17,
18,
18,
18,
17,
16,
15,
15,
15,
14,
13,
12,
11,
11,
11,
10,
9,
9,
9,
9,
8,
8,
7,
7,
7,
7,
7,
7,
7,
8,
8,
7,
7,
7,
7,
7,
7,
6,
5,
4,
3,
3,
3,
2,
1,
2,
2,
0,
0,
-1,
-1,
-1,
-1,
-2,
-2,
-3,
-3,
-4,
-5,
-5,
-5,
-4,
-5,
-4,
-5,
-5,
-5,
-5,
-6,
-6,
-7,
-7,
-7,
-8,
-8,
-8,
-9,
-10,
-11,
-11,
-12,
-13,
-13,
-13,
-15,
-16,
-16,
-17,
-17,
-17,
-17,
-17,
-17,
-17,
-17,
-19,
-18,
-18,
-19,
-18,
-19,
-20,
-20,
-21,
-21,
-20,
-20,
-21,
-21,
-21,
-22,
-22,
-24,
-25,
-26,
-26,
-28,
-29,
-29,
-31,
-31,
-33,
-32,
-33,
-32,
-33,
-33,
-33,
-33,
-33,
-33,
-34,
-34,
-34,
-34,
-34,
-35,
-35,
-35,
-36,
-36,
-36,
-37,
-37,
-39,
-39,
-40,
-41,
-41,
-41,
-42,
-43,
-43,
-43,
-43,
-43,
-44,
-44,
-45,
-45,
-46,
-46,
-46,
-47,
-47,
-47,
-47,
-47,
-47,
-47,
-47,
-47,
-47,
-48,
-49,
-49,
-50,
-51,
-51,
-52,
-53,
-53,
-53,
-54,
-55,
-56,
-55,
-57,
-57,
-57,
-57,
-57,
-58,
-58,
-58,
-58,
-59,
-57,
-58,
-58,
-58,
-59,
-59,
-59,
-60,
-59,
-59,
-60,
-60,
-61,
-61,
-61,
-62,
-63,
-63,
-63,
-63,
-64,
-65,
-65,
-65,
-66,
-67,
-67,
-67,
-67,
-68,
-68,
-68,
-68,
-67,
-68,
-69,
-68,
-69,
-69,
-70,
-70,
-72,
-72,
-73,
-73,
-73,
-74,
-75,
-75,
-75,
-75,
-76,
-76,
-77,
-76,
-77,
-77,
-77,
-77,
-79,
-79,
-79,
-79,
-79,
-79,
-79,
-79,
-79,
-80,
-79,
-79,
-79,
-79,
-80,
-79,
-79,
-79,
-79,
-80,
-80,
-79,
-79,
-80,
-80,
-80,
-81,
-81,
-83,
-83,
-84,
-84,
-85,
-84,
-84,
-83,
-84,
-85,
-85,
-85,
-85,
-85,
-86,
-87,
-86,
-85,
-85,
-86,
-87,
-85,
-85,
-85,
-85,
-85,
-85,
-85,
-86,
-87,
-87,
-85,
-87,
-86,
-87,
-88,
-88,
-88,
-88,
-88,
-89,
-89,
-89,
-88,
-90,
-89,
-89,
-89,
-89,
-89,
-88,
-89,
-87,
-87,
-87,
-87,
-87,
-87,
-87,
-86,
-87,
-87,
-88,
-87,
-88,
-88,
-87,
-87,
-88,
-88,
-89,
-88,
-89,
-89,
-90,
-89,
-91,
-91,
-91,
-91,
-92,
-92,
-92,
-92,
-91,
-92,
-91,
-91,
-91,
-90,
-90,
-89,
-89,
-89,
-89,
-89,
-89,
-89,
-89,
-89,
-89,
-89,
-89,
-89,
-89,
-89,
-89,
-89,
-89,
-89,
-88,
-89,
-88,
-88,
-87,
-87,
-87,
-87,
-87,
-87,
-87,
-87,
-87,
-86,
-87,
-87,
-86,
-87,
-87,
-87,
-85,
-85,
-85,
-84,
-84,
-85,
-85,
-85,
-85,
-85,
-85,
-84,
-84,
-84,
-84,
-84,
-83,
-83,
-83,
-82,
-83,
-83,
-83,
-82,
-83,
-83,
-81,
-81,
-81,
-80,
-80,
-79,
-79,
-79,
-79,
-78,
-78,
-78,
-77,
-77,
-77,
-77,
-77,
-76,
-76,
-75,
-75,
-75,
-75,
-75,
-76,
-76,
-76,
-75,
-75,
-75,
-74,
-74,
-74,
-73,
-73,
-73,
-72,
-72,
-72,
-71,
-71,
-71,
-71,
-71,
-71,
-69,
-70,
-70,
-69,
-68,
-68,
-69,
-68,
-67,
-67,
-68,
-67,
-67,
-67,
-67,
-66,
-66,
-65,
-65,
-65,
-65,
-63,
-64,
-63,
-63,
-63,
-61,
-61,
-61,
-60,
-60,
-59,
-59,
-58,
-57,
-57,
-57,
-56,
-55,
-55,
-56,
-55,
-56,
-56,
-56,
-56,
-56,
-57,
-56,
-55,
-56,
-56,
-55,
-55,
-53,
-53,
-52,
-52,
-51,
-51,
-50,
-49,
-49,
-49,
-48,
-47,
-46,
-45,
-45,
-45,
-44,
-44,
-44,
-43,
-44,
-44,
-43,
-43,
-43,
-43,
-43,
-43,
-42,
-41,
-41,
-41,
-41,
-40,
-41,
-40,
-39,
-38,
-37,
-36,
-36,
-35,
-34,
-33,
-33,
-33,
-32,
-31,
-31,
-31,
-31,
-31,
-31,
-31,
-30,
-31,
-29,
-31,
-29,
-29,
-29,
-29,
-29,
-29,
-28,
-29,
-28,
-27,
-27,
-26,
-26,
-25,
-25,
-24,
-24,
-23,
-21,
-21,
-19,
-18,
-19,
-17,
-17,
-16,
-16,
-15,
-15,
-14,
-14,
-13,
-14,
-14,
-13,
-13,
-14,
-13,
-13,
-13,
-13,
-13,
-13,
-13,
-12,
-11,
-10,
-10,
-9,
-9,
-9,
-9,
-7,
-7,
-7,
-6,
-5,
-5,
-5,
-5,
-4,
-4,
-3,
-3,
-2,
-2,
-1,
-1,
-2,
-1,
-1,
-1,
-1,
-1,
0,
0,
1,
1,
1,
2,
3,
3,
4,
4,
5,
5,
5,
6,
7,
7,
8,
8,
9,
9,
10,
10,
11,
11,
11,
11,
12,
11,
12,
12,
12,
12,
12,
13,
13,
13,
13,
13,
13,
13,
14,
13,
14,
15,
15,
15,
15,
17,
17,
18,
19,
19,
19,
19,
20,
21,
21,
20,
20,
21,
21,
21,
21,
21,
21,
22,
22,
23,
22,
23,
23,
24,
25,
25,
26,
27,
27,
27,
27,
28,
29,
29,
31,
31,
31,
31,
31,
31,
31,
31,
31,
32,
31,
31,
32,
31,
31,
32,
31,
32,
31,
31,
31,
31,
31,
31,
31,
31,
31,
32,
33,
33,
33,
34,
35,
35,
36,
36,
36,
36,
36,
36,
37,
37,
37,
38,
39,
37,
38,
37,
38,
37,
37,
37,
37,
37,
37,
37,
37,
37,
37,
38,
38,
39,
39,
39,
39,
39,
39,
39,
40,
40,
41,
41,
42,
42,
43,
42,
43,
42,
42,
41,
41,
40,
39,
39,
39,
39,
39,
39,
39,
39,
39,
40,
41,
40,
40,
40,
40,
40,
41,
41,
41,
41,
41,
41,
41,
42,
41,
42,
42,
43,
42,
43,
43,
43,
43,
43,
43,
43,
43,
43,
43,
42,
42,
42,
42,
41,
42,
41,
41,
41,
40,
40,
40,
40,
40,
41,
41,
41,
41,
41,
41,
41,
41,
41,
40,
39,
39,
39,
39,
39,
39,
39,
39,
39,
39,
39,
39,
39,
39,
38,
37,
37,
37,
37,
36,
36,
36,
36,
36,
37,
36,
36,
36,
36,
35,
35,
35,
35,
35,
34,
35,
35,
35,
35,
35,
35,
34,
33,
34,
33,
32,
31,
31,
31,
31,
31,
30,
31,
31,
29,
29,
29,
29,
27,
27,
27,
26,
26,
27,
27,
27,
27,
27,
27,
28,
27,
28,
28,
27,
26,
26,
25,
25,
24,
24,
24,
23,
24,
23,
23,
23,
21,
21,
22,
21,
21,
21,
21,
21,
20,
20,
20,
20,
20,
20,
19,
19,
19,
18,
17,
17,
16,
17,
16,
15,
15,
15,
13,
13,
12,
13,
12,
12,
11,
12,
11,
10,
10,
9,
9,
9,
9,
8,
8,
8,
7,
8,
8,
8,
8,
7,
7,
7,
6,
6,
5,
5,
4,
3,
3,
3,
3,
3,
1,
1,
0,
-1,
-1,
-1,
-2,
-3,
-3,
-4,
-4,
-4,
-5,
-4,
-5,
-5,
-5,
-6,
-7,
-7,
-7,
-8,
-9,
-8,
-9,
-9,
-9,
-9,
-10,
-10,
-11,
-11,
-13,
-12,
-14,
-13,
-15,
-16,
-16,
-17,
-17,
-17,
-17,
-17,
-17,
-17,
-17,
-18,
-18,
-19,
-19,
-19,
-19,
-20,
-20,
-20,
-21,
-21,
-20,
-21,
-20,
-21,
-21,
-21,
-22,
-23,
-23,
-23,
-24,
-25,
-26,
-26,
-27,
-28,
-29,
-29,
-30,
-31,
-31,
-32,
-33,
-33,
-35,
-35,
-35,
-35,
-35,
-35,
-35,
-35,
-35,
-35,
-36,
-36,
-36,
-35,
-36,
-36,
-37,
-37,
-38,
-39,
-40,
-39,
-40,
-41,
-41,
-42,
-43,
-43,
-44,
-45,
-45,
-45,
-46,
-46,
-47,
-47,
-47,
-47,
-48,
-48,
-47,
-47,
-47,
-47,
-48,
-48,
-49,
-49,
-50,
-50,
-50,
-51,
-52,
-53,
-53,
-53,
-54,
-55,
-56,
-57,
-57,
-57,
-58,
-59,
-59,
-60,
-60,
-60,
-60,
-61,
-60,
-61,
-61,
-61,
-61,
-61,
-63,
-62,
-62,
-62,
-63,
-63,
-63,
-63,
-64,
-63,
-63,
-64,
-65,
-65,
-65,
-65,
-66,
-67,
-68,
-68,
-69,
-69,
-69,
-70,
-70,
-71,
-69,
-70,
-70,
-69,
-69,
-69,
-69,
-70,
-70,
-70,
-71,
-71,
-71,
-71,
-72,
-73,
-73,
-74,
-74,
-75,
-75,
-76,
-77,
-77,
-77,
-78,
-79,
-79,
-79,
-78,
-78,
-78,
-78,
-79,
-79,
-79,
-79,
-79,
-79,
-79,
-79,
-80,
-80,
-80,
-79,
-79,
-79,
-79,
-79,
-79,
-80,
-80,
-81,
-81,
-82,
-83,
-83,
-83,
-83,
-84,
-83,
-84,
-84,
-84,
-85,
-85,
-85,
-85,
-85,
-86,
-86,
-87,
-87,
-85,
-86,
-85,
-85,
-85,
-85,
-86,
-87,
-86,
-87,
-88,
-87,
-87,
-87,
-88,
-87,
-88,
-87,
-88,
-89,
-88,
-89,
-89,
-90,
-91,
-91,
-91,
-91,
-91,
-91,
-91,
-89,
-89,
-89,
-89,
-88,
-89,
-88,
-88,
-87,
-88,
-88,
-88,
-88,
-87,
-88,
-88,
-88,
-88,
-88,
-89,
-89,
-89,
-89,
-89,
-89,
-89,
-90,
-90,
-91,
-91,
-91,
-91,
-91,
-91,
-91,
-91,
-90,
