2-Passive Filters/data/ALL0059/A0059CH1.CSV

Memory Length,4000,
Trigger Level,0.000E+00,
Source,CH1,
Probe,1X,
Vertical Units,V,
Vertical Scale,5.000E+00,
Vertical Position,0.000E+00,
Horizontal Units,s,
Horizontal Scale,2.500E-08,
Horizontal Position,0.000E+00,
Horizontal Mode,Main,
Sampling Period,1.000E-09,
Firmware,V1.04,
Time, ,
Mode,Fast,
Waveform Data,
1,
1,
3,
6,
6,
8,
9,
10,
10,
12,
13,
16,
15,
18,
18,
19,
19,
20,
20,
22,
22,
22,
22,
23,
22,
23,
22,
24,
22,
22,
22,
22,
20,
22,
20,
20,
18,
16,
16,
16,
14,
14,
12,
12,
10,
8,
6,
6,
4,
4,
2,
2,
0,
-4,
-4,
-6,
-7,
-6,
-8,
-9,
-11,
-14,
-14,
-14,
-15,
-14,
-16,
-17,
-18,
-20,
-20,
-18,
-20,
-19,
-20,
-20,
-20,
-20,
-21,
-18,
-19,
-18,
-18,
-18,
-18,
-16,
-16,
-14,
-14,
-12,
-12,
-10,
-10,
-8,
-8,
-5,
-4,
-4,
-2,
-1,
0,
2,
3,
5,
6,
6,
8,
10,
11,
12,
14,
14,
16,
16,
18,
18,
19,
20,
20,
22,
22,
22,
22,
23,
22,
22,
22,
22,
22,
22,
22,
21,
21,
20,
19,
19,
18,
18,
17,
15,
14,
13,
12,
10,
9,
10,
8,
6,
6,
2,
2,
0,
-1,
-1,
-3,
-5,
-6,
-8,
-9,
-10,
-12,
-12,
-14,
-14,
-15,
-16,
-16,
-18,
-18,
-18,
-18,
-19,
-20,
-20,
-20,
-20,
-20,
-20,
-20,
-20,
-19,
-18,
-18,
-18,
-17,
-17,
-16,
-15,
-14,
-12,
-12,
-10,
-10,
-10,
-7,
-6,
-6,
-2,
-2,
0,
0,
1,
4,
4,
6,
8,
9,
10,
12,
11,
14,
14,
16,
16,
18,
18,
20,
19,
20,
20,
22,
22,
22,
23,
22,
22,
22,
22,
23,
22,
22,
21,
21,
20,
20,
19,
20,
17,
16,
15,
14,
13,
13,
10,
10,
8,
7,
6,
4,
4,
2,
0,
0,
-2,
-4,
-6,
-7,
-6,
-8,
-10,
-10,
-12,
-14,
-14,
-16,
-16,
-16,
-18,
-18,
-18,
-19,
-20,
-20,
-20,
-20,
-20,
-20,
-20,
-20,
-20,
-20,
-18,
-18,
-18,
-18,
-16,
-16,
-14,
-12,
-14,
-12,
-10,
-10,
-8,
-8,
-6,
-5,
-4,
-4,
-1,
0,
2,
4,
6,
6,
6,
8,
10,
11,
12,
13,
16,
16,
16,
18,
18,
18,
20,
20,
22,
22,
21,
22,
22,
23,
22,
23,
22,
22,
22,
22,
22,
22,
20,
20,
20,
18,
18,
16,
16,
14,
12,
12,
11,
9,
8,
7,
6,
6,
2,
2,
0,
-2,
-2,
-2,
-5,
-5,
-9,
-9,
-10,
-11,
-12,
-12,
-14,
-15,
-16,
-17,
-18,
-18,
-18,
-18,
-20,
-18,
-20,
-20,
-20,
-20,
-20,
-20,
-20,
-19,
-19,
-18,
-18,
-18,
-16,
-15,
-15,
-14,
-12,
-11,
-10,
-10,
-9,
-6,
-6,
-5,
-2,
-2,
-1,
1,
2,
3,
4,
6,
8,
9,
10,
12,
11,
13,
14,
15,
18,
18,
18,
20,
20,
20,
21,
21,
22,
22,
24,
23,
23,
22,
22,
22,
22,
22,
21,
22,
20,
20,
19,
18,
17,
16,
14,
14,
14,
12,
11,
10,
8,
6,
6,
4,
4,
2,
0,
0,
-4,
-4,
-6,
-6,
-7,
-8,
-10,
-10,
-12,
-13,
-14,
-16,
-16,
-17,
-18,
-18,
-18,
-18,
-20,
-20,
-20,
-20,
-20,
-20,
-20,
-19,
-20,
-20,
-19,
-18,
-18,
-18,
-16,
-15,
-16,
-14,
-13,
-12,
-12,
-10,
-7,
-7,
-6,
-4,
-4,
-3,
-1,
0,
4,
4,
4,
6,
7,
8,
10,
11,
14,
14,
14,
16,
16,
18,
18,
19,
20,
21,
21,
22,
22,
22,
22,
23,
24,
23,
22,
23,
22,
22,
22,
21,
21,
20,
18,
18,
18,
16,
16,
15,
14,
11,
10,
10,
9,
7,
6,
5,
3,
2,
0,
0,
-1,
-3,
-5,
-6,
-8,
-9,
-10,
-12,
-12,
-13,
-14,
-15,
-16,
-16,
-18,
-18,
-18,
-18,
-20,
-20,
-20,
-20,
-20,
-20,
-21,
-20,
-20,
-20,
-18,
-18,
-18,
-16,
-17,
-16,
-15,
-14,
-12,
-12,
-10,
-9,
-8,
-8,
-6,
-6,
-3,
-3,
0,
0,
1,
2,
4,
6,
8,
8,
10,
11,
12,
13,
14,
16,
17,
17,
19,
20,
20,
20,
21,
22,
22,
22,
22,
22,
22,
22,
22,
22,
22,
22,
22,
21,
20,
20,
19,
19,
16,
16,
16,
14,
14,
12,
10,
10,
7,
6,
6,
4,
4,
2,
0,
0,
-4,
-4,
-5,
-7,
-7,
-10,
-10,
-10,
-12,
-14,
-14,
-15,
-16,
-16,
-18,
-18,
-18,
-20,
-18,
-20,
-20,
-20,
-20,
-20,
-20,
-20,
-18,
-19,
-19,
-19,
-18,
-18,
-17,
-16,
-14,
-14,
-14,
-12,
-10,
-10,
-8,
-8,
-6,
-5,
-4,
-3,
-1,
0,
2,
3,
6,
6,
6,
8,
10,
10,
13,
14,
15,
16,
16,
17,
18,
19,
20,
20,
21,
22,
22,
22,
22,
22,
23,
22,
22,
22,
22,
22,
22,
20,
20,
20,
18,
18,
18,
16,
16,
14,
14,
12,
10,
8,
9,
8,
6,
4,
3,
2,
0,
-2,
-1,
-4,
-5,
-6,
-7,
-10,
-11,
-12,
-12,
-13,
-14,
-15,
-16,
-17,
-18,
-18,
-18,
-18,
-19,
-20,
-20,
-20,
-21,
-21,
-21,
-20,
-20,
-20,
-18,
-18,
-18,
-17,
-16,
-16,
-14,
-15,
-12,
-12,
-12,
-10,
-10,
-8,
-6,
-6,
-2,
-2,
0,
2,
2,
3,
5,
4,
9,
9,
10,
12,
12,
13,
15,
14,
18,
17,
18,
20,
20,
20,
21,
20,
22,
22,
22,
22,
22,
22,
22,
22,
22,
22,
22,
20,
20,
20,
20,
18,
17,
16,
15,
14,
14,
12,
11,
10,
8,
6,
6,
4,
4,
2,
0,
0,
-3,
-4,
-6,
-6,
-6,
-8,
-10,
-11,
-13,
-13,
-14,
-15,
-16,
-16,
-18,
-18,
-18,
-20,
-19,
-20,
-20,
-20,
-20,
-20,
-20,
-20,
-18,
-19,
-20,
-18,
-18,
-18,
-16,
-16,
-14,
-14,
-13,
-12,
-10,
-10,
-7,
-8,
-5,
-5,
-4,
-2,
0,
0,
2,
2,
6,
6,
6,
8,
10,
10,
12,
14,
16,
16,
16,
17,
19,
19,
20,
20,
22,
22,
22,
22,
22,
22,
22,
22,
24,
22,
22,
22,
22,
22,
19,
20,
20,
18,
18,
16,
16,
15,
12,
12,
12,
9,
8,
7,
6,
5,
2,
2,
1,
-2,
-2,
-4,
-4,
-5,
-9,
-9,
-8,
-12,
-12,
-12,
-14,
-15,
-17,
-16,
-16,
-18,
-18,
-19,
-19,
-19,
-21,
-20,
-20,
-20,
-21,
-20,
-19,
-19,
-20,
-18,
-17,
-18,
-17,
-16,
-14,
-14,
-12,
-12,
-10,
-10,
-10,
-7,
-6,
-5,
-2,
-2,
-1,
0,
2,
3,
6,
6,
8,
8,
10,
10,
12,
12,
15,
16,
17,
18,
18,
18,
19,
20,
21,
22,
22,
22,
23,
22,
23,
23,
22,
22,
22,
22,
22,
20,
22,
20,
19,
18,
17,
16,
15,
14,
14,
12,
11,
10,
8,
7,
6,
4,
4,
2,
1,
0,
-2,
-4,
-6,
-6,
-7,
-8,
-10,
-10,
-13,
-14,
-14,
-15,
-15,
-16,
-17,
-18,
-18,
-18,
-20,
-19,
-20,
-20,
-19,
-21,
-20,
-20,
-20,
-18,
-19,
-18,
-18,
-17,
-16,
-15,
-15,
-13,
-14,
-12,
-10,
-10,
-9,
-7,
-6,
-4,
-4,
-2,
-1,
0,
2,
4,
4,
6,
6,
9,
10,
11,
12,
14,
14,
16,
16,
18,
18,
19,
20,
20,
21,
22,
21,
22,
22,
22,
22,
23,
22,
22,
22,
22,
22,
20,
20,
20,
18,
18,
18,
16,
16,
14,
12,
12,
10,
10,
8,
8,
6,
4,
2,
2,
0,
-1,
-2,
-4,
-5,
-6,
-9,
-10,
-10,
-11,
-12,
-13,
-14,
-15,
-16,
-17,
-17,
-17,
-19,
-19,
-19,
-20,
-20,
-20,
-20,
-20,
-21,
-20,
-20,
-20,
-18,
-18,
-18,
-17,
-18,
-16,
-14,
-13,
-12,
-12,
-10,
-10,
-10,
-8,
-6,
-6,
-3,
-2,
0,
2,
0,
3,
4,
6,
8,
8,
10,
12,
11,
12,
14,
16,
17,
18,
19,
20,
19,
20,
21,
22,
22,
22,
22,
22,
22,
22,
22,
24,
22,
22,
21,
20,
20,
19,
18,
20,
16,
16,
15,
14,
14,
12,
11,
10,
8,
7,
6,
4,
4,
2,
0,
0,
-3,
-4,
-5,
-7,
-7,
-10,
-10,
-10,
-12,
-13,
-14,
-16,
-15,
-18,
-18,
-17,
-18,
-19,
-19,
-20,
-20,
-22,
-21,
-20,
-20,
-20,
-20,
-20,
-18,
-20,
-18,
-18,
-16,
-16,
-14,
-14,
-13,
-12,
-10,
-10,
-8,
-7,
-6,
-6,
-4,
-4,
0,
0,
3,
3,
6,
6,
6,
8,
10,
10,
14,
14,
14,
15,
16,
17,
19,
18,
20,
20,
21,
22,
22,
22,
22,
22,
23,
23,
22,
22,
22,
22,
22,
21,
20,
20,
18,
18,
18,
16,
15,
14,
12,
12,
10,
9,
10,
7,
6,
6,
2,
2,
0,
-2,
-1,
-3,
-4,
-6,
-9,
-8,
-10,
-12,
-11,
-13,
-15,
-15,
-16,
-17,
-17,
-18,
-18,
-18,
-19,
-20,
-20,
-20,
-21,
-20,
-20,
-20,
-20,
-20,
-18,
-18,
-18,
-17,
-17,
-16,
-15,
-14,
-12,
-12,
-10,
-10,
-9,
-7,
-6,
-5,
-2,
-2,
0,
0,
2,
3,
4,
6,
8,
9,
10,
12,
12,
14,
14,
16,
18,
18,
19,
20,
20,
21,
21,
20,
22,
22,
23,
24,
22,
22,
22,
22,
22,
22,
22,
22,
20,
20,
19,
18,
16,
16,
14,
16,
14,
13,
10,
10,
8,
7,
6,
5,
4,
3,
0,
0,
-3,
-4,
-6,
-6,
-7,
-8,
-10,
-10,
-12,
-13,
-14,
-14,
-16,
-16,
-18,
-18,
-18,
-18,
-20,
-20,
-20,
-20,
-21,
-20,
-20,
-20,
-19,
-18,
-20,
-19,
-18,
-16,
-16,
-15,
-14,
-13,
-14,
-12,
-12,
-10,
-8,
-8,
-5,
-4,
-4,
-2,
-2,
1,
3,
4,
6,
6,
6,
8,
9,
11,
13,
14,
15,
16,
16,
16,
17,
20,
20,
20,
22,
22,
22,
22,
22,
24,
22,
22,
23,
22,
22,
22,
22,
22,
20,
20,
19,
18,
17,
16,
16,
15,
14,
11,
11,
9,
8,
7,
6,
5,
3,
2,
0,
-1,
-2,
-4,
-5,
-6,
-8,
-10,
-10,
-12,
-12,
-12,
-14,
-15,
-16,
-16,
-18,
-18,
-18,
-18,
-19,
-20,
-20,
-20,
-20,
-21,
-20,
-20,
-19,
-19,
-19,
-18,
-18,
-18,
-17,
-16,
-14,
-14,
-12,
-12,
-10,
-10,
-9,
-8,
-6,
-6,
-3,
-2,
0,
1,
2,
2,
5,
6,
8,
8,
10,
10,
12,
13,
15,
15,
17,
18,
18,
19,
20,
20,
22,
22,
22,
22,
22,
22,
24,
22,
23,
22,
22,
22,
22,
20,
22,
20,
20,
18,
17,
16,
16,
14,
14,
12,
12,
10,
8,
7,
6,
4,
4,
2,
2,
0,
-4,
-4,
-5,
-6,
-6,
-8,
-10,
-12,
-12,
-14,
-14,
-15,
-15,
-16,
-16,
-18,
-19,
-18,
-19,
-18,
-20,
-20,
-20,
-22,
-20,
-20,
-19,
-19,
-19,
-18,
-18,
-18,
-16,
-16,
-14,
-14,
-14,
-12,
-10,
-11,
-8,
-8,
-6,
-4,
-5,
-2,
0,
-1,
3,
4,
4,
6,
6,
9,
10,
10,
13,
14,
14,
16,
16,
18,
18,
18,
20,
20,
21,
22,
22,
22,
22,
22,
23,
22,
22,
22,
22,
22,
21,
22,
20,
20,
18,
18,
17,
17,
15,
14,
12,
12,
10,
10,
9,
8,
6,
6,
2,
2,
0,
0,
-2,
-2,
-5,
-6,
-8,
-9,
-10,
-12,
-12,
-12,
-14,
-15,
-16,
-16,
-18,
-18,
-18,
-18,
-19,
-19,
-20,
-20,
-20,
-20,
-22,
-20,
-20,
-20,
-18,
-18,
-18,
-17,
-18,
-16,
-15,
-14,
-12,
-12,
-10,
-10,
-10,
-8,
-6,
-5,
-2,
-2,
0,
1,
0,
2,
4,
6,
8,
8,
10,
11,
10,
14,
14,
16,
17,
18,
18,
20,
19,
20,
20,
22,
22,
22,
23,
23,
22,
23,
22,
22,
22,
22,
22,
20,
20,
20,
20,
18,
16,
16,
14,
14,
14,
12,
10,
10,
8,
7,
6,
4,
3,
2,
1,
0,
-3,
-4,
-5,
-6,
-7,
-9,
-10,
-10,
-14,
-13,
-14,
-16,
-15,
-16,
-18,
-18,
-19,
-18,
-20,
-20,
-20,
-20,
-20,
-20,
-20,
-20,
-20,
-20,
-19,
-18,
-18,
-18,
-16,
-16,
-14,
-14,
-13,
-12,
-10,
-10,
-8,
-7,
-6,
-6,
-4,
-2,
0,
0,
3,
4,
6,
6,
6,
8,
11,
10,
13,
14,
14,
16,
16,
18,
20,
18,
20,
20,
22,
22,
22,
22,
24,
22,
22,
22,
22,
22,
22,
22,
22,
21,
20,
19,
19,
18,
18,
16,
17,
14,
12,
11,
11,
9,
10,
8,
6,
4,
2,
2,
0,
-1,
0,
-2,
-4,
-6,
-8,
-10,
-10,
-12,
-11,
-12,
-13,
-16,
-17,
-17,
-18,
-18,
-18,
-18,
-18,
-19,
-20,
-21,
-20,
-20,
-20,
-20,
-19,
-20,
-19,
-18,
-18,
-16,
-16,
-15,
-14,
-14,
-14,
-12,
-10,
-10,
-8,
-7,
-6,
-5,
-4,
-2,
0,
1,
2,
3,
4,
6,
8,
9,
10,
11,
12,
12,
14,
16,
16,
18,
19,
20,
20,
20,
20,
21,
22,
22,
22,
23,
23,
22,
22,
22,
22,
22,
22,
21,
20,
20,
19,
18,
16,
16,
16,
14,
14,
12,
11,
10,
8,
6,
5,
4,
4,
2,
0,
0,
-2,
-4,
-6,
-6,
-6,
-10,
-10,
-10,
-12,
-14,
-15,
-15,
-16,
-16,
-18,
-18,
-18,
-18,
-20,
-19,
-20,
-20,
-21,
-20,
-20,
-20,
-20,
-20,
-19,
-18,
-18,
-18,
-16,
-15,
-16,
-13,
-13,
-12,
-10,
-10,
-8,
-6,
-6,
-4,
-4,
-2,
-1,
0,
2,
4,
5,
6,
7,
8,
10,
11,
14,
14,
14,
16,
16,
18,
18,
20,
20,
22,
21,
22,
22,
22,
22,
23,
23,
22,
22,
22,
22,
22,
21,
22,
20,
20,
18,
18,
18,
16,
16,
14,
12,
12,
10,
9,
9,
7,
6,
6,
3,
2,
0,
-1,
-2,
-4,
-5,
-6,
-8,
-9,
-10,
-10,
-12,
-13,
-14,
-15,
-16,
-17,
-17,
-18,
-18,
-18,
-19,
-20,
-19,
-20,
-20,
-20,
-20,
-21,
-20,
-20,
-18,
-19,
-17,
-16,
-16,
-16,
-14,
-14,
-12,
-12,
-10,
-9,
-8,
-8,
-6,
-5,
-3,
-2,
0,
2,
2,
3,
6,
6,
8,
8,
10,
12,
12,
13,
14,
15,
17,
17,
19,
20,
20,
20,
22,
22,
22,
22,
23,
22,
22,
23,
23,
23,
22,
22,
22,
20,
20,
20,
20,
19,
16,
16,
16,
14,
14,
12,
11,
11,
8,
7,
6,
4,
4,
3,
0,
0,
-3,
-4,
-5,
-6,
-7,
-9,
-10,
-10,
-13,
-13,
-14,
-16,
-16,
-16,
-18,
-17,
-19,
-19,
-19,
-20,
-20,
-20,
-20,
-20,
-21,
-20,
-18,
-18,
-20,
-19,
-18,
-18,
-16,
-16,
-14,
-13,
-14,
-12,
-11,
-10,
-8,
-8,
-6,
-4,
-4,
-3,
0,
0,
3,
3,
5,
6,
6,
8,
10,
10,
13,
13,
16,
16,
16,
16,
18,
19,
20,
20,
22,
21,
22,
22,
22,
22,
23,
23,
22,
22,
22,
22,
21,
22,
20,
20,
18,
18,
18,
16,
16,
14,
12,
12,
10,
9,
8,
7,
6,
6,
3,
2,
0,
-2,
-2,
-4,
-4,
-6,
-8,
-8,
-10,
-12,
-12,
-13,
-14,
-14,
-16,
-17,
-18,
-18,
-18,
-19,
-20,
-19,
-20,
-20,
-21,
-20,
-21,
-20,
-20,
-20,
-18,
-18,
-18,
-18,
-18,
-16,
-15,
-14,
-12,
-12,
-10,
-10,
-10,
-8,
-7,
-5,
-2,
-2,
0,
1,
0,
3,
4,
6,
8,
8,
10,
12,
11,
14,
14,
16,
18,
17,
18,
19,
19,
20,
20,
22,
23,
22,
22,
22,
22,
22,
22,
22,
23,
22,
22,
20,
20,
20,
19,
18,
18,
16,
15,
14,
14,
12,
11,
10,
8,
6,
6,
4,
4,
3,
0,
0,
-2,
-4,
-6,
-6,
-6,
-8,
-10,
-11,
-12,
-13,
-14,
-15,
-15,
-16,
-17,
-18,
-18,
-19,
-19,
-20,
-20,
-20,
-20,
-20,
-20,
-20,
-19,
-20,
-20,
-19,
-19,
-17,
-16,
-16,
-14,
-14,
-14,
-12,
-10,
-10,
-8,
-8,
-5,
-5,
-5,
-2,
0,
1,
2,
3,
6,
6,
6,
9,
10,
10,
12,
13,
16,
16,
16,
18,
18,
20,
20,
20,
22,
22,
22,
22,
22,
24,
22,
22,
23,
22,
22,
22,
22,
22,
20,
19,
19,
18,
18,
17,
16,
15,
12,
11,
12,
10,
9,
7,
6,
5,
2,
2,
1,
-1,
-2,
-4,
-5,
-6,
-8,
-10,
-9,
-11,
-11,
-14,
-14,
-15,
-17,
-17,
-16,
-18,
-18,
-18,
-18,
-20,
-20,
-20,
-20,
-21,
-20,
-20,
-20,
-20,
-18,
-18,
-17,
-18,
-16,
-16,
-15,
-14,
-13,
-12,
-10,
-10,
-9,
-7,
-6,
-6,
-4,
-2,
0,
0,
2,
3,
5,
6,
8,
9,
10,
11,
12,
13,
14,
16,
17,
18,
18,
19,
20,
20,
22,
22,
22,
22,
22,
22,
23,
23,
22,
22,
22,
22,
20,
20,
20,
20,
20,
18,
17,
16,
15,
14,
14,
12,
11,
10,
9,
8,
6,
4,
4,
2,
0,
0,
-2,
-3,
-6,
-7,
-7,
-8,
-10,
-11,
-12,
-13,
-14,
-16,
-16,
-17,
-18,
-18,
-18,
-18,
-20,
-20,
-20,
-20,
-20,
-21,
-20,
-20,
-20,
-19,
-18,
-18,
-18,
-18,
-16,
-15,
-15,
-13,
-12,
-12,
-10,
-10,
-8,
-6,
-6,
-5,
-4,
-2,
0,
-1,
3,
4,
4,
6,
6,
9,
10,
10,
14,
14,
14,
16,
16,
18,
18,
18,
20,
20,
20,
22,
22,
22,
22,
22,
23,
22,
22,
22,
22,
22,
22,
21,
20,
20,
18,
18,
18,
18,
15,
14,
13,
12,
10,
9,
9,
8,
6,
6,
4,
1,
0,
-1,
-2,
-4,
-6,
-6,
-8,
-9,
-10,
-10,
-12,
-13,
-14,
-15,
-16,
-17,
-17,
-18,
-18,
-18,
-18,
-19,
-20,
-20,
-20,
-20,
-20,
-20,
-20,
-20,
-19,
-20,
-18,
-16,
-18,
-16,
-14,
-14,
-12,
-12,
-10,
-9,
-9,
-8,
-6,
-5,
-3,
-3,
0,
2,
2,
4,
4,
6,
8,
8,
11,
12,
12,
14,
14,
16,
16,
16,
20,
19,
20,
20,
22,
22,
22,
22,
23,
23,
22,
22,
23,
24,
22,
22,
22,
20,
21,
20,
19,
19,
17,
16,
16,
14,
14,
12,
12,
10,
8,
7,
6,
4,
4,
3,
2,
0,
-4,
-4,
-5,
-6,
-6,
-8,
-10,
-10,
-13,
-14,
-14,
-16,
-16,
-16,
-17,
-17,
-19,
-18,
-19,
-20,
-19,
-20,
-20,
-19,
-20,
-20,
-19,
-20,
-19,
-18,
-18,
-16,
-16,
-16,
-14,
-14,
-14,
-12,
-10,
-10,
-8,
-8,
-5,
-5,
-4,
-2,
-1,
0,
3,
3,
5,
6,
7,
8,
10,
11,
13,
14,
14,
16,
16,
16,
18,
19,
20,
21,
21,
22,
22,
22,
22,
22,
23,
22,
22,
22,
22,
22,
22,
22,
20,
20,
18,
18,
18,
16,
16,
14,
13,
12,
10,
10,
10,
7,
6,
5,
3,
2,
0,
0,
-1,
-3,
-4,
-6,
-8,
-8,
-11,
-12,
-10,
-12,
-14,
-15,
-16,
-16,
-18,
-18,
-18,
-19,
-19,
-20,
-20,
-20,
-22,
-20,
-20,
-20,
-20,
-20,
-18,
-18,
-18,
-17,
-17,
-16,
-14,
-14,
-12,
-12,
-12,
-9,
-9,
-8,
-6,
-6,
-4,
-2,
-2,
2,
2,
4,
5,
6,
7,
8,
9,
12,
12,
14,
14,
14,
17,
17,
18,
20,
20,
20,
20,
20,
22,
22,
22,
24,
22,
22,
22,
22,
22,
22,
22,
22,
21,
20,
18,
18,
16,
16,
14,
16,
14,
12,
10,
10,
8,
7,
6,
6,
4,
2,
1,
-1,
-2,
-4,
-6,
-6,
-6,
-9,
-10,
-11,
-12,
-13,
-14,
-14,
-15,
-16,
-18,
-18,
-18,
-19,
-18,
-18,
-20,
-20,
-20,
-20,
-20,
-20,
-20,
-18,
-20,
-20,
-18,
-16,
-16,
-16,
-15,
-13,
-14,
-12,
-10,
-10,
-8,
-7,
-6,
-4,
-4,
-2,
-1,
1,
2,
4,
5,
6,
6,
8,
10,
12,
12,
14,
15,
16,
16,
17,
18,
19,
20,
20,
21,
22,
21,
22,
22,
24,
22,
22,
23,
22,
22,
22,
21,
21,
20,
19,
19,
18,
17,
16,
16,
15,
13,
12,
11,
10,
8,
6,
6,
6,
2,
1,
1,
-2,
-2,
-4,
-4,
-6,
-8,
-10,
-10,
-11,
-12,
-13,
-14,
-14,
-16,
-17,
-16,
-18,
-18,
-19,
-19,
-19,
-20,
-21,
-20,
-20,
-20,
-21,
-19,
-20,
-19,
-19,
-18,
-17,
-16,
-16,
-14,
-14,
-12,
-12,
-11,
-10,
-8,
-9,
-6,
-6,
-2,
-2,
-1,
0,
2,
2,
6,
6,
8,
9,
10,
11,
12,
13,
14,
16,
16,
18,
18,
19,
20,
20,
22,
20,
22,
22,
22,
22,
23,
22,
22,
22,
22,
22,
21,
20,
22,
20,
20,
18,
17,
16,
15,
14,
14,
12,
11,
9,
8,
7,
6,
4,
4,
2,
1,
-1,
-2,
-4,
-6,
-7,
-6,
-8,
-10,
-12,
-12,
-14,
-14,
-16,
-15,
-16,
-18,
-18,
-18,
-20,
-18,
-20,
-20,
-20,
-20,
-22,
-20,
-21,
-20,
-20,
-19,
-18,
-18,
-18,
-16,
-16,
-15,
-13,
-14,
-12,
-11,
-10,
-7,
-8,
-6,
-4,
-4,
-2,
-1,
0,
3,
3,
5,
7,
6,
8,
10,
10,
13,
13,
14,
16,
16,
17,
18,
18,
20,
20,
22,
22,
22,
22,
23,
22,
22,
22,
23,
22,
22,
22,
22,
21,
20,
20,
18,
18,
18,
17,
16,
14,
13,
12,
11,
10,
9,
8,
6,
5,
3,
2,
0,
0,
-2,
-3,
-6,
-6,
-8,
-9,
-10,
-11,
-12,
-13,
-15,
-14,
-16,
-16,
-18,
-18,
-18,
-18,
-20,
-19,
-20,
-20,
-20,
-20,
-21,
-20,
-20,
-20,
-18,
-19,
-18,
-18,
-18,
-16,
-16,
-14,
-12,
-12,
-10,
-9,
-10,
-8,
-6,
-5,
-2,
-2,
0,
0,
0,
3,
4,
6,
8,
8,
10,
11,
11,
13,
14,
16,
18,
17,
19,
20,
18,
20,
20,
22,
22,
22,
23,
22,
22,
22,
22,
23,
22,
22,
21,
21,
20,
19,
18,
18,
18,
16,
16,
14,
14,
12,
10,
10,
8,
6,
6,
4,
4,
2,
1,
0,
-2,
-4,
-4,
-6,
-7,
-10,
-10,
-10,
-12,
-14,
-14,
-16,
-16,
-18,
-17,
-17,
-18,
-20,
-20,
-20,
-20,
-21,
-20,
-20,
-20,
-20,
-20,
-20,
-18,
-18,
-18,
-18,
-16,
-15,
-14,
-14,
-14,
-12,
-10,
-10,
-8,
-8,
-6,
-6,
-4,
-2,
0,
0,
4,
3,
6,
6,
6,
8,
10,
10,
13,
13,
14,
15,
16,
17,
18,
18,
20,
20,
21,
22,
22,
22,
23,
22,
23,
22,
22,
22,
22,
22,
22,
21,
20,
20,
19,
18,
18,
17,
16,
14,
13,
12,
11,
9,
10,
6,
6,
4,
3,
2,
1,
-1,
-1,
-4,
-4,
-6,
-8,
-10,
-10,
-12,
-10,
-13,
-14,
-15,
-16,
-16,
-17,
-18,
-18,
-18,
-18,
-20,
-20,
-20,
-19,
-21,
-20,
-19,
-20,
-20,
-18,
-18,
-18,
-18,
-16,
-16,
-14,
-14,
-12,
-12,
-10,
-9,
-9,
-7,
-6,
-6,
-3,
-2,
0,
2,
2,
4,
5,
5,
8,
8,
10,
12,
12,
14,
14,
15,
16,
17,
19,
20,
19,
22,
21,
22,
22,
22,
22,
24,
23,
24,
23,
23,
22,
22,
21,
22,
20,
20,
19,
18,
16,
16,
15,
14,
14,
12,
10,
10,
8,
7,
6,
5,
3,
3,
0,
0,
-3,
-4,
-6,
-6,
-7,
-8,
-10,
-10,
-12,
-14,
-14,
-14,
-16,
-16,
-18,
-17,
-18,
-20,
-20,
-19,
-20,
-20,
-20,
-20,
-20,
-20,
-19,
-18,
-20,
-19,
-18,
-18,
-16,
-16,
-15,
-14,
-14,
-12,
-10,
-10,
-8,
-8,
-6,
-4,
-4,
-2,
-1,
0,
3,
4,
5,
6,
6,
8,
9,
11,
14,
14,
16,
16,
16,
18,
18,
20,
20,
21,
22,
22,
22,
22,
22,
23,
23,
22,
22,
22,
22,
22,
22,
22,
20,
20,
19,
18,
18,
16,
14,
16,
12,
12,
10,
10,
9,
8,
6,
5,
2,
2,
0,
-1,
-2,
-4,
-4,
-5,
-8,
-8,
-10,
-11,
-12,
-13,
-14,
-14,
-16,
-16,
-18,
-18,
-18,
-19,
-18,
-18,
-20,
-20,
-21,
-21,
-20,
-20,
-20,
-20,
-18,
-19,
-18,
-17,
-16,
-16,
-14,
-14,
-12,
-12,
-10,
-10,
-9,
-8,
-6,
-6,
-3,
-2,
0,
1,
2,
3,
6,
6,
8,
9,
10,
10,
13,
13,
16,
15,
16,
18,
18,
20,
20,
20,
22,
22,
22,
22,
22,
22,
24,
23,
24,
22,
22,
22,
21,
20,
22,
20,
20,
19,
17,
16,
15,
14,
14,
12,
12,
10,
8,
7,
6,
4,
4,
2,
2,
0,
-4,
-4,
-6,
-6,
-6,
-8,
-9,
-11,
-13,
-13,
-14,
-16,
-15,
-16,
-16,
-18,
-20,
-18,
-19,
-20,
-20,
-19,
-20,
-20,
-20,
-20,
-20,
-18,
-18,
-18,
-18,
-18,
-16,
-16,
-16,
-14,
-12,
-12,
-11,
-10,
-8,
-7,
-6,
-4,
-4,
-2,
0,
0,
2,
3,
5,
6,
6,
8,
10,
11,
12,
14,
14,
16,
16,
18,
18,
18,
20,
20,
21,
22,
22,
22,
22,
22,
22,
22,
22,
23,
22,
22,
22,
22,
19,
20,
19,
19,
18,
16,
15,
15,
13,
12,
10,
11,
9,
8,
6,
5,
2,
2,
0,
0,
-2,
-4,
-5,
-5,
-8,
-9,
-10,
-11,
-12,
-13,
-14,
-14,
-16,
-16,
-18,
-18,
-19,
-18,
-20,
-18,
-20,
-20,
-20,
-20,
-21,
-20,
-20,
-19,
-18,
-18,
-18,
-17,
-18,
-16,
-14,
-14,
-12,
-11,
-11,
-10,
-10,
-8,
-6,
-6,
-2,
-2,
0,
