2-Passive Filters/differentiator-integrator_behaviour/data/ALL0066/A0066CH2.CSV

Memory Length,4000,
Trigger Level,0.000E+00,
Source,CH2,
Probe,1X,
Vertical Units,V,
Vertical Scale,1.000E+01,
Vertical Position,4.000E-01,
Horizontal Units,s,
Horizontal Scale,2.500E-08,
Horizontal Position,0.000E+00,
Horizontal Mode,Main,
Sampling Period,1.000E-09,
Firmware,V1.04,
Time, ,
Mode,Fast,
Waveform Data,
-4,
-3,
0,
-1,
0,
3,
4,
5,
7,
8,
11,
11,
11,
13,
14,
15,
15,
17,
19,
18,
19,
19,
19,
19,
21,
21,
21,
21,
21,
21,
21,
21,
20,
20,
20,
19,
19,
19,
17,
17,
16,
15,
13,
13,
13,
12,
10,
9,
7,
5,
4,
3,
3,
0,
-1,
-1,
-4,
-6,
-8,
-9,
-9,
-11,
-13,
-13,
-15,
-17,
-19,
-20,
-19,
-21,
-21,
-21,
-23,
-24,
-24,
-25,
-25,
-25,
-25,
-25,
-25,
-24,
-24,
-25,
-24,
-23,
-21,
-21,
-20,
-18,
-17,
-17,
-17,
-15,
-13,
-12,
-11,
-9,
-7,
-7,
-5,
-5,
-1,
-1,
0,
4,
4,
4,
7,
7,
10,
11,
11,
13,
14,
15,
15,
16,
17,
18,
19,
19,
19,
20,
20,
20,
21,
21,
21,
21,
21,
21,
21,
21,
19,
20,
19,
18,
17,
17,
17,
16,
14,
15,
12,
11,
9,
8,
8,
7,
4,
5,
1,
0,
-2,
-3,
-3,
-5,
-7,
-7,
-11,
-11,
-14,
-13,
-15,
-16,
-18,
-17,
-21,
-20,
-21,
-22,
-23,
-23,
-23,
-24,
-25,
-25,
-24,
-24,
-25,
-24,
-24,
-24,
-22,
-21,
-21,
-21,
-20,
-18,
-17,
-17,
-16,
-13,
-12,
-12,
-11,
-9,
-7,
-5,
-5,
-3,
0,
-1,
1,
3,
5,
7,
7,
8,
11,
10,
11,
13,
15,
15,
16,
17,
18,
18,
19,
19,
20,
20,
21,
21,
21,
21,
21,
21,
21,
21,
21,
20,
20,
19,
20,
19,
17,
18,
16,
15,
15,
13,
14,
12,
9,
10,
7,
7,
5,
3,
4,
2,
-1,
-1,
-3,
-5,
-7,
-9,
-8,
-10,
-13,
-13,
-15,
-16,
-18,
-18,
-19,
-21,
-21,
-21,
-23,
-23,
-23,
-24,
-25,
-25,
-24,
-25,
-23,
-24,
-23,
-23,
-23,
-22,
-21,
-21,
-19,
-18,
-16,
-17,
-16,
-13,
-13,
-12,
-9,
-8,
-4,
-6,
-4,
-2,
-1,
0,
3,
4,
7,
5,
7,
9,
9,
11,
13,
13,
16,
15,
15,
16,
17,
18,
19,
19,
20,
21,
20,
21,
21,
21,
21,
21,
21,
21,
21,
20,
20,
20,
19,
19,
17,
17,
17,
16,
15,
15,
13,
13,
10,
8,
9,
7,
5,
4,
3,
1,
-1,
-3,
-1,
-4,
-7,
-7,
-9,
-10,
-13,
-14,
-13,
-16,
-18,
-17,
-19,
-20,
-22,
-22,
-22,
-24,
-23,
-24,
-25,
-25,
-25,
-25,
-25,
-24,
-23,
-24,
-23,
-21,
-21,
-21,
-19,
-20,
-17,
-17,
-16,
-13,
-13,
-12,
-11,
-9,
-7,
-7,
-4,
-1,
-2,
0,
2,
2,
5,
5,
7,
10,
9,
11,
12,
12,
15,
15,
16,
17,
17,
18,
19,
19,
20,
20,
20,
21,
21,
21,
21,
21,
21,
21,
20,
20,
20,
20,
19,
19,
18,
18,
16,
15,
13,
14,
13,
11,
11,
11,
7,
6,
3,
4,
3,
1,
0,
-1,
-4,
-5,
-9,
-8,
-9,
-11,
-12,
-13,
-15,
-16,
-19,
-18,
-19,
-21,
-21,
-21,
-23,
-24,
-25,
-25,
-25,
-25,
-24,
-25,
-25,
-25,
-23,
-23,
-23,
-22,
-21,
-21,
-19,
-19,
-17,
-16,
-16,
-15,
-12,
-12,
-10,
-9,
-7,
-6,
-5,
-3,
0,
0,
2,
3,
5,
6,
7,
8,
11,
11,
12,
12,
15,
15,
15,
16,
18,
19,
19,
19,
20,
20,
20,
21,
21,
21,
21,
21,
22,
21,
21,
20,
19,
19,
19,
19,
18,
18,
17,
15,
15,
14,
13,
11,
11,
10,
9,
6,
5,
4,
3,
-1,
-1,
-1,
-3,
-5,
-7,
-9,
-9,
-13,
-13,
-13,
-14,
-16,
-19,
-19,
-19,
-21,
-22,
-21,
-23,
-23,
-24,
-25,
-24,
-25,
-24,
-25,
-25,
-25,
-25,
-24,
-22,
-21,
-21,
-20,
-20,
-19,
-19,
-17,
-14,
-15,
-11,
-11,
-11,
-9,
-9,
-7,
-3,
-3,
0,
1,
1,
3,
3,
3,
9,
9,
11,
11,
11,
13,
13,
15,
17,
17,
19,
18,
19,
19,
19,
20,
21,
21,
21,
21,
21,
21,
21,
21,
21,
21,
19,
19,
19,
19,
18,
17,
17,
15,
13,
14,
13,
11,
8,
10,
9,
6,
3,
3,
3,
1,
-3,
-2,
-3,
-5,
-9,
-9,
-9,
-11,
-15,
-13,
-14,
-17,
-19,
-19,
-19,
-21,
-23,
-21,
-23,
-24,
-25,
-25,
-24,
-25,
-25,
-25,
-25,
-24,
-24,
-25,
-23,
-22,
-21,
-21,
-20,
-19,
-18,
-17,
-16,
-15,
-13,
-12,
-10,
-8,
-8,
-7,
-5,
-4,
-2,
-1,
2,
4,
4,
4,
7,
7,
9,
11,
12,
13,
14,
14,
15,
16,
17,
18,
18,
19,
19,
19,
20,
21,
21,
21,
21,
21,
21,
21,
21,
20,
20,
20,
19,
18,
17,
17,
17,
15,
15,
15,
12,
10,
9,
9,
8,
6,
5,
4,
1,
-1,
-3,
-3,
-3,
-5,
-7,
-7,
-11,
-12,
-14,
-13,
-15,
-16,
-17,
-17,
-20,
-21,
-22,
-23,
-23,
-23,
-24,
-24,
-25,
-25,
-25,
-25,
-25,
-24,
-23,
-23,
-23,
-22,
-21,
-21,
-21,
-19,
-17,
-17,
-16,
-15,
-13,
-11,
-12,
-9,
-7,
-7,
-5,
-3,
-1,
-1,
-1,
3,
5,
5,
7,
7,
10,
11,
11,
13,
15,
15,
16,
16,
18,
18,
18,
19,
20,
20,
21,
21,
21,
21,
21,
21,
21,
21,
21,
20,
20,
19,
19,
19,
17,
17,
16,
15,
14,
13,
13,
13,
9,
9,
8,
5,
4,
3,
2,
2,
-1,
-3,
-4,
-7,
-8,
-9,
-10,
-10,
-13,
-14,
-15,
-17,
-18,
-19,
-19,
-20,
-21,
-23,
-23,
-24,
-24,
-24,
-25,
-24,
-25,
-25,
-24,
-24,
-23,
-23,
-23,
-21,
-22,
-21,
-20,
-19,
-17,
-17,
-17,
-13,
-14,
-12,
-10,
-8,
-5,
-6,
-7,
-2,
-3,
-1,
1,
3,
6,
7,
5,
10,
9,
10,
12,
13,
15,
15,
15,
17,
17,
18,
19,
19,
20,
20,
21,
21,
21,
21,
21,
21,
21,
20,
21,
20,
20,
19,
19,
19,
17,
16,
17,
15,
14,
14,
13,
12,
9,
8,
8,
7,
3,
4,
3,
2,
-1,
-3,
-3,
-4,
-9,
-8,
-9,
-9,
-13,
-15,
-14,
-16,
-19,
-19,
-20,
-20,
-23,
-22,
-22,
-24,
-24,
-25,
-25,
-25,
-25,
-25,
-24,
-24,
-23,
-23,
-24,
-21,
-21,
-21,
-20,
-19,
-17,
-17,
-17,
-13,
-13,
-12,
-11,
-9,
-8,
-5,
-7,
-1,
-1,
-1,
1,
3,
4,
6,
5,
11,
10,
10,
11,
13,
14,
15,
15,
17,
17,
17,
19,
19,
19,
20,
20,
21,
21,
21,
21,
21,
22,
21,
20,
20,
20,
19,
19,
19,
18,
19,
16,
15,
13,
13,
13,
11,
10,
11,
7,
7,
4,
3,
3,
1,
-1,
0,
-5,
-5,
-8,
-9,
-9,
-11,
-12,
-12,
-16,
-17,
-19,
-19,
-20,
-21,
-21,
-21,
-23,
-24,
-24,
-25,
-25,
-25,
-24,
-25,
-24,
-25,
-23,
-23,
-23,
-22,
-21,
-20,
-20,
-20,
-17,
-17,
-17,
-15,
-11,
-11,
-11,
-9,
-7,
-7,
-6,
-3,
0,
0,
1,
3,
5,
5,
5,
8,
11,
11,
12,
12,
15,
15,
15,
16,
19,
18,
19,
19,
20,
20,
20,
21,
21,
21,
21,
21,
21,
21,
21,
21,
20,
19,
19,
18,
17,
19,
17,
16,
14,
14,
12,
11,
11,
11,
8,
7,
5,
5,
1,
0,
-1,
-1,
-3,
-4,
-8,
-8,
-10,
-13,
-13,
-12,
-15,
-16,
-18,
-18,
-20,
-21,
-21,
-21,
-22,
-23,
-24,
-23,
-24,
-25,
-25,
-25,
-24,
-23,
-24,
-23,
-23,
-23,
-21,
-21,
-20,
-19,
-17,
-17,
-16,
-15,
-11,
-11,
-11,
-9,
-8,
-7,
-5,
-3,
0,
0,
1,
3,
4,
5,
7,
8,
11,
11,
11,
13,
13,
15,
17,
16,
19,
19,
19,
19,
19,
20,
21,
21,
21,
21,
21,
21,
21,
21,
21,
20,
19,
19,
20,
19,
18,
17,
16,
15,
14,
14,
15,
11,
9,
11,
7,
7,
5,
4,
5,
0,
-1,
-1,
-4,
-5,
-8,
-8,
-7,
-11,
-13,
-13,
-15,
-16,
-19,
-19,
-17,
-21,
-21,
-21,
-23,
-24,
-24,
-25,
-24,
-25,
-25,
-24,
-25,
-24,
-24,
-24,
-23,
-23,
-21,
-20,
-20,
-18,
-17,
-17,
-15,
-16,
-13,
-11,
-10,
-8,
-5,
-7,
-4,
-5,
-1,
1,
3,
3,
6,
5,
8,
7,
9,
11,
12,
13,
15,
15,
17,
16,
18,
18,
19,
20,
20,
19,
19,
21,
21,
21,
21,
21,
21,
21,
21,
20,
20,
20,
19,
18,
17,
17,
17,
15,
15,
15,
13,
11,
9,
10,
9,
5,
6,
5,
3,
-1,
-1,
-3,
-3,
-7,
-5,
-7,
-9,
-12,
-13,
-14,
-14,
-17,
-17,
-17,
-19,
-21,
-21,
-21,
-23,
-24,
-23,
-24,
-25,
-25,
-25,
-24,
-25,
-24,
-23,
-24,
-22,
-22,
-21,
-20,
-21,
-19,
-16,
-17,
-15,
-15,
-12,
-11,
-11,
-9,
-5,
-6,
-4,
-3,
-1,
0,
1,
3,
7,
7,
8,
8,
10,
11,
11,
12,
15,
15,
17,
16,
17,
19,
18,
19,
19,
19,
21,
20,
22,
21,
21,
21,
21,
21,
21,
20,
20,
20,
19,
19,
18,
17,
17,
15,
13,
15,
13,
12,
11,
9,
8,
6,
3,
5,
3,
1,
0,
-1,
-3,
-6,
-9,
-7,
-9,
-11,
-12,
-13,
-14,
-17,
-19,
-17,
-19,
-20,
-21,
-23,
-22,
-24,
-25,
-24,
-24,
-25,
-25,
-25,
-24,
-25,
-24,
-24,
-23,
-22,
-21,
-21,
-20,
-20,
-17,
-17,
-16,
-13,
-12,
-12,
-9,
-9,
-7,
-5,
-5,
-2,
-1,
-1,
3,
3,
5,
6,
7,
9,
11,
10,
12,
13,
15,
15,
15,
17,
18,
18,
19,
19,
20,
20,
20,
21,
21,
21,
21,
21,
21,
21,
21,
20,
20,
20,
19,
19,
17,
17,
17,
15,
15,
14,
13,
12,
8,
9,
9,
5,
5,
3,
3,
1,
-3,
-2,
-1,
-6,
-7,
-9,
-9,
-11,
-14,
-14,
-13,
-16,
-18,
-19,
-20,
-20,
-22,
-23,
-21,
-24,
-25,
-24,
-25,
-25,
-25,
-25,
-25,
-25,
-24,
-24,
-23,
-21,
-21,
-21,
-21,
-19,
-17,
-17,
-15,
-13,
-12,
-13,
-11,
-9,
-7,
-8,
-3,
-1,
-1,
-1,
1,
3,
5,
4,
8,
9,
10,
9,
11,
12,
15,
14,
16,
17,
18,
17,
18,
19,
21,
20,
20,
20,
21,
21,
21,
21,
21,
21,
21,
20,
19,
20,
19,
19,
18,
17,
16,
15,
14,
13,
13,
11,
10,
10,
8,
7,
3,
3,
3,
1,
-1,
-1,
-3,
-4,
-8,
-9,
-9,
-11,
-13,
-13,
-15,
-17,
-18,
-19,
-19,
-21,
-21,
-21,
-23,
-23,
-25,
-25,
-25,
-25,
-25,
-25,
-24,
-24,
-24,
-24,
-24,
-22,
-21,
-21,
-19,
-19,
-17,
-17,
-18,
-14,
-12,
-13,
-9,
-8,
-7,
-7,
-7,
-3,
-1,
-1,
3,
4,
5,
5,
5,
8,
10,
10,
13,
14,
15,
15,
15,
17,
18,
18,
19,
19,
20,
20,
20,
21,
21,
21,
21,
21,
21,
21,
21,
21,
20,
20,
19,
19,
17,
17,
17,
16,
14,
15,
13,
12,
10,
7,
8,
7,
4,
3,
2,
1,
-1,
-1,
-3,
-3,
-9,
-7,
-11,
-11,
-13,
-14,
-15,
-15,
-18,
-18,
-20,
-21,
-21,
-22,
-22,
-23,
-25,
-24,
-25,
-25,
-25,
-24,
-25,
-24,
-24,
-24,
-23,
-22,
-21,
-21,
-21,
-19,
-19,
-17,
-15,
-15,
-11,
-11,
-12,
-9,
-8,
-7,
-4,
-3,
-1,
-1,
0,
4,
4,
5,
7,
8,
11,
11,
11,
13,
13,
15,
16,
17,
18,
18,
18,
19,
19,
21,
21,
20,
21,
21,
21,
21,
21,
21,
21,
20,
20,
20,
19,
19,
17,
18,
16,
16,
14,
13,
14,
12,
10,
10,
7,
6,
5,
3,
4,
1,
-1,
-1,
-4,
-6,
-8,
-9,
-9,
-11,
-13,
-13,
-15,
-17,
-17,
-19,
-18,
-20,
-21,
-21,
-23,
-24,
-24,
-24,
-24,
-25,
-25,
-25,
-25,
-24,
-23,
-23,
-23,
-23,
-21,
-21,
-20,
-19,
-16,
-17,
-17,
-14,
-14,
-12,
-11,
-9,
-5,
-6,
-5,
-3,
-3,
0,
1,
3,
7,
5,
6,
8,
9,
11,
11,
13,
15,
15,
15,
16,
17,
17,
19,
19,
20,
21,
20,
21,
21,
21,
21,
21,
21,
21,
21,
20,
20,
19,
19,
19,
17,
16,
16,
16,
14,
15,
13,
11,
10,
8,
8,
7,
4,
5,
3,
0,
-1,
-3,
-3,
-5,
-8,
-7,
-10,
-12,
-13,
-13,
-14,
-16,
-19,
-17,
-20,
-21,
-22,
-23,
-22,
-23,
-24,
-24,
-25,
-25,
-25,
-25,
-25,
-25,
-23,
-23,
-23,
-22,
-21,
-21,
-20,
-19,
-17,
-16,
-16,
-15,
-12,
-12,
-11,
-9,
-8,
-6,
-5,
-3,
-1,
-1,
1,
3,
4,
6,
6,
8,
9,
11,
11,
13,
15,
15,
16,
17,
18,
18,
18,
19,
20,
20,
21,
21,
21,
21,
21,
21,
21,
21,
20,
20,
19,
19,
20,
19,
17,
17,
16,
15,
14,
14,
13,
11,
9,
10,
7,
6,
3,
4,
3,
1,
-1,
-1,
-5,
-6,
-9,
-8,
-9,
-11,
-13,
-13,
-15,
-16,
-19,
-18,
-19,
-21,
-21,
-21,
-23,
-24,
-23,
-24,
-25,
-25,
-25,
-24,
-24,
-25,
-23,
-23,
-23,
-23,
-21,
-21,
-19,
-19,
-17,
-16,
-16,
-15,
-12,
-12,
-11,
-9,
-7,
-5,
-5,
-4,
-1,
-1,
1,
3,
5,
6,
7,
8,
11,
11,
11,
13,
15,
15,
15,
17,
18,
19,
19,
19,
20,
20,
20,
21,
21,
21,
21,
21,
21,
21,
21,
20,
20,
19,
19,
17,
17,
18,
17,
15,
14,
13,
13,
11,
10,
10,
9,
7,
5,
3,
2,
0,
-1,
-1,
-2,
-5,
-7,
-7,
-10,
-12,
-13,
-13,
-13,
-16,
-17,
-19,
-20,
-21,
-22,
-21,
-21,
-24,
-24,
-25,
-25,
-25,
-25,
-25,
-25,
-25,
-24,
-24,
-22,
-22,
-21,
-21,
-20,
-20,
-17,
-17,
-14,
-15,
-12,
-12,
-10,
-10,
-8,
-7,
-2,
-3,
1,
0,
1,
2,
4,
4,
8,
9,
11,
11,
11,
13,
14,
13,
16,
17,
19,
18,
19,
19,
19,
20,
21,
21,
21,
21,
21,
21,
21,
21,
21,
20,
19,
20,
20,
19,
18,
17,
17,
15,
14,
14,
14,
11,
11,
9,
8,
6,
3,
4,
4,
0,
-1,
-3,
-3,
-6,
-9,
-9,
-8,
-11,
-12,
-13,
-14,
-16,
-19,
-19,
-19,
-21,
-21,
-21,
-23,
-24,
-25,
-24,
-24,
-25,
-25,
-25,
-24,
-24,
-24,
-24,
-23,
-23,
-21,
-22,
-19,
-18,
-18,
-17,
-16,
-15,
-12,
-13,
-9,
-8,
-7,
-7,
-4,
-5,
-1,
-3,
2,
3,
4,
5,
7,
7,
10,
8,
12,
13,
14,
14,
15,
16,
17,
17,
19,
19,
19,
19,
20,
20,
21,
21,
20,
21,
21,
21,
21,
21,
20,
20,
19,
18,
17,
17,
17,
15,
15,
14,
13,
11,
9,
8,
9,
6,
5,
3,
2,
1,
-3,
-2,
-2,
-5,
-6,
-9,
-10,
-12,
-15,
-14,
-14,
-16,
-17,
-18,
-20,
-21,
-22,
-23,
-22,
-23,
-23,
-24,
-25,
-25,
-25,
-25,
-25,
-24,
-24,
-23,
-23,
-22,
-21,
-21,
-20,
-19,
-16,
-17,
-15,
-15,
-13,
-12,
-11,
-9,
-6,
-7,
-4,
-3,
-1,
-1,
1,
3,
6,
4,
7,
8,
9,
10,
11,
13,
15,
15,
16,
17,
19,
18,
19,
19,
19,
20,
20,
21,
21,
21,
21,
21,
21,
21,
21,
21,
20,
19,
19,
19,
17,
17,
17,
15,
15,
13,
13,
12,
10,
8,
8,
7,
5,
3,
3,
1,
0,
-3,
-3,
-5,
-7,
-9,
-9,
-11,
-13,
-15,
-14,
-16,
-17,
-20,
-19,
-21,
-21,
-21,
-23,
-24,
-24,
-24,
-25,
-25,
-25,
-25,
-24,
-25,
-23,
-23,
-23,
-22,
-22,
-21,
-19,
-18,
-16,
-17,
-17,
-15,
-13,
-12,
-9,
-8,
-4,
-7,
-5,
-3,
-2,
-1,
3,
3,
7,
5,
6,
8,
9,
10,
13,
14,
15,
15,
15,
17,
17,
17,
19,
19,
20,
20,
20,
21,
21,
21,
21,
21,
20,
20,
21,
21,
20,
19,
19,
19,
17,
17,
17,
16,
15,
14,
13,
12,
10,
8,
9,
6,
4,
4,
3,
1,
-1,
-3,
-3,
-5,
-8,
-8,
-9,
-10,
-13,
-15,
-14,
-16,
-19,
-18,
-20,
-20,
-21,
-23,
-23,
-23,
-24,
-24,
-25,
-25,
-25,
-25,
-24,
-25,
-23,
-23,
-23,
-21,
-21,
-21,
-21,
-18,
-17,
-17,
-15,
-13,
-13,
-13,
-11,
-9,
-8,
-7,
-4,
-1,
-1,
-1,
1,
3,
4,
6,
7,
9,
11,
9,
11,
12,
14,
15,
16,
17,
17,
18,
18,
19,
20,
20,
20,
20,
21,
21,
21,
21,
21,
21,
21,
20,
19,
20,
19,
19,
19,
18,
16,
15,
14,
13,
12,
12,
10,
11,
7,
6,
4,
4,
3,
1,
-1,
0,
-4,
-5,
-9,
-8,
-9,
-11,
-13,
-12,
-15,
-17,
-19,
-19,
-20,
-20,
-21,
-22,
-24,
-24,
-24,
-24,
-25,
-24,
-25,
-25,
-25,
-24,
-23,
-23,
-23,
-22,
-21,
-21,
-19,
-19,
-17,
-17,
-17,
-13,
-12,
-11,
-11,
-9,
-7,
-5,
-7,
-2,
-1,
0,
1,
3,
5,
5,
5,
9,
11,
11,
12,
12,
15,
15,
15,
17,
18,
18,
19,
19,
20,
20,
20,
21,
21,
21,
21,
21,
21,
21,
21,
20,
20,
19,
19,
18,
19,
18,
17,
17,
14,
15,
13,
11,
11,
11,
8,
8,
4,
5,
3,
0,
1,
0,
-3,
-3,
-8,
-7,
-10,
-11,
-12,
-12,
-15,
-15,
-19,
-18,
-20,
-21,
-21,
-21,
-23,
-23,
-25,
-24,
-25,
-25,
-25,
-25,
-25,
-24,
-24,
-24,
-22,
-22,
-20,
-21,
-21,
-19,
-18,
-17,
-16,
-14,
-10,
-11,
-11,
-8,
-9,
-6,
-4,
-3,
1,
1,
-1,
4,
3,
5,
7,
9,
11,
11,
11,
13,
14,
15,
16,
17,
19,
19,
19,
19,
19,
20,
21,
21,
21,
21,
21,
21,
21,
21,
21,
21,
19,
20,
19,
19,
17,
17,
17,
16,
15,
14,
14,
12,
9,
10,
7,
7,
5,
4,
3,
2,
-2,
-1,
-4,
-5,
-7,
-7,
-9,
-10,
-14,
-13,
-15,
-16,
-19,
-19,
-18,
-20,
-21,
-21,
-23,
-24,
-25,
-25,
-25,
-24,
-25,
-24,
-25,
-24,
-24,
-24,
-23,
-22,
-21,
-20,
-21,
-19,
-17,
-17,
-16,
-14,
-13,
-11,
-13,
-8,
-7,
-7,
-4,
-3,
-1,
1,
-1,
3,
5,
5,
7,
9,
9,
11,
9,
13,
14,
15,
16,
16,
17,
18,
18,
19,
20,
19,
21,
20,
21,
21,
21,
21,
21,
21,
21,
21,
21,
20,
19,
18,
17,
17,
16,
15,
15,
15,
11,
10,
10,
9,
8,
7,
5,
5,
1,
-1,
-2,
-2,
-3,
-5,
-7,
-7,
-11,
-13,
-14,
-13,
-14,
-16,
-17,
-17,
-20,
-21,
-23,
-22,
-22,
-24,
-24,
-24,
-25,
-25,
-25,
-25,
-25,
-24,
-24,
-23,
-23,
-23,
-21,
-21,
-21,
-19,
-17,
-17,
-16,
-16,
-12,
-11,
-11,
-9,
-7,
-6,
-5,
-5,
-1,
0,
1,
3,
7,
5,
5,
7,
10,
11,
11,
13,
15,
15,
16,
15,
17,
18,
18,
19,
20,
20,
21,
20,
21,
21,
22,
21,
21,
21,
21,
20,
20,
20,
19,
19,
17,
17,
16,
15,
13,
15,
14,
12,
11,
9,
7,
5,
3,
5,
3,
1,
-1,
-2,
-5,
-7,
-9,
-7,
-9,
-10,
-13,
-14,
-15,
-17,
-19,
-17,
-19,
-20,
-22,
-21,
-23,
-24,
-25,
-25,
-24,
-24,
-25,
-25,
-25,
-25,
-23,
-23,
-23,
-21,
-22,
-21,
-20,
-20,
-17,
-17,
-15,
-14,
-13,
-13,
-10,
-9,
-7,
-6,
-5,
-3,
-2,
-1,
1,
2,
5,
7,
7,
9,
9,
9,
12,
13,
15,
15,
16,
17,
17,
17,
19,
19,
21,
20,
20,
21,
21,
21,
21,
21,
21,
20,
21,
21,
21,
20,
19,
19,
17,
17,
17,
15,
15,
13,
12,
11,
9,
8,
10,
7,
4,
3,
2,
1,
-3,
-3,
-1,
-5,
-7,
-8,
-10,
-12,
-14,
-14,
-13,
-16,
-17,
-19,
-20,
-21,
-22,
-22,
-22,
-23,
-23,
-24,
-25,
-25,
-25,
-25,
-24,
-25,
-24,
-24,
-23,
-21,
-21,
-21,
-20,
-20,
-17,
-17,
-16,
-14,
-12,
-13,
-9,
-11,
-7,
-7,
-5,
-1,
-1,
-2,
1,
1,
5,
5,
7,
9,
11,
9,
12,
11,
14,
15,
16,
17,
18,
17,
19,
19,
19,
20,
21,
21,
21,
21,
21,
21,
22,
21,
21,
20,
20,
19,
19,
19,
19,
18,
17,
15,
15,
15,
13,
11,
11,
11,
8,
5,
4,
3,
3,
0,
1,
-1,
-3,
-6,
-8,
-9,
-9,
-12,
-11,
-13,
-15,
-16,
-17,
-17,
-19,
-21,
-21,
-21,
-23,
-25,
-24,
-24,
-25,
-25,
-24,
-25,
-24,
-25,
-23,
-24,
-24,
-22,
-21,
-21,
-19,
-19,
-17,
-17,
-17,
-15,
-12,
-12,
-9,
-9,
-6,
-7,
-7,
-4,
0,
-1,
3,
3,
5,
5,
5,
7,
11,
10,
12,
13,
15,
15,
15,
17,
17,
18,
19,
19,
20,
20,
19,
21,
21,
21,
21,
21,
21,
21,
21,
21,
19,
19,
19,
19,
17,
18,
17,
16,
15,
13,
13,
11,
11,
9,
8,
7,
5,
4,
3,
1,
-1,
-1,
-3,
-4,
-7,
-8,
-8,
-11,
-13,
-13,
-15,
-15,
-17,
-19,
-19,
-21,
-21,
-21,
-23,
-23,
-24,
-24,
-24,
-24,
-25,
-24,
-25,
-24,
-24,
-24,
-22,
-21,
-21,
-21,
-21,
-19,
-17,
-17,
-15,
-14,
-11,
-11,
-13,
-8,
-7,
-7,
-3,
-3,
0,
0,
-1,
4,
5,
4,
8,
9,
11,
11,
10,
13,
15,
15,
16,
17,
18,
19,
17,
19,
20,
20,
21,
21,
21,
21,
21,
21,
21,
21,
21,
21,
19,
19,
19,
18,
18,
17,
16,
16,
14,
13,
13,
11,
11,
10,
8,
7,
5,
3,
3,
0,
-1,
-1,
-3,
-4,
-8,
-9,
-9,
-11,
-12,
-13,
-15,
-15,
-18,
-19,
-19,
-21,
-21,
-21,
-23,
-23,
-24,
-25,
-23,
-25,
-25,
-25,
-24,
-24,
-23,
-24,
-23,
-23,
-21,
-21,
-19,
-18,
-17,
-17,
-16,
-15,
-12,
-12,
-9,
-8,
-5,
-6,
-6,
-3,
-1,
-1,
3,
4,
6,
5,
6,
7,
11,
10,
12,
14,
15,
15,
15,
16,
18,
18,
19,
19,
20,
21,
21,
21,
21,
21,
21,
21,
21,
21,
20,
20,
20,
20,
19,
19,
17,
17,
16,
16,
15,
15,
13,
12,
9,
9,
7,
7,
5,
5,
3,
1,
-1,
-1,
-4,
-5,
-7,
-7,
-9,
-11,
-13,
-13,
-15,
-16,
-17,
-18,
-20,
-20,
-21,
-21,
-23,
-23,
-24,
-25,
-25,
-25,
-25,
-25,
-25,
-25,
-23,
-23,
-23,
-22,
-21,
-20,
-21,
-19,
-17,
-17,
-15,
-13,
-11,
-11,
-12,
-9,
-8,
-7,
-3,
-2,
0,
0,
0,
3,
4,
5,
7,
9,
11,
11,
11,
13,
14,
15,
16,
17,
18,
18,
18,
19,
19,
20,
21,
20,
21,
21,
21,
21,
21,
21,
21,
20,
20,
20,
20,
19,
17,
17,
17,
15,
14,
15,
13,
13,
9,
11,
8,
7,
4,
5,
3,
3,
-1,
-1,
-3,
-5,
-8,
-7,
-9,
-9,
-13,
-13,
-15,
-17,
-19,
-18,
-19,
-20,
-22,
-21,
-23,
-24,
-24,
-25,
-24,
-25,
-25,
-25,
-25,
-25,
-24,
-23,
-23,
-22,
-21,
-21,
-20,
-19,
-17,
-17,
-16,
-14,
-14,
-12,
-11,
-9,
-7,
-5,
-5,
-3,
-3,
-1,
1,
3,
5,
6,
7,
9,
9,
11,
12,
13,
15,
15,
15,
17,
17,
19,
19,
19,
20,
20,
20,
21,
21,
21,
21,
21,
21,
21,
21,
20,
20,
20,
19,
19,
17,
18,
17,
15,
14,
15,
12,
11,
9,
11,
9,
7,
4,
4,
1,
1,
-2,
-1,
-1,
-5,
-8,
-7,
-10,
-11,
-13,
-13,
-13,
-16,
-18,
-18,
-20,
-21,
-21,
-21,
-21,
-24,
-25,
-24,
-25,
-25,
-25,
-25,
-24,
-25,
-23,
-24,
-23,
-22,
-21,
-21,
-20,
-20,
-18,
-17,
-16,
-13,
-12,
-11,
-11,
-9,
-9,
-7,
-5,
-3,
-1,
1,
1,
1,
3,
5,
6,
8,
10,
12,
12,
12,
15,
15,
15,
17,
18,
18,
18,
19,
19,
20,
20,
20,
21,
21,
21,
21,
21,
21,
21,
20,
19,
20,
19,
19,
18,
17,
16,
15,
13,
15,
14,
12,
9,
9,
7,
7,
3,
5,
4,
0,
-2,
-2,
-4,
-5,
-9,
-8,
-8,
-11,
-13,
-13,
-15,
-16,
-19,
-19,
-18,
-21,
-21,
-22,
-23,
-24,
-25,
-25,
-24,
-25,
-25,
-25,
-25,
-25,
-24,
-23,
-23,
-23,
-21,
-21,
-20,
-20,
-19,
-16,
-16,
-16,
-12,
-13,
-11,
-9,
-9,
-6,
-4,
-6,
-1,
-1,
1,
3,
3,
7,
7,
7,
10,
11,
11,
13,
13,
15,
16,
15,
18,
17,
19,
19,
19,
20,
20,
21,
21,
21,
21,
21,
21,
21,
21,
20,
20,
20,
19,
19,
17,
17,
17,
15,
14,
13,
12,
11,
8,
9,
9,
5,
5,
3,
1,
0,
-3,
-1,
-2,
-6,
-7,
-8,
-10,
-12,
-15,
-13,
-13,
-17,
-17,
-19,
-19,
-21,
-22,
-22,
-23,
-23,
-24,
-24,
-25,
-25,
-24,
-25,
-25,
-24,
-24,
-24,
-23,
-22,
-21,
-21,
-20,
-19,
-17,
-17,
-15,
-15,
-12,
-12,
-10,
-9,
-6,
-7,
