2-Passive Filters/differentiator-integrator_behaviour/data/ALL0066/A0066CH1.CSV

Memory Length,4000,
Trigger Level,0.000E+00,
Source,CH1,
Probe,1X,
Vertical Units,V,
Vertical Scale,5.000E+00,
Vertical Position,0.000E+00,
Horizontal Units,s,
Horizontal Scale,2.500E-08,
Horizontal Position,0.000E+00,
Horizontal Mode,Main,
Sampling Period,1.000E-09,
Firmware,V1.04,
Time, ,
Mode,Fast,
Waveform Data,
1,
1,
6,
4,
6,
7,
10,
12,
12,
12,
17,
16,
18,
19,
21,
22,
24,
24,
29,
26,
30,
30,
32,
33,
36,
34,
38,
35,
37,
36,
34,
36,
34,
32,
32,
30,
30,
26,
24,
24,
21,
20,
16,
16,
14,
12,
8,
8,
6,
4,
0,
1,
-1,
-3,
-5,
-6,
-8,
-8,
-12,
-10,
-12,
-13,
-16,
-15,
-17,
-18,
-20,
-20,
-22,
-23,
-26,
-26,
-27,
-28,
-28,
-29,
-28,
-28,
-28,
-28,
-28,
-27,
-26,
-26,
-26,
-22,
-21,
-20,
-20,
-18,
-16,
-14,
-14,
-11,
-8,
-7,
-6,
-4,
-2,
-2,
0,
2,
4,
5,
6,
8,
10,
10,
12,
14,
16,
16,
18,
20,
22,
22,
24,
25,
27,
28,
30,
31,
33,
32,
34,
36,
36,
38,
35,
36,
35,
36,
34,
36,
32,
32,
26,
28,
22,
25,
22,
22,
16,
18,
12,
12,
7,
9,
6,
5,
0,
2,
-2,
-2,
-6,
-5,
-6,
-8,
-11,
-10,
-13,
-12,
-16,
-15,
-17,
-16,
-20,
-20,
-24,
-23,
-26,
-26,
-26,
-24,
-28,
-26,
-30,
-29,
-28,
-30,
-30,
-23,
-26,
-24,
-24,
-23,
-20,
-23,
-22,
-14,
-14,
-12,
-12,
-12,
-7,
-10,
-8,
-4,
-1,
0,
1,
2,
6,
2,
6,
8,
11,
10,
13,
13,
16,
15,
17,
20,
22,
22,
24,
24,
28,
26,
27,
33,
34,
35,
34,
35,
38,
34,
34,
38,
36,
38,
34,
35,
34,
30,
27,
28,
25,
26,
22,
22,
18,
16,
12,
10,
8,
8,
6,
6,
2,
2,
-1,
-4,
-6,
-6,
-8,
-7,
-10,
-10,
-12,
-14,
-16,
-14,
-16,
-18,
-19,
-20,
-22,
-22,
-24,
-24,
-26,
-26,
-25,
-29,
-30,
-28,
-28,
-26,
-26,
-26,
-20,
-27,
-26,
-24,
-22,
-18,
-16,
-18,
-10,
-16,
-13,
-12,
-9,
-7,
-4,
-5,
0,
-2,
0,
1,
4,
4,
8,
6,
11,
10,
12,
12,
15,
17,
20,
19,
24,
21,
22,
25,
26,
29,
31,
30,
36,
31,
34,
35,
36,
38,
38,
38,
38,
34,
34,
32,
32,
32,
31,
30,
24,
24,
21,
18,
17,
17,
14,
14,
6,
8,
6,
2,
2,
1,
-1,
-1,
-6,
-5,
-6,
-9,
-10,
-10,
-12,
-12,
-15,
-16,
-18,
-18,
-20,
-20,
-21,
-21,
-24,
-26,
-26,
-28,
-28,
-28,
-28,
-26,
-29,
-28,
-28,
-28,
-25,
-25,
-22,
-22,
-24,
-22,
-18,
-17,
-14,
-14,
-12,
-10,
-10,
-8,
-6,
-4,
-1,
-2,
1,
2,
4,
4,
6,
8,
10,
10,
12,
13,
15,
16,
18,
20,
22,
22,
25,
25,
27,
26,
30,
32,
34,
34,
36,
36,
34,
36,
36,
37,
38,
36,
34,
36,
28,
32,
30,
28,
26,
24,
21,
22,
14,
17,
14,
12,
10,
8,
5,
4,
0,
2,
-1,
-2,
-4,
-5,
-7,
-8,
-12,
-10,
-12,
-12,
-14,
-15,
-17,
-17,
-22,
-20,
-21,
-22,
-23,
-24,
-26,
-26,
-30,
-29,
-28,
-28,
-26,
-26,
-27,
-26,
-26,
-27,
-24,
-22,
-18,
-20,
-18,
-17,
-14,
-16,
-12,
-10,
-6,
-8,
-4,
-5,
0,
-2,
0,
2,
4,
4,
8,
7,
10,
9,
12,
14,
16,
17,
19,
20,
22,
20,
24,
26,
28,
28,
30,
32,
33,
32,
34,
36,
38,
37,
38,
38,
36,
35,
36,
33,
32,
31,
30,
30,
25,
25,
24,
18,
17,
15,
14,
12,
10,
10,
7,
3,
0,
0,
-1,
-2,
-4,
-4,
-6,
-10,
-11,
-10,
-12,
-12,
-16,
-14,
-16,
-19,
-20,
-20,
-21,
-22,
-24,
-24,
-24,
-28,
-28,
-28,
-26,
-28,
-27,
-28,
-26,
-30,
-28,
-26,
-20,
-23,
-18,
-22,
-18,
-20,
-17,
-16,
-8,
-12,
-6,
-8,
-6,
-6,
-4,
-2,
2,
1,
5,
4,
6,
6,
9,
10,
14,
12,
16,
16,
18,
18,
20,
22,
26,
25,
28,
26,
30,
30,
31,
33,
38,
35,
38,
36,
38,
33,
33,
34,
38,
34,
30,
33,
32,
25,
22,
24,
22,
20,
16,
18,
15,
10,
6,
8,
6,
4,
0,
2,
0,
-2,
-5,
-5,
-8,
-8,
-11,
-10,
-11,
-14,
-16,
-15,
-16,
-18,
-20,
-19,
-20,
-24,
-26,
-26,
-24,
-28,
-30,
-27,
-26,
-32,
-31,
-28,
-26,
-28,
-28,
-25,
-21,
-26,
-22,
-21,
-17,
-18,
-16,
-14,
-11,
-13,
-9,
-7,
-6,
-6,
-2,
-2,
1,
1,
6,
4,
6,
7,
10,
10,
12,
13,
16,
16,
19,
19,
22,
22,
24,
24,
26,
28,
30,
30,
32,
34,
36,
34,
35,
37,
36,
36,
33,
36,
36,
32,
32,
32,
27,
28,
21,
26,
22,
20,
17,
18,
12,
12,
6,
9,
6,
4,
2,
2,
-3,
-2,
-6,
-5,
-6,
-8,
-10,
-10,
-12,
-12,
-16,
-14,
-16,
-18,
-20,
-20,
-22,
-23,
-28,
-24,
-25,
-28,
-28,
-26,
-28,
-29,
-30,
-28,
-26,
-28,
-25,
-25,
-24,
-24,
-22,
-20,
-18,
-18,
-14,
-14,
-12,
-12,
-7,
-8,
-6,
-4,
-1,
-1,
2,
2,
5,
4,
6,
8,
10,
10,
12,
14,
16,
16,
18,
18,
22,
22,
24,
24,
27,
28,
30,
30,
34,
34,
36,
35,
36,
36,
37,
36,
36,
35,
35,
34,
32,
32,
30,
26,
25,
23,
22,
22,
16,
17,
14,
11,
7,
6,
6,
4,
2,
1,
-2,
-4,
-6,
-6,
-6,
-8,
-11,
-10,
-12,
-14,
-16,
-16,
-16,
-18,
-20,
-19,
-21,
-23,
-26,
-26,
-26,
-28,
-28,
-27,
-28,
-30,
-30,
-30,
-26,
-28,
-24,
-24,
-24,
-24,
-24,
-21,
-17,
-18,
-12,
-14,
-12,
-10,
-10,
-8,
-4,
-6,
0,
-2,
1,
2,
3,
5,
7,
6,
11,
10,
12,
13,
15,
16,
18,
18,
22,
22,
24,
25,
26,
28,
30,
28,
34,
33,
36,
36,
34,
36,
36,
34,
36,
36,
36,
34,
28,
31,
29,
26,
23,
25,
23,
20,
14,
16,
12,
11,
8,
8,
8,
4,
0,
1,
-2,
-2,
-6,
-5,
-6,
-9,
-11,
-10,
-13,
-14,
-16,
-15,
-16,
-18,
-21,
-20,
-22,
-24,
-26,
-25,
-25,
-28,
-30,
-28,
-30,
-30,
-28,
-29,
-26,
-28,
-28,
-24,
-26,
-25,
-21,
-22,
-18,
-18,
-16,
-12,
-14,
-12,
-8,
-10,
-6,
-6,
-1,
0,
-1,
1,
4,
4,
6,
6,
10,
11,
12,
14,
17,
15,
18,
18,
22,
24,
23,
24,
28,
26,
30,
30,
32,
35,
33,
34,
36,
36,
38,
36,
36,
38,
32,
34,
32,
30,
30,
28,
26,
27,
19,
21,
16,
16,
13,
12,
10,
10,
4,
5,
1,
0,
-2,
-2,
-4,
-5,
-8,
-8,
-10,
-10,
-12,
-12,
-14,
-15,
-18,
-18,
-20,
-20,
-22,
-22,
-24,
-23,
-27,
-26,
-28,
-28,
-30,
-28,
-26,
-25,
-29,
-26,
-25,
-26,
-26,
-22,
-18,
-18,
-20,
-16,
-14,
-16,
-14,
-10,
-6,
-6,
-6,
-4,
-1,
-2,
-1,
2,
4,
4,
7,
8,
10,
10,
10,
13,
16,
17,
18,
20,
22,
22,
22,
24,
28,
30,
30,
32,
34,
32,
33,
36,
38,
38,
36,
38,
37,
36,
32,
36,
33,
33,
28,
30,
25,
25,
21,
22,
16,
16,
13,
13,
9,
9,
4,
4,
0,
0,
-2,
-2,
-6,
-5,
-6,
-8,
-11,
-10,
-12,
-12,
-16,
-14,
-16,
-18,
-20,
-20,
-22,
-22,
-24,
-24,
-27,
-26,
-28,
-28,
-29,
-28,
-26,
-28,
-30,
-26,
-26,
-24,
-24,
-24,
-18,
-22,
-20,
-16,
-16,
-14,
-11,
-12,
-7,
-8,
-6,
-4,
-3,
-1,
2,
0,
6,
4,
6,
8,
10,
10,
14,
12,
17,
16,
18,
19,
22,
23,
24,
24,
29,
28,
28,
32,
32,
34,
35,
34,
38,
36,
36,
37,
34,
36,
34,
34,
32,
30,
30,
29,
24,
25,
22,
20,
16,
16,
15,
12,
8,
8,
6,
4,
0,
0,
0,
-3,
-5,
-5,
-7,
-8,
-12,
-10,
-12,
-14,
-16,
-15,
-18,
-18,
-20,
-21,
-20,
-22,
-25,
-24,
-26,
-26,
-28,
-29,
-28,
-27,
-28,
-24,
-26,
-27,
-24,
-28,
-22,
-22,
-20,
-17,
-18,
-18,
-14,
-16,
-10,
-10,
-8,
-6,
-5,
-5,
-1,
-2,
2,
2,
4,
4,
7,
6,
11,
10,
12,
14,
16,
18,
19,
19,
22,
22,
24,
26,
28,
30,
30,
31,
34,
32,
36,
36,
38,
38,
38,
38,
36,
35,
35,
35,
34,
34,
30,
31,
24,
24,
22,
22,
20,
18,
14,
16,
8,
8,
6,
4,
2,
1,
-2,
0,
-6,
-5,
-8,
-10,
-10,
-10,
-12,
-12,
-16,
-15,
-18,
-18,
-18,
-19,
-22,
-21,
-26,
-25,
-26,
-26,
-24,
-26,
-26,
-24,
-28,
-28,
-29,
-26,
-22,
-23,
-21,
-20,
-20,
-20,
-20,
-16,
-12,
-12,
-10,
-8,
-8,
-8,
-7,
-4,
-1,
-1,
2,
2,
6,
4,
6,
8,
10,
10,
13,
14,
16,
16,
17,
20,
22,
24,
26,
25,
28,
28,
28,
31,
35,
34,
36,
38,
36,
38,
36,
37,
38,
37,
36,
36,
30,
34,
28,
28,
26,
24,
22,
22,
14,
18,
14,
12,
8,
7,
6,
4,
0,
2,
0,
-4,
-6,
-6,
-7,
-8,
-11,
-10,
-12,
-14,
-15,
-16,
-16,
-17,
-21,
-19,
-22,
-22,
-24,
-25,
-24,
-26,
-28,
-26,
-28,
-28,
-27,
-28,
-25,
-29,
-26,
-24,
-24,
-24,
-20,
-21,
-16,
-20,
-14,
-14,
-12,
-11,
-8,
-9,
-4,
-7,
0,
-2,
1,
1,
4,
4,
7,
6,
10,
10,
12,
13,
16,
16,
19,
18,
22,
22,
24,
26,
28,
28,
31,
29,
34,
34,
36,
35,
38,
36,
38,
34,
34,
37,
38,
33,
32,
31,
30,
26,
22,
25,
26,
18,
16,
16,
14,
11,
6,
9,
9,
4,
0,
0,
-2,
-2,
-6,
-6,
-5,
-9,
-10,
-10,
-13,
-12,
-16,
-15,
-15,
-18,
-20,
-20,
-22,
-23,
-26,
-24,
-23,
-28,
-28,
-29,
-26,
-30,
-30,
-28,
-24,
-29,
-26,
-27,
-22,
-24,
-21,
-21,
-15,
-19,
-14,
-15,
-11,
-12,
-8,
-8,
-5,
-6,
-2,
-2,
2,
1,
6,
4,
6,
7,
10,
10,
14,
14,
17,
16,
18,
18,
22,
22,
25,
24,
28,
28,
32,
30,
33,
32,
37,
34,
36,
37,
39,
35,
36,
34,
36,
34,
30,
32,
32,
26,
24,
24,
22,
23,
16,
18,
14,
11,
8,
8,
6,
6,
0,
2,
-2,
-2,
-4,
-6,
-7,
-7,
-10,
-10,
-12,
-13,
-15,
-16,
-16,
-16,
-21,
-20,
-20,
-23,
-24,
-26,
-24,
-26,
-29,
-26,
-27,
-30,
-28,
-28,
-26,
-26,
-26,
-24,
-24,
-24,
-20,
-21,
-17,
-18,
-14,
-14,
-14,
-12,
-9,
-8,
-5,
-5,
0,
-1,
-1,
2,
4,
5,
7,
6,
10,
10,
10,
13,
16,
16,
19,
18,
22,
22,
24,
24,
28,
28,
31,
30,
34,
34,
35,
35,
36,
36,
38,
36,
36,
37,
34,
32,
31,
32,
29,
28,
25,
26,
22,
20,
16,
17,
14,
12,
8,
9,
6,
4,
0,
0,
-2,
-2,
-6,
-6,
-6,
-9,
-10,
-10,
-13,
-12,
-14,
-14,
-16,
-18,
-20,
-19,
-22,
-23,
-24,
-24,
-26,
-28,
-30,
-28,
-28,
-29,
-27,
-28,
-28,
-26,
-28,
-24,
-23,
-25,
-18,
-22,
-18,
-16,
-16,
-12,
-12,
-12,
-6,
-10,
-6,
-4,
-2,
0,
1,
0,
5,
2,
6,
8,
8,
10,
13,
12,
17,
15,
18,
20,
21,
22,
24,
24,
29,
26,
30,
32,
32,
34,
36,
34,
38,
34,
38,
36,
34,
36,
34,
34,
33,
28,
32,
26,
24,
25,
20,
22,
18,
14,
15,
11,
8,
8,
4,
5,
1,
0,
0,
-3,
-6,
-6,
-7,
-7,
-11,
-12,
-12,
-14,
-15,
-16,
-17,
-18,
-20,
-21,
-21,
-24,
-26,
-25,
-26,
-26,
-26,
-30,
-27,
-30,
-30,
-26,
-28,
-28,
-22,
-28,
-24,
-24,
-23,
-18,
-18,
-18,
-12,
-16,
-12,
-12,
-9,
-6,
-6,
-5,
0,
-2,
0,
2,
3,
5,
8,
6,
10,
10,
12,
13,
16,
17,
19,
19,
23,
22,
24,
25,
26,
28,
30,
30,
34,
32,
34,
35,
35,
38,
36,
36,
38,
34,
35,
34,
30,
32,
28,
28,
25,
24,
22,
20,
16,
16,
13,
12,
8,
9,
6,
4,
2,
0,
-2,
-2,
-6,
-5,
-6,
-8,
-10,
-10,
-13,
-12,
-15,
-16,
-16,
-18,
-20,
-20,
-22,
-23,
-24,
-26,
-26,
-26,
-29,
-27,
-29,
-28,
-28,
-28,
-28,
-26,
-26,
-24,
-25,
-23,
-21,
-20,
-20,
-17,
-14,
-12,
-12,
-10,
-9,
-7,
-8,
-4,
-2,
-1,
1,
1,
4,
5,
6,
8,
10,
10,
12,
12,
16,
16,
18,
20,
22,
22,
24,
24,
28,
28,
28,
31,
33,
34,
34,
35,
36,
36,
36,
38,
36,
36,
33,
34,
30,
32,
28,
31,
24,
24,
20,
20,
15,
18,
13,
14,
8,
8,
5,
4,
0,
2,
-1,
-2,
-5,
-6,
-7,
-8,
-11,
-10,
-12,
-12,
-16,
-16,
-18,
-18,
-20,
-20,
-21,
-22,
-25,
-24,
-28,
-27,
-29,
-27,
-30,
-25,
-28,
-27,
-28,
-28,
-26,
-24,
-27,
-18,
-20,
-20,
-18,
-18,
-14,
-14,
-15,
-9,
-6,
-8,
-4,
-6,
-1,
-2,
-1,
2,
4,
5,
7,
7,
11,
10,
11,
14,
16,
16,
18,
19,
22,
22,
22,
26,
28,
28,
30,
30,
34,
33,
32,
38,
37,
37,
38,
36,
36,
38,
33,
34,
32,
31,
30,
30,
24,
26,
22,
19,
17,
16,
14,
14,
8,
9,
6,
2,
1,
0,
-1,
-2,
-4,
-5,
-6,
-10,
-10,
-10,
-12,
-12,
-16,
-15,
-17,
-18,
-20,
-21,
-22,
-22,
-25,
-24,
-26,
-28,
-28,
-29,
-26,
-28,
-28,
-26,
-29,
-28,
-26,
-26,
-20,
-23,
-19,
-20,
-20,
-18,
-15,
-15,
-10,
-12,
-7,
-7,
-6,
-6,
-2,
-2,
2,
1,
5,
4,
6,
7,
10,
10,
14,
12,
16,
16,
18,
18,
22,
22,
26,
24,
28,
28,
29,
30,
32,
33,
36,
36,
37,
38,
36,
35,
36,
34,
37,
36,
31,
33,
29,
26,
26,
23,
22,
22,
16,
18,
14,
10,
9,
7,
6,
5,
0,
2,
0,
-4,
-4,
-5,
-8,
-7,
-12,
-10,
-12,
-14,
-14,
-15,
-17,
-17,
-20,
-19,
-22,
-24,
-24,
-26,
-25,
-25,
-30,
-26,
-29,
-30,
-28,
-30,
-26,
-26,
-28,
-24,
-24,
-24,
-20,
-23,
-18,
-16,
-16,
-14,
-12,
-11,
-8,
-10,
-6,
-4,
-2,
-2,
0,
2,
4,
4,
6,
6,
10,
10,
12,
14,
16,
16,
18,
20,
22,
22,
24,
24,
27,
26,
31,
32,
32,
34,
34,
35,
38,
34,
36,
38,
33,
37,
36,
34,
34,
30,
28,
30,
21,
25,
23,
20,
18,
16,
12,
13,
6,
8,
6,
5,
2,
1,
-2,
-2,
-6,
-5,
-6,
-8,
-10,
-10,
-12,
-12,
-16,
-14,
-16,
-18,
-19,
-21,
-22,
-22,
-26,
-24,
-26,
-26,
-26,
-29,
-28,
-27,
-30,
-28,
-27,
-26,
-23,
-27,
-24,
-22,
-20,
-23,
-18,
-16,
-13,
-14,
-12,
-11,
-7,
-10,
-6,
-4,
-1,
0,
0,
2,
6,
3,
6,
8,
10,
10,
13,
13,
16,
14,
18,
19,
22,
22,
24,
25,
28,
27,
30,
32,
34,
32,
36,
36,
37,
35,
38,
36,
38,
34,
36,
35,
32,
30,
32,
26,
26,
23,
22,
22,
18,
16,
15,
10,
8,
7,
6,
5,
2,
0,
0,
-4,
-6,
-6,
-7,
-8,
-10,
-10,
-12,
-14,
-15,
-16,
-16,
-18,
-20,
-20,
-20,
-24,
-23,
-26,
-24,
-26,
-26,
-28,
-26,
-30,
-28,
-29,
-24,
-27,
-22,
-27,
-22,
-24,
-22,
-21,
-15,
-18,
-10,
-15,
-12,
-12,
-10,
-8,
-4,
-5,
0,
-2,
1,
1,
3,
4,
8,
6,
12,
10,
12,
12,
16,
16,
20,
19,
24,
22,
24,
24,
27,
27,
32,
30,
36,
32,
36,
34,
35,
36,
39,
36,
38,
36,
38,
32,
29,
32,
31,
28,
24,
24,
24,
19,
14,
16,
14,
12,
7,
9,
7,
4,
1,
1,
-2,
-2,
-6,
-5,
-6,
-8,
-10,
-11,
-12,
-13,
-16,
-15,
-16,
-18,
-21,
-20,
-20,
-22,
-24,
-25,
-24,
-28,
-29,
-28,
-26,
-30,
-28,
-28,
-25,
-28,
-28,
-24,
-22,
-26,
-20,
-22,
-16,
-18,
-15,
-12,
-10,
-12,
-8,
-9,
-6,
-5,
-2,
0,
0,
1,
4,
4,
6,
7,
10,
11,
13,
12,
16,
16,
18,
19,
22,
23,
24,
24,
28,
27,
31,
31,
32,
34,
36,
34,
36,
35,
38,
38,
36,
38,
34,
34,
30,
31,
31,
30,
25,
27,
20,
20,
15,
16,
14,
14,
10,
10,
4,
4,
0,
2,
-2,
-1,
-5,
-5,
-8,
-8,
-12,
-10,
-12,
-12,
-14,
-14,
-17,
-18,
-20,
-20,
-20,
-21,
-24,
-24,
-27,
-28,
-28,
-29,
-28,
-26,
-28,
-25,
-28,
-28,
-25,
-27,
-24,
-20,
-20,
-18,
-18,
-18,
-14,
-15,
-12,
-10,
-8,
-6,
-6,
-5,
0,
-1,
0,
2,
4,
4,
8,
7,
10,
10,
12,
14,
14,
16,
19,
19,
23,
21,
24,
26,
27,
29,
30,
30,
35,
32,
34,
38,
36,
38,
37,
36,
38,
35,
35,
36,
32,
33,
30,
28,
26,
24,
22,
22,
16,
17,
14,
13,
10,
9,
6,
4,
0,
0,
-1,
-2,
-4,
-4,
-6,
-10,
-10,
-10,
-12,
-13,
-14,
-15,
-16,
-18,
-20,
-20,
-21,
-22,
-23,
-26,
-25,
-26,
-30,
-26,
-28,
-30,
-24,
-29,
-26,
-26,
-28,
-25,
-22,
-26,
-17,
-21,
-18,
-17,
-17,
-14,
-11,
-12,
-6,
-8,
-6,
-6,
-4,
-2,
2,
0,
5,
4,
6,
7,
9,
10,
13,
12,
17,
16,
18,
19,
20,
22,
24,
22,
30,
27,
30,
31,
31,
34,
36,
33,
38,
36,
37,
37,
34,
36,
35,
32,
32,
31,
31,
28,
22,
24,
21,
18,
16,
17,
14,
12,
6,
8,
5,
4,
0,
2,
0,
-2,
-6,
-6,
-7,
-8,
-12,
-10,
-12,
-14,
-16,
-16,
-17,
-18,
-20,
-20,
-21,
-23,
-26,
-24,
-26,
-28,
-28,
-28,
-28,
-29,
-30,
-26,
-30,
-30,
-26,
-26,
-24,
-24,
-22,
-18,
-22,
-19,
-15,
-14,
-12,
-12,
-8,
-6,
-8,
-5,
-2,
-2,
0,
0,
5,
6,
5,
7,
10,
10,
12,
13,
16,
18,
16,
18,
22,
22,
24,
24,
26,
30,
28,
30,
34,
33,
35,
34,
36,
38,
33,
36,
35,
36,
34,
33,
32,
34,
26,
28,
22,
24,
22,
20,
18,
18,
11,
12,
7,
8,
6,
4,
2,
1,
-2,
-2,
-6,
-6,
-8,
-8,
-10,
-10,
-13,
-13,
-16,
-16,
-17,
-18,
-20,
-18,
-23,
-23,
-26,
-24,
-26,
-27,
-26,
-26,
-32,
-28,
-30,
-28,
-30,
-28,
-22,
-24,
-26,
-22,
-22,
-20,
-21,
-18,
-12,
-13,
-13,
-10,
-8,
-8,
-7,
-5,
0,
-2,
2,
2,
4,
4,
4,
8,
11,
10,
13,
14,
16,
16,
16,
19,
23,
23,
24,
24,
28,
28,
28,
30,
34,
34,
33,
36,
36,
37,
34,
36,
38,
36,
34,
36,
30,
34,
28,
27,
26,
23,
20,
22,
14,
19,
13,
12,
8,
6,
6,
4,
0,
2,
-1,
-2,
-6,
-6,
-6,
-8,
-12,
-10,
-12,
-14,
-16,
-16,
-18,
-18,
-21,
-19,
-22,
-23,
-25,
-25,
-26,
-26,
-28,
-26,
-30,
-30,
-29,
-29,
-27,
-28,
-26,
-24,
-26,
-24,
-22,
-22,
-18,
-20,
-14,
-13,
-14,
-12,
-10,
-10,
-4,
-6,
0,
-2,
0,
1,
3,
4,
8,
6,
10,
10,
12,
12,
15,
16,
19,
18,
22,
22,
22,
24,
27,
27,
30,
30,
34,
34,
34,
35,
36,
36,
36,
35,
34,
38,
35,
33,
32,
30,
28,
27,
22,
26,
23,
20,
16,
16,
14,
12,
6,
9,
8,
4,
2,
0,
-2,
-2,
-6,
-4,
-6,
-9,
-10,
-10,
-14,
-12,
-16,
-16,
-16,
-18,
-20,
-20,
-22,
-23,
-26,
-24,
-26,
-28,
-28,
-28,
-28,
-29,
-29,
-27,
-26,
-29,
-26,
-26,
-24,
-24,
-20,
-20,
-17,
-18,
-14,
-14,
-12,
-12,
-6,
-8,
-5,
-6,
-2,
-1,
2,
1,
6,
4,
6,
6,
10,
10,
14,
12,
16,
15,
18,
18,
22,
22,
24,
25,
28,
27,
30,
30,
33,
34,
36,
35,
37,
37,
38,
36,
38,
37,
36,
36,
32,
32,
29,
27,
28,
26,
22,
24,
17,
17,
12,
12,
10,
9,
6,
6,
1,
1,
-2,
-2,
-4,
-5,
-6,
-6,
-11,
-10,
-12,
-14,
-14,
-14,
-16,
-16,
-20,
-19,
-22,
-23,
-23,
-25,
-25,
-24,
-28,
-27,
-30,
-29,
-25,
-28,
-25,
-22,
-24,
-26,
-26,
-23,
-18,
-20,
-16,
-14,
-13,
-14,
-14,
-10,
-7,
-8,
-4,
-4,
-1,
-2,
-1,
2,
4,
4,
6,
8,
10,
10,
11,
13,
16,
16,
19,
20,
23,
22,
23,
25,
29,
27,
30,
32,
34,
33,
33,
36,
38,
36,
38,
38,
38,
37,
34,
34,
33,
30,
31,
30,
25,
26,
22,
20,
18,
16,
14,
13,
8,
9,
6,
4,
0,
0,
-1,
-4,
-6,
-6,
-6,
-8,
-10,
-10,
-12,
-13,
-15,
-16,
-17,
-18,
-20,
-21,
-20,
-21,
-24,
-24,
-26,
-26,
-26,
-30,
-26,
-28,
-26,
-28,
-27,
-26,
-24,
-26,
-22,
-26,
-18,
-22,
-18,
-16,
-15,
-15,
-10,
-14,
-7,
-10,
-6,
-5,
-2,
-2,
1,
-1,
4,
3,
6,
8,
9,
10,
13,
12,
16,
16,
18,
19,
22,
22,
25,
24,
28,
26,
30,
31,
34,
33,
37,
33,
38,
35,
38,
36,
37,
35,
36,
31,
32,
29,
34,
28,
25,
24,
22,
19,
16,
15,
17,
10,
8,
8,
6,
4,
0,
0,
0,
-4,
-5,
-6,
-8,
-8,
-12,
-10,
-10,
-14,
-15,
-16,
-17,
-17,
-20,
-20,
-20,
-22,
-24,
-25,
-26,
-28,
-27,
-30,
-24,
-28,
-28,
-28,
-26,
-30,
-24,
-28,
-20,
-24,
-20,
-20,
-16,
-19,
-12,
-16,
-10,
-12,
-8,
-7,
-5,
-6,
-1,
-2,
1,
2,
4,
4,
7,
7,
10,
10,
12,
14,
16,
17,
18,
18,
22,
21,
25,
24,
28,
28,
32,
30,
34,
32,
36,
36,
36,
37,
38,
36,
37,
34,
38,
35,
32,
32,
30,
29,
24,
24,
22,
20,
17,
17,
14,
14,
7,
8,
6,
5,
1,
2,
-1,
-2,
-6,
-6,
-7,
-8,
-10,
-10,
-12,
-12,
-16,
-15,
-16,
-18,
-20,
-20,
-21,
-22,
-24,
-25,
-25,
-26,
-28,
-26,
-27,
-29,
-26,
-28,
-28,
-26,
-26,
-24,
-22,
-24,
-20,
-19,
-20,
-16,
-14,
-14,
-12,
-12,
-8,
-7,
-8,
-4,
-2,
-1,
1,
1,
5,
4,
6,
8,
10,
10,
12,
12,
16,
16,
18,
19,
22,
22,
25,
24,
28,
28,
28,
32,
34,
34,
36,
35,
38,
38,
36,
38,
34,
36,
36,
34,
32,
34,
28,
29,
23,
26,
21,
21,
16,
18,
14,
14,
7,
10,
6,
4,
0,
2,
0,
-2,
-6,
-5,
-7,
-8,
-11,
-10,
-12,
-12,
-16,
-14,
-16,
-18,
-20,
-20,
-22,
-22,
-24,
-24,
-26,
-26,
-28,
-26,
-29,
-26,
-30,
-26,
-27,
-28,
-24,
-26,
-25,
-22,
-22,
-19,
-18,
-20,
-14,
-15,
-12,
-10,
-10,
-6,
-5,
-6,
0,
-2,
0,
2,
4,
4,
7,
6,
10,
9,
12,
13,
15,
16,
18,
19,
22,
21,
24,
26,
26,
29,
30,
29,
34,
33,
34,
36,
35,
38,
36,
35,
36,
36,
36,
34,
30,
32,
28,
28,
24,
25,
23,
20,
16,
16,
12,
12,
7,
7,
6,
4,
1,
1,
-2,
-2,
-6,
-4,
-6,
-10,
-10,
-10,
-12,
-12,
-15,
-14,
-16,
-18,
-20,
-19,
-22,
-23,
-25,
-24,
-26,
-28,
-30,
-28,
-30,
-30,
-28,
-29,
-26,
-28,
-28,
-25,
-25,
-25,
-20,
-22,
-18,
-19,
-16,
-14,
-13,
-12,
-8,
-8,
-6,
-6,
-2,
-1,
0,
1,
4,
4,
6,
7,
10,
10,
12,
13,
16,
16,
17,
18,
20,
23,
24,
24,
28,
28,
29,
30,
31,
34,
35,
34,
36,
36,
36,
35,
34,
36,
34,
33,
31,
34,
30,
26,
24,
25,
22,
20,
15,
18,
13,
10,
8,
8,
6,
4,
0,
2,
-2,
-4,
-6,
-6,
-7,
-7,
-12,
-10,
-12,
-14,
-16,
-16,
-18,
-18,
-21,
-20,
-22,
-23,
-26,
-26,
-26,
-28,
-30,
-26,
-29,
-30,
-28,
-28,
-28,
-27,
-28,
-23,
-26,
-24,
-20,
-20,
-19,
-18,
-18,
-12,
-14,
-11,
-7,
-8,
-6,
-4,
-4,
-1,
0,
2,
4,
4,
6,
8,
10,
10,
12,
14,
16,
16,
18,
19,
20,
23,
23,
25,
28,
28,
30,
30,
31,
34,
34,
34,
36,
36,
36,
36,
32,
38,
34,
34,
33,
30,
28,
28,
22,
26,
22,
21,
17,
16,
13,
13,
7,
10,
6,
5,
2,
0,
-2,
-2,
-6,
-6,
-6,
-8,
-10,
-10,
-12,
-14,
-16,
-14,
-16,
-18,
-20,
-21,
-22,
-22,
-26,
-24,
-26,
-26,
-27,
-28,
-29,
-28,
-30,
-28,
-28,
-25,
-24,
-26,
-24,
-24,
-21,
-20,
-20,
-15,
-12,
-14,
-11,
-12,
-8,
-8,
-7,
-4,
-1,
-1,
