2-Passive Filters/differentiator-integrator_behaviour/data/ALL0005/A0005CH1.CSV

Memory Length,4000,
Trigger Level,0.000E+00,
Source,CH1,
Probe,1X,
Vertical Units,V,
Vertical Scale,5.000E+00,
Vertical Position,0.000E+00,
Horizontal Units,s,
Horizontal Scale,2.500E-07,
Horizontal Position,0.000E+00,
Horizontal Mode,Main,
Sampling Period,1.000E-08,
Firmware,V1.04,
Time, ,
Mode,Fast,
Waveform Data,
4,
4,
6,
7,
8,
10,
11,
12,
14,
16,
17,
18,
19,
20,
22,
24,
25,
26,
28,
28,
30,
31,
33,
34,
34,
33,
32,
32,
30,
29,
28,
26,
24,
23,
21,
20,
18,
18,
16,
15,
14,
12,
11,
8,
8,
6,
6,
4,
2,
2,
0,
-2,
-4,
-5,
-6,
-8,
-9,
-10,
-11,
-13,
-14,
-16,
-17,
-18,
-20,
-22,
-22,
-25,
-26,
-27,
-28,
-30,
-31,
-32,
-32,
-33,
-32,
-30,
-29,
-28,
-26,
-23,
-22,
-20,
-19,
-18,
-18,
-16,
-14,
-12,
-10,
-10,
-8,
-6,
-6,
-4,
-2,
-2,
0,
2,
3,
4,
6,
7,
8,
9,
11,
12,
14,
15,
16,
18,
19,
21,
22,
23,
25,
26,
28,
28,
31,
32,
32,
33,
34,
34,
34,
32,
30,
28,
27,
26,
24,
22,
21,
20,
18,
18,
16,
15,
14,
12,
11,
10,
8,
6,
5,
4,
2,
1,
0,
-2,
-4,
-4,
-6,
-7,
-8,
-10,
-12,
-13,
-14,
-16,
-17,
-18,
-20,
-21,
-23,
-24,
-26,
-27,
-28,
-30,
-30,
-30,
-32,
-32,
-31,
-30,
-28,
-28,
-26,
-23,
-21,
-20,
-18,
-18,
-17,
-15,
-14,
-12,
-12,
-10,
-8,
-7,
-6,
-4,
-4,
-2,
0,
1,
3,
4,
6,
8,
8,
10,
11,
13,
14,
16,
16,
18,
19,
20,
22,
24,
26,
26,
28,
29,
30,
32,
33,
34,
34,
34,
33,
32,
30,
28,
27,
26,
24,
22,
22,
20,
18,
18,
16,
16,
14,
12,
11,
10,
8,
6,
5,
4,
2,
0,
-1,
-2,
-4,
-5,
-6,
-8,
-9,
-10,
-12,
-12,
-14,
-16,
-17,
-18,
-20,
-21,
-23,
-24,
-26,
-28,
-28,
-29,
-30,
-32,
-32,
-32,
-30,
-30,
-28,
-27,
-26,
-23,
-22,
-20,
-19,
-18,
-18,
-16,
-14,
-13,
-12,
-10,
-8,
-7,
-6,
-4,
-2,
-2,
0,
2,
3,
4,
6,
7,
8,
10,
11,
12,
14,
16,
16,
18,
19,
20,
22,
24,
24,
26,
28,
28,
30,
32,
32,
34,
34,
34,
34,
32,
30,
28,
26,
24,
24,
22,
21,
20,
19,
18,
16,
15,
14,
12,
10,
10,
8,
6,
6,
4,
2,
1,
0,
-2,
-4,
-5,
-6,
-7,
-8,
-10,
-12,
-14,
-14,
-16,
-17,
-18,
-20,
-22,
-22,
-24,
-26,
-27,
-28,
-29,
-30,
-31,
-31,
-31,
-30,
-30,
-28,
-26,
-25,
-24,
-22,
-20,
-19,
-18,
-16,
-15,
-14,
-13,
-12,
-10,
-8,
-7,
-6,
-4,
-2,
-2,
0,
1,
2,
4,
6,
6,
8,
10,
11,
12,
14,
15,
16,
18,
20,
21,
22,
23,
25,
26,
28,
28,
31,
32,
33,
34,
34,
34,
34,
33,
31,
28,
27,
26,
24,
22,
22,
20,
19,
18,
16,
15,
14,
12,
10,
9,
8,
6,
5,
4,
2,
1,
0,
-2,
-4,
-5,
-6,
-7,
-10,
-10,
-12,
-12,
-14,
-16,
-18,
-19,
-20,
-22,
-23,
-24,
-26,
-27,
-29,
-30,
-30,
-31,
-32,
-31,
-30,
-30,
-28,
-27,
-25,
-24,
-22,
-21,
-19,
-18,
-17,
-16,
-14,
-13,
-12,
-10,
-8,
-6,
-6,
-4,
-2,
-1,
0,
1,
2,
4,
6,
6,
8,
9,
10,
12,
14,
14,
16,
18,
19,
20,
22,
24,
24,
26,
28,
29,
30,
32,
32,
33,
34,
34,
34,
33,
31,
28,
27,
25,
24,
22,
21,
20,
20,
18,
16,
15,
14,
12,
10,
9,
8,
6,
5,
4,
3,
1,
0,
-2,
-4,
-4,
-6,
-7,
-8,
-10,
-12,
-14,
-15,
-16,
-17,
-19,
-20,
-22,
-24,
-24,
-26,
-28,
-28,
-30,
-30,
-32,
-32,
-32,
-30,
-30,
-29,
-26,
-26,
-24,
-22,
-20,
-19,
-18,
-17,
-16,
-14,
-12,
-12,
-10,
-8,
-6,
-6,
-4,
-2,
-2,
0,
2,
3,
4,
6,
7,
8,
10,
11,
12,
14,
14,
16,
18,
19,
20,
22,
24,
25,
26,
27,
28,
31,
31,
32,
34,
34,
34,
33,
32,
30,
29,
26,
26,
24,
22,
22,
20,
20,
18,
16,
15,
14,
12,
10,
10,
8,
6,
5,
4,
2,
1,
-1,
-2,
-3,
-6,
-6,
-8,
-8,
-11,
-12,
-13,
-14,
-16,
-18,
-18,
-19,
-22,
-23,
-24,
-26,
-28,
-28,
-30,
-31,
-32,
-32,
-32,
-32,
-31,
-29,
-28,
-25,
-24,
-22,
-20,
-19,
-18,
-16,
-16,
-14,
-12,
-12,
-10,
-8,
-7,
-5,
-4,
-3,
-2,
0,
2,
3,
4,
6,
7,
8,
10,
12,
12,
14,
15,
17,
18,
20,
20,
22,
22,
24,
26,
27,
28,
30,
32,
32,
34,
34,
33,
32,
32,
30,
28,
27,
25,
24,
22,
22,
20,
18,
18,
17,
15,
14,
12,
10,
10,
8,
7,
4,
4,
2,
0,
-1,
-2,
-3,
-5,
-6,
-8,
-8,
-10,
-11,
-13,
-14,
-16,
-18,
-18,
-20,
-22,
-22,
-25,
-26,
-28,
-28,
-30,
-31,
-32,
-32,
-32,
-32,
-30,
-30,
-28,
-26,
-24,
-22,
-20,
-19,
-18,
-16,
-16,
-14,
-12,
-12,
-10,
-8,
-7,
-6,
-4,
-4,
-2,
0,
1,
2,
4,
6,
6,
8,
10,
12,
12,
14,
16,
16,
18,
20,
21,
22,
24,
26,
26,
28,
29,
31,
32,
32,
33,
34,
34,
33,
32,
31,
28,
28,
25,
24,
22,
22,
20,
19,
18,
16,
15,
14,
12,
11,
10,
8,
6,
5,
4,
2,
1,
-1,
-2,
-4,
-6,
-6,
-8,
-9,
-10,
-12,
-12,
-14,
-16,
-17,
-18,
-20,
-21,
-23,
-25,
-26,
-27,
-28,
-28,
-30,
-31,
-32,
-32,
-31,
-30,
-30,
-27,
-26,
-24,
-22,
-20,
-18,
-18,
-17,
-16,
-14,
-14,
-12,
-10,
-9,
-8,
-6,
-4,
-3,
-2,
0,
1,
3,
4,
5,
6,
8,
10,
11,
12,
14,
15,
16,
18,
19,
21,
22,
24,
24,
26,
28,
29,
30,
32,
32,
34,
34,
34,
33,
32,
30,
29,
28,
24,
24,
22,
21,
21,
19,
18,
16,
15,
14,
12,
11,
10,
8,
6,
4,
4,
2,
1,
0,
-2,
-3,
-5,
-6,
-8,
-9,
-11,
-12,
-13,
-14,
-16,
-17,
-18,
-20,
-22,
-22,
-24,
-26,
-26,
-29,
-30,
-30,
-31,
-32,
-32,
-31,
-30,
-29,
-27,
-26,
-24,
-22,
-20,
-19,
-18,
-16,
-16,
-14,
-13,
-12,
-10,
-8,
-7,
-6,
-4,
-2,
-2,
0,
2,
2,
4,
6,
8,
8,
10,
11,
12,
14,
15,
16,
18,
20,
20,
22,
23,
26,
26,
28,
29,
30,
32,
33,
34,
34,
34,
34,
32,
30,
28,
27,
25,
24,
22,
22,
20,
19,
18,
16,
16,
14,
12,
10,
9,
8,
6,
6,
4,
2,
2,
-1,
-2,
-4,
-4,
-6,
-7,
-9,
-10,
-12,
-13,
-14,
-16,
-17,
-18,
-20,
-22,
-22,
-24,
-26,
-26,
-28,
-30,
-30,
-32,
-32,
-31,
-30,
-30,
-28,
-26,
-26,
-24,
-22,
-20,
-19,
-18,
-16,
-16,
-14,
-12,
-12,
-10,
-8,
-8,
-6,
-4,
-3,
-2,
0,
2,
4,
4,
6,
6,
8,
9,
10,
12,
14,
16,
16,
18,
20,
20,
22,
23,
24,
26,
28,
28,
30,
32,
32,
34,
34,
34,
34,
32,
31,
29,
27,
25,
24,
22,
22,
20,
18,
18,
16,
15,
14,
12,
10,
9,
8,
6,
5,
4,
2,
0,
-1,
-2,
-4,
-4,
-6,
-8,
-9,
-10,
-12,
-13,
-14,
-16,
-18,
-18,
-20,
-21,
-23,
-24,
-26,
-27,
-28,
-30,
-31,
-32,
-32,
-32,
-30,
-30,
-28,
-26,
-25,
-24,
-22,
-20,
-19,
-18,
-17,
-16,
-14,
-12,
-12,
-10,
-8,
-7,
-6,
-4,
-3,
-2,
0,
1,
3,
4,
6,
7,
8,
10,
11,
12,
14,
15,
16,
18,
20,
20,
22,
24,
25,
26,
27,
29,
30,
32,
32,
33,
33,
34,
34,
32,
31,
30,
28,
26,
24,
22,
21,
20,
19,
18,
16,
14,
14,
12,
11,
10,
8,
6,
6,
4,
2,
1,
0,
-2,
-4,
-5,
-6,
-7,
-9,
-11,
-12,
-13,
-14,
-16,
-17,
-18,
-20,
-22,
-23,
-24,
-26,
-26,
-28,
-30,
-30,
-32,
-32,
-32,
-32,
-30,
-29,
-28,
-26,
-23,
-22,
-20,
-20,
-18,
-17,
-16,
-14,
-13,
-12,
-10,
-8,
-7,
-6,
-4,
-4,
-1,
-1,
1,
2,
4,
6,
7,
8,
10,
12,
12,
14,
16,
16,
18,
18,
21,
22,
24,
24,
26,
28,
28,
30,
31,
32,
33,
34,
34,
32,
32,
31,
29,
27,
26,
24,
22,
22,
20,
19,
18,
17,
14,
14,
12,
10,
10,
8,
6,
6,
4,
2,
0,
0,
-2,
-4,
-5,
-6,
-8,
-8,
-10,
-12,
-13,
-14,
-16,
-17,
-18,
-20,
-22,
-23,
-24,
-26,
-28,
-28,
-30,
-30,
-32,
-33,
-32,
-32,
-30,
-29,
-26,
-25,
-23,
-22,
-20,
-20,
-18,
-17,
-16,
-15,
-13,
-11,
-10,
-8,
-7,
-6,
-4,
-3,
-2,
0,
2,
2,
4,
6,
7,
8,
10,
12,
12,
14,
15,
16,
18,
18,
20,
22,
24,
25,
26,
27,
29,
30,
32,
32,
32,
34,
33,
32,
32,
30,
28,
26,
26,
24,
22,
22,
20,
19,
18,
16,
15,
14,
12,
10,
10,
8,
6,
6,
4,
3,
1,
0,
-2,
-4,
-6,
-6,
-8,
-8,
-10,
-12,
-13,
-14,
-16,
-18,
-18,
-20,
-22,
-22,
-24,
-26,
-27,
-28,
-30,
-30,
-31,
-32,
-32,
-32,
-31,
-29,
-28,
-26,
-24,
-22,
-20,
-19,
-18,
-18,
-16,
-14,
-13,
-12,
-10,
-8,
-7,
-6,
-4,
-3,
-2,
0,
2,
3,
4,
6,
6,
8,
10,
12,
12,
14,
16,
16,
18,
20,
21,
22,
24,
24,
26,
28,
28,
30,
32,
32,
33,
33,
33,
33,
32,
30,
28,
27,
25,
24,
22,
22,
20,
19,
18,
16,
15,
14,
12,
11,
10,
7,
6,
6,
4,
2,
1,
0,
-2,
-3,
-5,
-6,
-8,
-8,
-10,
-12,
-14,
-14,
-16,
-17,
-18,
-20,
-21,
-22,
-24,
-26,
-26,
-28,
-30,
-30,
-31,
-31,
-32,
-32,
-31,
-28,
-26,
-24,
-24,
-22,
-20,
-19,
-18,
-17,
-16,
-14,
-14,
-12,
-10,
-8,
-6,
-6,
-4,
-3,
-2,
0,
2,
4,
4,
6,
6,
8,
10,
11,
14,
14,
15,
16,
18,
19,
20,
22,
24,
24,
26,
28,
30,
30,
32,
33,
34,
34,
34,
33,
32,
32,
28,
27,
26,
24,
23,
21,
20,
20,
18,
16,
15,
14,
12,
10,
9,
8,
6,
4,
4,
2,
0,
-1,
-2,
-4,
-5,
-6,
-8,
-9,
-10,
-12,
-13,
-14,
-16,
-18,
-18,
-20,
-20,
-23,
-24,
-26,
-28,
-28,
-30,
-30,
-31,
-32,
-32,
-30,
-30,
-29,
-28,
-26,
-24,
-22,
-20,
-20,
-18,
-16,
-16,
-14,
-13,
-11,
-10,
-8,
-7,
-6,
-4,
-4,
-2,
0,
2,
3,
4,
6,
6,
8,
8,
10,
12,
14,
15,
17,
18,
20,
21,
22,
24,
25,
26,
27,
29,
30,
32,
32,
33,
34,
34,
34,
33,
31,
28,
27,
24,
24,
22,
22,
20,
19,
18,
17,
15,
14,
12,
10,
10,
8,
6,
6,
4,
2,
2,
0,
-2,
-4,
-4,
-6,
-8,
-9,
-10,
-12,
-14,
-14,
-16,
-17,
-18,
-20,
-22,
-23,
-24,
-26,
-28,
-28,
-30,
-30,
-31,
-32,
-31,
-30,
-30,
-28,
-27,
-26,
-24,
-22,
-20,
-19,
-18,
-17,
-16,
-14,
-12,
-12,
-10,
-8,
-6,
-6,
-5,
-4,
-1,
0,
2,
2,
4,
5,
7,
8,
10,
11,
12,
14,
16,
16,
18,
19,
20,
22,
24,
24,
26,
28,
28,
30,
31,
32,
34,
34,
34,
32,
33,
31,
30,
28,
26,
24,
22,
21,
20,
19,
18,
17,
14,
14,
12,
10,
8,
8,
6,
6,
4,
2,
1,
0,
-2,
-4,
-5,
-6,
-8,
-8,
-10,
-11,
-14,
-14,
-16,
-17,
-18,
-20,
-22,
-22,
-24,
-26,
-28,
-29,
-30,
-30,
-32,
-32,
-32,
-30,
-30,
-28,
-26,
-26,
-24,
-22,
-21,
-19,
-18,
-17,
-15,
-14,
-13,
-12,
-10,
-8,
-8,
-6,
-4,
-4,
-2,
0,
2,
3,
4,
6,
6,
8,
10,
11,
12,
14,
15,
16,
18,
20,
20,
22,
24,
25,
26,
28,
30,
30,
32,
32,
33,
34,
34,
33,
32,
30,
29,
27,
26,
24,
23,
22,
20,
19,
17,
16,
16,
14,
12,
10,
10,
8,
6,
6,
4,
2,
1,
-1,
-2,
-4,
-5,
-6,
-8,
-8,
-10,
-12,
-13,
-14,
-16,
-18,
-18,
-20,
-22,
-23,
-24,
-26,
-26,
-28,
-30,
-31,
-32,
-32,
-32,
-31,
-30,
-28,
-27,
-26,
-24,
-22,
-20,
-18,
-18,
-18,
-16,
-14,
-14,
-12,
-10,
-8,
-8,
-6,
-4,
-4,
-2,
0,
2,
2,
4,
6,
7,
8,
10,
11,
12,
14,
15,
16,
18,
20,
21,
22,
24,
25,
26,
28,
29,
30,
31,
32,
33,
34,
33,
32,
32,
30,
28,
27,
25,
24,
22,
22,
20,
19,
18,
16,
15,
14,
12,
10,
10,
8,
6,
5,
4,
2,
1,
0,
-2,
-3,
-4,
-6,
-8,
-9,
-10,
-12,
-14,
-14,
-16,
-16,
-18,
-20,
-22,
-22,
-25,
-26,
-27,
-30,
-30,
-30,
-32,
-32,
-32,
-32,
-30,
-30,
-28,
-26,
-24,
-22,
-20,
-19,
-18,
-18,
-16,
-14,
-12,
-12,
-10,
-8,
-7,
-6,
-4,
-2,
-2,
0,
2,
2,
4,
5,
7,
8,
10,
11,
12,
14,
14,
16,
18,
18,
20,
22,
23,
24,
26,
28,
28,
30,
31,
33,
33,
34,
34,
33,
32,
30,
28,
26,
26,
24,
23,
22,
20,
19,
18,
16,
14,
14,
12,
10,
10,
8,
6,
5,
4,
2,
1,
0,
-2,
-3,
-6,
-6,
-8,
-9,
-10,
-12,
-13,
-14,
-16,
-18,
-18,
-20,
-21,
-23,
-24,
-26,
-27,
-28,
-30,
-30,
-30,
-32,
-32,
-31,
-30,
-29,
-28,
-26,
-24,
-22,
-20,
-19,
-18,
-18,
-16,
-14,
-12,
-12,
-10,
-8,
-7,
-6,
-5,
-3,
-2,
0,
2,
3,
4,
5,
7,
8,
10,
10,
12,
14,
15,
16,
18,
18,
21,
22,
23,
25,
26,
28,
29,
30,
32,
32,
34,
34,
34,
33,
32,
30,
28,
28,
25,
24,
22,
22,
20,
19,
18,
16,
15,
14,
12,
10,
9,
8,
6,
6,
4,
2,
2,
0,
-2,
-4,
-5,
-6,
-8,
-8,
-10,
-12,
-13,
-14,
-16,
-16,
-18,
-20,
-22,
-22,
-24,
-26,
-27,
-28,
-30,
-30,
-32,
-32,
-32,
-31,
-30,
-29,
-26,
-26,
-24,
-22,
-20,
-19,
-18,
-17,
-15,
-14,
-13,
-11,
-10,
-8,
-8,
-6,
-4,
-4,
-2,
0,
1,
4,
4,
6,
7,
8,
10,
12,
12,
14,
15,
16,
18,
19,
21,
22,
24,
24,
26,
27,
28,
30,
32,
32,
34,
34,
34,
34,
32,
30,
29,
27,
26,
24,
22,
22,
20,
20,
18,
16,
15,
14,
12,
11,
10,
8,
6,
6,
4,
2,
1,
0,
-2,
-3,
-5,
-6,
-8,
-10,
-10,
-12,
-13,
-14,
-15,
-17,
-18,
-20,
-22,
-22,
-24,
-26,
-27,
-29,
-30,
-30,
-31,
-32,
-32,
-32,
-30,
-28,
-28,
-26,
-23,
-22,
-21,
-20,
-18,
-16,
-16,
-14,
-13,
-12,
-10,
-8,
-7,
-6,
-4,
-3,
-2,
0,
2,
2,
4,
6,
7,
8,
10,
11,
12,
14,
15,
16,
18,
19,
20,
22,
23,
24,
26,
28,
29,
30,
32,
32,
34,
34,
34,
33,
32,
30,
29,
28,
25,
24,
22,
20,
20,
19,
18,
16,
16,
14,
12,
11,
9,
8,
6,
6,
4,
2,
0,
0,
-2,
-4,
-5,
-6,
-7,
-9,
-10,
-12,
-14,
-14,
-16,
-17,
-18,
-20,
-22,
-23,
-25,
-26,
-26,
-28,
-30,
-32,
-32,
-32,
-31,
-30,
-30,
-28,
-27,
-26,
-24,
-22,
-21,
-19,
-18,
-17,
-16,
-15,
-13,
-12,
-10,
-8,
-7,
-6,
-4,
-2,
-2,
0,
1,
3,
4,
6,
7,
8,
10,
11,
12,
14,
15,
16,
18,
18,
20,
22,
23,
25,
26,
28,
29,
30,
31,
32,
33,
34,
33,
34,
32,
31,
29,
27,
25,
24,
22,
22,
20,
19,
18,
16,
16,
14,
12,
11,
10,
8,
7,
6,
4,
2,
0,
-1,
-2,
-3,
-4,
-6,
-8,
-9,
-10,
-12,
-13,
-14,
-16,
-18,
-18,
-20,
-22,
-23,
-24,
-26,
-27,
-28,
-30,
-30,
-32,
-32,
-32,
-32,
-30,
-30,
-28,
-26,
-23,
-22,
-20,
-20,
-18,
-16,
-16,
-14,
-13,
-12,
-10,
-8,
-7,
-6,
-4,
-2,
-2,
0,
2,
3,
4,
6,
6,
8,
10,
11,
12,
14,
15,
16,
17,
19,
21,
22,
24,
25,
26,
26,
29,
30,
32,
32,
33,
34,
34,
33,
32,
30,
28,
27,
26,
24,
22,
22,
20,
19,
18,
16,
15,
14,
12,
10,
9,
8,
6,
5,
4,
2,
1,
0,
-2,
-4,
-6,
-6,
-8,
-9,
-10,
-12,
-14,
-14,
-16,
-17,
-18,
-20,
-22,
-22,
-24,
-26,
-26,
-28,
-30,
-30,
-32,
-32,
-32,
-32,
-31,
-30,
-28,
-26,
-23,
-22,
-20,
-18,
-18,
-18,
-16,
-14,
-14,
-12,
-10,
-8,
-8,
-6,
-4,
-3,
-2,
0,
1,
2,
4,
5,
7,
8,
10,
11,
13,
14,
14,
16,
18,
18,
20,
22,
23,
25,
26,
27,
28,
30,
32,
32,
33,
34,
33,
33,
32,
30,
29,
26,
25,
24,
22,
22,
20,
18,
18,
16,
15,
14,
12,
10,
10,
8,
6,
6,
4,
2,
1,
-1,
-2,
-4,
-4,
-6,
-8,
-8,
-10,
-12,
-13,
-14,
-16,
-17,
-20,
-20,
-22,
-22,
-24,
-26,
-26,
-30,
-30,
-30,
-32,
-32,
-32,
-31,
-30,
-30,
-28,
-26,
-24,
-22,
-20,
-20,
-18,
-17,
-16,
-14,
-12,
-12,
-10,
-9,
-8,
-6,
-5,
-3,
-2,
0,
2,
2,
4,
6,
6,
8,
10,
11,
12,
14,
15,
16,
18,
20,
20,
22,
24,
26,
26,
28,
29,
30,
32,
32,
33,
34,
33,
33,
32,
30,
28,
27,
26,
24,
22,
22,
20,
19,
18,
16,
15,
14,
12,
10,
10,
8,
6,
6,
4,
2,
0,
0,
-2,
-3,
-5,
-6,
-7,
-9,
-10,
-12,
-14,
-14,
-16,
-18,
-18,
-20,
-22,
-22,
-25,
-26,
-27,
-28,
-30,
-30,
-31,
-32,
-31,
-31,
-30,
-29,
-27,
-26,
-24,
-22,
-21,
-19,
-18,
-17,
-16,
-14,
-13,
-11,
-10,
-8,
-8,
-6,
-6,
-2,
-2,
0,
1,
2,
4,
6,
6,
8,
10,
11,
12,
13,
15,
16,
18,
18,
20,
22,
24,
24,
26,
28,
30,
30,
31,
32,
34,
34,
34,
34,
32,
30,
28,
27,
24,
24,
22,
22,
20,
19,
18,
16,
15,
13,
12,
10,
9,
8,
6,
4,
4,
2,
1,
-1,
-2,
-4,
-4,
-6,
-8,
-9,
-10,
-12,
-13,
-14,
-15,
-17,
-18,
-20,
-21,
-22,
-24,
-26,
-27,
-28,
-30,
-30,
-32,
-32,
-32,
-31,
-30,
-28,
-27,
-26,
-24,
-22,
-20,
-20,
-18,
-16,
-16,
-15,
-13,
-12,
-10,
-8,
-7,
-6,
-6,
-4,
-2,
0,
1,
2,
4,
6,
6,
8,
9,
11,
12,
14,
15,
16,
18,
19,
20,
21,
24,
24,
26,
27,
29,
30,
31,
33,
33,
34,
34,
33,
32,
31,
29,
28,
26,
24,
22,
20,
20,
20,
18,
17,
16,
14,
12,
10,
9,
8,
6,
5,
4,
2,
0,
-1,
-2,
-4,
-5,
-6,
-7,
-9,
-10,
-12,
-12,
-15,
-16,
-18,
-18,
-20,
-20,
-22,
-24,
-26,
-27,
-28,
-28,
-30,
-32,
-32,
-32,
-31,
-30,
-28,
-26,
-26,
-23,
-22,
-20,
-20,
-18,
-16,
-16,
-14,
-13,
-12,
-10,
-8,
-7,
-6,
-4,
-4,
-2,
0,
2,
3,
4,
5,
7,
8,
10,
11,
12,
14,
15,
16,
18,
20,
20,
22,
22,
25,
26,
28,
28,
30,
32,
32,
33,
34,
34,
34,
32,
31,
28,
26,
26,
24,
22,
22,
20,
19,
18,
16,
15,
14,
12,
11,
10,
8,
6,
6,
4,
2,
0,
0,
-2,
-4,
-6,
-6,
-7,
-8,
-10,
-12,
-13,
-14,
-16,
-17,
-19,
-20,
-22,
-22,
-24,
-26,
-26,
-28,
-29,
-30,
-32,
-32,
-32,
-31,
-30,
-29,
-28,
-26,
-24,
-22,
-20,
-19,
-18,
-17,
-16,
-14,
-13,
-11,
-10,
-8,
-7,
-6,
-4,
-4,
-2,
0,
2,
3,
4,
6,
7,
8,
10,
10,
12,
14,
15,
16,
18,
19,
20,
22,
24,
24,
26,
28,
29,
30,
32,
32,
33,
33,
33,
32,
32,
30,
29,
28,
26,
24,
23,
22,
20,
19,
18,
16,
15,
14,
12,
11,
10,
8,
6,
6,
4,
2,
1,
0,
-2,
-4,
-6,
-6,
-8,
-9,
-10,
-12,
-13,
-14,
-16,
-18,
-18,
-20,
-21,
-23,
-24,
-26,
-28,
-28,
-30,
-31,
-32,
-32,
-32,
-32,
-30,
-29,
-28,
-25,
-24,
-22,
-20,
-20,
-18,
-17,
-16,
-14,
-13,
-12,
-10,
-8,
-6,
-6,
-5,
-4,
-2,
0,
1,
2,
4,
6,
7,
8,
10,
11,
12,
14,
16,
16,
18,
19,
21,
22,
24,
24,
26,
27,
28,
30,
32,
32,
34,
33,
34,
33,
32,
30,
29,
27,
26,
24,
22,
22,
20,
18,
18,
16,
16,
13,
12,
10,
10,
8,
6,
5,
4,
2,
1,
-1,
-2,
-3,
-5,
-6,
-8,
-8,
-10,
-12,
-13,
-14,
-16,
-17,
-19,
-20,
-21,
-22,
-24,
-26,
-26,
-28,
-30,
-31,
-31,
-32,
-32,
-32,
-30,
-30,
-28,
-26,
-24,
-22,
-20,
-19,
-18,
-18,
-16,
-14,
-13,
-12,
-10,
-8,
-8,
-6,
-4,
-4,
-2,
0,
2,
2,
4,
6,
7,
8,
10,
11,
12,
14,
15,
17,
18,
20,
20,
22,
23,
24,
26,
28,
28,
30,
32,
32,
34,
34,
34,
33,
33,
30,
30,
26,
25,
24,
22,
22,
20,
20,
18,
16,
15,
14,
12,
10,
10,
8,
6,
6,
4,
2,
1,
0,
-2,
-4,
-5,
-6,
-7,
-8,
-10,
-12,
-12,
-14,
-16,
-17,
-18,
-20,
-21,
-23,
-24,
-26,
-28,
-28,
-30,
-30,
-31,
-32,
-32,
-32,
-30,
-29,
-27,
-26,
-24,
-22,
-20,
-18,
-18,
-18,
-16,
-14,
-14,
-12,
-10,
-8,
-6,
-6,
-5,
-3,
-2,
0,
1,
3,
4,
6,
6,
8,
10,
11,
12,
14,
15,
16,
18,
19,
20,
22,
23,
25,
26,
28,
29,
30,
32,
32,
34,
34,
34,
33,
32,
31,
29,
27,
25,
24,
23,
22,
20,
20,
18,
16,
15,
14,
12,
10,
9,
8,
6,
6,
4,
2,
1,
-1,
-2,
-3,
-4,
-6,
-8,
-9,
-10,
-12,
-13,
-14,
-16,
-16,
-18,
-20,
-22,
-22,
-24,
-26,
-26,
-28,
-29,
-30,
-31,
-32,
-32,
-31,
-30,
-29,
-27,
-24,
-24,
-22,
-20,
-20,
-18,
-17,
-15,
-14,
-14,
-12,
-10,
-9,
-8,
-6,
-4,
-2,
-2,
0,
1,
2,
4,
6,
6,
8,
10,
11,
13,
14,
15,
16,
18,
19,
20,
22,
23,
25,
26,
28,
28,
30,
32,
33,
34,
34,
34,
34,
32,
32,
30,
27,
26,
24,
22,
21,
20,
20,
18,
16,
15,
14,
12,
11,
10,
8,
6,
6,
4,
2,
2,
0,
-2,
-3,
-5,
-6,
-7,
-8,
-10,
-11,
-13,
-14,
-16,
-17,
-18,
-20,
-20,
-23,
-24,
-26,
-27,
-28,
-29,
-30,
-31,
-32,
-32,
-30,
-30,
-29,
-26,
-25,
-24,
-22,
-21,
-20,
-18,
-17,
-16,
-14,
-14,
-12,
-10,
-8,
-7,
-6,
-4,
-3,
-2,
0,
2,
2,
4,
6,
7,
8,
10,
12,
12,
14,
15,
16,
18,
20,
20,
22,
23,
24,
26,
28,
29,
30,
32,
33,
34,
34,
34,
33,
34,
31,
30,
28,
25,
24,
23,
22,
20,
19,
18,
16,
15,
14,
12,
11,
9,
9,
6,
5,
3,
2,
1,
0,
-2,
-4,
-5,
-6,
-8,
-9,
-10,
-12,
-14,
-14,
-16,
-17,
-18,
-20,
-22,
-24,
-24,
-26,
-28,
-28,
-30,
-30,
-32,
-32,
-32,
-31,
-30,
-28,
-27,
-26,
-24,
-22,
-20,
-19,
-18,
-18,
-16,
-14,
-13,
-12,
-10,
-8,
-8,
-6,
-4,
-2,
-2,
0,
2,
3,
4,
6,
6,
8,
10,
11,
12,
13,
15,
16,
18,
19,
20,
22,
23,
25,
26,
28,
29,
30,
32,
32,
33,
34,
34,
32,
32,
31,
28,
27,
26,
24,
23,
20,
20,
19,
18,
16,
16,
14,
12,
10,
10,
8,
6,
5,
4,
2,
1,
0,
-2,
-4,
-5,
-6,
-8,
-8,
-10,
-12,
-14,
-14,
-16,
-18,
-18,
-20,
-21,
-23,
-24,
-26,
-28,
-28,
-30,
-30,
-32,
-32,
-32,
-32,
-30,
-30,
-28,
-25,
-23,
-22,
-21,
-20,
-18,
-18,
-16,
-14,
-14,
-12,
-10,
-8,
-6,
-6,
-5,
-2,
-1,
0,
2,
2,
4,
6,
6,
8,
10,
12,
12,
14,
15,
16,
18,
20,
20,
22,
23,
24,
26,
28,
28,
30,
32,
32,
33,
33,
33,
32,
31,
31,
28,
28,
25,
24,
23,
22,
20,
19,
18,
16,
15,
14,
12,
10,
10,
8,
6,
6,
4,
2,
1,
0,
-2,
-4,
-5,
-6,
-7,
-9,
-10,
-12,
-13,
-14,
-16,
-17,
-18,
-20,
-20,
-22,
-24,
-26,
-26,
-28,
-30,
-30,
-32,
-32,
-32,
-31,
-31,
-29,
-28,
-26,
-24,
-21,
-20,
-18,
-18,
-17,
-16,
-14,
-14,
-12,
-10,
-8,
-8,
-6,
-4,
-3,
-2,
0,
1,
