2-Passive Filters/differentiator-integrator_behaviour/data/ALL0037/A0037CH2.CSV

Memory Length,4000,
Trigger Level,0.000E+00,
Source,CH2,
Probe,1X,
Vertical Units,V,
Vertical Scale,5.000E-02,
Vertical Position,2.000E-03,
Horizontal Units,s,
Horizontal Scale,2.500E-07,
Horizontal Position,0.000E+00,
Horizontal Mode,Main,
Sampling Period,1.000E-08,
Firmware,V1.04,
Time, ,
Mode,Fast,
Waveform Data,
-61,
-61,
-60,
-60,
-61,
-60,
-61,
-61,
-61,
-60,
-59,
-59,
-57,
-55,
-53,
-52,
-50,
-49,
-47,
-45,
-44,
-42,
-41,
-43,
-41,
-41,
-39,
-39,
-38,
-38,
-37,
-38,
-37,
-39,
-38,
-39,
-39,
-39,
-39,
-41,
-40,
-40,
-39,
-39,
-38,
-37,
-37,
-36,
-36,
-35,
-35,
-35,
-35,
-33,
-33,
-33,
-33,
-33,
-33,
-34,
-34,
-34,
-35,
-36,
-37,
-40,
-41,
-43,
-44,
-45,
-46,
-47,
-47,
-48,
-49,
-49,
-50,
-50,
-51,
-52,
-52,
-52,
-53,
-53,
-53,
-54,
-53,
-55,
-55,
-56,
-57,
-57,
-59,
-59,
-61,
-61,
-61,
-61,
-61,
-61,
-61,
-61,
-61,
-61,
-61,
-61,
-61,
-60,
-59,
-59,
-58,
-57,
-57,
-56,
-54,
-53,
-51,
-50,
-49,
-47,
-46,
-45,
-44,
-43,
-41,
-40,
-39,
-38,
-37,
-37,
-37,
-37,
-38,
-38,
-39,
-39,
-38,
-39,
-37,
-37,
-38,
-37,
-37,
-37,
-36,
-36,
-36,
-36,
-37,
-37,
-37,
-37,
-36,
-36,
-35,
-35,
-35,
-33,
-34,
-35,
-36,
-37,
-38,
-39,
-41,
-41,
-43,
-44,
-45,
-47,
-47,
-48,
-49,
-49,
-51,
-52,
-53,
-53,
-53,
-55,
-55,
-53,
-54,
-53,
-54,
-54,
-55,
-54,
-54,
-54,
-54,
-56,
-56,
-56,
-56,
-56,
-57,
-56,
-55,
-55,
-54,
-55,
-55,
-56,
-55,
-57,
-57,
-57,
-57,
-58,
-57,
-59,
-57,
-58,
-57,
-56,
-55,
-53,
-52,
-51,
-50,
-48,
-47,
-45,
-43,
-41,
-39,
-38,
-37,
-37,
-37,
-36,
-35,
-35,
-35,
-35,
-34,
-33,
-35,
-35,
-34,
-35,
-34,
-35,
-35,
-35,
-33,
-35,
-35,
-35,
-35,
-35,
-35,
-35,
-35,
-36,
-37,
-37,
-37,
-38,
-39,
-39,
-39,
-38,
-39,
-39,
-41,
-41,
-43,
-44,
-45,
-46,
-48,
-49,
-50,
-52,
-53,
-53,
-53,
-54,
-54,
-54,
-55,
-55,
-57,
-57,
-57,
-58,
-59,
-58,
-58,
-57,
-57,
-57,
-58,
-57,
-57,
-57,
-56,
-57,
-57,
-56,
-56,
-57,
-57,
-57,
-55,
-56,
-56,
-56,
-55,
-56,
-56,
-57,
-55,
-54,
-53,
-52,
-51,
-50,
-49,
-48,
-47,
-45,
-45,
-43,
-41,
-40,
-39,
-39,
-38,
-38,
-38,
-37,
-37,
-37,
-37,
-36,
-35,
-35,
-35,
-35,
-34,
-33,
-33,
-33,
-33,
-33,
-33,
-33,
-33,
-33,
-34,
-33,
-35,
-35,
-35,
-35,
-36,
-37,
-37,
-37,
-37,
-39,
-40,
-41,
-41,
-43,
-43,
-45,
-45,
-45,
-45,
-47,
-48,
-49,
-49,
-51,
-53,
-54,
-55,
-55,
-56,
-57,
-58,
-58,
-58,
-58,
-59,
-57,
-57,
-58,
-58,
-58,
-59,
-59,
-59,
-57,
-57,
-56,
-56,
-55,
-54,
-54,
-54,
-53,
-53,
-52,
-52,
-52,
-52,
-53,
-53,
-53,
-52,
-51,
-51,
-49,
-49,
-49,
-48,
-48,
-48,
-47,
-46,
-45,
-43,
-44,
-43,
-41,
-41,
-41,
-40,
-39,
-38,
-37,
-37,
-36,
-37,
-37,
-36,
-35,
-33,
-33,
-33,
-33,
-32,
-33,
-34,
-35,
-35,
-37,
-36,
-37,
-38,
-39,
-39,
-40,
-40,
-41,
-42,
-41,
-41,
-41,
-42,
-41,
-41,
-41,
-41,
-40,
-41,
-41,
-41,
-43,
-44,
-45,
-47,
-48,
-49,
-52,
-53,
-53,
-54,
-55,
-57,
-57,
-58,
-60,
-61,
-62,
-63,
-64,
-65,
-65,
-65,
-65,
-63,
-62,
-61,
-59,
-59,
-57,
-57,
-57,
-55,
-54,
-53,
-53,
-52,
-50,
-49,
-49,
-49,
-49,
-49,
-48,
-47,
-47,
-47,
-47,
-47,
-48,
-47,
-46,
-45,
-43,
-41,
-41,
-40,
-39,
-39,
-39,
-38,
-37,
-35,
-36,
-35,
-35,
-33,
-33,
-33,
-32,
-31,
-30,
-29,
-30,
-30,
-32,
-33,
-34,
-35,
-37,
-37,
-37,
-39,
-40,
-41,
-41,
-42,
-43,
-43,
-43,
-43,
-43,
-44,
-45,
-44,
-44,
-44,
-43,
-44,
-43,
-44,
-45,
-45,
-47,
-48,
-49,
-51,
-51,
-52,
-53,
-54,
-56,
-57,
-57,
-59,
-60,
-60,
-60,
-61,
-61,
-61,
-61,
-61,
-61,
-61,
-61,
-61,
-60,
-60,
-59,
-59,
-60,
-59,
-57,
-57,
-56,
-54,
-53,
-53,
-53,
-53,
-53,
-53,
-53,
-53,
-52,
-51,
-51,
-51,
-49,
-48,
-47,
-46,
-45,
-43,
-43,
-42,
-41,
-41,
-40,
-39,
-37,
-36,
-33,
-33,
-32,
-31,
-31,
-30,
-30,
-29,
-29,
-29,
-29,
-29,
-31,
-31,
-31,
-31,
-32,
-33,
-33,
-34,
-37,
-38,
-40,
-41,
-43,
-43,
-43,
-44,
-45,
-45,
-44,
-45,
-45,
-44,
-44,
-44,
-44,
-44,
-45,
-47,
-47,
-48,
-49,
-49,
-50,
-51,
-52,
-53,
-53,
-55,
-55,
-55,
-56,
-57,
-57,
-58,
-59,
-60,
-61,
-61,
-61,
-61,
-61,
-61,
-61,
-61,
-61,
-61,
-61,
-61,
-59,
-59,
-57,
-56,
-55,
-54,
-53,
-52,
-51,
-50,
-49,
-49,
-49,
-48,
-48,
-47,
-48,
-48,
-48,
-47,
-47,
-46,
-45,
-45,
-44,
-44,
-43,
-43,
-41,
-41,
-39,
-38,
-37,
-37,
-36,
-37,
-35,
-34,
-33,
-32,
-31,
-31,
-29,
-31,
-30,
-30,
-31,
-31,
-33,
-33,
-35,
-36,
-37,
-39,
-40,
-39,
-41,
-41,
-43,
-43,
-44,
-45,
-47,
-47,
-47,
-48,
-48,
-49,
-49,
-50,
-50,
-51,
-50,
-52,
-53,
-53,
-54,
-55,
-56,
-56,
-57,
-56,
-56,
-56,
-56,
-56,
-57,
-57,
-59,
-59,
-59,
-59,
-59,
-59,
-59,
-60,
-60,
-59,
-59,
-59,
-58,
-57,
-55,
-55,
-53,
-53,
-52,
-51,
-50,
-49,
-49,
-49,
-49,
-49,
-49,
-49,
-48,
-47,
-47,
-46,
-45,
-45,
-44,
-44,
-44,
-44,
-43,
-43,
-42,
-41,
-41,
-40,
-39,
-39,
-37,
-37,
-35,
-35,
-34,
-33,
-33,
-33,
-33,
-33,
-33,
-33,
-33,
-33,
-32,
-33,
-33,
-33,
-35,
-37,
-37,
-38,
-39,
-40,
-41,
-42,
-43,
-43,
-44,
-44,
-44,
-44,
-45,
-47,
-48,
-49,
-51,
-52,
-53,
-53,
-55,
-55,
-56,
-57,
-57,
-57,
-57,
-57,
-57,
-58,
-59,
-58,
-59,
-60,
-62,
-61,
-61,
-61,
-61,
-61,
-61,
-61,
-61,
-61,
-61,
-61,
-60,
-59,
-59,
-59,
-57,
-55,
-53,
-53,
-51,
-50,
-49,
-48,
-47,
-47,
-47,
-46,
-45,
-44,
-43,
-41,
-41,
-40,
-40,
-39,
-40,
-40,
-39,
-39,
-39,
-39,
-39,
-38,
-39,
-38,
-39,
-39,
-39,
-39,
-40,
-39,
-39,
-39,
-39,
-38,
-37,
-36,
-35,
-34,
-34,
-34,
-34,
-35,
-35,
-36,
-37,
-36,
-36,
-37,
-37,
-39,
-40,
-41,
-42,
-43,
-45,
-45,
-47,
-49,
-50,
-52,
-52,
-53,
-53,
-53,
-53,
-54,
-54,
-55,
-56,
-57,
-57,
-57,
-57,
-57,
-55,
-55,
-55,
-55,
-55,
-55,
-55,
-55,
-56,
-57,
-58,
-60,
-61,
-62,
-63,
-63,
-63,
-62,
-62,
-61,
-61,
-60,
-59,
-58,
-57,
-55,
-53,
-53,
-53,
-51,
-49,
-48,
-47,
-45,
-44,
-43,
-41,
-41,
-40,
-39,
-39,
-37,
-37,
-37,
-37,
-37,
-36,
-36,
-37,
-36,
-37,
-37,
-37,
-37,
-39,
-39,
-39,
-40,
-40,
-39,
-37,
-38,
-37,
-37,
-36,
-35,
-36,
-35,
-37,
-37,
-37,
-37,
-39,
-39,
-40,
-41,
-41,
-44,
-45,
-47,
-47,
-48,
-49,
-51,
-51,
-52,
-53,
-53,
-53,
-54,
-54,
-55,
-55,
-56,
-56,
-56,
-55,
-55,
-54,
-53,
-53,
-53,
-54,
-55,
-56,
-56,
-57,
-57,
-58,
-57,
-59,
-60,
-61,
-61,
-61,
-61,
-59,
-59,
-59,
-59,
-59,
-58,
-57,
-57,
-55,
-53,
-52,
-51,
-49,
-48,
-47,
-47,
-45,
-45,
-44,
-43,
-41,
-41,
-41,
-40,
-40,
-38,
-37,
-37,
-35,
-35,
-35,
-35,
-36,
-37,
-37,
-36,
-36,
-37,
-37,
-37,
-37,
-37,
-37,
-37,
-37,
-36,
-36,
-36,
-36,
-36,
-36,
-36,
-37,
-37,
-37,
-38,
-38,
-38,
-40,
-41,
-41,
-43,
-44,
-45,
-47,
-49,
-49,
-51,
-52,
-53,
-55,
-55,
-55,
-57,
-57,
-57,
-57,
-59,
-59,
-60,
-60,
-61,
-60,
-60,
-59,
-58,
-58,
-57,
-57,
-57,
-57,
-56,
-56,
-56,
-56,
-57,
-57,
-57,
-57,
-57,
-57,
-57,
-57,
-57,
-57,
-56,
-57,
-55,
-54,
-54,
-53,
-53,
-53,
-53,
-53,
-51,
-51,
-50,
-48,
-47,
-45,
-45,
-44,
-43,
-40,
-40,
-37,
-36,
-35,
-34,
-33,
-33,
-33,
-33,
-32,
-32,
-32,
-31,
-33,
-33,
-33,
-34,
-36,
-35,
-35,
-35,
-35,
-35,
-35,
-35,
-35,
-35,
-35,
-35,
-34,
-35,
-36,
-38,
-39,
-41,
-41,
-42,
-43,
-44,
-45,
-45,
-47,
-47,
-49,
-49,
-51,
-52,
-53,
-53,
-55,
-56,
-57,
-58,
-60,
-60,
-61,
-61,
-61,
-62,
-61,
-61,
-61,
-62,
-61,
-61,
-61,
-60,
-60,
-60,
-59,
-59,
-57,
-57,
-57,
-56,
-55,
-55,
-55,
-55,
-56,
-55,
-55,
-55,
-53,
-53,
-52,
-51,
-50,
-49,
-49,
-48,
-48,
-48,
-47,
-45,
-45,
-45,
-44,
-43,
-42,
-41,
-41,
-39,
-38,
-37,
-36,
-36,
-36,
-35,
-35,
-35,
-36,
-36,
-36,
-37,
-37,
-38,
-38,
-37,
-37,
-37,
-36,
-36,
-36,
-37,
-37,
-37,
-37,
-37,
-37,
-37,
-37,
-38,
-38,
-39,
-39,
-40,
-41,
-41,
-43,
-43,
-45,
-46,
-47,
-48,
-48,
-48,
-49,
-49,
-50,
-51,
-53,
-53,
-55,
-56,
-57,
-58,
-60,
-61,
-61,
-63,
-63,
-63,
-62,
-61,
-61,
-61,
-60,
-60,
-60,
-60,
-59,
-59,
-57,
-57,
-57,
-57,
-56,
-54,
-53,
-54,
-53,
-53,
-52,
-52,
-51,
-50,
-50,
-49,
-49,
-49,
-48,
-47,
-47,
-47,
-45,
-45,
-44,
-44,
-41,
-41,
-40,
-39,
-37,
-36,
-35,
-35,
-35,
-34,
-33,
-33,
-33,
-31,
-31,
-32,
-31,
-32,
-33,
-33,
-33,
-35,
-35,
-36,
-37,
-39,
-39,
-40,
-41,
-41,
-41,
-41,
-41,
-43,
-43,
-45,
-45,
-45,
-45,
-46,
-47,
-46,
-46,
-45,
-45,
-45,
-45,
-45,
-45,
-46,
-47,
-49,
-50,
-51,
-53,
-53,
-55,
-56,
-57,
-59,
-60,
-61,
-61,
-62,
-64,
-64,
-65,
-65,
-65,
-65,
-64,
-64,
-61,
-60,
-59,
-57,
-56,
-54,
-53,
-53,
-53,
-52,
-53,
-51,
-51,
-50,
-49,
-48,
-48,
-48,
-47,
-47,
-46,
-45,
-45,
-45,
-46,
-45,
-45,
-45,
-44,
-43,
-41,
-40,
-38,
-37,
-36,
-35,
-35,
-33,
-33,
-33,
-31,
-30,
-30,
-29,
-29,
-31,
-31,
-32,
-32,
-33,
-33,
-33,
-35,
-36,
-37,
-38,
-39,
-39,
-39,
-40,
-41,
-42,
-44,
-45,
-45,
-46,
-46,
-45,
-45,
-45,
-46,
-46,
-47,
-47,
-47,
-47,
-46,
-47,
-49,
-49,
-50,
-51,
-53,
-53,
-53,
-55,
-56,
-57,
-59,
-61,
-62,
-63,
-63,
-63,
-62,
-61,
-60,
-59,
-59,
-57,
-57,
-56,
-57,
-55,
-56,
-56,
-56,
-56,
-55,
-54,
-53,
-52,
-52,
-52,
-51,
-51,
-51,
-51,
-51,
-51,
-51,
-50,
-49,
-49,
-47,
-47,
-45,
-45,
-43,
-42,
-41,
-41,
-40,
-39,
-38,
-37,
-37,
-35,
-34,
-33,
-31,
-31,
-29,
-29,
-29,
-29,
-29,
-31,
-31,
-31,
-33,
-33,
-33,
-35,
-35,
-36,
-36,
-36,
-37,
-38,
-40,
-41,
-43,
-43,
-45,
-46,
-47,
-47,
-47,
-48,
-49,
-49,
-49,
-50,
-50,
-49,
-49,
-49,
-49,
-49,
-50,
-51,
-52,
-53,
-53,
-53,
-55,
-56,
-57,
-58,
-58,
-59,
-58,
-57,
-57,
-57,
-59,
-58,
-59,
-59,
-58,
-57,
-57,
-56,
-55,
-56,
-54,
-55,
-53,
-53,
-52,
-51,
-49,
-50,
-49,
-49,
-48,
-48,
-47,
-45,
-44,
-41,
-42,
-41,
-41,
-41,
-42,
-43,
-43,
-43,
-44,
-43,
-43,
-43,
-42,
-41,
-41,
-39,
-39,
-38,
-37,
-37,
-36,
-37,
-35,
-35,
-34,
-33,
-33,
-32,
-32,
-32,
-32,
-33,
-33,
-33,
-34,
-35,
-36,
-37,
-38,
-40,
-41,
-41,
-43,
-43,
-44,
-44,
-45,
-47,
-48,
-49,
-49,
-50,
-51,
-51,
-53,
-53,
-53,
-54,
-53,
-54,
-55,
-54,
-55,
-55,
-56,
-57,
-57,
-59,
-60,
-60,
-61,
-61,
-61,
-60,
-60,
-59,
-59,
-59,
-59,
-58,
-57,
-57,
-57,
-57,
-57,
-56,
-55,
-54,
-53,
-52,
-51,
-49,
-49,
-49,
-47,
-47,
-45,
-43,
-42,
-41,
-41,
-40,
-40,
-39,
-39,
-38,
-37,
-36,
-36,
-37,
-37,
-38,
-38,
-38,
-39,
-38,
-36,
-37,
-35,
-35,
-35,
-35,
-33,
-33,
-33,
-33,
-33,
-33,
-33,
-33,
-33,
-35,
-36,
-37,
-37,
-36,
-37,
-38,
-39,
-39,
-40,
-41,
-41,
-41,
-43,
-44,
-45,
-46,
-47,
-49,
-49,
-49,
-51,
-51,
-51,
-52,
-53,
-53,
-54,
-55,
-55,
-56,
-56,
-56,
-56,
-57,
-57,
-57,
-59,
-59,
-59,
-59,
-59,
-59,
-59,
-59,
-59,
-59,
-60,
-60,
-59,
-59,
-59,
-60,
-60,
-59,
-57,
-57,
-57,
-57,
-55,
-53,
-53,
-53,
-51,
-50,
-48,
-47,
-45,
-43,
-41,
-40,
-38,
-38,
-37,
-37,
-35,
-35,
-37,
-36,
-37,
-37,
-37,
-37,
-38,
-37,
-37,
-36,
-36,
-36,
-36,
-36,
-36,
-36,
-36,
-36,
-35,
-36,
-37,
-36,
-36,
-35,
-35,
-35,
-34,
-33,
-35,
-36,
-36,
-37,
-37,
-39,
-39,
-39,
-40,
-41,
-43,
-43,
-45,
-47,
-49,
-49,
-51,
-53,
-53,
-55,
-56,
-57,
-57,
-57,
-57,
-56,
-57,
-56,
-55,
-56,
-55,
-56,
-57,
-56,
-56,
-55,
-55,
-55,
-55,
-55,
-55,
-55,
-56,
-56,
-57,
-57,
-58,
-58,
-59,
-60,
-61,
-60,
-60,
-59,
-58,
-57,
-56,
-56,
-54,
-53,
-52,
-50,
-48,
-46,
-43,
-42,
-41,
-39,
-38,
-37,
-36,
-35,
-35,
-34,
-33,
-34,
-35,
-35,
-34,
-35,
-33,
-34,
-33,
-35,
-35,
-35,
-36,
-35,
-35,
-35,
-34,
-35,
-36,
-36,
-37,
-36,
-37,
-37,
-38,
-39,
-39,
-40,
-39,
-40,
-40,
-40,
-41,
-41,
-41,
-43,
-45,
-46,
-48,
-49,
-51,
-53,
-53,
-54,
-56,
-57,
-57,
-57,
-57,
-57,
-57,
-57,
-57,
-57,
-57,
-58,
-57,
-57,
-56,
-56,
-55,
-55,
-54,
-55,
-56,
-57,
-57,
-57,
-57,
-57,
-58,
-58,
-58,
-57,
-57,
-57,
-57,
-57,
-56,
-55,
-54,
-53,
-53,
-53,
-53,
-53,
-51,
-49,
-48,
-46,
-44,
-43,
-41,
-41,
-40,
-41,
-39,
-39,
-38,
-37,
-37,
-37,
-37,
-37,
-36,
-36,
-35,
-35,
-34,
-34,
-35,
-35,
-35,
-35,
-34,
-33,
-33,
-33,
-33,
-33,
-34,
-35,
-35,
-35,
-35,
-35,
-36,
-37,
-37,
-39,
-38,
-39,
-39,
-39,
-40,
-41,
-42,
-44,
-45,
-47,
-47,
-48,
-51,
-51,
-53,
-55,
-57,
-59,
-60,
-61,
-61,
-61,
-61,
-61,
-61,
-61,
-61,
-61,
-61,
-61,
-61,
-61,
-61,
-61,
-61,
-61,
-60,
-60,
-58,
-57,
-57,
-55,
-56,
-55,
-54,
-54,
-53,
-53,
-53,
-53,
-53,
-53,
-53,
-52,
-52,
-51,
-49,
-49,
-49,
-49,
-49,
-48,
-47,
-48,
-47,
-45,
-42,
-42,
-40,
-39,
-38,
-36,
-36,
-35,
-35,
-35,
-33,
-33,
-33,
-33,
-33,
-33,
-34,
-33,
-33,
-33,
-33,
-33,
-35,
-36,
-37,
-38,
-39,
-40,
-39,
-39,
-40,
-40,
-40,
-40,
-40,
-40,
-39,
-39,
-40,
-41,
-41,
-41,
-43,
-44,
-45,
-45,
-46,
-47,
-48,
-49,
-51,
-53,
-53,
-55,
-56,
-56,
-57,
-57,
-59,
-60,
-61,
-61,
-61,
-61,
-61,
-61,
-61,
-61,
-61,
-61,
-61,
-61,
-60,
-61,
-60,
-59,
-59,
-58,
-57,
-57,
-56,
-54,
-53,
-53,
-52,
-51,
-51,
-51,
-51,
-52,
-51,
-50,
-49,
-49,
-47,
-46,
-46,
-46,
-45,
-43,
-43,
-42,
-40,
-40,
-40,
-39,
-39,
-38,
-37,
-36,
-35,
-36,
-35,
-35,
-35,
-35,
-35,
-35,
-36,
-35,
-36,
-37,
-37,
-37,
-37,
-38,
-39,
-39,
-39,
-39,
-41,
-41,
-41,
-43,
-43,
-43,
-43,
-44,
-43,
-43,
-44,
-45,
-45,
-45,
-45,
-46,
-47,
-47,
-48,
-49,
-51,
-52,
-54,
-54,
-54,
-55,
-55,
-56,
-57,
-57,
-57,
-58,
-59,
-59,
-61,
-60,
-61,
-61,
-63,
-63,
-63,
-63,
-61,
-61,
-59,
-59,
-57,
-57,
-57,
-55,
-54,
-53,
-52,
-51,
-50,
-49,
-49,
-49,
-49,
-48,
-48,
-47,
-47,
-48,
-47,
-47,
-47,
-47,
-45,
-45,
-43,
-43,
-41,
-41,
-39,
-39,
-37,
-37,
-35,
-33,
-33,
-33,
-33,
-33,
-33,
-33,
-33,
-32,
-33,
-32,
-32,
-33,
-33,
-33,
-35,
-36,
-38,
-39,
-41,
-43,
-44,
-45,
-47,
-47,
-48,
-49,
-48,
-49,
-49,
-48,
-48,
-49,
-49,
-49,
-49,
-49,
-49,
-49,
-49,
-49,
-49,
-50,
-50,
-51,
-51,
-52,
-52,
-53,
-55,
-57,
-57,
-59,
-59,
-59,
-61,
-60,
-61,
-61,
-63,
-63,
-64,
-64,
-63,
-62,
-61,
-61,
-60,
-59,
-59,
-57,
-55,
-53,
-52,
-50,
-49,
-49,
-48,
-48,
-49,
-48,
-48,
-47,
-48,
-48,
-49,
-49,
-49,
-48,
-47,
-45,
-45,
-45,
-43,
-43,
-42,
-41,
-40,
-39,
-37,
-36,
-35,
-35,
-33,
-33,
-33,
-32,
-31,
-30,
-30,
-29,
-31,
-31,
-32,
-33,
-33,
-33,
-34,
-34,
-35,
-36,
-37,
-38,
-40,
-41,
-43,
-43,
-44,
-45,
-47,
-48,
-49,
-49,
-49,
-51,
-49,
-49,
-49,
-50,
-49,
-51,
-51,
-53,
-55,
-55,
-57,
-57,
-57,
-58,
-57,
-58,
-59,
-59,
-59,
-60,
-61,
-60,
-61,
-61,
-61,
-62,
-62,
-61,
-61,
-60,
-57,
-57,
-56,
-56,
-55,
-54,
-53,
-53,
-52,
-51,
-50,
-49,
-49,
-49,
-49,
-48,
-47,
-48,
-47,
-47,
-48,
-48,
-48,
-48,
-47,
-45,
-45,
-44,
-43,
-43,
-41,
-41,
-41,
-40,
-38,
-37,
-37,
-36,
-36,
-36,
-36,
-35,
-35,
-35,
-35,
-35,
-35,
-35,
-36,
-35,
-33,
-34,
-33,
-35,
-34,
-35,
-37,
-38,
-40,
-41,
-41,
-42,
-44,
-45,
-45,
-45,
-47,
-47,
-49,
-49,
-49,
-49,
-51,
-52,
-52,
-53,
-53,
-53,
-53,
-53,
-53,
-53,
-53,
-55,
-55,
-57,
-57,
-58,
-59,
-59,
-60,
-59,
-59,
-60,
-60,
-60,
-60,
-59,
-60,
-60,
-60,
-60,
-61,
-61,
-60,
-60,
-57,
-56,
-55,
-53,
-51,
-50,
-49,
-49,
-47,
-47,
-45,
-45,
-43,
-43,
-42,
-42,
-41,
-40,
-40,
-39,
-39,
-37,
-38,
-37,
-37,
-39,
-39,
-39,
-39,
-37,
-39,
-38,
-38,
-39,
-39,
-39,
-38,
-38,
-38,
-37,
-37,
-37,
-37,
-36,
-35,
-34,
-34,
-34,
-34,
-35,
-36,
-37,
-39,
-40,
-41,
-41,
-42,
-43,
-45,
-45,
-47,
-48,
-49,
-50,
-51,
-51,
-53,
-53,
-53,
-55,
-54,
-55,
-55,
-55,
-56,
-56,
-57,
-59,
-59,
-60,
-59,
-59,
-59,
-59,
-59,
-58,
-59,
-59,
-59,
-60,
-60,
-60,
-61,
-61,
-61,
-61,
-60,
-59,
-59,
-57,
-57,
-56,
-55,
-54,
-53,
-53,
-53,
-52,
-50,
-49,
-47,
-47,
-45,
-43,
-42,
-41,
-40,
-40,
-39,
-38,
-37,
-37,
-37,
-36,
-35,
-35,
-35,
-33,
-33,
-33,
-33,
-33,
-33,
-35,
-36,
-35,
-37,
-37,
-36,
-35,
-35,
-36,
-36,
-36,
-36,
-35,
-35,
-35,
-36,
-36,
-36,
-38,
-39,
-39,
-40,
-40,
-41,
-41,
-43,
-45,
-45,
-47,
-48,
-49,
-49,
-49,
-50,
-51,
-52,
-53,
-53,
-55,
-55,
-54,
-55,
-55,
-57,
-58,
-58,
-59,
-59,
-59,
-59,
-57,
-57,
-57,
-57,
-58,
-58,
-59,
-57,
-58,
-58,
-57,
-58,
-58,
-59,
-60,
-60,
-60,
-61,
-60,
-61,
-60,
-59,
-59,
-58,
-57,
-55,
-53,
-51,
-49,
-49,
-47,
-47,
-45,
-43,
-43,
-41,
-40,
-38,
-37,
-36,
-35,
-33,
-33,
-33,
-33,
-33,
-33,
-33,
-34,
-35,
-35,
-35,
-35,
-35,
-35,
-35,
-35,
-35,
-36,
-37,
-36,
-36,
-35,
-35,
-34,
-35,
-34,
-33,
-33,
-34,
-35,
-35,
-37,
-37,
-39,
-41,
-43,
-45,
-47,
-48,
-49,
-49,
-50,
-51,
-52,
-53,
-55,
-56,
-57,
-58,
-58,
-58,
-59,
-59,
-59,
-61,
-60,
-60,
-59,
-58,
-57,
-55,
-56,
-55,
-54,
-53,
-53,
-53,
-52,
-52,
-52,
-52,
-53,
-54,
-55,
-55,
-55,
-55,
-56,
-56,
-57,
-57,
-57,
-57,
-57,
-55,
-53,
-52,
-51,
-49,
-48,
-47,
-45,
-43,
-43,
-41,
-40,
-39,
-39,
-38,
-38,
-37,
-37,
-36,
-36,
-35,
-35,
-33,
-34,
-35,
-35,
-36,
-35,
-36,
-37,
-36,
-36,
-37,
-37,
-37,
-37,
-37,
-37,
-36,
-36,
-36,
-36,
-36,
-37,
-37,
-38,
-39,
-39,
-39,
-40,
-40,
-41,
-43,
-44,
-45,
-46,
-47,
-48,
-49,
-50,
-52,
-53,
-54,
-55,
-56,
-56,
-57,
-57,
-57,
-58,
-59,
-60,
-59,
-60,
-60,
-60,
-59,
-60,
-60,
-60,
-59,
-58,
-57,
-56,
-55,
-56,
-54,
-57,
-56,
-57,
-57,
-55,
-56,
-55,
-55,
-54,
-55,
-53,
-53,
-52,
-50,
-49,
-48,
-46,
-45,
-45,
-44,
-43,
-43,
-41,
-40,
-40,
-39,
-38,
-38,
-38,
-37,
-36,
-36,
-35,
-35,
-35,
-35,
-35,
-36,
-36,
-36,
-35,
-34,
-34,
-33,
-33,
-33,
-34,
-35,
-36,
-36,
-37,
-36,
-37,
-37,
-37,
-38,
-38,
-37,
-38,
-37,
-37,
-37,
-38,
-39,
-41,
-41,
-41,
-43,
-45,
-45,
-45,
-47,
-47,
-49,
-49,
-51,
-52,
-53,
-53,
-56,
-57,
-58,
-59,
-61,
-61,
-62,
-61,
-63,
-61,
-61,
-61,
-61,
-61,
-61,
-61,
-60,
-60,
-59,
-58,
-56,
-56,
-55,
-55,
-54,
-53,
-53,
-53,
-53,
-52,
-53,
-53,
-52,
-52,
-51,
-50,
-49,
-49,
-47,
-47,
-47,
-45,
-45,
-44,
-43,
-41,
-41,
-41,
-41,
-40,
-39,
-39,
-37,
-36,
-35,
-34,
-33,
-33,
-33,
-32,
-32,
-32,
-31,
-31,
-32,
-33,
-34,
-35,
-37,
-37,
-38,
-39,
-40,
-40,
-40,
-41,
-41,
-41,
-41,
-41,
-41,
-42,
-42,
-43,
-43,
-44,
-44,
-44,
-43,
-43,
-43,
-44,
-43,
-45,
-46,
-47,
-49,
-49,
-50,
-51,
-51,
-53,
-53,
-54,
-54,
-55,
-55,
-57,
-57,
-58,
-59,
-61,
-61,
-61,
-61,
-60,
-60,
-59,
-57,
-57,
-57,
-56,
-57,
-57,
-57,
-56,
-56,
-55,
-55,
-53,
-53,
-52,
-52,
-51,
-49,
-48,
-47,
-46,
-45,
-45,
-45,
-45,
-45,
-45,
-43,
-41,
-41,
-41,
-40,
-39,
-40,
-39,
-38,
-38,
-36,
-35,
-35,
-34,
-33,
-32,
-31,
-31,
-31,
-30,
-31,
-31,
-33,
-33,
-35,
-34,
-35,
-35,
-37,
-38,
-39,
-41,
-41,
-43,
-44,
-44,
-45,
-45,
-45,
-47,
-46,
-47,
-48,
-49,
-49,
-49,
-49,
-51,
-51,
-52,
-53,
-52,
-53,
-52,
-52,
-53,
-53,
-53,
-53,
-54,
-55,
-56,
-57,
-57,
-58,
-59,
-59,
-59,
-60,
-59,
-58,
-59,
-58,
-59,
-58,
-58,
-57,
-58,
-57,
-57,
-55,
-54,
-53,
-51,
-51,
-49,
-49,
-49,
-49,
-48,
-48,
-47,
-48,
-47,
-47,
-47,
-47,
-45,
-45,
-45,
-43,
-42,
-42,
-43,
-43,
-44,
-43,
-43,
-41,
-41,
-39,
-37,
-35,
-34,
-33,
-32,
-31,
-29,
-29,
-28,
-27,
-28,
-28,
-29,
-31,
-31,
-31,
-33,
-33,
-33,
-36,
-37,
-40,
-41,
-43,
-44,
-45,
-45,
-45,
-45,
-46,
-47,
-47,
-48,
-48,
-49,
-49,
-49,
-49,
-50,
-51,
-52,
-52,
-52,
-52,
-53,
-53,
-53,
-54,
-55,
-57,
-57,
-57,
-59,
-59,
-60,
-61,
-62,
-63,
-64,
-65,
-65,
-64,
-64,
-63,
-63,
-62,
-61,
-60,
-58,
-57,
-55,
-53,
-52,
-51,
-49,
-49,
-48,
-48,
-47,
-47,
-45,
-45,
-44,
-44,
-43,
-44,
-43,
-43,
-43,
-44,
-44,
-45,
-44,
-44,
-44,
-43,
-43,
-41,
-41,
-39,
-39,
-38,
-37,
-37,
-35,
-35,
-35,
-35,
-33,
-32,
-32,
-32,
-32,
-32,
-32,
-33,
-33,
-35,
-35,
-37,
-38,
-40,
-40,
-41,
-41,
-41,
-41,
-42,
-42,
-44,
-45,
-45,
-46,
-47,
-48,
-48,
-49,
-51,
-52,
-52,
-53,
-53,
-53,
-53,
-54,
-54,
-55,
-57,
-57,
-58,
-58,
-59,
-59,
-58,
-59,
-59,
-60,
-61,
-61,
-61,
-61,
-61,
-61,
-61,
-61,
-61,
-60,
-59,
-59,
-57,
-55,
-54,
-53,
-52,
-53,
-50,
-49,
-49,
-48,
-47,
-47,
-45,
-45,
-45,
-45,
-44,
-43,
-43,
-43,
-41,
-41,
-41,
-40,
-41,
-39,
-40,
-39,
-39,
-38,
-37,
-37,
-37,
-37,
-37,
-36,
-35,
-36,
-35,
-36,
-34,
-34,
-35,
-35,
-35,
-37,
-36,
-37,
-37,
-37,
-37,
-37,
-38,
-39,
-39,
-40,
-41,
-42,
-43,
-44,
-45,
-46,
-47,
-48,
-49,
-49,
-49,
-50,
-51,
-52,
-52,
-53,
-54,
-55,
-56,
-55,
-55,
-55,
-56,
-56,
-56,
-56,
-56,
-55,
-57,
-57,
-58,
-60,
-61,
-61,
-63,
-63,
-64,
-64,
-64,
-63,
-65,
-64,
-63,
-63,
-62,
-60,
-59,
-59,
-58,
-57,
-55,
-55,
-53,
-51,
-49,
-48,
-47,
-46,
-45,
-45,
-43,
-42,
-41,
-40,
-39,
-38,
-37,
-37,
-37,
-37,
-36,
-35,
-35,
-35,
-35,
-35,
-36,
-36,
-36,
-36,
-35,
-35,
-35,
-35,
-35,
-35,
-34,
-35,
-33,
-33,
-33,
-34,
-34,
-35,
-35,
-36,
-37,
-38,
-39,
-40,
-41,
-41,
-41,
-43,
-43,
-44,
-46,
-47,
-49,
-49,
-51,
-52,
-53,
-54,
-55,
-56,
-57,
-57,
-56,
-56,
-56,
-56,
-55,
-56,
-57,
-56,
-56,
-57,
-57,
-57,
-57,
-57,
-57,
-57,
-59,
-58,
-59,
-59,
-59,
-59,
-60,
-60,
-61,
-60,
-60,
-59,
-57,
-57,
-57,
-56,
-55,
-55,
-55,
-55,
-53,
-55,
-53,
-53,
-53,
-51,
-50,
-49,
-47,
-45,
-43,
-41,
-41,
-40,
-39,
-38,
-37,
-36,
-36,
-35,
-35,
-35,
-36,
-37,
-37,
-36,
-36,
-35,
-35,
-35,
-34,
-34,
-35,
-35,
-35,
-35,
-35,
-36,
-36,
-36,
-37,
-37,
-37,
-37,
-37,
-37,
-37,
-39,
-40,
-41,
-42,
-43,
-45,
-45,
-47,
-47,
-49,
-49,
-51,
-51,
-53,
-54,
-55,
-57,
-57,
-59,
-61,
-61,
-61,
-61,
-60,
-60,
-59,
-58,
-57,
-57,
-57,
-57,
-57,
-59,
-59,
-59,
-59,
-59,
-57,
-57,
-57,
-57,
-56,
-56,
-55,
-55,
-53,
-54,
-55,
-55,
-56,
-55,
-55,
-53,
-52,
-52,
-50,
-49,
-49,
-48,
-47,
-46,
-44,
-43,
-41,
-40,
-39,
-38,
-37,
-36,
-35,
-35,
-34,
