2-Passive Filters/differentiator-integrator_behaviour/data/ALL0040/A0040CH1.CSV

Memory Length,4000,
Trigger Level,0.000E+00,
Source,CH1,
Probe,1X,
Vertical Units,V,
Vertical Scale,5.000E+00,
Vertical Position,0.000E+00,
Horizontal Units,s,
Horizontal Scale,2.500E-03,
Horizontal Position,0.000E+00,
Horizontal Mode,Main,
Sampling Period,1.000E-05,
Firmware,V1.04,
Time, ,
Mode,Fast,
Waveform Data,
38,
38,
37,
38,
37,
38,
38,
38,
38,
38,
38,
37,
38,
38,
37,
37,
38,
38,
38,
37,
38,
38,
38,
38,
38,
37,
38,
37,
38,
37,
37,
37,
37,
37,
37,
36,
37,
38,
38,
37,
38,
36,
38,
36,
38,
36,
37,
36,
37,
37,
36,
37,
36,
37,
37,
36,
36,
37,
36,
37,
36,
37,
36,
36,
36,
36,
36,
37,
36,
36,
36,
36,
36,
36,
36,
36,
38,
37,
36,
36,
36,
36,
37,
36,
37,
36,
36,
37,
36,
36,
36,
36,
36,
36,
36,
36,
36,
36,
36,
36,
36,
36,
36,
36,
36,
37,
36,
36,
36,
36,
36,
36,
36,
36,
36,
36,
36,
36,
36,
36,
36,
36,
35,
36,
36,
36,
36,
36,
36,
36,
36,
36,
36,
36,
36,
36,
36,
36,
36,
36,
36,
36,
36,
36,
36,
36,
36,
36,
36,
36,
35,
36,
36,
35,
36,
35,
36,
36,
36,
36,
36,
36,
36,
35,
36,
36,
36,
35,
36,
35,
36,
36,
36,
35,
36,
36,
35,
36,
36,
36,
36,
36,
36,
35,
36,
35,
36,
35,
36,
35,
36,
36,
35,
35,
36,
35,
35,
36,
36,
34,
36,
36,
35,
34,
35,
35,
34,
35,
34,
36,
35,
36,
34,
35,
35,
34,
36,
35,
36,
34,
35,
35,
35,
36,
35,
35,
35,
35,
34,
35,
34,
36,
35,
34,
35,
34,
35,
35,
36,
34,
35,
34,
34,
34,
35,
36,
34,
35,
36,
34,
34,
35,
35,
35,
35,
35,
35,
34,
34,
34,
35,
34,
34,
34,
35,
35,
34,
35,
35,
34,
35,
36,
34,
35,
35,
34,
35,
35,
35,
35,
35,
36,
35,
35,
34,
34,
34,
35,
34,
34,
34,
35,
34,
34,
35,
34,
35,
34,
34,
34,
34,
35,
34,
34,
34,
36,
34,
34,
34,
35,
34,
34,
35,
34,
34,
34,
34,
35,
34,
34,
34,
35,
34,
34,
34,
34,
34,
35,
34,
35,
34,
34,
34,
34,
34,
34,
35,
34,
35,
34,
34,
35,
34,
34,
34,
34,
34,
34,
34,
34,
34,
35,
34,
34,
34,
34,
34,
34,
34,
35,
34,
34,
34,
35,
34,
34,
35,
34,
34,
35,
34,
35,
34,
34,
35,
34,
34,
34,
35,
34,
34,
35,
34,
36,
35,
34,
34,
34,
34,
34,
34,
34,
35,
34,
34,
34,
34,
35,
34,
34,
34,
34,
35,
34,
34,
34,
35,
35,
34,
34,
34,
36,
34,
35,
35,
35,
35,
35,
35,
34,
35,
34,
34,
34,
34,
34,
34,
34,
35,
34,
35,
35,
35,
34,
34,
35,
34,
35,
36,
34,
35,
35,
34,
34,
34,
34,
34,
35,
36,
34,
35,
34,
34,
35,
34,
35,
36,
34,
34,
35,
34,
34,
34,
34,
34,
35,
34,
34,
34,
34,
35,
34,
34,
34,
35,
34,
34,
35,
34,
34,
35,
36,
34,
34,
34,
35,
34,
34,
34,
35,
35,
35,
34,
34,
34,
35,
35,
34,
35,
34,
34,
35,
35,
-36,
-38,
-37,
-38,
-38,
-38,
-38,
-37,
-38,
-38,
-38,
-38,
-38,
-37,
-38,
-37,
-37,
-38,
-38,
-38,
-38,
-37,
-38,
-37,
-38,
-38,
-38,
-37,
-38,
-38,
-38,
-37,
-37,
-37,
-37,
-38,
-38,
-37,
-37,
-36,
-37,
-38,
-37,
-37,
-38,
-38,
-37,
-36,
-36,
-37,
-37,
-37,
-36,
-37,
-37,
-36,
-37,
-36,
-37,
-37,
-36,
-36,
-37,
-36,
-36,
-37,
-36,
-36,
-37,
-36,
-36,
-36,
-36,
-36,
-36,
-36,
-36,
-36,
-36,
-36,
-36,
-36,
-37,
-36,
-36,
-37,
-36,
-36,
-36,
-36,
-36,
-36,
-36,
-36,
-36,
-36,
-36,
-36,
-36,
-36,
-36,
-36,
-36,
-36,
-36,
-36,
-36,
-36,
-36,
-36,
-36,
-36,
-36,
-36,
-36,
-36,
-36,
-36,
-36,
-36,
-36,
-36,
-36,
-36,
-35,
-36,
-36,
-36,
-35,
-36,
-36,
-36,
-35,
-36,
-36,
-35,
-36,
-36,
-36,
-36,
-36,
-36,
-36,
-36,
-36,
-36,
-36,
-36,
-36,
-36,
-36,
-35,
-36,
-36,
-36,
-36,
-36,
-36,
-36,
-35,
-36,
-36,
-36,
-36,
-36,
-36,
-34,
-36,
-36,
-36,
-36,
-36,
-35,
-35,
-35,
-36,
-36,
-34,
-36,
-36,
-36,
-35,
-36,
-36,
-36,
-36,
-36,
-36,
-35,
-36,
-36,
-34,
-36,
-36,
-35,
-36,
-36,
-36,
-35,
-36,
-36,
-36,
-36,
-35,
-34,
-36,
-35,
-35,
-36,
-34,
-35,
-35,
-35,
-36,
-36,
-35,
-36,
-36,
-36,
-36,
-36,
-36,
-35,
-36,
-35,
-35,
-35,
-36,
-34,
-35,
-36,
-35,
-35,
-36,
-35,
-34,
-36,
-35,
-34,
-35,
-35,
-35,
-35,
-35,
-35,
-35,
-34,
-34,
-35,
-35,
-35,
-34,
-35,
-34,
-35,
-35,
-35,
-35,
-35,
-34,
-34,
-35,
-34,
-34,
-34,
-35,
-34,
-34,
-36,
-34,
-34,
-34,
-35,
-34,
-34,
-34,
-34,
-35,
-36,
-34,
-35,
-35,
-35,
-34,
-35,
-34,
-35,
-34,
-34,
-35,
-35,
-34,
-34,
-35,
-35,
-34,
-34,
-34,
-34,
-34,
-35,
-35,
-34,
-34,
-34,
-34,
-35,
-34,
-35,
-34,
-34,
-35,
-35,
-35,
-34,
-34,
-34,
-34,
-35,
-34,
-34,
-35,
-34,
-34,
-35,
-34,
-35,
-35,
-35,
-35,
-34,
-34,
-34,
-34,
-34,
-34,
-34,
-34,
-34,
-35,
-34,
-35,
-34,
-34,
-35,
-34,
-34,
-34,
-34,
-35,
-35,
-34,
-34,
-35,
-34,
-34,
-34,
-34,
-34,
-34,
-34,
-34,
-35,
-34,
-34,
-34,
-35,
-34,
-34,
-34,
-35,
-34,
-34,
-34,
-34,
-34,
-36,
-34,
-35,
-34,
-35,
-34,
-34,
-35,
-34,
-35,
-34,
-34,
-35,
-34,
-34,
-35,
-35,
-34,
-34,
-34,
-35,
-34,
-36,
-34,
-34,
-34,
-34,
-35,
-34,
-34,
-34,
-35,
-34,
-34,
-34,
-34,
-34,
-34,
-34,
-34,
-34,
-34,
-36,
-34,
-35,
-34,
-34,
-35,
-34,
-34,
-35,
-34,
-34,
-34,
-35,
-35,
-34,
-34,
-34,
-35,
-34,
-34,
-34,
-34,
-35,
-34,
-34,
-34,
-34,
-34,
-35,
-34,
-34,
-34,
-34,
-35,
-35,
-35,
-34,
-34,
-34,
-34,
-35,
-35,
-35,
-34,
-34,
-34,
-34,
-36,
-35,
-34,
-34,
-34,
-34,
-34,
-34,
-34,
-36,
-35,
-35,
-35,
-34,
-34,
-35,
-34,
-35,
-34,
-34,
-34,
-34,
-34,
-34,
-36,
-34,
-35,
-35,
-34,
-34,
-35,
38,
38,
38,
37,
38,
38,
38,
38,
38,
38,
37,
37,
37,
37,
38,
38,
37,
38,
38,
38,
37,
38,
38,
37,
38,
37,
37,
37,
37,
38,
36,
38,
37,
37,
37,
38,
37,
37,
37,
36,
37,
36,
38,
37,
36,
37,
36,
37,
36,
37,
38,
36,
36,
36,
36,
37,
37,
36,
36,
37,
36,
36,
36,
37,
36,
37,
38,
36,
37,
36,
38,
36,
37,
36,
36,
37,
36,
36,
36,
36,
36,
36,
36,
36,
36,
37,
36,
37,
36,
36,
37,
36,
36,
36,
36,
36,
36,
36,
36,
36,
37,
36,
36,
36,
36,
35,
36,
36,
36,
36,
36,
37,
36,
36,
36,
36,
36,
36,
36,
36,
36,
36,
36,
36,
36,
36,
36,
36,
36,
36,
36,
36,
36,
36,
36,
36,
36,
36,
36,
36,
36,
36,
36,
36,
36,
36,
36,
36,
36,
36,
36,
36,
36,
36,
36,
36,
36,
36,
36,
36,
36,
36,
36,
36,
34,
36,
36,
36,
36,
36,
35,
35,
36,
35,
35,
36,
36,
36,
36,
35,
36,
35,
36,
36,
35,
35,
36,
36,
35,
36,
36,
35,
35,
35,
36,
36,
35,
35,
35,
36,
35,
35,
35,
36,
36,
34,
35,
34,
34,
35,
36,
35,
35,
35,
35,
36,
35,
36,
35,
35,
35,
36,
35,
34,
34,
35,
36,
35,
35,
35,
34,
34,
35,
34,
34,
35,
34,
34,
35,
34,
35,
34,
35,
35,
34,
35,
35,
34,
35,
34,
35,
35,
34,
35,
34,
34,
34,
35,
35,
34,
34,
35,
34,
36,
34,
36,
35,
34,
35,
34,
34,
35,
35,
35,
34,
34,
35,
34,
34,
34,
36,
34,
34,
34,
34,
34,
34,
34,
35,
34,
34,
35,
34,
34,
34,
34,
34,
34,
34,
35,
35,
34,
34,
34,
34,
34,
34,
34,
34,
35,
34,
34,
34,
34,
34,
34,
34,
34,
34,
34,
34,
34,
34,
34,
34,
34,
34,
34,
34,
34,
34,
34,
34,
35,
34,
34,
34,
34,
35,
35,
34,
34,
34,
34,
34,
36,
35,
34,
34,
34,
34,
35,
34,
34,
34,
34,
34,
34,
35,
34,
34,
34,
34,
35,
34,
34,
34,
34,
34,
34,
35,
34,
34,
35,
34,
34,
34,
35,
34,
34,
34,
36,
34,
34,
34,
34,
34,
34,
35,
34,
34,
34,
34,
34,
34,
34,
34,
34,
34,
34,
34,
34,
34,
34,
35,
34,
34,
34,
34,
34,
34,
34,
34,
34,
34,
36,
34,
34,
35,
34,
34,
34,
34,
34,
34,
35,
34,
35,
34,
35,
35,
35,
34,
34,
35,
34,
34,
34,
34,
34,
34,
34,
34,
34,
34,
34,
34,
34,
34,
34,
34,
34,
34,
34,
34,
34,
34,
34,
34,
34,
35,
34,
34,
34,
34,
34,
34,
34,
35,
35,
34,
34,
34,
34,
35,
34,
34,
34,
34,
34,
34,
34,
34,
35,
35,
34,
34,
34,
34,
34,
34,
34,
34,
35,
35,
34,
35,
34,
35,
34,
34,
34,
34,
34,
-38,
-38,
-38,
-38,
-38,
-38,
-38,
-38,
-38,
-37,
-38,
-38,
-38,
-37,
-37,
-38,
-37,
-38,
-38,
-37,
-37,
-38,
-38,
-36,
-37,
-38,
-38,
-37,
-38,
-38,
-37,
-37,
-37,
-38,
-38,
-38,
-37,
-37,
-38,
-36,
-38,
-37,
-37,
-37,
-36,
-37,
-36,
-38,
-37,
-37,
-36,
-36,
-37,
-38,
-37,
-37,
-37,
-37,
-37,
-37,
-37,
-37,
-37,
-36,
-38,
-36,
-36,
-37,
-36,
-36,
-36,
-37,
-37,
-36,
-36,
-36,
-37,
-36,
-36,
-37,
-36,
-37,
-36,
-37,
-36,
-37,
-37,
-36,
-37,
-37,
-36,
-36,
-36,
-36,
-37,
-36,
-36,
-37,
-36,
-36,
-36,
-36,
-36,
-36,
-36,
-36,
-36,
-36,
-37,
-36,
-36,
-36,
-36,
-37,
-36,
-36,
-36,
-36,
-36,
-36,
-36,
-36,
-36,
-36,
-36,
-36,
-36,
-36,
-36,
-36,
-36,
-35,
-36,
-36,
-36,
-36,
-36,
-36,
-36,
-36,
-36,
-36,
-36,
-36,
-36,
-36,
-36,
-36,
-36,
-36,
-36,
-36,
-36,
-36,
-36,
-36,
-36,
-36,
-36,
-36,
-36,
-36,
-36,
-35,
-36,
-36,
-36,
-36,
-36,
-36,
-36,
-36,
-35,
-36,
-36,
-36,
-36,
-36,
-36,
-35,
-36,
-36,
-36,
-34,
-36,
-36,
-35,
-35,
-36,
-36,
-35,
-36,
-36,
-35,
-35,
-36,
-36,
-36,
-35,
-36,
-36,
-36,
-36,
-36,
-36,
-36,
-35,
-35,
-36,
-36,
-36,
-36,
-35,
-36,
-36,
-36,
-36,
-34,
-35,
-36,
-35,
-36,
-36,
-34,
-35,
-36,
-34,
-36,
-35,
-36,
-35,
-35,
-34,
-36,
-34,
-34,
-34,
-35,
-36,
-34,
-35,
-34,
-36,
-34,
-35,
-35,
-34,
-34,
-34,
-34,
-35,
-35,
-35,
-35,
-35,
-36,
-34,
-36,
-35,
-36,
-35,
-35,
-34,
-36,
-35,
-35,
-35,
-36,
-35,
-34,
-34,
-34,
-34,
-35,
-35,
-34,
-35,
-34,
-34,
-35,
-35,
-36,
-35,
-35,
-34,
-35,
-35,
-34,
-34,
-34,
-34,
-34,
-35,
-36,
-34,
-34,
-34,
-34,
-34,
-35,
-34,
-34,
-34,
-36,
-34,
-34,
-34,
-35,
-34,
-34,
-34,
-35,
-35,
-34,
-35,
-34,
-34,
-34,
-34,
-34,
-34,
-36,
-35,
-34,
-35,
-35,
-34,
-34,
-34,
-35,
-36,
-35,
-36,
-34,
-34,
-34,
-35,
-34,
-34,
-34,
-35,
-34,
-34,
-34,
-34,
-34,
-34,
-36,
-34,
-35,
-34,
-34,
-34,
-34,
-35,
-34,
-34,
-35,
-34,
-34,
-34,
-34,
-34,
-34,
-35,
-34,
-34,
-34,
-34,
-34,
-34,
-34,
-34,
-35,
-34,
-34,
-34,
-34,
-35,
-34,
-35,
-34,
-34,
-36,
-35,
-34,
-34,
-34,
-34,
-34,
-34,
-34,
-34,
-34,
-35,
-34,
-34,
-34,
-35,
-34,
-34,
-34,
-35,
-34,
-34,
-34,
-34,
-34,
-34,
-34,
-34,
-34,
-34,
-34,
-34,
-34,
-35,
-34,
-35,
-34,
-34,
-34,
-34,
-34,
-34,
-34,
-34,
-34,
-34,
-34,
-35,
-34,
-34,
-34,
-34,
-34,
-35,
-34,
-34,
-35,
-35,
-34,
-34,
-34,
-34,
-35,
-34,
-34,
-35,
-35,
-34,
-34,
-34,
-34,
-34,
-35,
-34,
-35,
-34,
-35,
-35,
-34,
-34,
-34,
-34,
-35,
-34,
-34,
-34,
-36,
-34,
-34,
-34,
-34,
-34,
-34,
-34,
-35,
-35,
-35,
-34,
-34,
-35,
-34,
-34,
-35,
-34,
-34,
-34,
-34,
-34,
-34,
-34,
-34,
-34,
-34,
38,
38,
38,
38,
38,
38,
38,
38,
38,
38,
38,
38,
38,
38,
38,
38,
38,
38,
38,
38,
38,
38,
36,
38,
38,
38,
38,
38,
37,
36,
36,
38,
37,
37,
38,
38,
37,
37,
36,
36,
37,
36,
37,
38,
37,
38,
37,
38,
38,
38,
37,
36,
36,
37,
37,
38,
38,
37,
37,
38,
38,
36,
36,
37,
37,
37,
36,
36,
36,
38,
37,
38,
37,
37,
36,
36,
38,
36,
37,
36,
37,
36,
36,
36,
36,
37,
36,
36,
36,
38,
36,
36,
37,
36,
36,
36,
36,
36,
36,
36,
36,
36,
36,
36,
36,
36,
36,
36,
36,
36,
36,
36,
36,
36,
36,
36,
36,
36,
36,
37,
36,
36,
36,
36,
36,
36,
36,
36,
36,
36,
36,
36,
36,
36,
36,
36,
36,
36,
36,
36,
36,
36,
36,
36,
36,
36,
36,
36,
36,
36,
36,
36,
36,
36,
35,
36,
36,
36,
35,
36,
36,
35,
36,
36,
36,
36,
35,
36,
36,
36,
36,
36,
36,
36,
35,
36,
36,
35,
36,
35,
36,
36,
36,
36,
35,
36,
36,
36,
36,
36,
35,
35,
35,
36,
35,
36,
35,
35,
36,
35,
35,
35,
35,
35,
35,
34,
35,
35,
35,
35,
35,
35,
35,
35,
34,
36,
35,
36,
36,
36,
35,
36,
36,
36,
35,
35,
34,
36,
34,
35,
36,
34,
36,
36,
35,
35,
36,
34,
36,
34,
35,
35,
35,
34,
35,
35,
35,
34,
35,
35,
35,
35,
35,
35,
34,
35,
34,
34,
34,
34,
36,
34,
34,
34,
34,
34,
34,
34,
35,
34,
34,
34,
35,
34,
34,
35,
34,
34,
34,
35,
34,
34,
34,
34,
35,
34,
35,
34,
34,
34,
34,
34,
35,
35,
35,
35,
34,
34,
35,
34,
35,
35,
34,
34,
34,
34,
34,
34,
34,
35,
34,
35,
34,
34,
34,
34,
34,
34,
34,
34,
34,
35,
34,
34,
35,
34,
34,
34,
35,
34,
34,
35,
34,
35,
34,
34,
34,
34,
34,
35,
34,
35,
35,
34,
34,
34,
34,
34,
34,
34,
34,
34,
35,
34,
36,
34,
34,
34,
34,
34,
34,
34,
35,
34,
35,
34,
34,
34,
35,
34,
34,
34,
34,
34,
35,
34,
34,
34,
34,
34,
35,
34,
34,
35,
34,
34,
35,
34,
34,
34,
34,
34,
34,
34,
35,
34,
34,
34,
35,
35,
35,
34,
34,
34,
34,
34,
34,
35,
34,
34,
35,
34,
34,
34,
34,
35,
34,
34,
34,
34,
35,
34,
34,
34,
35,
34,
34,
35,
34,
34,
34,
34,
34,
34,
34,
34,
35,
34,
34,
34,
34,
34,
34,
34,
35,
34,
34,
34,
34,
35,
34,
35,
34,
35,
34,
34,
34,
34,
35,
34,
35,
34,
34,
34,
34,
35,
34,
35,
34,
34,
34,
34,
35,
34,
34,
35,
34,
35,
34,
35,
34,
35,
34,
34,
35,
34,
34,
35,
34,
35,
35,
35,
34,
34,
34,
34,
34,
34,
34,
34,
34,
34,
34,
34,
-37,
-38,
-37,
-38,
-37,
-38,
-38,
-38,
-38,
-38,
-38,
-38,
-37,
-38,
-37,
-38,
-37,
-38,
-38,
-38,
-38,
-38,
-38,
-38,
-37,
-38,
-37,
-37,
-38,
-36,
-37,
-38,
-37,
-36,
-37,
-38,
-37,
-37,
-38,
-38,
-38,
-37,
-37,
-36,
-38,
-38,
-37,
-37,
-38,
-36,
-37,
-37,
-37,
-37,
-37,
-37,
-37,
-36,
-37,
-37,
-37,
-36,
-36,
-36,
-37,
-37,
-36,
-36,
-36,
-36,
-36,
-38,
-37,
-36,
-37,
-37,
-37,
-37,
-36,
-36,
-36,
-37,
-38,
-37,
-37,
-36,
-37,
-37,
-37,
-38,
-36,
-36,
-37,
-36,
-36,
-37,
-37,
-36,
-36,
-36,
-36,
-37,
-36,
-36,
-36,
-36,
-36,
-36,
-37,
-36,
-36,
-37,
-36,
-37,
-36,
-37,
-36,
-36,
-36,
-36,
-36,
-36,
-36,
-36,
-36,
-36,
-36,
-36,
-36,
-36,
-36,
-36,
-36,
-36,
-36,
-36,
-36,
-36,
-36,
-36,
-36,
-36,
-36,
-36,
-36,
-36,
-36,
-36,
-36,
-36,
-36,
-36,
-36,
-36,
-36,
-36,
-36,
-36,
-36,
-36,
-36,
-36,
-36,
-36,
-35,
-36,
-36,
-36,
-36,
-36,
-36,
-36,
-36,
-35,
-36,
-36,
-36,
-36,
-35,
-36,
-36,
-35,
-35,
-36,
-35,
-36,
-35,
-34,
-35,
-36,
-36,
-35,
-36,
-35,
-36,
-35,
-36,
-35,
-36,
-35,
-36,
-35,
-35,
-36,
-36,
-34,
-35,
-36,
-35,
-36,
-36,
-34,
-36,
-36,
-35,
-36,
-36,
-35,
-35,
-36,
-35,
-34,
-35,
-36,
-36,
-36,
-34,
-35,
-35,
-36,
-35,
-36,
-35,
-36,
-35,
-36,
-36,
-35,
-35,
-36,
-34,
-35,
-35,
-35,
-34,
-34,
-35,
-34,
-35,
-34,
-35,
-35,
-35,
-35,
-34,
-34,
-34,
-34,
-34,
-34,
-34,
-35,
-34,
-35,
-35,
-35,
-34,
-34,
-34,
-34,
-35,
-34,
-35,
-34,
-35,
-34,
-34,
-35,
-34,
-35,
-34,
-35,
-35,
-34,
-34,
-35,
-34,
-35,
-35,
-36,
-34,
-34,
-34,
-34,
-34,
-34,
-34,
-36,
-34,
-35,
-36,
-34,
-35,
-34,
-34,
-35,
-34,
-34,
-36,
-34,
-35,
-35,
-35,
-36,
-34,
-34,
-35,
-35,
-35,
-34,
-34,
-35,
-34,
-35,
-35,
-34,
-35,
-35,
-34,
-35,
-34,
-34,
-34,
-34,
-35,
-34,
-34,
-35,
-34,
-36,
-35,
-34,
-36,
-34,
-35,
-35,
-35,
-34,
-35,
-34,
-34,
-35,
-35,
-34,
-35,
-34,
-34,
-35,
-35,
-34,
-34,
-34,
-35,
-34,
-34,
-35,
-34,
-34,
-34,
-35,
-34,
-34,
-34,
-34,
-35,
-35,
-35,
-34,
-34,
-34,
-34,
-34,
-34,
-36,
-34,
-34,
-35,
-35,
-34,
-34,
-35,
-34,
-34,
-34,
-34,
-35,
-34,
-35,
-34,
-34,
-34,
-34,
-34,
-34,
-34,
-34,
-34,
-34,
-34,
-35,
-34,
-34,
-34,
-34,
-34,
-34,
-34,
-34,
-34,
-34,
-34,
-34,
-34,
-34,
-34,
-34,
-35,
-34,
-35,
-34,
-34,
-34,
-34,
-35,
-34,
-34,
-35,
-34,
-34,
-35,
-34,
-34,
-34,
-34,
-34,
-35,
-34,
-34,
-34,
-35,
-34,
-34,
-35,
-34,
-34,
-34,
-35,
-34,
-34,
-34,
-35,
-34,
-34,
-34,
-35,
-35,
-34,
-34,
-34,
-34,
-35,
-34,
-34,
-35,
-34,
-35,
-35,
-34,
-34,
-34,
-35,
-35,
-35,
-34,
-34,
-34,
-34,
-34,
-34,
-35,
-34,
-34,
-35,
-34,
-34,
-34,
38,
38,
38,
38,
37,
38,
38,
38,
38,
37,
38,
38,
38,
38,
38,
38,
38,
38,
38,
38,
37,
38,
38,
38,
38,
37,
37,
38,
38,
37,
38,
36,
38,
38,
36,
37,
37,
38,
37,
38,
38,
38,
36,
38,
36,
37,
37,
36,
37,
36,
36,
38,
36,
37,
37,
37,
36,
36,
37,
36,
38,
36,
36,
38,
37,
37,
36,
36,
37,
37,
37,
36,
37,
37,
36,
36,
36,
36,
36,
36,
36,
36,
36,
37,
37,
36,
36,
37,
36,
37,
36,
36,
36,
36,
36,
36,
38,
36,
36,
36,
36,
36,
36,
36,
36,
36,
36,
36,
36,
36,
36,
36,
36,
36,
36,
36,
36,
36,
36,
36,
36,
36,
36,
36,
36,
36,
37,
36,
36,
36,
36,
36,
36,
36,
36,
36,
36,
36,
36,
36,
36,
36,
36,
36,
36,
36,
36,
36,
36,
36,
36,
36,
35,
36,
36,
35,
36,
36,
36,
36,
36,
36,
36,
36,
36,
35,
36,
36,
36,
36,
36,
36,
36,
36,
36,
36,
36,
35,
35,
36,
35,
36,
36,
36,
36,
35,
36,
36,
35,
36,
36,
36,
35,
36,
35,
36,
36,
35,
36,
36,
35,
36,
36,
35,
36,
35,
35,
35,
35,
36,
34,
35,
36,
36,
34,
34,
35,
36,
35,
34,
35,
34,
35,
35,
36,
34,
35,
36,
35,
34,
35,
35,
35,
35,
36,
36,
35,
36,
35,
34,
35,
35,
35,
35,
34,
35,
34,
35,
35,
34,
35,
35,
35,
36,
36,
35,
34,
34,
35,
34,
36,
34,
34,
34,
36,
35,
35,
34,
36,
35,
35,
36,
34,
35,
34,
35,
34,
34,
34,
35,
35,
34,
34,
35,
34,
34,
35,
35,
35,
34,
34,
35,
35,
34,
36,
35,
34,
34,
35,
34,
35,
35,
36,
35,
34,
34,
34,
35,
34,
34,
34,
34,
36,
34,
34,
34,
34,
35,
35,
34,
34,
34,
35,
34,
34,
35,
34,
35,
34,
34,
34,
34,
35,
34,
34,
34,
34,
35,
34,
34,
34,
35,
34,
34,
34,
34,
34,
35,
34,
34,
35,
34,
34,
34,
34,
35,
34,
34,
34,
34,
35,
34,
35,
34,
34,
34,
34,
34,
35,
34,
34,
35,
34,
34,
35,
34,
34,
35,
35,
35,
34,
35,
34,
34,
34,
34,
35,
34,
34,
34,
34,
34,
34,
35,
34,
34,
34,
34,
35,
35,
35,
34,
35,
34,
34,
34,
35,
34,
34,
35,
34,
34,
34,
34,
35,
36,
34,
34,
34,
34,
34,
34,
34,
34,
34,
35,
34,
35,
34,
35,
35,
34,
34,
34,
35,
35,
34,
34,
34,
34,
34,
34,
34,
35,
35,
34,
35,
34,
34,
34,
34,
35,
34,
34,
34,
35,
35,
35,
34,
34,
36,
34,
34,
34,
34,
34,
34,
34,
34,
34,
35,
34,
34,
34,
34,
35,
34,
35,
34,
34,
34,
34,
34,
35,
34,
34,
34,
34,
34,
34,
35,
34,
34,
34,
35,
34,
34,
35,
35,
35,
34,
34,
34,
35,
-37,
-38,
-38,
-38,
-37,
-38,
-38,
-38,
-37,
-38,
-37,
-38,
-37,
-37,
-38,
-38,
-37,
-37,
-38,
-37,
-38,
-37,
-36,
-38,
-37,
-37,
-37,
-38,
-38,
-37,
-37,
-37,
-38,
-36,
-38,
-38,
-38,
-37,
-37,
-38,
-37,
-37,
-37,
-38,
-37,
-37,
-36,
-38,
-37,
-37,
-38,
-37,
-36,
-37,
-37,
-36,
-37,
-37,
-37,
-37,
-37,
-38,
-37,
-36,
-38,
-36,
-37,
-37,
-36,
-37,
-37,
-37,
-36,
-36,
-36,
-37,
-37,
-36,
-37,
-36,
-36,
-36,
-36,
-36,
-36,
-36,
-36,
-36,
-37,
-36,
-36,
-36,
-37,
-36,
-36,
-36,
-36,
-37,
-36,
-36,
-36,
-36,
-36,
-36,
-36,
-36,
-36,
-36,
-36,
-36,
-36,
-36,
-36,
-36,
-36,
-36,
-36,
-36,
-36,
-36,
-36,
-36,
-36,
-36,
-36,
-36,
-36,
-36,
-36,
-36,
-36,
-36,
-36,
-36,
-36,
-36,
-36,
-36,
-36,
-36,
-36,
-36,
-36,
-36,
-36,
-36,
-36,
-36,
-36,
-36,
-36,
-35,
-36,
-36,
-36,
-36,
-36,
-36,
-36,
-36,
-36,
-36,
-36,
-36,
-36,
-36,
-36,
-35,
-36,
-36,
-36,
-34,
-36,
-36,
-36,
-36,
-35,
-36,
-35,
-35,
-35,
-36,
-36,
-35,
-35,
-35,
-36,
-36,
-36,
-36,
-36,
-36,
-36,
-35,
-36,
-36,
-36,
-36,
-36,
-36,
-36,
-36,
-35,
-35,
-35,
-36,
-35,
-35,
-35,
-36,
-36,
-36,
-36,
-36,
-36,
-36,
-35,
-35,
-35,
-35,
-36,
-36,
-35,
-36,
-35,
-36,
-36,
-35,
-34,
-36,
-36,
-35,
-36,
-36,
-34,
-36,
-36,
-34,
-36,
-35,
-34,
-34,
-35,
-36,
-34,
-35,
-36,
-36,
-35,
-34,
-34,
-36,
-36,
-36,
-35,
-34,
-34,
-34,
-34,
-35,
-34,
-34,
-35,
-34,
-34,
-34,
-36,
-34,
-34,
-34,
-34,
-36,
-35,
-35,
-35,
-35,
-36,
-35,
-34,
-36,
-34,
-36,
-35,
-34,
-34,
-36,
-36,
-34,
-34,
-36,
-35,
-35,
-35,
-35,
-34,
-34,
-34,
-35,
-34,
-34,
-34,
-34,
-35,
-34,
-34,
-35,
-34,
-34,
-34,
-35,
-35,
-34,
-35,
-34,
-34,
-34,
-34,
-34,
-34,
-34,
-35,
-34,
-35,
-34,
-34,
-34,
-34,
-34,
-34,
-34,
-34,
-35,
-34,
-34,
-34,
-35,
-34,
-34,
-34,
-35,
-35,
-34,
-34,
-36,
-36,
-34,
-34,
-34,
-34,
-35,
-34,
-34,
-34,
-34,
-35,
-34,
-34,
-34,
-34,
-34,
-35,
-34,
-34,
-34,
-34,
-35,
-34,
-34,
-34,
-34,
-34,
-35,
-34,
-34,
-34,
-34,
-34,
-34,
-35,
-34,
-34,
-34,
-35,
-34,
-34,
-34,
-34,
-34,
-34,
-34,
-34,
-34,
-34,
-35,
-34,
-34,
-34,
-34,
-34,
-34,
-34,
-34,
-34,
-34,
-34,
-34,
-34,
-35,
-34,
-35,
-34,
-34,
-34,
-34,
-35,
-34,
-34,
-34,
-35,
-35,
-34,
-34,
-34,
-34,
-34,
-35,
-34,
-34,
-34,
-34,
-34,
-34,
-34,
-34,
-34,
-34,
-34,
-34,
-34,
-34,
-35,
-35,
-34,
-34,
-34,
-34,
-35,
-34,
-34,
-34,
-34,
-35,
-34,
-34,
-34,
-35,
-34,
-34,
-34,
-34,
-34,
-35,
-34,
-35,
-35,
-35,
-34,
-34,
-34,
-34,
-34,
-35,
-34,
-34,
-34,
-34,
-35,
-34,
-35,
-34,
-36,
-34,
-35,
-34,
-34,
-35,
-34,
-35,
-35,
-34,
-35,
-34,
-35,
-34,
-34,
-34,
38,
