2-Passive Filters/data/ALL0012/A0012CH2.CSV

Memory Length,4000,
Trigger Level,0.000E+00,
Source,CH2,
Probe,1X,
Vertical Units,V,
Vertical Scale,2.000E+00,
Vertical Position,-8.000E-02,
Horizontal Units,s,
Horizontal Scale,2.500E-08,
Horizontal Position,0.000E+00,
Horizontal Mode,Main,
Sampling Period,1.000E-09,
Firmware,V1.04,
Time, ,
Mode,Fast,
Waveform Data,
-11,
-14,
-6,
1,
9,
9,
17,
19,
26,
26,
33,
38,
45,
45,
52,
54,
59,
59,
62,
67,
71,
70,
75,
74,
77,
77,
78,
78,
79,
78,
79,
77,
75,
77,
74,
71,
68,
66,
65,
61,
55,
57,
51,
45,
39,
38,
34,
29,
21,
23,
17,
9,
1,
-1,
-5,
-10,
-19,
-15,
-23,
-31,
-37,
-39,
-42,
-46,
-53,
-51,
-55,
-62,
-65,
-67,
-68,
-71,
-75,
-73,
-75,
-78,
-78,
-80,
-77,
-79,
-78,
-78,
-75,
-75,
-71,
-73,
-67,
-66,
-61,
-62,
-58,
-55,
-47,
-48,
-40,
-38,
-30,
-31,
-24,
-20,
-10,
-11,
-3,
0,
8,
7,
14,
19,
27,
27,
34,
37,
45,
43,
49,
53,
59,
60,
63,
65,
70,
70,
73,
73,
76,
77,
77,
78,
78,
80,
79,
75,
75,
77,
72,
72,
68,
69,
65,
59,
55,
57,
49,
47,
41,
42,
36,
27,
21,
22,
13,
10,
3,
5,
-3,
-12,
-19,
-17,
-27,
-29,
-36,
-34,
-41,
-47,
-53,
-52,
-59,
-60,
-65,
-65,
-69,
-71,
-73,
-73,
-78,
-77,
-78,
-78,
-78,
-78,
-77,
-76,
-77,
-75,
-71,
-73,
-69,
-65,
-60,
-60,
-57,
-54,
-47,
-49,
-43,
-36,
-29,
-29,
-23,
-20,
-11,
-14,
-6,
2,
9,
9,
15,
19,
27,
25,
33,
39,
45,
46,
50,
52,
59,
57,
64,
67,
70,
71,
73,
73,
78,
75,
79,
79,
77,
79,
78,
76,
77,
75,
75,
73,
66,
67,
64,
61,
57,
57,
53,
47,
37,
39,
34,
29,
23,
22,
18,
10,
0,
2,
-6,
-9,
-16,
-17,
-23,
-29,
-39,
-37,
-43,
-45,
-51,
-51,
-55,
-59,
-65,
-65,
-69,
-71,
-74,
-73,
-75,
-75,
-78,
-78,
-78,
-78,
-77,
-77,
-75,
-72,
-71,
-71,
-67,
-66,
-62,
-62,
-58,
-51,
-46,
-47,
-39,
-38,
-30,
-31,
-26,
-17,
-9,
-11,
-1,
0,
9,
7,
13,
21,
29,
26,
37,
37,
45,
44,
49,
55,
60,
58,
67,
65,
71,
70,
73,
75,
77,
75,
81,
78,
79,
79,
80,
77,
75,
74,
75,
71,
69,
69,
66,
60,
53,
54,
53,
47,
41,
41,
37,
29,
19,
21,
17,
9,
3,
5,
-1,
-12,
-20,
-19,
-23,
-29,
-35,
-33,
-39,
-48,
-54,
-53,
-57,
-59,
-65,
-63,
-67,
-73,
-75,
-74,
-75,
-76,
-78,
-76,
-77,
-80,
-77,
-77,
-75,
-73,
-71,
-71,
-69,
-67,
-60,
-60,
-57,
-52,
-47,
-47,
-43,
-38,
-29,
-29,
-23,
-19,
-12,
-12,
-5,
1,
10,
10,
16,
20,
26,
27,
32,
38,
46,
45,
50,
53,
59,
59,
63,
66,
71,
71,
73,
74,
77,
77,
78,
78,
79,
79,
78,
77,
75,
77,
73,
71,
67,
68,
63,
61,
55,
57,
51,
47,
38,
39,
33,
29,
22,
23,
17,
9,
1,
2,
-6,
-10,
-17,
-16,
-23,
-29,
-38,
-37,
-42,
-46,
-51,
-51,
-55,
-60,
-66,
-65,
-69,
-71,
-73,
-73,
-75,
-77,
-78,
-77,
-78,
-78,
-77,
-77,
-76,
-75,
-71,
-70,
-69,
-65,
-61,
-61,
-58,
-52,
-46,
-46,
-40,
-37,
-29,
-31,
-25,
-18,
-9,
-9,
-5,
1,
9,
8,
13,
21,
29,
29,
34,
38,
45,
45,
48,
55,
61,
61,
63,
66,
70,
71,
72,
77,
78,
78,
77,
78,
78,
79,
77,
79,
77,
77,
73,
71,
67,
69,
64,
63,
55,
55,
50,
47,
40,
41,
35,
32,
21,
21,
15,
11,
1,
2,
-3,
-8,
-19,
-18,
-25,
-29,
-37,
-36,
-41,
-45,
-53,
-52,
-57,
-59,
-65,
-66,
-68,
-69,
-74,
-74,
-75,
-77,
-78,
-79,
-78,
-77,
-77,
-77,
-74,
-74,
-71,
-73,
-69,
-65,
-61,
-61,
-55,
-53,
-47,
-49,
-42,
-37,
-29,
-29,
-22,
-19,
-11,
-13,
-5,
1,
10,
9,
17,
21,
28,
26,
33,
38,
46,
46,
51,
55,
60,
59,
64,
67,
71,
71,
73,
75,
78,
77,
79,
78,
80,
81,
78,
78,
77,
77,
75,
71,
69,
69,
63,
63,
57,
57,
53,
47,
40,
41,
33,
30,
22,
22,
17,
10,
2,
3,
-7,
-9,
-18,
-17,
-23,
-29,
-37,
-36,
-43,
-44,
-53,
-52,
-55,
-60,
-65,
-64,
-69,
-70,
-75,
-74,
-75,
-77,
-77,
-77,
-78,
-77,
-78,
-79,
-76,
-74,
-71,
-71,
-68,
-65,
-62,
-63,
-58,
-52,
-46,
-47,
-40,
-37,
-31,
-33,
-25,
-18,
-10,
-10,
-3,
0,
7,
5,
13,
21,
28,
27,
35,
37,
45,
43,
49,
55,
59,
60,
65,
65,
70,
69,
72,
74,
77,
77,
79,
78,
79,
78,
78,
77,
75,
76,
73,
71,
68,
69,
65,
60,
54,
56,
50,
47,
41,
41,
35,
29,
21,
21,
14,
10,
1,
3,
-3,
-11,
-19,
-17,
-25,
-29,
-37,
-35,
-42,
-47,
-53,
-51,
-58,
-59,
-65,
-65,
-69,
-71,
-73,
-73,
-77,
-76,
-79,
-78,
-79,
-78,
-77,
-76,
-76,
-74,
-73,
-72,
-71,
-66,
-59,
-60,
-57,
-54,
-48,
-49,
-45,
-36,
-29,
-29,
-23,
-20,
-13,
-13,
-8,
2,
10,
9,
15,
18,
26,
26,
31,
39,
45,
45,
50,
53,
58,
57,
61,
68,
71,
70,
73,
73,
76,
77,
76,
79,
78,
77,
78,
76,
75,
76,
73,
72,
66,
67,
63,
59,
55,
57,
51,
46,
37,
39,
33,
29,
22,
23,
17,
9,
1,
1,
-6,
-9,
-17,
-17,
-23,
-31,
-39,
-37,
-42,
-45,
-51,
-51,
-55,
-62,
-66,
-65,
-69,
-71,
-73,
-73,
-75,
-79,
-78,
-77,
-78,
-77,
-77,
-77,
-75,
-75,
-70,
-71,
-69,
-65,
-61,
-61,
-58,
-53,
-45,
-46,
-41,
-37,
-30,
-31,
-25,
-19,
-8,
-10,
-4,
0,
8,
8,
14,
20,
31,
29,
34,
38,
45,
44,
49,
54,
62,
60,
63,
66,
70,
70,
73,
75,
78,
77,
77,
78,
79,
79,
79,
77,
77,
74,
72,
70,
69,
69,
65,
61,
55,
53,
49,
46,
41,
41,
37,
29,
21,
20,
14,
9,
3,
3,
-2,
-11,
-19,
-19,
-25,
-29,
-34,
-35,
-40,
-47,
-54,
-53,
-57,
-59,
-63,
-65,
-66,
-72,
-75,
-74,
-76,
-76,
-77,
-78,
-77,
-79,
-77,
-77,
-75,
-74,
-71,
-71,
-68,
-66,
-61,
-60,
-57,
-53,
-47,
-47,
-42,
-37,
-29,
-28,
-23,
-19,
-11,
-13,
-5,
0,
10,
9,
16,
20,
26,
26,
33,
37,
45,
46,
51,
53,
59,
59,
63,
66,
71,
71,
73,
74,
77,
77,
78,
78,
79,
78,
77,
76,
75,
77,
73,
71,
67,
67,
63,
60,
55,
57,
51,
46,
39,
39,
33,
28,
21,
23,
15,
10,
1,
1,
-7,
-11,
-18,
-16,
-25,
-30,
-39,
-38,
-43,
-47,
-52,
-51,
-57,
-60,
-67,
-67,
-69,
-71,
-75,
-73,
-77,
-77,
-79,
-79,
-79,
-78,
-78,
-79,
-78,
-74,
-73,
-71,
-67,
-66,
-62,
-62,
-59,
-53,
-49,
-47,
-40,
-38,
-31,
-31,
-27,
-19,
-12,
-11,
-3,
1,
8,
7,
13,
21,
26,
27,
35,
37,
44,
45,
48,
55,
58,
59,
65,
66,
70,
71,
71,
75,
75,
77,
78,
78,
78,
80,
78,
78,
74,
75,
73,
72,
67,
70,
65,
61,
54,
54,
50,
47,
40,
43,
36,
29,
20,
21,
14,
10,
1,
5,
-3,
-10,
-19,
-18,
-26,
-28,
-36,
-34,
-41,
-46,
-52,
-53,
-59,
-59,
-65,
-65,
-68,
-71,
-73,
-74,
-77,
-76,
-78,
-78,
-78,
-77,
-77,
-77,
-75,
-73,
-71,
-72,
-69,
-64,
-59,
-61,
-57,
-52,
-46,
-49,
-42,
-36,
-28,
-30,
-23,
-18,
-11,
-13,
-5,
1,
10,
9,
17,
21,
29,
26,
33,
39,
47,
45,
52,
55,
61,
58,
65,
66,
72,
70,
74,
77,
79,
77,
80,
78,
80,
78,
79,
79,
77,
77,
77,
71,
68,
67,
64,
63,
58,
57,
55,
46,
40,
39,
34,
31,
24,
23,
20,
11,
2,
1,
-5,
-8,
-15,
-16,
-21,
-29,
-36,
-37,
-43,
-44,
-51,
-51,
-54,
-59,
-64,
-65,
-69,
-70,
-73,
-73,
-73,
-75,
-77,
-77,
-78,
-78,
-77,
-78,
-75,
-72,
-69,
-70,
-69,
-65,
-61,
-62,
-58,
-51,
-45,
-47,
-40,
-38,
-31,
-32,
-25,
-17,
-9,
-10,
-3,
-1,
7,
7,
13,
21,
29,
27,
35,
37,
45,
43,
49,
55,
59,
59,
65,
66,
70,
69,
72,
74,
77,
77,
79,
78,
78,
78,
78,
77,
75,
75,
74,
71,
67,
69,
65,
60,
53,
54,
51,
47,
41,
41,
35,
29,
19,
20,
17,
10,
2,
4,
-3,
-11,
-20,
-19,
-23,
-29,
-36,
-35,
-41,
-47,
-54,
-53,
-57,
-60,
-65,
-63,
-69,
-71,
-75,
-74,
-75,
-77,
-78,
-77,
-79,
-78,
-77,
-77,
-75,
-75,
-71,
-71,
-70,
-65,
-59,
-60,
-55,
-54,
-47,
-47,
-45,
-35,
-29,
-29,
-23,
-20,
-13,
-13,
-7,
2,
10,
9,
17,
19,
26,
25,
30,
39,
45,
45,
51,
53,
58,
58,
61,
67,
70,
71,
73,
73,
76,
77,
76,
78,
77,
79,
78,
77,
74,
76,
73,
71,
66,
68,
63,
61,
55,
57,
51,
45,
38,
39,
33,
30,
22,
23,
17,
8,
1,
1,
-6,
-9,
-17,
-16,
-23,
-31,
-39,
-37,
-43,
-44,
-51,
-51,
-55,
-62,
-65,
-65,
-69,
-69,
-73,
-73,
-75,
-79,
-77,
-77,
-78,
-75,
-75,
-77,
-76,
-75,
-69,
-71,
-69,
-64,
-59,
-61,
-58,
-53,
-43,
-46,
-41,
-35,
-28,
-31,
-25,
-18,
-7,
-9,
-4,
1,
10,
7,
14,
21,
32,
29,
34,
39,
47,
43,
49,
55,
63,
61,
63,
67,
72,
69,
72,
76,
79,
78,
77,
78,
80,
77,
78,
78,
77,
77,
71,
72,
69,
66,
65,
61,
56,
56,
49,
47,
41,
39,
35,
29,
21,
22,
14,
11,
2,
1,
-3,
-10,
-19,
-17,
-26,
-28,
-36,
-37,
-41,
-47,
-54,
-51,
-58,
-59,
-65,
-66,
-67,
-71,
-75,
-74,
-76,
-77,
-78,
-79,
-78,
-79,
-77,
-77,
-74,
-75,
-72,
-73,
-69,
-65,
-61,
-61,
-55,
-54,
-47,
-48,
-43,
-37,
-29,
-29,
-22,
-20,
-12,
-12,
-6,
1,
10,
9,
17,
19,
27,
26,
33,
38,
45,
45,
52,
53,
59,
59,
63,
67,
70,
71,
74,
73,
77,
77,
77,
79,
78,
79,
79,
77,
74,
77,
74,
71,
67,
67,
64,
60,
55,
57,
51,
46,
37,
39,
34,
29,
21,
23,
17,
9,
-1,
1,
-6,
-11,
-19,
-15,
-23,
-30,
-40,
-38,
-43,
-47,
-55,
-51,
-57,
-61,
-68,
-66,
-69,
-72,
-77,
-72,
-76,
-78,
-80,
-78,
-79,
-79,
-80,
-76,
-75,
-75,
-73,
-71,
-69,
-68,
-64,
-61,
-58,
-54,
-50,
-47,
-41,
-39,
-33,
-30,
-25,
-19,
-13,
-10,
-3,
-1,
6,
9,
13,
19,
26,
27,
34,
37,
43,
46,
49,
53,
59,
59,
64,
65,
69,
71,
73,
74,
76,
77,
78,
78,
78,
81,
79,
77,
75,
75,
73,
72,
68,
71,
65,
59,
54,
55,
49,
49,
41,
42,
37,
28,
21,
22,
14,
11,
3,
5,
-2,
-11,
-19,
-18,
-27,
-27,
-35,
-35,
-41,
-47,
-52,
-51,
-59,
-59,
-65,
-65,
-67,
-71,
-73,
-72,
-78,
-75,
-77,
-78,
-79,
-78,
-76,
-74,
-78,
-74,
-71,
-72,
-69,
-66,
-59,
-59,
-58,
-54,
-47,
-49,
-43,
-36,
-29,
-28,
-25,
-20,
-11,
-14,
-5,
1,
10,
10,
14,
19,
27,
26,
33,
39,
46,
45,
49,
53,
60,
58,
64,
67,
71,
71,
73,
74,
77,
76,
79,
78,
79,
79,
77,
77,
77,
76,
77,
72,
67,
67,
63,
61,
57,
57,
54,
47,
40,
39,
34,
30,
22,
22,
19,
10,
2,
1,
-6,
-9,
-17,
-16,
-22,
-29,
-37,
-37,
-42,
-45,
-51,
-52,
-55,
-60,
-65,
-65,
-69,
-71,
-73,
-74,
-75,
-76,
-77,
-77,
-77,
-78,
-77,
-79,
-76,
-73,
-71,
-71,
-67,
-66,
-62,
-63,
-58,
-51,
-46,
-46,
-39,
-38,
-31,
-33,
-25,
-17,
-10,
-10,
-3,
-1,
7,
6,
13,
22,
27,
28,
35,
37,
44,
43,
49,
55,
59,
59,
65,
65,
69,
70,
73,
76,
76,
76,
79,
77,
77,
79,
79,
77,
74,
74,
73,
70,
67,
69,
65,
61,
53,
53,
51,
46,
40,
43,
37,
29,
20,
19,
15,
10,
1,
5,
-2,
-11,
-20,
-21,
-25,
-29,
-37,
-33,
-39,
-47,
-54,
-55,
-57,
-59,
-65,
-63,
-67,
-73,
-75,
-76,
-75,
-76,
-79,
-76,
-78,
-79,
-77,
-79,
-75,
-74,
-72,
-71,
-69,
-66,
-60,
-62,
-55,
-53,
-48,
-47,
-43,
-37,
-29,
-31,
-23,
-19,
-12,
-13,
-7,
1,
10,
9,
15,
20,
27,
26,
32,
37,
46,
45,
51,
54,
59,
58,
62,
67,
71,
71,
73,
74,
76,
77,
77,
78,
79,
79,
77,
77,
76,
76,
74,
71,
67,
69,
62,
61,
57,
57,
52,
46,
39,
41,
32,
29,
23,
22,
17,
9,
1,
3,
-8,
-9,
-17,
-16,
-23,
-30,
-38,
-36,
-44,
-45,
-51,
-51,
-55,
-61,
-65,
-64,
-71,
-71,
-74,
-73,
-75,
-78,
-78,
-77,
-79,
-78,
-77,
-78,
-75,
-74,
-71,
-71,
-69,
-65,
-61,
-62,
-57,
-52,
-46,
-46,
-41,
-37,
-29,
-32,
-25,
-18,
-9,
-11,
-4,
1,
9,
5,
14,
21,
30,
29,
34,
39,
46,
42,
49,
57,
61,
59,
64,
67,
71,
68,
73,
77,
78,
77,
79,
79,
80,
77,
78,
79,
77,
75,
73,
72,
69,
66,
65,
63,
55,
55,
51,
47,
41,
39,
35,
31,
21,
21,
15,
10,
3,
2,
-3,
-8,
-19,
-19,
-25,
-29,
-35,
-35,
-42,
-45,
-53,
-53,
-57,
-59,
-65,
-65,
-69,
-69,
-74,
-73,
-75,
-77,
-78,
-79,
-79,
-76,
-77,
-77,
-74,
-75,
-71,
-73,
-70,
-64,
-61,
-61,
-55,
-53,
-47,
-48,
-43,
-35,
-29,
-31,
-22,
-20,
-11,
-13,
-6,
2,
9,
8,
18,
20,
27,
26,
33,
39,
46,
44,
53,
54,
59,
59,
63,
67,
71,
69,
75,
75,
77,
77,
79,
78,
81,
77,
81,
79,
77,
77,
75,
71,
68,
66,
67,
63,
57,
58,
53,
46,
40,
38,
37,
31,
23,
23,
17,
9,
2,
1,
-4,
-8,
-15,
-15,
-23,
-30,
-37,
-38,
-41,
-45,
-51,
-51,
-56,
-61,
-65,
-66,
-68,
-69,
-73,
-73,
-76,
-78,
-77,
-78,
-78,
-77,
-77,
-77,
-77,
-75,
-71,
-71,
-69,
-65,
-61,
-62,
-59,
-55,
-46,
-47,
-42,
-37,
-31,
-31,
-27,
-19,
-10,
-10,
-5,
0,
8,
8,
13,
19,
28,
27,
34,
37,
45,
45,
49,
53,
59,
60,
65,
66,
70,
71,
73,
73,
77,
77,
77,
79,
79,
79,
79,
76,
75,
75,
73,
71,
68,
69,
65,
59,
54,
55,
50,
47,
41,
43,
37,
27,
21,
22,
14,
11,
3,
5,
-2,
-11,
-19,
-18,
-25,
-27,
-35,
-35,
-40,
-47,
-52,
-52,
-57,
-59,
-65,
-65,
-68,
-71,
-73,
-73,
-77,
-77,
-77,
-79,
-79,
-78,
-76,
-75,
-76,
-75,
-71,
-73,
-71,
-65,
-59,
-59,
-57,
-53,
-47,
-49,
-45,
-36,
-29,
-29,
-25,
-19,
-11,
-13,
-7,
2,
10,
10,
14,
19,
27,
26,
31,
39,
45,
46,
50,
53,
59,
59,
61,
69,
70,
71,
73,
73,
77,
78,
77,
80,
78,
79,
78,
77,
75,
77,
74,
73,
66,
68,
64,
61,
55,
59,
51,
48,
38,
40,
34,
29,
22,
24,
17,
11,
1,
2,
-5,
-9,
-18,
-15,
-23,
-29,
-38,
-37,
-41,
-45,
-52,
-51,
-55,
-61,
-66,
-65,
-67,
-70,
-74,
-73,
-75,
-77,
-77,
-79,
-77,
-77,
-77,
-78,
-75,
-74,
-70,
-71,
-67,
-65,
-61,
-62,
-58,
-53,
-46,
-47,
-39,
-37,
-30,
-31,
-26,
-19,
-9,
-10,
-2,
1,
9,
7,
14,
20,
29,
29,
35,
39,
45,
43,
49,
54,
61,
59,
65,
66,
70,
70,
73,
75,
77,
77,
78,
78,
79,
79,
79,
78,
77,
77,
73,
71,
69,
70,
66,
60,
55,
56,
50,
47,
41,
43,
36,
29,
21,
22,
14,
10,
2,
5,
-2,
-11,
-19,
-17,
-25,
-29,
-36,
-33,
-39,
-47,
-54,
-51,
-57,
-59,
-66,
-63,
-67,
-71,
-74,
-73,
-76,
-77,
-79,
-77,
-78,
-79,
-77,
-77,
-75,
-74,
-73,
-71,
-69,
-67,
-61,
-61,
-57,
-53,
-47,
-48,
-42,
-39,
-30,
-29,
-23,
-19,
-12,
-13,
-5,
-1,
9,
9,
16,
19,
26,
26,
33,
37,
45,
45,
51,
53,
59,
58,
63,
66,
70,
71,
74,
74,
77,
76,
78,
77,
78,
79,
78,
77,
76,
75,
74,
71,
67,
69,
63,
61,
57,
57,
52,
46,
39,
40,
33,
30,
22,
23,
17,
10,
1,
3,
-6,
-10,
-18,
-16,
-25,
-29,
-38,
-35,
-43,
-47,
-52,
-50,
-57,
-60,
-66,
-65,
-70,
-71,
-74,
-73,
-77,
-77,
-79,
-77,
-79,
-79,
-78,
-77,
-77,
-74,
-72,
-71,
-69,
-67,
-63,
-61,
-59,
-54,
-48,
-47,
-43,
-39,
-31,
-31,
-27,
-19,
-12,
-11,
-5,
-1,
6,
8,
13,
21,
26,
27,
33,
37,
44,
44,
49,
54,
59,
59,
64,
65,
69,
70,
72,
75,
76,
77,
78,
78,
78,
79,
79,
78,
74,
74,
73,
71,
67,
69,
65,
61,
54,
54,
50,
47,
40,
41,
36,
29,
21,
21,
15,
10,
2,
3,
-3,
-10,
-19,
-19,
-25,
-27,
-36,
-35,
-40,
-46,
-53,
-53,
-57,
-59,
-65,
-65,
-68,
-70,
-73,
-73,
-77,
-76,
-78,
-78,
-78,
-77,
-77,
-77,
-77,
-74,
-72,
-73,
-69,
-65,
-60,
-60,
-57,
-53,
-48,
-49,
-43,
-36,
-29,
-29,
-25,
-19,
-12,
-13,
-5,
1,
10,
9,
15,
20,
27,
27,
33,
39,
45,
45,
51,
54,
59,
59,
65,
67,
71,
70,
73,
75,
77,
77,
80,
79,
79,
77,
78,
78,
76,
77,
77,
71,
67,
67,
63,
62,
57,
57,
55,
46,
39,
38,
33,
31,
23,
22,
19,
9,
2,
1,
-6,
-9,
-17,
-17,
-19,
-29,
-37,
-38,
-43,
-45,
-51,
-53,
-54,
-61,
-65,
-66,
-69,
-69,
-73,
-75,
-73,
-76,
-77,
-78,
-78,
-77,
-75,
-79,
-75,
-74,
-70,
-71,
-68,
-65,
-61,
-63,
-58,
-53,
-45,
-47,
-41,
-37,
-30,
-33,
-25,
-19,
-9,
-11,
-3,
1,
9,
6,
13,
21,
28,
28,
34,
37,
45,
43,
49,
55,
59,
59,
64,
65,
70,
69,
72,
76,
77,
77,
78,
78,
78,
79,
78,
78,
74,
75,
73,
71,
68,
69,
65,
61,
54,
54,
50,
46,
40,
42,
35,
29,
20,
21,
14,
10,
2,
3,
-3,
-11,
-19,
-19,
-26,
-28,
-36,
-34,
-41,
-46,
-54,
-53,
-58,
-59,
-65,
-64,
-69,
-71,
-75,
-74,
-76,
-76,
-77,
-77,
-79,
-78,
-77,
-77,
-75,
-74,
-71,
-73,
-70,
-65,
-61,
-61,
-56,
-53,
-47,
-49,
-45,
-36,
-30,
-30,
-23,
-19,
-11,
-13,
-7,
1,
9,
10,
16,
19,
27,
25,
30,
39,
45,
45,
51,
53,
59,
58,
61,
68,
70,
71,
73,
73,
77,
76,
77,
80,
78,
79,
78,
77,
75,
76,
73,
73,
67,
67,
64,
60,
56,
57,
51,
48,
39,
39,
33,
29,
22,
22,
17,
11,
1,
1,
-7,
-9,
-17,
-16,
-23,
-29,
-37,
-37,
-43,
-44,
-52,
-51,
-55,
-59,
-65,
-65,
-70,
-70,
-74,
-73,
-74,
-76,
-78,
-78,
-79,
-76,
-77,
-78,
-75,
-73,
-70,
-71,
-69,
-63,
-60,
-62,
-57,
-53,
-45,
-46,
-41,
-35,
-29,
-31,
-23,
-18,
-9,
-10,
-3,
2,
9,
7,
15,
19,
30,
29,
35,
39,
46,
43,
50,
54,
62,
61,
65,
67,
72,
69,
75,
75,
79,
79,
79,
78,
80,
78,
81,
78,
78,
77,
73,
71,
69,
68,
67,
61,
57,
56,
51,
47,
41,
41,
37,
30,
23,
22,
15,
10,
2,
3,
-1,
-9,
-17,
-18,
-25,
-29,
-35,
-35,
-39,
-45,
-51,
-52,
-57,
-59,
-65,
-65,
-67,
-71,
-73,
-73,
-76,
-77,
-78,
-78,
-78,
-78,
-75,
-77,
-75,
-73,
-72,
-73,
-69,
-65,
-59,
-61,
-56,
-53,
-47,
-48,
-43,
-36,
-29,
-30,
-23,
-20,
-12,
-13,
-7,
1,
9,
9,
17,
19,
26,
27,
32,
38,
45,
45,
51,
53,
59,
59,
62,
66,
70,
71,
74,
73,
77,
77,
77,
78,
78,
79,
79,
77,
75,
76,
74,
71,
67,
68,
65,
60,
55,
57,
51,
46,
39,
40,
35,
28,
21,
23,
17,
10,
1,
2,
-5,
-11,
-19,
-17,
-24,
-29,
-38,
-37,
-41,
-47,
-54,
-51,
-57,
-59,
-66,
-65,
-68,
-73,
-76,
-73,
-77,
-77,
-79,
-78,
-77,
-79,
-79,
-78,
-79,
-74,
-71,
-71,
-68,
-67,
-63,
-61,
-61,
-53,
-48,
-47,
-41,
-39,
-33,
-31,
-27,
-18,
-11,
-11,
-3,
-1,
6,
8,
11,
20,
26,
27,
34,
37,
43,
45,
47,
54,
58,
59,
64,
65,
69,
71,
71,
75,
75,
77,
78,
77,
77,
81,
78,
77,
73,
75,
73,
71,
67,
70,
65,
59,
54,
55,
50,
47,
41,
43,
37,
28,
20,
21,
15,
11,
3,
5,
-2,
-11,
-19,
-18,
-25,
-27,
-35,
-34,
-40,
-47,
-53,
-52,
-57,
-59,
-65,
-64,
-67,
-72,
-73,
-72,
-76,
-76,
-77,
-78,
-78,
-79,
-75,
-75,
-75,
-74,
-71,
-72,
-69,
-66,
-59,
-59,
-57,
-53,
-47,
-49,
-43,
-37,
-27,
-29,
-24,
-19,
-11,
-14,
-7,
1,
11,
10,
15,
20,
27,
25,
33,
38,
47,
46,
49,
53,
60,
58,
63,
67,
73,
71,
72,
74,
77,
77,
78,
80,
79,
79,
77,
77,
77,
77,
75,
73,
67,
67,
63,
62,
57,
57,
53,
47,
39,
39,
33,
31,
23,
23,
19,
10,
1,
2,
-7,
-7,
-17,
-16,
-21,
-29,
-37,
-38,
-43,
-44,
-51,
-51,
-55,
-61,
-66,
-65,
-69,
-70,
-73,
-73,
-74,
-77,
-77,
-78,
-77,
-77,
-76,
-78,
-75,
-75,
-71,
-71,
-67,
-66,
-61,
-63,
-58,
-54,
-46,
-46,
-40,
-38,
-29,
-32,
-25,
-19,
-10,
-11,
-3,
-1,
8,
6,
13,
20,
28,
28,
35,
37,
44,
43,
48,
54,
60,
60,
65,
65,
69,
69,
72,
75,
77,
77,
78,
77,
77,
79,
79,
78,
74,
75,
73,
70,
66,
69,
65,
61,
53,
55,
49,
45,
39,
43,
37,
30,
19,
20,
14,
9,
0,
5,
-2,
-10,
-21,
-19,
-25,
-29,
-38,
-33,
-39,
-46,
-55,
-55,
-58,
-60,
-67,
-63,
-66,
-71,
-77,
-76,
-75,
-77,
-79,
-75,
-77,
-79,
-79,
-78,
-74,
-75,
-73,
-69,
-68,
-67,
-63,
-62,
-55,
-53,
-48,
-46,
-42,
-38,
-31,
-31,
-23,
-19,
-13,
-11,
-6,
0,
8,
8,
17,
19,
26,
28,
32,
37,
45,
45,
51,
53,
59,
59,
62,
65,
69,
70,
73,
74,
77,
78,
77,
77,
77,
79,
78,
77,
76,
77,
74,
69,
67,
69,
63,
62,
57,
57,
52,
45,
39,
40,
33,
31,
23,
22,
17,
9,
1,
3,
-7,
-7,
-17,
-17,
-23,
-30,
-37,
-36,
-44,
-43,
-51,
-51,
-55,
-61,
-65,
-65,
-71,
-69,
-73,
-74,
-75,
-77,
-78,
-77,
-79,
-76,
-76,
-78,
-75,
-74,
-71,
-70,
-70,
-63,
-60,
-62,
-57,
-53,
-46,
-46,
-42,
-35,
-29,
-31,
-25,
-19,
-10,
-10,
-5,
2,
9,
7,
14,
21,
29,
28,
34,
39,
47,
44,
49,
55,
61,
60,
63,
67,
73,
69,
73,
75,
78,
77,
79,
79,
82,
78,
79,
78,
77,
75,
73,
72,
71,
67,
65,
61,
55,
55,
50,
47,
43,
40,
35,
30,
22,
21,
15,
10,
5,
1,
-3,
-10,
-18,
-18,
-25,
-28,
-34,
-37,
-41,
-46,
-51,
-51,
-57,
-60,
-64,
-67,
-68,
-71,
-73,
-73,
-76,
-77,
-78,
-80,
-79,
-77,
-77,
-77,
-75,
-74,
-73,
-74,
-70,
-65,
-61,
-61,
-55,
-53,
-48,
-49,
-43,
-35,
-30,
-31,
-21,
-19,
-13,
-14,
-6,
2,
9,
8,
17,
19,
26,
26,
32,
39,
45,
43,
53,
53,
59,
59,
63,
68,
69,
69,
76,
74,
77,
77,
78,
79,
77,
77,
81,
77,
76,
77,
75,
72,
66,
66,
66,
61,
57,
58,
53,
47,
38,
37,
36,
29,
23,
25,
17,
9,
1,
-1,
-4,
-11,
-17,
-15,
-23,
-31,
-39,
-39,
-41,
-47,
-52,
-50,
-56,
-61,
-67,
-67,
-68,
-71,
-74,
-73,
-77,
-78,
-79,
-79,
-78,
-79,
-78,
-77,
-77,
-75,
-71,
-71,
-67,
-67,
-62,
-61,
-59,
-54,
-47,
-46,
-41,
-39,
-31,
-31,
-27,
-19,
-10,
-10,
-5,
-1,
7,
7,
12,
20,
27,
28,
34,
37,
44,
43,
47,
54,
60,
60,
64,
66,
69,
70,
72,
75,
77,
77,
77,
79,
78,
79,
78,
77,
75,
76,
73,
71,
69,
69,
65,
61,
55,
55,
50,
47,
41,
42,
37,
29,
21,
22,
15,
10,
3,
5,
-2,
-10,
-19,
-18,
-26,
-29,
-35,
-35,
-40,
-47,
-53,
-52,
-59,
-60,
-64,
-65,
-67,
-71,
-74,
-73,
-77,
-77,
-77,
-78,
-78,
-78,
-77,
-75,
-77,
-75,
-71,
-72,
-70,
-65,
-61,
-59,
-58,
-55,
-47,
-49,
-43,
-37,
-29,
-28,
-25,
-21,
