2-Passive Filters/data/ALL0024/A0024CH1.CSV

Memory Length,4000,
Trigger Level,0.000E+00,
Source,CH1,
Probe,1X,
Vertical Units,V,
Vertical Scale,2.000E+00,
Vertical Position,0.000E+00,
Horizontal Units,s,
Horizontal Scale,5.000E-06,
Horizontal Position,0.000E+00,
Horizontal Mode,Main,
Sampling Period,2.000E-08,
Firmware,V1.04,
Time, ,
Mode,Fast,
Waveform Data,
2,
2,
3,
4,
4,
5,
6,
6,
6,
8,
8,
9,
10,
10,
10,
12,
12,
14,
14,
14,
15,
16,
16,
17,
18,
19,
20,
20,
21,
21,
22,
22,
23,
24,
24,
26,
26,
26,
28,
28,
30,
30,
30,
32,
32,
33,
34,
33,
35,
36,
36,
38,
38,
38,
39,
40,
40,
41,
42,
42,
42,
44,
44,
46,
46,
46,
47,
48,
49,
50,
50,
50,
52,
52,
53,
54,
54,
55,
56,
56,
57,
58,
58,
58,
60,
60,
62,
62,
62,
63,
64,
65,
66,
66,
68,
68,
68,
69,
70,
70,
71,
72,
73,
73,
74,
75,
76,
76,
76,
78,
78,
78,
80,
80,
81,
82,
82,
83,
84,
84,
84,
85,
85,
85,
84,
82,
82,
82,
81,
80,
79,
78,
79,
78,
78,
76,
75,
74,
74,
74,
73,
72,
71,
70,
70,
70,
68,
68,
67,
66,
66,
65,
64,
63,
63,
62,
62,
60,
60,
59,
58,
58,
58,
56,
56,
56,
55,
54,
54,
52,
52,
52,
51,
50,
48,
48,
48,
48,
46,
46,
45,
44,
44,
43,
42,
42,
41,
40,
40,
39,
38,
36,
36,
36,
35,
34,
34,
33,
32,
32,
32,
30,
30,
30,
28,
27,
27,
26,
26,
24,
24,
24,
23,
22,
21,
20,
20,
19,
18,
18,
17,
17,
16,
16,
15,
14,
14,
13,
12,
11,
10,
10,
10,
8,
8,
6,
6,
6,
5,
4,
4,
3,
2,
2,
1,
0,
0,
-1,
-2,
-2,
-4,
-4,
-5,
-5,
-6,
-7,
-8,
-8,
-9,
-10,
-10,
-11,
-12,
-12,
-13,
-14,
-14,
-15,
-16,
-16,
-18,
-18,
-18,
-20,
-20,
-20,
-21,
-22,
-22,
-24,
-24,
-26,
-26,
-27,
-27,
-28,
-29,
-29,
-30,
-31,
-32,
-32,
-33,
-33,
-34,
-34,
-36,
-36,
-37,
-38,
-38,
-40,
-40,
-40,
-42,
-42,
-43,
-44,
-44,
-44,
-45,
-46,
-47,
-48,
-48,
-49,
-50,
-50,
-51,
-51,
-52,
-53,
-54,
-54,
-55,
-56,
-56,
-57,
-58,
-58,
-59,
-60,
-60,
-62,
-62,
-63,
-64,
-64,
-64,
-66,
-66,
-67,
-68,
-68,
-68,
-70,
-70,
-71,
-72,
-72,
-74,
-74,
-74,
-75,
-76,
-76,
-78,
-78,
-78,
-80,
-80,
-80,
-81,
-82,
-82,
-83,
-84,
-84,
-86,
-86,
-87,
-88,
-87,
-86,
-86,
-86,
-84,
-83,
-82,
-82,
-82,
-81,
-80,
-80,
-79,
-78,
-78,
-77,
-76,
-76,
-75,
-74,
-74,
-73,
-71,
-71,
-71,
-70,
-70,
-68,
-68,
-66,
-66,
-66,
-65,
-64,
-64,
-63,
-62,
-62,
-62,
-60,
-60,
-59,
-58,
-57,
-57,
-56,
-56,
-54,
-54,
-54,
-53,
-52,
-51,
-50,
-50,
-49,
-48,
-48,
-47,
-46,
-46,
-46,
-44,
-44,
-43,
-42,
-42,
-41,
-40,
-40,
-39,
-38,
-38,
-37,
-36,
-35,
-34,
-34,
-33,
-32,
-32,
-31,
-30,
-30,
-29,
-28,
-28,
-27,
-26,
-26,
-24,
-24,
-24,
-22,
-22,
-22,
-20,
-20,
-19,
-18,
-18,
-18,
-17,
-16,
-15,
-14,
-14,
-14,
-12,
-12,
-11,
-10,
-10,
-10,
-8,
-8,
-7,
-6,
-6,
-5,
-4,
-4,
-3,
-2,
-2,
-1,
0,
0,
2,
2,
2,
4,
4,
6,
6,
6,
6,
8,
8,
9,
10,
10,
12,
12,
12,
14,
14,
14,
16,
16,
16,
18,
18,
18,
20,
20,
20,
22,
22,
24,
24,
24,
25,
25,
27,
27,
28,
28,
29,
30,
30,
32,
32,
32,
34,
34,
35,
36,
36,
37,
38,
39,
38,
39,
40,
41,
42,
42,
42,
44,
44,
46,
46,
46,
48,
48,
49,
50,
50,
50,
52,
52,
52,
53,
54,
54,
56,
56,
57,
58,
58,
59,
60,
60,
62,
62,
63,
63,
64,
65,
66,
66,
66,
68,
68,
68,
70,
70,
71,
72,
73,
73,
74,
74,
76,
76,
76,
78,
78,
79,
79,
80,
80,
82,
82,
83,
84,
84,
85,
85,
86,
84,
83,
83,
82,
82,
81,
80,
80,
79,
78,
78,
77,
76,
76,
75,
74,
74,
74,
72,
71,
72,
70,
68,
68,
68,
67,
66,
66,
65,
64,
64,
62,
62,
62,
60,
60,
60,
58,
58,
57,
56,
56,
56,
54,
54,
54,
53,
52,
52,
50,
50,
49,
48,
48,
47,
46,
46,
46,
44,
44,
43,
42,
42,
41,
40,
40,
39,
38,
37,
36,
36,
36,
35,
34,
33,
32,
32,
32,
30,
30,
29,
28,
28,
27,
26,
25,
25,
24,
23,
22,
22,
22,
20,
20,
20,
19,
18,
17,
16,
16,
16,
14,
14,
13,
12,
12,
12,
11,
10,
10,
8,
8,
7,
6,
6,
4,
4,
3,
3,
2,
1,
1,
0,
-1,
-1,
-2,
-2,
-4,
-4,
-4,
-6,
-6,
-7,
-8,
-8,
-10,
-10,
-10,
-12,
-12,
-12,
-13,
-14,
-14,
-15,
-16,
-16,
-18,
-18,
-18,
-20,
-20,
-21,
-21,
-22,
-23,
-24,
-24,
-25,
-26,
-26,
-28,
-28,
-28,
-30,
-30,
-30,
-32,
-32,
-32,
-33,
-34,
-34,
-36,
-36,
-37,
-38,
-39,
-40,
-40,
-41,
-41,
-42,
-42,
-44,
-44,
-45,
-45,
-46,
-46,
-47,
-48,
-48,
-49,
-50,
-50,
-52,
-52,
-53,
-54,
-54,
-56,
-56,
-56,
-57,
-58,
-58,
-60,
-60,
-61,
-61,
-62,
-62,
-64,
-64,
-64,
-66,
-66,
-67,
-68,
-68,
-69,
-70,
-70,
-70,
-72,
-73,
-73,
-74,
-74,
-76,
-76,
-76,
-77,
-78,
-78,
-79,
-80,
-80,
-81,
-82,
-82,
-82,
-84,
-84,
-85,
-86,
-87,
-87,
-86,
-86,
-86,
-86,
-84,
-83,
-82,
-82,
-82,
-81,
-80,
-79,
-78,
-78,
-78,
-76,
-76,
-75,
-74,
-75,
-74,
-72,
-72,
-72,
-70,
-70,
-70,
-68,
-68,
-68,
-66,
-66,
-65,
-64,
-64,
-63,
-62,
-62,
-61,
-60,
-60,
-59,
-58,
-58,
-57,
-56,
-55,
-54,
-54,
-54,
-52,
-52,
-51,
-50,
-50,
-49,
-48,
-48,
-48,
-46,
-46,
-46,
-44,
-44,
-44,
-43,
-42,
-41,
-40,
-40,
-39,
-38,
-38,
-38,
-36,
-36,
-35,
-34,
-33,
-33,
-32,
-32,
-31,
-30,
-30,
-28,
-28,
-28,
-26,
-26,
-25,
-24,
-24,
-22,
-22,
-22,
-20,
-20,
-19,
-18,
-18,
-18,
-16,
-16,
-15,
-14,
-14,
-13,
-13,
-12,
-12,
-10,
-10,
-10,
-8,
-8,
-6,
-6,
-6,
-5,
-4,
-3,
-3,
-2,
-2,
-1,
0,
1,
2,
2,
2,
4,
4,
5,
6,
6,
7,
7,
8,
9,
10,
10,
11,
12,
12,
13,
14,
14,
15,
16,
16,
18,
18,
18,
20,
20,
20,
22,
22,
23,
24,
24,
25,
26,
26,
28,
28,
28,
29,
30,
30,
32,
32,
33,
34,
34,
35,
36,
36,
36,
38,
38,
38,
40,
40,
41,
42,
43,
43,
44,
45,
46,
46,
46,
47,
48,
49,
50,
50,
51,
52,
52,
53,
54,
54,
56,
56,
56,
56,
58,
58,
59,
60,
60,
61,
62,
64,
64,
64,
64,
66,
66,
67,
68,
68,
69,
70,
70,
71,
72,
72,
74,
74,
75,
76,
76,
77,
78,
78,
79,
80,
80,
81,
82,
82,
82,
83,
84,
84,
86,
85,
84,
84,
83,
82,
82,
82,
80,
80,
80,
78,
78,
77,
76,
76,
76,
74,
74,
73,
72,
71,
70,
70,
69,
68,
68,
67,
66,
66,
64,
64,
64,
64,
62,
62,
60,
60,
59,
58,
58,
58,
56,
56,
55,
55,
54,
54,
54,
52,
52,
51,
50,
49,
48,
48,
47,
46,
46,
46,
44,
44,
43,
42,
42,
40,
40,
39,
39,
38,
38,
37,
36,
35,
34,
34,
34,
32,
32,
31,
30,
30,
30,
28,
28,
27,
26,
26,
26,
24,
24,
23,
22,
22,
20,
20,
20,
19,
18,
17,
16,
16,
16,
14,
14,
14,
12,
12,
11,
11,
10,
10,
9,
8,
7,
6,
6,
4,
4,
4,
4,
2,
2,
0,
0,
0,
-2,
-2,
-2,
-4,
-4,
-4,
-6,
-6,
-7,
-8,
-8,
-9,
-10,
-10,
-11,
-12,
-12,
-14,
-14,
-14,
-15,
-16,
-17,
-17,
-18,
-18,
-20,
-20,
-21,
-22,
-22,
-22,
-24,
-24,
-25,
-26,
-27,
-27,
-28,
-28,
-30,
-30,
-30,
-32,
-32,
-32,
-34,
-34,
-36,
-36,
-37,
-37,
-38,
-38,
-40,
-40,
-40,
-41,
-42,
-43,
-43,
-44,
-44,
-46,
-46,
-46,
-48,
-48,
-48,
-49,
-50,
-51,
-52,
-52,
-54,
-54,
-54,
-55,
-55,
-56,
-58,
-58,
-58,
-58,
-59,
-60,
-62,
-62,
-62,
-63,
-64,
-64,
-66,
-66,
-67,
-68,
-68,
-69,
-70,
-70,
-71,
-72,
-72,
-73,
-74,
-74,
-74,
-75,
-76,
-77,
-78,
-78,
-79,
-80,
-81,
-82,
-82,
-82,
-84,
-84,
-85,
-86,
-86,
-86,
-87,
-87,
-86,
-86,
-84,
-84,
-84,
-84,
-82,
-82,
-80,
-80,
-80,
-79,
-78,
-77,
-76,
-76,
-76,
-74,
-74,
-74,
-73,
-72,
-72,
-70,
-70,
-70,
-69,
-68,
-68,
-67,
-66,
-64,
-64,
-64,
-64,
-62,
-62,
-61,
-60,
-60,
-58,
-58,
-58,
-57,
-56,
-55,
-54,
-54,
-54,
-53,
-52,
-52,
-50,
-50,
-50,
-48,
-48,
-48,
-47,
-46,
-46,
-44,
-44,
-43,
-42,
-42,
-42,
-40,
-40,
-39,
-38,
-38,
-38,
-36,
-36,
-35,
-34,
-33,
-34,
-32,
-32,
-30,
-30,
-28,
-28,
-28,
-26,
-26,
-26,
-26,
-24,
-24,
-22,
-22,
-22,
-20,
-20,
-20,
-18,
-18,
-18,
-16,
-16,
-15,
-14,
-14,
-14,
-12,
-12,
-11,
-11,
-10,
-10,
-8,
-8,
-7,
-6,
-6,
-6,
-4,
-4,
-3,
-2,
-2,
0,
0,
1,
2,
3,
3,
4,
5,
6,
6,
6,
6,
8,
8,
9,
10,
10,
11,
12,
12,
13,
14,
14,
16,
16,
17,
17,
18,
19,
20,
20,
21,
22,
22,
23,
23,
24,
24,
26,
26,
27,
28,
28,
29,
30,
30,
32,
32,
33,
34,
34,
35,
35,
36,
36,
38,
38,
39,
40,
40,
41,
42,
42,
43,
44,
44,
46,
46,
46,
47,
48,
49,
50,
50,
50,
52,
52,
54,
54,
54,
54,
56,
56,
57,
58,
58,
60,
60,
60,
62,
62,
62,
63,
64,
65,
66,
66,
68,
67,
68,
69,
70,
70,
71,
71,
72,
74,
74,
74,
75,
76,
76,
78,
78,
78,
80,
80,
81,
81,
82,
83,
84,
84,
84,
86,
84,
84,
84,
83,
82,
82,
80,
80,
80,
80,
78,
78,
78,
77,
76,
74,
74,
74,
72,
72,
72,
70,
70,
70,
68,
68,
67,
66,
66,
65,
64,
64,
63,
62,
62,
61,
60,
60,
59,
58,
57,
56,
56,
56,
54,
54,
54,
52,
52,
52,
51,
50,
49,
48,
48,
48,
46,
46,
46,
44,
44,
44,
42,
42,
41,
40,
40,
39,
38,
38,
37,
36,
36,
35,
34,
33,
33,
32,
32,
30,
30,
29,
28,
28,
27,
26,
25,
24,
24,
24,
22,
22,
21,
20,
20,
19,
18,
18,
18,
16,
16,
16,
15,
14,
14,
12,
12,
11,
10,
10,
9,
8,
8,
8,
6,
6,
4,
4,
4,
3,
2,
2,
1,
0,
0,
-2,
-2,
-2,
-4,
-4,
-5,
-6,
-6,
-6,
-8,
-8,
-9,
-10,
-10,
-12,
-12,
-12,
-13,
-14,
-15,
-16,
-16,
-16,
-17,
-18,
-18,
-19,
-20,
-20,
-22,
-22,
-23,
-23,
-24,
-24,
-26,
-26,
-26,
-28,
-28,
-28,
-30,
-30,
-32,
-32,
-33,
-33,
-34,
-34,
-36,
-36,
-38,
-38,
-38,
-40,
-40,
-40,
-42,
-42,
-42,
-44,
-44,
-44,
-46,
-46,
-47,
-47,
-48,
-49,
-50,
-50,
-50,
-52,
-52,
-52,
-54,
-54,
-55,
-56,
-56,
-57,
-58,
-58,
-59,
-60,
-60,
-62,
-62,
-63,
-64,
-64,
-65,
-66,
-66,
-67,
-68,
-68,
-69,
-70,
-70,
-70,
-72,
-72,
-72,
-74,
-74,
-74,
-76,
-76,
-77,
-78,
-78,
-79,
-80,
-80,
-81,
-82,
-82,
-84,
-84,
-84,
-86,
-86,
-87,
-86,
-86,
-86,
-85,
-86,
-84,
-83,
-82,
-82,
-82,
-81,
-80,
-80,
-78,
-78,
-78,
-77,
-76,
-76,
-74,
-74,
-74,
-72,
-72,
-72,
-71,
-70,
-70,
-68,
-68,
-67,
-66,
-66,
-66,
-64,
-64,
-63,
-62,
-62,
-60,
-60,
-60,
-58,
-58,
-58,
-57,
-56,
-56,
-54,
-54,
-54,
-52,
-52,
-52,
-50,
-50,
-49,
-49,
-47,
-48,
-46,
-46,
-45,
-44,
-44,
-42,
-42,
-42,
-41,
-40,
-40,
-40,
-39,
-38,
-37,
-36,
-36,
-35,
-34,
-34,
-32,
-32,
-31,
-30,
-30,
-30,
-29,
-28,
-27,
-26,
-26,
-25,
-24,
-23,
-23,
-22,
-22,
-20,
-20,
-20,
-19,
-18,
-17,
-16,
-16,
-15,
-15,
-14,
-12,
-13,
-12,
-10,
-11,
-10,
-9,
-8,
-8,
-8,
-6,
-6,
-5,
-4,
-4,
-2,
-2,
-2,
0,
0,
0,
2,
2,
3,
4,
4,
4,
6,
6,
7,
8,
9,
9,
10,
10,
10,
12,
12,
13,
14,
14,
16,
16,
16,
17,
18,
18,
20,
20,
22,
22,
22,
22,
24,
24,
25,
25,
26,
26,
28,
28,
29,
30,
30,
32,
32,
33,
33,
34,
34,
36,
36,
36,
38,
38,
39,
40,
40,
42,
42,
42,
44,
44,
44,
46,
46,
46,
48,
48,
49,
50,
50,
50,
52,
52,
54,
54,
54,
55,
56,
56,
57,
58,
58,
60,
60,
60,
62,
62,
63,
64,
64,
66,
66,
66,
67,
68,
68,
68,
70,
70,
71,
72,
72,
74,
74,
74,
76,
76,
76,
78,
78,
79,
79,
80,
80,
82,
82,
82,
84,
84,
85,
85,
84,
84,
84,
82,
82,
82,
82,
80,
80,
80,
78,
78,
77,
77,
76,
74,
74,
74,
74,
72,
71,
70,
70,
70,
68,
68,
67,
66,
66,
65,
64,
64,
64,
62,
62,
61,
60,
60,
58,
58,
58,
56,
56,
56,
54,
54,
54,
52,
52,
52,
50,
50,
50,
48,
48,
47,
46,
46,
45,
44,
44,
43,
42,
42,
41,
40,
39,
38,
38,
37,
37,
36,
35,
34,
34,
34,
32,
32,
32,
30,
30,
30,
28,
27,
27,
26,
25,
24,
24,
24,
22,
22,
22,
20,
20,
20,
18,
18,
18,
16,
16,
16,
14,
14,
14,
12,
12,
11,
11,
10,
8,
9,
8,
7,
6,
6,
6,
4,
4,
2,
2,
2,
0,
0,
0,
-2,
-2,
-2,
-4,
-4,
-4,
-6,
-6,
-8,
-8,
-8,
-10,
-10,
-10,
-10,
-12,
-12,
-13,
-14,
-14,
-16,
-16,
-16,
-16,
-18,
-18,
-20,
-20,
-20,
-22,
-22,
-23,
-24,
-24,
-26,
-26,
-26,
-28,
-28,
-29,
-30,
-30,
-30,
-32,
-32,
-32,
-34,
-34,
-36,
-36,
-36,
-38,
-38,
-40,
-40,
-40,
-40,
-41,
-42,
-42,
-43,
-44,
-45,
-46,
-46,
-46,
-47,
-48,
-48,
-50,
-50,
-50,
-52,
-52,
-54,
-54,
-54,
-54,
-56,
-56,
-58,
-58,
-58,
-59,
-60,
-62,
-62,
-62,
-62,
-64,
-64,
-65,
-66,
-66,
-67,
-68,
-68,
-69,
-70,
-70,
-71,
-72,
-72,
-73,
-74,
-74,
-75,
-76,
-77,
-78,
-78,
-78,
-79,
-80,
-80,
-81,
-82,
-82,
-84,
-84,
-84,
-86,
-86,
-87,
-87,
-87,
-86,
-85,
-84,
-84,
-84,
-83,
-82,
-82,
-81,
-80,
-80,
-80,
-78,
-78,
-76,
-76,
-76,
-74,
-74,
-74,
-73,
-72,
-72,
-71,
-70,
-69,
-68,
-68,
-68,
-67,
-66,
-66,
-64,
-64,
-63,
-62,
-61,
-62,
-60,
-60,
-60,
-58,
-58,
-56,
-56,
-56,
-54,
-54,
-54,
-52,
-52,
-51,
-50,
-50,
-50,
-49,
-48,
-47,
-46,
-46,
-45,
-44,
-44,
-43,
-43,
-42,
-41,
-40,
-40,
-39,
-38,
-38,
-38,
-36,
-36,
-34,
-36,
-34,
-32,
-32,
-32,
-30,
-30,
-29,
-28,
-28,
-27,
-26,
-26,
-25,
-24,
-24,
-23,
-22,
-21,
-20,
-20,
-19,
-18,
-18,
-18,
-17,
-16,
-15,
-14,
-14,
-13,
-12,
-12,
-11,
-10,
-10,
-9,
-8,
-8,
-8,
-6,
-6,
-5,
-4,
-3,
-3,
-2,
-2,
0,
0,
1,
2,
2,
2,
4,
4,
4,
6,
6,
7,
7,
8,
9,
10,
10,
11,
12,
12,
13,
14,
15,
15,
16,
16,
18,
18,
18,
20,
20,
21,
22,
22,
22,
24,
24,
24,
26,
26,
27,
28,
28,
29,
30,
30,
31,
32,
32,
34,
34,
34,
36,
36,
37,
38,
38,
39,
40,
40,
42,
42,
42,
43,
44,
45,
46,
46,
46,
47,
48,
49,
50,
50,
51,
52,
52,
54,
54,
54,
54,
56,
56,
57,
58,
58,
58,
60,
60,
60,
62,
62,
64,
64,
65,
65,
66,
67,
68,
68,
69,
70,
70,
70,
72,
72,
73,
74,
74,
76,
76,
77,
78,
78,
79,
80,
80,
80,
81,
82,
83,
84,
84,
84,
85,
85,
84,
84,
83,
82,
82,
81,
80,
80,
79,
78,
78,
76,
76,
76,
75,
74,
73,
73,
73,
71,
71,
70,
70,
68,
68,
67,
66,
66,
65,
64,
64,
63,
62,
62,
61,
60,
60,
60,
58,
57,
56,
56,
56,
54,
54,
54,
53,
52,
51,
50,
50,
50,
49,
48,
46,
46,
46,
46,
45,
43,
43,
42,
42,
42,
41,
40,
38,
38,
38,
36,
36,
35,
34,
34,
33,
32,
31,
31,
30,
30,
29,
28,
28,
27,
26,
26,
24,
24,
24,
23,
22,
21,
21,
20,
20,
18,
18,
18,
16,
16,
15,
14,
14,
14,
12,
12,
11,
10,
10,
9,
8,
8,
6,
6,
6,
4,
4,
3,
3,
2,
1,
0,
0,
0,
-2,
-2,
-2,
-4,
-4,
-4,
-6,
-6,
-7,
-8,
-8,
-9,
-10,
-10,
-11,
-12,
-12,
-14,
-14,
-14,
-16,
-16,
-17,
-18,
-18,
-18,
-18,
-20,
-21,
-22,
-22,
-22,
-24,
-24,
-25,
-26,
-26,
-27,
-28,
-29,
-30,
-30,
-31,
-31,
-32,
-32,
-34,
-34,
-35,
-35,
-36,
-38,
-38,
-38,
-40,
-40,
-41,
-42,
-42,
-42,
-44,
-44,
-44,
-45,
-46,
-46,
-47,
-48,
-49,
-49,
-50,
-51,
-51,
-52,
-53,
-54,
-54,
-55,
-56,
-56,
-58,
-58,
-58,
-59,
-60,
-60,
-62,
-62,
-62,
-63,
-64,
-65,
-66,
-66,
-67,
-67,
-68,
-70,
-70,
-70,
-71,
-72,
-72,
-73,
-74,
-74,
-74,
-76,
-76,
-77,
-78,
-78,
-78,
-80,
-80,
-81,
-82,
-82,
-83,
-84,
-84,
-86,
-86,
-86,
-88,
-87,
-86,
-86,
-84,
-84,
-84,
-82,
-82,
-82,
-81,
-80,
-80,
-79,
-78,
-78,
-76,
-76,
-76,
-74,
-74,
-74,
-73,
-73,
-72,
-71,
-70,
-70,
-68,
-68,
-68,
-66,
-66,
-64,
-64,
-64,
-64,
-62,
-62,
-61,
-60,
-60,
-59,
-58,
-58,
-57,
-56,
-56,
-54,
-54,
-54,
-53,
-52,
-52,
-50,
-50,
-49,
-48,
-48,
-48,
-46,
-46,
-45,
-44,
-44,
-43,
-42,
-42,
-41,
-40,
-40,
-39,
-38,
-38,
-37,
-37,
-36,
-34,
-34,
-34,
-32,
-32,
-31,
-30,
-30,
-30,
-29,
-28,
-27,
-26,
-26,
-26,
-24,
-23,
-22,
-22,
-22,
-21,
-20,
-19,
-19,
-18,
-18,
-16,
-16,
-16,
-14,
-14,
-13,
-12,
-12,
-12,
-10,
-10,
-10,
-9,
-8,
-7,
-6,
-6,
-6,
-4,
-4,
-2,
-2,
-1,
-1,
0,
1,
1,
2,
3,
4,
4,
5,
6,
6,
6,
7,
8,
9,
10,
10,
11,
12,
12,
14,
14,
14,
15,
16,
16,
18,
18,
19,
19,
20,
20,
22,
22,
23,
23,
24,
25,
26,
26,
27,
28,
28,
30,
30,
30,
31,
32,
32,
34,
34,
34,
36,
36,
36,
37,
38,
39,
40,
40,
41,
42,
42,
43,
44,
46,
46,
46,
47,
48,
48,
48,
50,
50,
50,
52,
52,
54,
54,
54,
55,
56,
56,
57,
58,
59,
59,
60,
60,
61,
62,
63,
63,
64,
65,
66,
66,
66,
68,
68,
68,
70,
70,
70,
72,
72,
73,
74,
74,
76,
76,
77,
77,
78,
78,
79,
80,
81,
82,
82,
82,
84,
84,
85,
85,
86,
84,
84,
83,
82,
82,
80,
80,
80,
80,
78,
78,
78,
76,
76,
74,
74,
73,
73,
72,
72,
70,
70,
69,
69,
68,
67,
67,
66,
65,
64,
64,
63,
62,
62,
61,
60,
59,
59,
58,
58,
57,
56,
55,
54,
54,
54,
53,
52,
52,
50,
50,
49,
48,
48,
47,
46,
45,
45,
44,
44,
44,
42,
41,
40,
40,
39,
39,
38,
38,
37,
36,
36,
34,
34,
33,
32,
32,
31,
31,
30,
29,
28,
27,
26,
26,
26,
25,
24,
23,
22,
22,
21,
20,
20,
19,
18,
18,
18,
16,
16,
16,
14,
14,
13,
12,
12,
11,
10,
10,
9,
8,
8,
8,
6,
6,
4,
4,
4,
2,
2,
2,
1,
0,
0,
-1,
-2,
-3,
-4,
-4,
-6,
-6,
-6,
-6,
-8,
-8,
-8,
-10,
-10,
-12,
-12,
-12,
-14,
-14,
-15,
-16,
-16,
-17,
-18,
-18,
-18,
-18,
-20,
-20,
-22,
-22,
-22,
-24,
-24,
-25,
-26,
-26,
-27,
-28,
-28,
-29,
-30,
-30,
-32,
-32,
-33,
-34,
-34,
-35,
-36,
-36,
-37,
-38,
-38,
-40,
-40,
-40,
-42,
-42,
-42,
-44,
-44,
-44,
-46,
-46,
-46,
-48,
-48,
-49,
-50,
-50,
-50,
-52,
-52,
-54,
-54,
-54,
-54,
-56,
-56,
-57,
-58,
-58,
-60,
-60,
-61,
-62,
-62,
-62,
-64,
-64,
-65,
-65,
-67,
-67,
-68,
-68,
-69,
-70,
-70,
-70,
-72,
-72,
-73,
-74,
-74,
-74,
-76,
-76,
-77,
-78,
-78,
-80,
-80,
-80,
-81,
-82,
-82,
-84,
-84,
-84,
-86,
-86,
-86,
-87,
-87,
-87,
-86,
-84,
-84,
-84,
-84,
-82,
-81,
-80,
-80,
-80,
-79,
-78,
-78,
-76,
-76,
-76,
-75,
-74,
-73,
-73,
-72,
-72,
-71,
-70,
-70,
-68,
-68,
-68,
-66,
-66,
-65,
-64,
-64,
-63,
-62,
-62,
-61,
-60,
-60,
-59,
-58,
-58,
-56,
-56,
-56,
-55,
-54,
-54,
-52,
-52,
-52,
-50,
-50,
-50,
-49,
-48,
-47,
-46,
-46,
-45,
-44,
-44,
-44,
-42,
-42,
-40,
-40,
-40,
-39,
-39,
-38,
-37,
-36,
-36,
-35,
-34,
-34,
-32,
-32,
-32,
-30,
-30,
-30,
-28,
-28,
-28,
-26,
-26,
-26,
-25,
-24,
-23,
-22,
-22,
-21,
-20,
-20,
-18,
-18,
-17,
-17,
-16,
-14,
-14,
-14,
-13,
-13,
-12,
-11,
-10,
-10,
-10,
-8,
-8,
-7,
-6,
-5,
-4,
-4,
-4,
-3,
-2,
-2,
0,
0,
0,
1,
2,
3,
3,
4,
4,
6,
6,
6,
8,
8,
9,
10,
10,
12,
12,
12,
14,
14,
14,
16,
16,
17,
18,
18,
18,
18,
20,
21,
22,
22,
23,
24,
24,
25,
26,
26,
26,
28,
28,
29,
30,
30,
31,
32,
32,
34,
34,
34,
36,
36,
37,
38,
38,
39,
40,
40,
42,
42,
42,
43,
44,
44,
45,
46,
46,
48,
48,
49,
50,
50,
50,
51,
52,
52,
54,
54,
55,
56,
56,
57,
58,
58,
59,
60,
60,
62,
62,
62,
63,
64,
65,
66,
66,
66,
68,
68,
68,
69,
70,
71,
72,
73,
73,
74,
74,
75,
76,
77,
77,
78,
79,
80,
80,
81,
82,
82,
83,
84,
84,
84,
86,
85,
84,
84,
83,
82,
82,
81,
80,
80,
79,
78,
78,
77,
76,
76,
75,
74,
74,
73,
72,
71,
70,
70,
70,
68,
68,
67,
66,
66,
65,
64,
64,
63,
63,
62,
60,
60,
60,
59,
58,
58,
56,
56,
56,
54,
54,
54,
52,
52,
52,
50,
50,
50,
48,
48,
48,
46,
46,
46,
44,
44,
44,
42,
42,
42,
40,
40,
39,
38,
38,
37,
36,
35,
34,
34,
34,
32,
32,
31,
30,
30,
29,
29,
28,
28,
26,
25,
25,
24,
23,
22,
22,
22,
21,
20,
19,
18,
18,
18,
17,
16,
15,
15,
14,
14,
13,
12,
11,
11,
10,
10,
8,
8,
7,
6,
6,
5,
4,
4,
3,
2,
2,
1,
0,
0,
-1,
-2,
-3,
-4,
-4,
-4,
-6,
-6,
-7,
-8,
-8,
-10,
-10,
-10,
-10,
-12,
-12,
-14,
-14,
-14,
-16,
-16,
-16,
-17,
-18,
-18,
-20,
-20,
-21,
-22,
-22,
-23,
-24,
-24,
-24,
-26,
-27,
-28,
-28,
-28,
-30,
-30,
-30,
-31,
-32,
-33,
-34,
-34,
-35,
-36,
-36,
-38,
-38,
-39,
-40,
-40,
-40,
-42,
-42,
-42,
-44,
-44,
-45,
-45,
-46,
-46,
-48,
-48,
-48,
-50,
-50,
-51,
-52,
-52,
-52,
-53,
-54,
-55,
-56,
-56,
-57,
-58,
-58,
-59,
-60,
-60,
-62,
-62,
-63,
-64,
-64,
-64,
-66,
-66,
-68,
-68,
-68,
-69,
-70,
-70,
-71,
-71,
-72,
-73,
-74,
-75,
-76,
-76,
-77,
-78,
-78,
-78,
-80,
-80,
-81,
-81,
-82,
-82,
-84,
-84,
-84,
-86,
-86,
-87,
-87,
-87,
-86,
-86,
-85,
-84,
-84,
-84,
-82,
-82,
-82,
-80,
-80,
-79,
-78,
-77,
-76,
-76,
-75,
-75,
-74,
-74,
-73,
-72,
-72,
-71,
-70,
-70,
-68,
-68,
-68,
-67,
-66,
-65,
-64,
-64,
-63,
-62,
-62,
-61,
-60,
-60,
-59,
-58,
-58,
-56,
-56,
-56,
-54,
-54,
-54,
-53,
-52,
-51,
-50,
-50,
-50,
-49,
-48,
-48,
-46,
-46,
-46,
-44,
-43,
-44,
-42,
-42,
-42,
-40,
-40,
-39,
-38,
-38,
-38,
-36,
-36,
-35,
-34,
-33,
-33,
-32,
-32,
-30,
-30,
-29,
-28,
-28,
-27,
-26,
-26,
-26,
-24,
-24,
-22,
-22,
-22,
-21,
-20,
-19,
-18,
-18,
-18,
-16,
-16,
-15,
-14,
-14,
-13,
-12,
-12,
-11,
-11,
-10,
-9,
-9,
-8,
-6,
-6,
-6,
-6,
-4,
-4,
-3,
-2,
-2,
-1,
0,
1,
