2-Passive Filters/data/ALL0024/A0024CH2.CSV

Memory Length,4000,
Trigger Level,0.000E+00,
Source,CH2,
Probe,1X,
Vertical Units,V,
Vertical Scale,1.000E-01,
Vertical Position,-4.000E-03,
Horizontal Units,s,
Horizontal Scale,5.000E-06,
Horizontal Position,0.000E+00,
Horizontal Mode,Main,
Sampling Period,2.000E-08,
Firmware,V1.04,
Time, ,
Mode,Fast,
Waveform Data,
-85,
-85,
-85,
-87,
-85,
-86,
-85,
-86,
-87,
-87,
-87,
-86,
-85,
-83,
-84,
-83,
-83,
-82,
-82,
-81,
-82,
-83,
-83,
-83,
-83,
-84,
-83,
-82,
-81,
-79,
-79,
-79,
-77,
-78,
-78,
-78,
-77,
-78,
-78,
-78,
-79,
-78,
-78,
-78,
-78,
-76,
-75,
-75,
-75,
-73,
-71,
-71,
-70,
-69,
-70,
-70,
-70,
-69,
-69,
-68,
-67,
-67,
-67,
-65,
-65,
-64,
-63,
-61,
-60,
-61,
-61,
-60,
-60,
-61,
-60,
-59,
-59,
-58,
-57,
-56,
-54,
-51,
-50,
-50,
-49,
-49,
-49,
-47,
-47,
-47,
-46,
-46,
-45,
-46,
-45,
-45,
-43,
-43,
-41,
-39,
-38,
-37,
-37,
-36,
-35,
-36,
-37,
-36,
-35,
-34,
-33,
-31,
-29,
-27,
-25,
-23,
-23,
-21,
-19,
-19,
-17,
-16,
-17,
-17,
-17,
-16,
-15,
-15,
-14,
-12,
-11,
-10,
-9,
-7,
-6,
-5,
-4,
-3,
-2,
-1,
0,
1,
1,
1,
3,
3,
4,
5,
6,
6,
8,
9,
11,
11,
11,
12,
12,
13,
13,
13,
13,
13,
14,
14,
14,
15,
16,
17,
17,
17,
19,
19,
21,
22,
24,
25,
25,
25,
25,
25,
25,
25,
27,
26,
28,
26,
27,
29,
31,
31,
31,
31,
31,
31,
31,
32,
33,
32,
32,
31,
33,
33,
36,
37,
37,
37,
37,
38,
38,
38,
38,
38,
38,
37,
37,
37,
37,
37,
38,
37,
39,
39,
40,
40,
40,
41,
41,
39,
39,
38,
38,
37,
37,
38,
39,
40,
41,
42,
42,
42,
42,
43,
43,
43,
41,
41,
40,
39,
38,
38,
38,
39,
39,
39,
39,
40,
41,
41,
41,
41,
41,
39,
39,
38,
38,
38,
38,
37,
37,
37,
37,
37,
38,
39,
39,
38,
37,
37,
35,
35,
34,
33,
31,
31,
30,
31,
31,
31,
31,
31,
30,
31,
31,
30,
30,
30,
29,
29,
28,
27,
25,
25,
25,
24,
24,
23,
23,
22,
21,
22,
22,
21,
21,
19,
18,
17,
17,
15,
16,
15,
15,
14,
15,
14,
14,
14,
13,
13,
12,
10,
10,
8,
7,
7,
5,
5,
4,
3,
2,
1,
1,
0,
-1,
-1,
-3,
-3,
-3,
-5,
-6,
-7,
-8,
-9,
-10,
-11,
-11,
-11,
-12,
-11,
-12,
-13,
-14,
-15,
-17,
-18,
-19,
-21,
-23,
-23,
-25,
-27,
-28,
-29,
-29,
-29,
-31,
-32,
-33,
-33,
-33,
-33,
-35,
-35,
-37,
-38,
-39,
-39,
-40,
-41,
-43,
-44,
-45,
-47,
-46,
-47,
-47,
-47,
-47,
-47,
-49,
-51,
-51,
-53,
-55,
-57,
-58,
-59,
-59,
-60,
-60,
-60,
-61,
-61,
-61,
-61,
-60,
-61,
-61,
-62,
-62,
-63,
-65,
-66,
-67,
-69,
-70,
-70,
-70,
-70,
-70,
-71,
-71,
-71,
-73,
-73,
-73,
-74,
-75,
-77,
-77,
-78,
-77,
-78,
-77,
-78,
-78,
-78,
-76,
-76,
-75,
-75,
-77,
-78,
-81,
-81,
-81,
-81,
-83,
-82,
-83,
-83,
-83,
-83,
-82,
-83,
-83,
-83,
-83,
-83,
-84,
-85,
-85,
-86,
-87,
-87,
-87,
-87,
-86,
-85,
-84,
-83,
-83,
-83,
-82,
-83,
-84,
-85,
-86,
-87,
-87,
-87,
-88,
-89,
-89,
-87,
-87,
-87,
-87,
-86,
-86,
-85,
-85,
-85,
-85,
-86,
-86,
-87,
-87,
-87,
-86,
-85,
-83,
-83,
-84,
-84,
-83,
-83,
-82,
-82,
-82,
-82,
-81,
-83,
-83,
-83,
-83,
-83,
-83,
-83,
-83,
-81,
-80,
-79,
-79,
-78,
-77,
-78,
-77,
-77,
-75,
-75,
-74,
-75,
-75,
-75,
-75,
-75,
-75,
-74,
-73,
-73,
-72,
-71,
-71,
-71,
-70,
-70,
-69,
-69,
-69,
-69,
-69,
-67,
-67,
-67,
-66,
-65,
-63,
-63,
-63,
-61,
-59,
-59,
-58,
-59,
-58,
-59,
-58,
-58,
-56,
-56,
-55,
-55,
-53,
-52,
-51,
-51,
-50,
-49,
-47,
-47,
-46,
-45,
-45,
-44,
-44,
-43,
-43,
-42,
-41,
-39,
-37,
-35,
-34,
-32,
-32,
-33,
-32,
-31,
-33,
-31,
-31,
-30,
-29,
-30,
-27,
-27,
-25,
-23,
-22,
-20,
-19,
-18,
-17,
-16,
-15,
-14,
-14,
-14,
-14,
-12,
-11,
-11,
-9,
-7,
-7,
-6,
-4,
-3,
-1,
-1,
1,
1,
1,
1,
1,
1,
1,
2,
2,
3,
5,
7,
9,
11,
12,
13,
14,
14,
15,
15,
16,
17,
17,
17,
17,
17,
17,
17,
18,
19,
19,
21,
22,
23,
23,
23,
22,
23,
23,
23,
23,
24,
25,
25,
25,
27,
29,
30,
31,
31,
31,
33,
33,
33,
33,
32,
31,
31,
31,
31,
33,
34,
34,
34,
35,
34,
36,
37,
37,
37,
37,
36,
36,
37,
37,
37,
37,
39,
39,
39,
41,
41,
42,
43,
43,
42,
41,
41,
41,
39,
38,
38,
39,
38,
38,
38,
39,
39,
40,
41,
41,
41,
41,
41,
41,
40,
40,
39,
39,
39,
40,
40,
39,
40,
40,
41,
41,
40,
39,
39,
39,
39,
39,
39,
38,
37,
35,
35,
35,
35,
35,
35,
37,
35,
36,
37,
37,
37,
37,
36,
35,
35,
35,
34,
34,
33,
33,
32,
31,
29,
29,
29,
29,
29,
29,
30,
28,
27,
27,
26,
25,
25,
24,
22,
22,
22,
21,
22,
22,
22,
22,
21,
22,
22,
21,
20,
18,
17,
16,
14,
13,
13,
13,
13,
11,
11,
12,
10,
9,
9,
8,
7,
7,
6,
5,
5,
3,
2,
1,
1,
1,
0,
0,
-1,
1,
1,
-1,
-2,
-4,
-7,
-7,
-10,
-11,
-12,
-13,
-14,
-14,
-15,
-15,
-15,
-15,
-16,
-17,
-17,
-19,
-19,
-22,
-23,
-25,
-27,
-27,
-28,
-29,
-30,
-30,
-31,
-31,
-31,
-33,
-33,
-34,
-36,
-38,
-39,
-39,
-41,
-43,
-45,
-46,
-47,
-47,
-48,
-49,
-47,
-47,
-47,
-47,
-49,
-49,
-50,
-51,
-53,
-54,
-55,
-57,
-58,
-58,
-59,
-59,
-60,
-61,
-62,
-61,
-62,
-62,
-63,
-63,
-63,
-64,
-66,
-66,
-67,
-68,
-69,
-69,
-69,
-69,
-69,
-70,
-70,
-70,
-70,
-70,
-71,
-71,
-72,
-75,
-75,
-76,
-77,
-78,
-78,
-79,
-79,
-79,
-79,
-77,
-77,
-79,
-79,
-81,
-81,
-82,
-82,
-82,
-83,
-83,
-83,
-83,
-83,
-82,
-81,
-81,
-81,
-81,
-82,
-82,
-83,
-83,
-85,
-86,
-87,
-88,
-88,
-88,
-87,
-87,
-87,
-85,
-86,
-85,
-85,
-85,
-84,
-84,
-84,
-85,
-86,
-86,
-86,
-86,
-86,
-87,
-85,
-85,
-85,
-84,
-85,
-85,
-86,
-85,
-85,
-85,
-86,
-87,
-87,
-87,
-87,
-87,
-87,
-87,
-87,
-87,
-87,
-85,
-83,
-83,
-81,
-81,
-82,
-82,
-81,
-81,
-81,
-80,
-81,
-81,
-82,
-81,
-81,
-81,
-80,
-79,
-79,
-79,
-79,
-78,
-77,
-76,
-75,
-76,
-76,
-75,
-75,
-75,
-75,
-74,
-73,
-72,
-72,
-71,
-70,
-69,
-68,
-67,
-67,
-66,
-66,
-67,
-67,
-67,
-67,
-67,
-67,
-66,
-65,
-63,
-63,
-63,
-61,
-60,
-60,
-59,
-59,
-59,
-59,
-58,
-57,
-55,
-55,
-55,
-54,
-53,
-51,
-50,
-49,
-47,
-47,
-47,
-47,
-46,
-47,
-45,
-46,
-45,
-46,
-45,
-43,
-42,
-41,
-38,
-37,
-35,
-34,
-33,
-31,
-30,
-30,
-30,
-30,
-29,
-29,
-29,
-28,
-27,
-25,
-23,
-21,
-19,
-19,
-18,
-17,
-15,
-15,
-15,
-15,
-15,
-14,
-13,
-12,
-12,
-11,
-11,
-9,
-7,
-5,
-3,
-1,
-1,
1,
2,
2,
2,
2,
2,
3,
3,
4,
5,
5,
7,
6,
8,
9,
10,
11,
13,
13,
13,
13,
14,
14,
14,
15,
16,
17,
17,
19,
21,
21,
21,
22,
22,
24,
25,
23,
24,
25,
25,
25,
25,
25,
25,
25,
26,
27,
30,
30,
31,
31,
31,
31,
31,
31,
32,
31,
32,
31,
33,
34,
35,
35,
36,
36,
37,
37,
38,
38,
39,
38,
37,
36,
36,
36,
36,
36,
36,
37,
37,
38,
39,
39,
41,
41,
41,
41,
41,
41,
41,
41,
41,
40,
39,
39,
39,
39,
41,
41,
42,
41,
41,
41,
41,
40,
39,
39,
39,
40,
41,
39,
40,
39,
39,
39,
39,
41,
41,
41,
41,
41,
41,
41,
42,
41,
40,
38,
37,
37,
37,
37,
37,
37,
35,
34,
35,
34,
35,
35,
34,
34,
33,
33,
33,
33,
32,
33,
31,
31,
31,
31,
31,
31,
30,
30,
31,
30,
29,
28,
29,
27,
26,
24,
23,
22,
21,
21,
21,
21,
22,
22,
23,
22,
21,
21,
19,
19,
19,
17,
17,
16,
15,
14,
14,
14,
14,
14,
14,
13,
13,
10,
10,
8,
7,
5,
3,
1,
0,
-1,
-1,
1,
0,
-1,
-2,
-1,
-2,
-1,
-2,
-3,
-4,
-5,
-7,
-10,
-11,
-11,
-12,
-14,
-14,
-14,
-14,
-14,
-15,
-15,
-17,
-18,
-19,
-22,
-23,
-25,
-26,
-27,
-28,
-29,
-30,
-31,
-31,
-31,
-31,
-31,
-31,
-31,
-33,
-35,
-35,
-37,
-39,
-41,
-42,
-43,
-43,
-45,
-46,
-47,
-47,
-47,
-49,
-49,
-50,
-51,
-51,
-52,
-53,
-54,
-55,
-57,
-59,
-59,
-59,
-59,
-59,
-59,
-59,
-59,
-61,
-62,
-63,
-63,
-63,
-65,
-65,
-67,
-66,
-67,
-69,
-70,
-71,
-70,
-71,
-71,
-71,
-70,
-71,
-71,
-71,
-73,
-73,
-75,
-75,
-75,
-75,
-76,
-75,
-75,
-76,
-76,
-77,
-77,
-76,
-77,
-77,
-79,
-79,
-80,
-81,
-82,
-83,
-83,
-83,
-84,
-84,
-84,
-83,
-83,
-83,
-83,
-83,
-83,
-83,
-83,
-83,
-83,
-83,
-85,
-86,
-87,
-87,
-87,
-87,
-87,
-87,
-86,
-86,
-86,
-85,
-86,
-86,
-87,
-87,
-87,
-87,
-87,
-87,
-87,
-87,
-87,
-87,
-87,
-87,
-87,
-85,
-85,
-84,
-83,
-83,
-83,
-84,
-85,
-85,
-85,
-85,
-85,
-86,
-87,
-87,
-87,
-86,
-84,
-84,
-83,
-83,
-83,
-83,
-82,
-82,
-82,
-82,
-82,
-83,
-82,
-81,
-79,
-79,
-78,
-78,
-77,
-78,
-78,
-77,
-77,
-77,
-77,
-77,
-77,
-77,
-77,
-77,
-77,
-76,
-75,
-75,
-73,
-71,
-71,
-70,
-69,
-68,
-69,
-69,
-69,
-68,
-67,
-68,
-67,
-67,
-65,
-64,
-63,
-62,
-61,
-59,
-59,
-59,
-59,
-59,
-59,
-61,
-62,
-61,
-60,
-58,
-57,
-56,
-55,
-53,
-51,
-50,
-47,
-47,
-46,
-46,
-46,
-45,
-45,
-44,
-44,
-45,
-44,
-43,
-43,
-41,
-39,
-37,
-36,
-35,
-35,
-34,
-33,
-33,
-33,
-33,
-32,
-32,
-31,
-30,
-29,
-27,
-26,
-23,
-22,
-20,
-19,
-18,
-17,
-15,
-15,
-15,
-15,
-13,
-13,
-12,
-11,
-10,
-9,
-8,
-7,
-7,
-6,
-5,
-4,
-3,
-2,
0,
1,
1,
1,
1,
2,
3,
5,
6,
7,
9,
9,
10,
11,
13,
13,
13,
13,
13,
13,
14,
15,
15,
16,
17,
16,
17,
17,
19,
19,
21,
21,
21,
22,
22,
22,
23,
24,
25,
25,
26,
26,
26,
27,
28,
29,
29,
30,
31,
32,
33,
31,
32,
31,
31,
31,
31,
31,
31,
32,
33,
34,
35,
36,
37,
37,
37,
38,
39,
39,
39,
39,
40,
39,
38,
37,
38,
39,
38,
38,
39,
39,
41,
41,
41,
41,
41,
41,
39,
39,
40,
39,
39,
39,
39,
39,
39,
39,
40,
41,
42,
42,
43,
43,
42,
41,
41,
41,
41,
41,
40,
39,
39,
38,
38,
38,
39,
40,
39,
39,
39,
41,
41,
41,
40,
39,
39,
37,
37,
37,
38,
38,
39,
37,
38,
37,
37,
37,
37,
37,
36,
35,
34,
33,
33,
32,
30,
31,
31,
31,
31,
30,
30,
31,
30,
29,
29,
29,
28,
26,
25,
25,
25,
23,
23,
23,
23,
23,
22,
22,
23,
23,
22,
20,
19,
17,
15,
15,
13,
13,
13,
13,
13,
13,
14,
15,
14,
13,
13,
13,
11,
10,
9,
7,
6,
3,
2,
1,
1,
1,
1,
1,
1,
0,
-1,
-2,
-3,
-4,
-5,
-7,
-7,
-9,
-11,
-11,
-13,
-13,
-13,
-13,
-13,
-13,
-13,
-14,
-15,
-17,
-19,
-20,
-22,
-23,
-25,
-27,
-28,
-29,
-29,
-29,
-30,
-32,
-33,
-35,
-35,
-35,
-35,
-37,
-37,
-39,
-40,
-42,
-42,
-42,
-43,
-43,
-44,
-45,
-45,
-45,
-45,
-47,
-47,
-49,
-51,
-52,
-53,
-53,
-55,
-57,
-58,
-59,
-59,
-60,
-60,
-59,
-59,
-60,
-59,
-61,
-61,
-62,
-63,
-64,
-65,
-65,
-66,
-66,
-67,
-67,
-67,
-69,
-69,
-69,
-70,
-70,
-71,
-71,
-71,
-73,
-74,
-75,
-75,
-77,
-79,
-79,
-79,
-79,
-78,
-78,
-78,
-77,
-77,
-79,
-78,
-78,
-78,
-79,
-79,
-80,
-81,
-82,
-83,
-83,
-83,
-83,
-83,
-84,
-83,
-83,
-83,
-83,
-83,
-84,
-85,
-85,
-85,
-85,
-85,
-86,
-86,
-87,
-87,
-87,
-86,
-86,
-85,
-83,
-83,
-83,
-83,
-85,
-85,
-85,
-87,
-87,
-87,
-87,
-87,
-87,
-87,
-87,
-87,
-88,
-87,
-88,
-87,
-87,
-86,
-87,
-85,
-85,
-85,
-86,
-86,
-86,
-86,
-86,
-84,
-84,
-83,
-85,
-84,
-84,
-83,
-83,
-83,
-83,
-83,
-83,
-83,
-83,
-82,
-82,
-82,
-81,
-81,
-79,
-79,
-79,
-77,
-77,
-77,
-76,
-77,
-76,
-75,
-75,
-75,
-74,
-75,
-75,
-75,
-75,
-74,
-73,
-71,
-71,
-70,
-70,
-69,
-69,
-70,
-70,
-70,
-70,
-71,
-70,
-69,
-67,
-66,
-65,
-63,
-62,
-61,
-60,
-59,
-58,
-58,
-58,
-58,
-58,
-58,
-59,
-59,
-59,
-57,
-55,
-54,
-53,
-51,
-51,
-49,
-49,
-47,
-47,
-45,
-46,
-45,
-45,
-44,
-43,
-43,
-43,
-42,
-40,
-38,
-37,
-34,
-32,
-31,
-31,
-31,
-31,
-31,
-31,
-31,
-31,
-28,
-28,
-28,
-27,
-26,
-25,
-23,
-21,
-20,
-19,
-17,
-17,
-15,
-14,
-13,
-13,
-12,
-11,
-11,
-10,
-9,
-7,
-5,
-4,
-4,
-3,
-3,
-1,
0,
-1,
1,
1,
1,
1,
1,
1,
3,
4,
5,
7,
9,
9,
12,
13,
13,
14,
15,
14,
15,
15,
15,
17,
17,
17,
18,
18,
18,
20,
21,
22,
22,
23,
23,
25,
24,
23,
22,
22,
22,
23,
24,
25,
27,
27,
28,
30,
32,
33,
34,
34,
34,
33,
33,
33,
33,
33,
33,
31,
30,
32,
34,
35,
36,
37,
37,
37,
37,
37,
37,
37,
37,
37,
37,
37,
37,
37,
38,
38,
39,
40,
41,
41,
43,
43,
43,
41,
41,
40,
39,
39,
38,
39,
39,
39,
40,
40,
41,
41,
41,
41,
41,
41,
41,
42,
41,
41,
41,
40,
40,
41,
42,
41,
41,
41,
41,
41,
41,
41,
41,
39,
38,
37,
37,
37,
37,
37,
35,
37,
36,
36,
37,
37,
37,
37,
37,
35,
35,
34,
33,
33,
33,
33,
33,
33,
32,
33,
33,
31,
31,
31,
31,
30,
29,
29,
29,
27,
27,
25,
25,
25,
24,
23,
23,
25,
25,
24,
23,
25,
23,
23,
23,
22,
21,
20,
18,
16,
15,
15,
14,
13,
13,
12,
12,
11,
10,
10,
11,
10,
9,
7,
7,
7,
6,
5,
4,
3,
1,
1,
0,
-1,
-1,
0,
0,
-1,
-2,
-3,
-5,
-7,
-7,
-7,
-10,
-11,
-12,
-13,
-14,
-15,
-15,
-15,
-15,
-17,
-18,
-19,
-18,
-19,
-19,
-21,
-22,
-23,
-25,
-26,
-27,
-27,
-29,
-29,
-31,
-31,
-33,
-35,
-35,
-37,
-38,
-39,
-39,
-40,
-43,
-43,
-45,
-46,
-47,
-47,
-47,
-48,
-48,
-48,
-48,
-49,
-50,
-51,
-51,
-53,
-54,
-55,
-55,
-57,
-57,
-58,
-59,
-59,
-61,
-62,
-61,
-62,
-63,
-63,
-63,
-63,
-64,
-65,
-67,
-67,
-68,
-69,
-71,
-70,
-69,
-70,
-70,
-69,
-69,
-69,
-69,
-70,
-71,
-71,
-71,
-73,
-75,
-76,
-78,
-79,
-80,
-79,
-79,
-79,
-79,
-79,
-79,
-79,
-79,
-79,
-79,
-80,
-81,
-82,
-83,
-83,
-83,
-83,
-84,
-85,
-84,
-83,
-82,
-82,
-81,
-81,
-82,
-83,
-83,
-84,
-85,
-87,
-89,
-89,
-89,
-87,
-88,
-87,
-87,
-86,
-86,
-85,
-84,
-84,
-85,
-84,
-85,
-85,
-86,
-86,
-87,
-86,
-86,
-86,
-86,
-85,
-85,
-85,
-85,
-85,
-86,
-85,
-85,
-86,
-86,
-86,
-87,
-87,
-88,
-88,
-87,
-86,
-84,
-83,
-83,
-83,
-81,
-81,
-81,
-81,
-81,
-83,
-83,
-83,
-82,
-81,
-81,
-80,
-79,
-79,
-79,
-79,
-79,
-78,
-77,
-78,
-78,
-77,
-78,
-78,
-78,
-78,
-77,
-75,
-75,
-74,
-73,
-72,
-71,
-70,
-68,
-67,
-67,
-67,
-67,
-67,
-68,
-69,
-69,
-69,
-68,
-67,
-67,
-66,
-64,
-63,
-61,
-60,
-59,
-59,
-59,
-59,
-59,
-57,
-57,
-57,
-57,
-56,
-57,
-55,
-54,
-51,
-50,
-49,
-47,
-47,
-46,
-46,
-45,
-45,
-45,
-46,
-46,
-46,
-45,
-43,
-42,
-41,
-41,
-39,
-38,
-37,
-35,
-34,
-33,
-31,
-31,
-31,
-30,
-29,
-29,
-27,
-26,
-24,
-23,
-23,
-21,
-21,
-19,
-19,
-18,
-17,
-17,
-16,
-15,
-13,
-13,
-12,
-11,
-10,
-9,
-8,
-7,
-6,
-3,
-2,
0,
1,
1,
1,
1,
1,
3,
3,
5,
5,
5,
6,
6,
7,
7,
9,
9,
9,
10,
11,
12,
13,
13,
14,
14,
14,
15,
16,
17,
17,
19,
20,
21,
21,
21,
23,
23,
23,
25,
25,
25,
25,
25,
24,
25,
25,
25,
26,
27,
27,
29,
29,
31,
32,
33,
33,
33,
33,
33,
34,
35,
34,
35,
35,
35,
35,
34,
35,
37,
37,
38,
39,
39,
38,
38,
37,
37,
37,
37,
36,
36,
37,
37,
37,
37,
39,
39,
41,
41,
41,
42,
41,
41,
41,
41,
41,
40,
39,
40,
40,
40,
41,
40,
39,
39,
39,
39,
40,
41,
41,
41,
40,
39,
39,
39,
39,
39,
39,
39,
39,
41,
41,
42,
42,
41,
41,
41,
39,
39,
39,
38,
38,
37,
37,
36,
35,
35,
35,
35,
35,
35,
34,
33,
34,
33,
33,
32,
31,
31,
31,
31,
30,
30,
30,
30,
30,
31,
31,
31,
30,
29,
28,
27,
25,
24,
22,
21,
20,
20,
21,
22,
22,
22,
21,
21,
21,
21,
21,
21,
19,
18,
16,
15,
14,
13,
13,
13,
11,
11,
12,
13,
13,
12,
11,
9,
8,
5,
4,
3,
2,
1,
-1,
-1,
-2,
-2,
-3,
-2,
-2,
-2,
-2,
-3,
-3,
-5,
-7,
-9,
-9,
-11,
-13,
-15,
-15,
-15,
-15,
-17,
-17,
-19,
-19,
-20,
-21,
-22,
-23,
-23,
-25,
-26,
-27,
-29,
-30,
-31,
-32,
-31,
-31,
-31,
-33,
-33,
-34,
-35,
-37,
-38,
-39,
-40,
-43,
-44,
-45,
-45,
-46,
-47,
-47,
-48,
-49,
-50,
-51,
-50,
-50,
-51,
-53,
-53,
-54,
-56,
-57,
-58,
-58,
-58,
-59,
-59,
-60,
-61,
-61,
-61,
-62,
-62,
-63,
-63,
-65,
-66,
-67,
-68,
-69,
-71,
-72,
-72,
-73,
-71,
-71,
-71,
-70,
-71,
-71,
-71,
-71,
-73,
-74,
-74,
-75,
-75,
-76,
-77,
-77,
-79,
-79,
-79,
-78,
-79,
-79,
-79,
-79,
-79,
-79,
-80,
-82,
-83,
-83,
-83,
-84,
-83,
-83,
-83,
-83,
-83,
-82,
-82,
-82,
-81,
-82,
-82,
-82,
-83,
-85,
-86,
-87,
-87,
-87,
-87,
-87,
-87,
-87,
-87,
-87,
-87,
-87,
-87,
-87,
-87,
-86,
-86,
-86,
-86,
-86,
-86,
-87,
-87,
-86,
-85,
-85,
-85,
-85,
-84,
-85,
-85,
-85,
-85,
-85,
-85,
-86,
-86,
-86,
-85,
-86,
-86,
-85,
-84,
-84,
-84,
-83,
-82,
-82,
-82,
-81,
-81,
-81,
-81,
-80,
-79,
-79,
-78,
-78,
-79,
-78,
-78,
-79,
-78,
-78,
-77,
-77,
-76,
-75,
-75,
-75,
-76,
-77,
-75,
-75,
-75,
-74,
-73,
-72,
-71,
-69,
-68,
-67,
-67,
-68,
-67,
-67,
-67,
-65,
-65,
-65,
-67,
-67,
-66,
-65,
-63,
-62,
-61,
-60,
-60,
-59,
-58,
-57,
-57,
-57,
-56,
-55,
-55,
-56,
-55,
-53,
-51,
-51,
-50,
-49,
-47,
-46,
-44,
-43,
-42,
-42,
-42,
-43,
-43,
-43,
-42,
-41,
-40,
-39,
-38,
-37,
-35,
-35,
-33,
-32,
-30,
-29,
-28,
-27,
-27,
-27,
-25,
-25,
-24,
-24,
-23,
-23,
-21,
-19,
-18,
-15,
-15,
-14,
-14,
-14,
-13,
-12,
-11,
-11,
-9,
-9,
-9,
-8,
-7,
-4,
-2,
-2,
-1,
0,
2,
3,
3,
5,
6,
6,
5,
5,
6,
7,
8,
9,
9,
10,
11,
12,
13,
15,
16,
17,
17,
17,
17,
17,
17,
17,
18,
18,
19,
20,
22,
23,
25,
25,
25,
25,
26,
26,
25,
25,
25,
25,
25,
25,
25,
25,
26,
27,
29,
30,
31,
33,
33,
34,
33,
33,
33,
33,
33,
33,
33,
33,
34,
35,
37,
37,
38,
39,
39,
39,
39,
40,
39,
38,
37,
36,
36,
35,
35,
37,
38,
39,
41,
41,
41,
41,
42,
42,
42,
42,
42,
41,
40,
40,
41,
40,
39,
39,
39,
39,
40,
41,
40,
41,
41,
40,
39,
38,
39,
37,
37,
38,
38,
39,
38,
38,
39,
39,
40,
41,
41,
41,
40,
39,
38,
38,
38,
37,
37,
36,
36,
36,
35,
35,
36,
35,
35,
33,
33,
34,
34,
33,
33,
33,
33,
31,
30,
30,
31,
31,
31,
31,
31,
31,
30,
29,
29,
27,
27,
25,
23,
23,
22,
21,
21,
21,
21,
21,
20,
19,
19,
20,
20,
19,
19,
17,
17,
15,
15,
14,
14,
13,
12,
11,
11,
10,
9,
9,
10,
9,
9,
7,
6,
5,
4,
2,
1,
0,
-2,
-2,
-2,
-1,
-1,
-2,
-3,
-4,
-3,
-5,
-6,
-7,
-8,
-9,
-9,
-11,
-11,
-13,
-14,
-17,
-18,
-19,
-19,
-19,
-21,
-22,
-23,
-23,
-23,
-24,
-25,
-27,
-28,
-30,
-31,
-31,
-31,
-33,
-34,
-35,
-36,
-37,
-38,
-38,
-38,
-39,
-40,
-42,
-43,
-45,
-45,
-46,
-47,
-47,
-49,
-50,
-51,
-51,
-51,
-52,
-52,
-54,
-54,
-55,
-54,
-55,
-55,
-56,
-58,
-60,
-61,
-61,
-62,
-63,
-63,
-63,
-63,
-63,
-63,
-64,
-65,
-67,
-67,
-68,
-69,
-70,
-71,
-71,
-73,
-73,
-72,
-72,
-71,
-71,
-71,
-71,
-71,
-72,
-72,
-73,
-74,
-76,
-77,
-78,
-79,
-80,
-79,
-79,
-81,
-81,
-80,
-80,
-79,
-79,
-79,
-79,
-81,
-82,
-83,
-85,
-85,
-85,
-85,
-86,
-85,
-84,
-83,
-82,
-81,
-81,
-82,
-83,
-83,
-83,
-84,
-85,
-86,
-87,
-88,
-89,
-89,
-88,
-88,
-87,
-87,
-86,
-85,
-85,
-84,
-85,
-85,
-85,
-85,
-85,
-85,
-86,
-86,
-86,
-85,
-86,
-85,
-84,
-84,
-84,
-84,
-83,
-83,
-84,
-85,
-85,
-86,
-87,
-87,
-87,
-86,
-85,
-84,
-84,
-83,
-83,
-82,
-82,
-81,
-81,
-80,
-81,
-81,
-79,
-80,
-80,
-81,
-81,
-80,
-79,
-79,
-79,
-77,
-76,
-75,
-76,
-77,
-77,
-76,
-76,
-75,
-75,
-75,
-75,
-75,
-74,
-72,
-71,
-69,
-68,
-67,
-66,
-65,
-65,
-66,
-65,
-65,
-67,
-67,
-66,
-65,
-65,
-64,
-63,
-63,
-61,
-61,
-60,
-59,
-58,
-57,
-56,
-56,
-55,
-56,
-56,
-55,
-55,
-54,
-53,
-52,
-51,
-49,
-48,
-47,
-46,
-45,
-45,
-44,
-45,
-45,
-43,
-43,
-42,
-42,
-41,
-40,
-39,
-39,
-37,
-36,
-33,
-33,
-31,
-30,
-29,
-28,
-27,
-26,
-25,
-24,
-23,
-23,
-22,
-21,
-21,
-19,
-19,
-17,
-17,
-15,
-14,
-13,
-11,
-11,
-10,
-9,
-9,
-9,
-7,
-7,
-6,
-4,
-3,
-3,
-2,
0,
1,
1,
2,
3,
5,
5,
5,
5,
6,
7,
6,
7,
7,
8,
8,
9,
11,
13,
13,
14,
15,
15,
16,
17,
18,
17,
18,
19,
19,
19,
21,
21,
22,
24,
25,
26,
26,
27,
26,
27,
26,
26,
26,
26,
26,
27,
27,
27,
28,
29,
30,
31,
32,
33,
35,
35,
35,
36,
36,
35,
35,
33,
33,
34,
34,
35,
37,
37,
37,
37,
37,
38,
38,
38,
37,
37,
37,
37,
36,
37,
37,
37,
37,
37,
39,
40,
42,
43,
43,
43,
43,
41,
41,
41,
41,
41,
39,
39,
39,
39,
39,
39,
39,
40,
40,
41,
41,
41,
41,
41,
41,
39,
39,
39,
38,
39,
40,
41,
40,
41,
41,
41,
41,
40,
40,
39,
39,
38,
37,
37,
35,
34,
33,
33,
34,
34,
34,
34,
35,
35,
34,
34,
33,
33,
33,
32,
31,
31,
31,
30,
29,
29,
29,
29,
29,
30,
30,
29,
28,
26,
25,
24,
22,
22,
20,
20,
20,
20,
21,
21,
21,
21,
21,
21,
20,
20,
19,
18,
17,
15,
14,
12,
10,
10,
10,
10,
10,
10,
10,
9,
9,
8,
7,
7,
5,
3,
2,
1,
1,
-1,
-1,
-2,
-1,
-2,
-3,
-2,
-3,
-3,
-4,
-5,
-7,
-9,
-10,
-11,
-13,
-13,
-14,
-16,
-16,
-17,
-19,
-20,
-22,
-21,
-21,
-23,
-23,
-23,
-25,
-25,
-27,
-27,
-29,
-31,
-31,
-33,
-33,
-33,
-34,
-35,
-36,
-37,
-39,
-39,
-41,
-43,
-43,
-43,
-45,
-47,
-47,
-47,
-49,
-49,
-50,
-49,
-50,
-51,
-51,
-53,
-53,
-53,
-53,
-54,
-55,
-55,
-57,
-58,
-59,
-60,
-61,
-62,
-63,
-63,
-64,
-65,
-64,
-64,
-65,
-65,
-69,
-69,
-71,
-71,
-71,
-71,
-71,
-71,
-71,
-72,
-71,
-72,
-71,
-71,
-73,
-73,
-73,
-74,
-75,
-75,
-76,
-77,
-79,
-79,
-81,
-81,
-81,
-81,
-81,
-81,
-81,
-80,
-81,
-80,
-80,
-81,
-81,
-81,
-82,
-82,
-83,
-83,
-84,
-83,
-83,
-83,
-82,
-82,
-82,
-83,
-83,
-83,
-83,
-84,
-85,
-87,
-87,
-87,
-87,
-87,
-87,
-87,
-88,
-89,
-88,
-87,
-86,
-85,
-85,
-85,
-84,
-85,
-86,
-86,
-86,
-87,
-87,
-87,
-87,
