2-Passive Filters/differentiator-integrator_behaviour/data/ALL0064/A0064CH2.CSV

Memory Length,4000,
Trigger Level,0.000E+00,
Source,CH2,
Probe,1X,
Vertical Units,V,
Vertical Scale,5.000E+00,
Vertical Position,2.000E-01,
Horizontal Units,s,
Horizontal Scale,2.500E-06,
Horizontal Position,0.000E+00,
Horizontal Mode,Main,
Sampling Period,1.000E-08,
Firmware,V1.04,
Time, ,
Mode,Fast,
Waveform Data,
41,
41,
44,
42,
39,
38,
35,
32,
31,
34,
37,
37,
37,
36,
37,
37,
37,
35,
36,
37,
36,
36,
37,
37,
36,
37,
36,
35,
36,
36,
36,
37,
36,
36,
36,
36,
35,
35,
36,
37,
35,
35,
36,
35,
36,
36,
36,
36,
36,
36,
36,
36,
35,
35,
35,
36,
35,
36,
36,
35,
35,
35,
36,
35,
35,
36,
35,
36,
35,
36,
35,
36,
35,
35,
35,
36,
35,
35,
35,
36,
36,
36,
36,
35,
35,
35,
35,
35,
36,
35,
35,
35,
35,
35,
35,
35,
35,
35,
35,
35,
35,
35,
35,
35,
35,
35,
35,
35,
35,
35,
35,
35,
35,
35,
35,
35,
35,
35,
35,
35,
35,
36,
35,
35,
35,
35,
35,
35,
35,
35,
35,
35,
35,
35,
35,
35,
35,
35,
35,
35,
35,
35,
35,
35,
35,
35,
35,
35,
35,
35,
35,
35,
35,
35,
35,
35,
35,
34,
35,
35,
34,
35,
35,
35,
35,
34,
35,
35,
35,
35,
35,
35,
35,
35,
34,
35,
35,
35,
35,
35,
35,
35,
35,
35,
35,
35,
35,
35,
35,
35,
35,
33,
34,
35,
35,
34,
35,
34,
35,
35,
35,
35,
35,
35,
35,
34,
35,
35,
35,
34,
34,
35,
34,
35,
35,
35,
34,
35,
35,
35,
34,
33,
35,
34,
34,
34,
35,
34,
33,
34,
35,
34,
34,
35,
34,
34,
34,
34,
33,
34,
34,
34,
34,
33,
34,
34,
35,
34,
35,
34,
34,
33,
34,
33,
34,
34,
34,
33,
35,
34,
33,
33,
34,
33,
34,
34,
33,
34,
33,
34,
35,
33,
33,
35,
33,
34,
34,
34,
33,
34,
34,
34,
33,
34,
33,
34,
34,
33,
33,
34,
34,
33,
33,
33,
35,
34,
33,
34,
33,
33,
33,
33,
33,
33,
33,
33,
34,
34,
34,
34,
33,
33,
33,
33,
33,
33,
33,
33,
33,
33,
33,
34,
33,
33,
33,
33,
33,
33,
33,
33,
33,
33,
32,
33,
33,
33,
33,
33,
33,
33,
33,
33,
32,
33,
33,
33,
33,
33,
33,
33,
33,
33,
33,
33,
33,
33,
33,
33,
32,
33,
33,
33,
33,
33,
33,
33,
33,
33,
33,
32,
33,
33,
33,
33,
33,
33,
33,
33,
33,
33,
33,
33,
33,
33,
33,
33,
33,
33,
33,
33,
33,
33,
32,
33,
33,
33,
33,
33,
33,
32,
33,
33,
33,
32,
32,
33,
32,
33,
32,
33,
32,
33,
32,
32,
33,
33,
33,
33,
32,
32,
32,
32,
32,
33,
32,
33,
33,
33,
33,
32,
32,
32,
32,
32,
32,
33,
32,
33,
32,
33,
32,
32,
33,
32,
33,
32,
32,
32,
32,
32,
32,
32,
31,
33,
33,
32,
32,
32,
32,
31,
31,
32,
33,
32,
32,
32,
32,
32,
32,
32,
32,
32,
32,
32,
32,
33,
32,
32,
32,
32,
33,
32,
32,
32,
31,
31,
32,
32,
32,
31,
32,
32,
31,
31,
32,
31,
32,
31,
31,
32,
31,
23,
4,
-21,
-39,
-45,
-43,
-40,
-39,
-37,
-33,
-33,
-35,
-37,
-37,
-38,
-37,
-38,
-39,
-38,
-37,
-37,
-37,
-37,
-37,
-37,
-37,
-37,
-37,
-37,
-37,
-37,
-37,
-37,
-37,
-37,
-37,
-37,
-37,
-37,
-37,
-37,
-37,
-37,
-37,
-37,
-37,
-37,
-37,
-37,
-37,
-37,
-37,
-37,
-37,
-37,
-37,
-37,
-37,
-37,
-37,
-37,
-37,
-37,
-36,
-37,
-37,
-37,
-37,
-37,
-37,
-37,
-37,
-37,
-37,
-37,
-37,
-37,
-37,
-37,
-37,
-37,
-37,
-37,
-37,
-37,
-37,
-37,
-37,
-36,
-36,
-37,
-36,
-37,
-37,
-37,
-37,
-37,
-37,
-36,
-36,
-37,
-37,
-36,
-36,
-36,
-36,
-36,
-36,
-36,
-37,
-36,
-37,
-37,
-37,
-36,
-37,
-36,
-37,
-37,
-36,
-37,
-37,
-37,
-37,
-36,
-37,
-37,
-36,
-36,
-36,
-36,
-36,
-36,
-36,
-36,
-37,
-37,
-36,
-36,
-36,
-36,
-37,
-36,
-36,
-37,
-36,
-36,
-36,
-36,
-36,
-36,
-36,
-36,
-36,
-36,
-36,
-36,
-37,
-36,
-36,
-37,
-37,
-36,
-36,
-36,
-37,
-37,
-36,
-36,
-36,
-37,
-36,
-36,
-36,
-37,
-36,
-36,
-37,
-36,
-36,
-36,
-36,
-35,
-35,
-36,
-36,
-35,
-36,
-36,
-35,
-36,
-36,
-36,
-35,
-36,
-36,
-36,
-36,
-36,
-36,
-36,
-36,
-36,
-36,
-35,
-36,
-35,
-36,
-36,
-36,
-36,
-36,
-36,
-36,
-36,
-35,
-35,
-36,
-35,
-36,
-36,
-36,
-36,
-36,
-36,
-35,
-35,
-35,
-36,
-35,
-36,
-35,
-36,
-35,
-36,
-35,
-35,
-36,
-35,
-35,
-35,
-35,
-35,
-35,
-35,
-36,
-35,
-36,
-36,
-35,
-35,
-35,
-36,
-35,
-35,
-36,
-36,
-35,
-35,
-35,
-36,
-36,
-35,
-35,
-35,
-35,
-35,
-36,
-35,
-35,
-35,
-35,
-35,
-35,
-36,
-35,
-36,
-35,
-35,
-35,
-35,
-35,
-35,
-35,
-35,
-35,
-35,
-35,
-35,
-35,
-35,
-35,
-35,
-35,
-35,
-36,
-35,
-35,
-35,
-35,
-35,
-35,
-35,
-35,
-35,
-35,
-35,
-35,
-35,
-35,
-35,
-35,
-35,
-34,
-35,
-35,
-35,
-35,
-35,
-35,
-35,
-35,
-35,
-34,
-35,
-35,
-35,
-35,
-35,
-35,
-35,
-35,
-35,
-35,
-35,
-35,
-35,
-34,
-35,
-35,
-35,
-35,
-35,
-35,
-34,
-35,
-35,
-35,
-33,
-35,
-35,
-35,
-35,
-34,
-34,
-35,
-35,
-35,
-35,
-35,
-34,
-35,
-35,
-35,
-34,
-35,
-35,
-35,
-35,
-35,
-35,
-34,
-35,
-35,
-34,
-35,
-34,
-35,
-34,
-35,
-35,
-35,
-35,
-35,
-35,
-34,
-34,
-35,
-35,
-34,
-35,
-34,
-34,
-35,
-35,
-34,
-34,
-34,
-34,
-34,
-34,
-35,
-34,
-33,
-34,
-34,
-35,
-34,
-34,
-34,
-35,
-34,
-35,
-34,
-33,
-33,
-33,
-34,
-33,
-34,
-33,
-34,
-35,
-35,
-35,
-33,
-34,
-34,
-35,
-34,
-33,
-33,
-34,
-34,
-35,
-34,
-33,
-35,
-33,
-34,
-34,
-35,
-33,
-34,
-34,
-34,
-33,
-33,
-34,
-34,
-33,
-33,
-33,
-34,
-33,
-33,
-34,
-33,
-34,
-33,
-33,
-34,
-34,
-34,
-35,
-33,
-33,
-33,
-33,
-33,
-34,
-33,
-33,
-33,
-33,
-33,
-33,
-33,
-33,
-33,
-33,
-33,
-33,
-33,
-33,
-33,
-33,
-34,
-33,
-33,
-34,
-34,
-33,
-33,
-33,
-33,
-32,
-21,
-1,
23,
40,
44,
42,
39,
38,
36,
32,
32,
34,
37,
37,
37,
36,
37,
38,
36,
36,
36,
36,
37,
35,
36,
36,
37,
37,
36,
36,
35,
36,
36,
36,
36,
36,
36,
36,
35,
36,
36,
36,
35,
36,
36,
35,
37,
37,
36,
36,
35,
35,
36,
36,
36,
36,
36,
35,
36,
36,
36,
36,
35,
35,
35,
36,
35,
35,
36,
35,
35,
36,
35,
36,
35,
35,
36,
35,
35,
35,
35,
35,
36,
35,
35,
35,
36,
36,
36,
35,
35,
35,
36,
35,
35,
35,
35,
35,
35,
35,
35,
35,
35,
35,
35,
35,
35,
35,
35,
35,
35,
35,
35,
35,
35,
35,
35,
35,
35,
35,
35,
35,
35,
35,
35,
35,
35,
35,
35,
35,
35,
35,
35,
35,
35,
35,
35,
35,
35,
35,
35,
35,
35,
35,
35,
35,
35,
35,
35,
35,
35,
35,
35,
35,
35,
35,
35,
35,
35,
34,
35,
35,
35,
35,
35,
35,
35,
35,
35,
35,
35,
35,
35,
35,
35,
35,
35,
35,
35,
35,
35,
35,
35,
35,
35,
35,
35,
35,
34,
35,
35,
35,
35,
35,
35,
35,
35,
35,
35,
35,
35,
35,
35,
35,
34,
34,
35,
35,
35,
34,
35,
35,
35,
35,
35,
35,
35,
35,
35,
34,
35,
34,
35,
34,
35,
35,
34,
34,
35,
35,
34,
35,
34,
35,
33,
34,
34,
34,
34,
33,
33,
34,
34,
34,
35,
34,
34,
34,
33,
34,
33,
34,
35,
33,
33,
34,
33,
34,
34,
34,
34,
34,
33,
34,
35,
34,
33,
33,
33,
33,
33,
33,
34,
34,
33,
33,
33,
33,
33,
33,
34,
34,
34,
34,
33,
33,
33,
33,
33,
33,
33,
33,
33,
34,
33,
34,
33,
33,
33,
33,
33,
33,
34,
33,
33,
34,
33,
33,
34,
33,
33,
33,
33,
33,
33,
33,
33,
34,
33,
33,
33,
33,
33,
33,
33,
33,
33,
33,
33,
33,
33,
33,
33,
33,
33,
33,
33,
33,
33,
33,
33,
33,
33,
33,
33,
33,
33,
33,
33,
33,
33,
33,
33,
33,
33,
33,
33,
33,
33,
32,
33,
33,
33,
32,
33,
33,
33,
33,
33,
33,
33,
33,
33,
33,
33,
32,
32,
33,
32,
33,
33,
33,
33,
33,
33,
33,
33,
33,
33,
32,
32,
33,
33,
33,
33,
33,
32,
33,
32,
33,
33,
33,
33,
33,
33,
33,
33,
32,
32,
33,
33,
33,
32,
32,
33,
33,
33,
32,
33,
32,
33,
32,
33,
32,
33,
33,
32,
33,
33,
33,
32,
33,
33,
33,
33,
31,
33,
33,
33,
33,
33,
33,
32,
33,
32,
33,
32,
32,
33,
33,
33,
33,
32,
32,
32,
32,
32,
33,
32,
32,
32,
32,
32,
32,
32,
32,
32,
32,
32,
32,
32,
31,
32,
32,
32,
32,
32,
32,
32,
31,
32,
33,
32,
32,
32,
32,
32,
31,
31,
31,
33,
32,
32,
32,
33,
31,
32,
32,
32,
32,
31,
32,
31,
23,
4,
-20,
-39,
-45,
-43,
-41,
-39,
-37,
-34,
-32,
-34,
-37,
-38,
-37,
-37,
-39,
-39,
-38,
-37,
-37,
-37,
-37,
-37,
-37,
-37,
-37,
-37,
-37,
-37,
-37,
-37,
-36,
-37,
-37,
-37,
-37,
-37,
-37,
-37,
-37,
-37,
-37,
-37,
-37,
-37,
-37,
-37,
-37,
-37,
-37,
-37,
-37,
-37,
-37,
-37,
-37,
-37,
-37,
-37,
-37,
-37,
-37,
-37,
-36,
-36,
-37,
-37,
-36,
-37,
-36,
-37,
-37,
-37,
-37,
-37,
-37,
-37,
-37,
-37,
-37,
-36,
-37,
-37,
-37,
-37,
-37,
-37,
-36,
-37,
-37,
-36,
-37,
-37,
-36,
-37,
-37,
-37,
-37,
-37,
-36,
-37,
-37,
-37,
-37,
-36,
-36,
-36,
-36,
-35,
-37,
-35,
-37,
-37,
-37,
-37,
-37,
-37,
-37,
-36,
-36,
-37,
-37,
-37,
-37,
-36,
-36,
-36,
-36,
-36,
-36,
-37,
-36,
-37,
-36,
-37,
-36,
-37,
-36,
-36,
-36,
-36,
-36,
-36,
-36,
-36,
-36,
-36,
-36,
-37,
-36,
-36,
-37,
-36,
-36,
-37,
-36,
-36,
-36,
-37,
-35,
-36,
-37,
-36,
-36,
-36,
-36,
-36,
-36,
-36,
-36,
-37,
-37,
-36,
-36,
-36,
-36,
-36,
-36,
-36,
-36,
-36,
-36,
-36,
-36,
-36,
-35,
-35,
-36,
-36,
-37,
-36,
-36,
-36,
-36,
-36,
-35,
-35,
-36,
-36,
-35,
-35,
-35,
-36,
-36,
-35,
-36,
-36,
-35,
-35,
-35,
-36,
-36,
-35,
-35,
-35,
-36,
-35,
-36,
-36,
-36,
-36,
-35,
-36,
-35,
-35,
-36,
-36,
-35,
-35,
-36,
-35,
-36,
-36,
-35,
-36,
-35,
-35,
-36,
-35,
-36,
-36,
-35,
-36,
-35,
-35,
-35,
-36,
-35,
-35,
-36,
-36,
-35,
-35,
-35,
-36,
-35,
-36,
-35,
-35,
-35,
-35,
-35,
-35,
-35,
-35,
-35,
-35,
-35,
-35,
-35,
-35,
-35,
-35,
-35,
-35,
-35,
-35,
-35,
-35,
-36,
-35,
-35,
-35,
-35,
-35,
-35,
-35,
-35,
-35,
-35,
-35,
-35,
-35,
-35,
-35,
-35,
-35,
-35,
-35,
-35,
-35,
-35,
-35,
-35,
-35,
-35,
-35,
-35,
-35,
-35,
-35,
-35,
-35,
-35,
-36,
-35,
-35,
-35,
-35,
-35,
-35,
-34,
-35,
-35,
-35,
-35,
-35,
-35,
-35,
-35,
-35,
-35,
-35,
-35,
-35,
-34,
-35,
-35,
-35,
-35,
-35,
-34,
-35,
-35,
-35,
-35,
-34,
-35,
-35,
-34,
-35,
-35,
-35,
-35,
-34,
-35,
-34,
-35,
-35,
-35,
-35,
-35,
-35,
-34,
-34,
-34,
-34,
-35,
-35,
-34,
-35,
-35,
-35,
-33,
-35,
-34,
-34,
-34,
-34,
-34,
-34,
-34,
-34,
-34,
-34,
-34,
-35,
-35,
-34,
-35,
-34,
-35,
-34,
-34,
-35,
-35,
-35,
-34,
-34,
-34,
-34,
-34,
-35,
-33,
-34,
-33,
-35,
-34,
-34,
-34,
-35,
-34,
-34,
-34,
-33,
-33,
-34,
-35,
-34,
-34,
-35,
-34,
-34,
-33,
-33,
-33,
-34,
-33,
-33,
-34,
-35,
-33,
-35,
-35,
-34,
-34,
-33,
-33,
-33,
-34,
-33,
-34,
-34,
-34,
-34,
-33,
-33,
-33,
-34,
-33,
-34,
-34,
-33,
-34,
-34,
-34,
-33,
-33,
-34,
-33,
-33,
-33,
-34,
-33,
-33,
-33,
-33,
-34,
-34,
-33,
-33,
-34,
-34,
-33,
-33,
-33,
-33,
-33,
-33,
-33,
-33,
-33,
-34,
-33,
-33,
-33,
-34,
-33,
-33,
-33,
-33,
-33,
-34,
-33,
-33,
-31,
-21,
1,
25,
41,
45,
41,
39,
38,
35,
32,
31,
35,
37,
38,
37,
37,
37,
38,
36,
36,
36,
37,
37,
36,
36,
36,
37,
36,
37,
36,
36,
36,
35,
36,
36,
36,
36,
36,
35,
37,
36,
36,
35,
36,
36,
36,
36,
36,
35,
36,
36,
35,
36,
36,
36,
36,
36,
36,
36,
36,
36,
36,
35,
35,
35,
35,
35,
35,
35,
35,
35,
35,
36,
35,
35,
36,
35,
36,
35,
35,
36,
36,
35,
35,
35,
35,
35,
35,
35,
35,
35,
35,
35,
35,
35,
35,
35,
35,
35,
35,
35,
35,
35,
35,
35,
35,
35,
35,
35,
36,
35,
35,
35,
35,
35,
35,
35,
35,
35,
35,
35,
35,
35,
35,
35,
36,
35,
35,
35,
35,
35,
35,
35,
35,
35,
35,
35,
35,
35,
35,
35,
35,
35,
35,
35,
35,
35,
35,
35,
35,
35,
35,
35,
35,
35,
35,
35,
35,
35,
35,
35,
35,
35,
35,
35,
34,
35,
35,
35,
34,
35,
34,
35,
34,
35,
35,
35,
35,
35,
35,
35,
35,
34,
34,
35,
35,
35,
35,
34,
35,
35,
35,
34,
35,
35,
35,
35,
34,
35,
35,
35,
35,
34,
34,
35,
34,
35,
35,
34,
35,
35,
35,
34,
35,
34,
35,
35,
34,
35,
34,
35,
35,
34,
35,
34,
35,
34,
34,
33,
34,
34,
34,
33,
34,
34,
34,
34,
34,
34,
34,
35,
35,
33,
35,
35,
34,
35,
34,
34,
34,
34,
34,
33,
33,
34,
35,
33,
34,
35,
33,
33,
34,
33,
33,
33,
33,
33,
33,
34,
33,
33,
33,
34,
33,
34,
34,
33,
33,
33,
33,
34,
33,
34,
33,
34,
33,
34,
33,
33,
33,
34,
33,
33,
34,
33,
33,
33,
33,
34,
33,
34,
34,
33,
33,
34,
33,
33,
33,
33,
33,
33,
33,
34,
33,
33,
33,
33,
33,
33,
33,
33,
33,
33,
33,
33,
33,
33,
33,
33,
33,
33,
33,
33,
33,
33,
33,
33,
33,
33,
33,
33,
33,
33,
33,
33,
33,
33,
33,
33,
33,
33,
33,
33,
33,
32,
33,
33,
33,
33,
32,
33,
33,
33,
33,
33,
33,
33,
33,
33,
33,
33,
33,
33,
33,
33,
33,
33,
33,
33,
32,
33,
33,
33,
33,
33,
33,
33,
33,
32,
33,
33,
33,
33,
32,
32,
32,
33,
33,
32,
32,
32,
33,
33,
32,
33,
33,
33,
33,
32,
33,
32,
32,
32,
33,
33,
32,
32,
32,
32,
32,
32,
32,
32,
32,
32,
32,
32,
33,
32,
32,
32,
32,
32,
33,
32,
33,
33,
32,
32,
33,
33,
33,
32,
32,
33,
32,
32,
32,
33,
33,
33,
32,
32,
32,
32,
32,
32,
33,
31,
32,
33,
32,
32,
32,
32,
32,
32,
33,
32,
32,
32,
32,
32,
32,
32,
32,
32,
32,
31,
32,
32,
32,
32,
32,
32,
32,
32,
32,
32,
32,
32,
32,
32,
32,
32,
31,
32,
32,
32,
32,
32,
32,
31,
23,
5,
-19,
-37,
-45,
-43,
-40,
-39,
-37,
-33,
-33,
-34,
-37,
-38,
-38,
-37,
-38,
-38,
-37,
-37,
-37,
-37,
-37,
-37,
-37,
-37,
-37,
-37,
-37,
-37,
-37,
-37,
-37,
-37,
-37,
-37,
-37,
-37,
-37,
-37,
-37,
-37,
-37,
-37,
-36,
-37,
-37,
-37,
-37,
-37,
-37,
-37,
-37,
-37,
-37,
-37,
-37,
-37,
-36,
-37,
-37,
-37,
-37,
-36,
-37,
-37,
-37,
-37,
-37,
-37,
-37,
-37,
-36,
-37,
-37,
-37,
-37,
-37,
-37,
-37,
-37,
-36,
-37,
-37,
-37,
-37,
-37,
-37,
-37,
-36,
-37,
-37,
-37,
-37,
-37,
-36,
-36,
-36,
-37,
-37,
-37,
-36,
-37,
-36,
-37,
-36,
-35,
-37,
-37,
-37,
-37,
-37,
-37,
-37,
-37,
-36,
-37,
-37,
-36,
-37,
-37,
-37,
-36,
-37,
-36,
-36,
-37,
-36,
-36,
-37,
-36,
-37,
-36,
-36,
-37,
-36,
-36,
-36,
-36,
-37,
-36,
-36,
-37,
-36,
-37,
-36,
-36,
-36,
-36,
-36,
-37,
-37,
-36,
-36,
-37,
-36,
-36,
-36,
-36,
-37,
-36,
-37,
-36,
-36,
-36,
-36,
-36,
-36,
-37,
-36,
-36,
-35,
-36,
-36,
-36,
-36,
-36,
-36,
-36,
-36,
-37,
-36,
-36,
-36,
-37,
-36,
-36,
-36,
-36,
-36,
-36,
-36,
-36,
-36,
-36,
-36,
-36,
-36,
-35,
-36,
-36,
-37,
-36,
-36,
-36,
-36,
-35,
-36,
-36,
-35,
-36,
-36,
-36,
-36,
-36,
-35,
-36,
-36,
-36,
-36,
-36,
-36,
-35,
-35,
-36,
-37,
-35,
-36,
-36,
-36,
-36,
-35,
-35,
-36,
-36,
-36,
-35,
-35,
-35,
-36,
-36,
-36,
-35,
-35,
-35,
-35,
-36,
-35,
-36,
-36,
-36,
-36,
-35,
-36,
-35,
-36,
-35,
-35,
-35,
-36,
-35,
-35,
-35,
-35,
-35,
-35,
-35,
-35,
-35,
-35,
-35,
-35,
-35,
-35,
-35,
-35,
-35,
-35,
-35,
-35,
-35,
-35,
-35,
-35,
-35,
-34,
-35,
-35,
-35,
-35,
-35,
-35,
-35,
-35,
-35,
-35,
-35,
-35,
-35,
-35,
-35,
-35,
-35,
-35,
-35,
-35,
-35,
-35,
-35,
-35,
-35,
-35,
-35,
-35,
-35,
-35,
-35,
-35,
-35,
-35,
-35,
-35,
-35,
-35,
-35,
-35,
-35,
-35,
-35,
-35,
-35,
-35,
-35,
-35,
-35,
-35,
-35,
-35,
-35,
-35,
-35,
-35,
-34,
-35,
-35,
-35,
-35,
-35,
-34,
-35,
-35,
-35,
-35,
-35,
-35,
-35,
-35,
-35,
-35,
-35,
-35,
-35,
-35,
-35,
-34,
-35,
-35,
-35,
-35,
-35,
-35,
-35,
-35,
-34,
-35,
-35,
-34,
-34,
-34,
-35,
-35,
-34,
-34,
-34,
-35,
-34,
-33,
-34,
-34,
-35,
-34,
-35,
-35,
-34,
-34,
-34,
-34,
-34,
-35,
-35,
-34,
-34,
-33,
-34,
-34,
-35,
-34,
-34,
-34,
-35,
-34,
-34,
-34,
-35,
-34,
-33,
-34,
-33,
-34,
-35,
-35,
-35,
-35,
-34,
-33,
-34,
-34,
-34,
-33,
-33,
-35,
-35,
-34,
-33,
-34,
-33,
-33,
-34,
-35,
-34,
-34,
-33,
-34,
-33,
-33,
-33,
-35,
-35,
-33,
-33,
-34,
-35,
-34,
-33,
-33,
-34,
-33,
-33,
-33,
-34,
-34,
-33,
-34,
-34,
-35,
-35,
-34,
-34,
-33,
-33,
-33,
-33,
-34,
-33,
-34,
-33,
-33,
-33,
-33,
-33,
-33,
-33,
-33,
-33,
-34,
-33,
-34,
-34,
-33,
-34,
-34,
-34,
-33,
-33,
-34,
-34,
-31,
-21,
0,
25,
41,
44,
41,
39,
38,
35,
32,
32,
34,
37,
37,
37,
36,
37,
38,
36,
36,
36,
37,
37,
36,
36,
37,
37,
37,
36,
36,
36,
36,
36,
36,
36,
36,
36,
36,
35,
36,
36,
36,
36,
35,
36,
36,
36,
36,
35,
36,
35,
35,
36,
36,
35,
36,
35,
36,
36,
35,
35,
35,
36,
35,
36,
36,
36,
36,
35,
36,
35,
36,
35,
35,
35,
35,
35,
35,
35,
35,
35,
36,
36,
35,
35,
35,
35,
35,
35,
35,
35,
35,
35,
35,
35,
35,
35,
35,
35,
35,
35,
35,
35,
35,
35,
35,
35,
35,
35,
35,
35,
35,
35,
35,
35,
35,
35,
35,
35,
35,
35,
35,
35,
35,
35,
35,
35,
35,
35,
35,
35,
35,
35,
35,
35,
35,
35,
35,
35,
35,
35,
35,
35,
35,
35,
35,
35,
35,
35,
35,
35,
35,
35,
34,
35,
35,
35,
35,
35,
35,
35,
35,
35,
35,
35,
35,
35,
35,
35,
34,
35,
35,
35,
35,
35,
34,
35,
35,
35,
34,
35,
35,
35,
35,
34,
35,
35,
35,
35,
35,
35,
35,
34,
35,
35,
35,
35,
35,
35,
35,
35,
35,
35,
35,
35,
35,
33,
34,
35,
35,
35,
35,
34,
35,
34,
34,
34,
35,
34,
34,
35,
35,
33,
34,
34,
34,
34,
34,
35,
34,
34,
34,
35,
33,
34,
34,
34,
33,
33,
34,
35,
34,
35,
35,
34,
35,
34,
34,
33,
34,
33,
34,
34,
34,
34,
34,
34,
34,
33,
33,
34,
33,
34,
33,
34,
33,
33,
33,
34,
34,
34,
33,
33,
33,
33,
34,
33,
33,
33,
33,
34,
33,
33,
33,
33,
33,
34,
33,
33,
34,
34,
34,
33,
33,
34,
33,
33,
33,
33,
33,
33,
33,
33,
33,
33,
33,
33,
33,
33,
33,
33,
33,
33,
33,
33,
33,
33,
33,
33,
33,
33,
33,
33,
33,
34,
34,
33,
33,
33,
33,
33,
33,
33,
33,
33,
33,
33,
33,
33,
33,
33,
33,
33,
33,
33,
33,
33,
33,
33,
33,
34,
33,
33,
33,
33,
33,
33,
33,
33,
33,
33,
33,
33,
33,
33,
33,
33,
33,
33,
33,
33,
33,
33,
33,
33,
33,
33,
33,
32,
33,
33,
33,
33,
33,
33,
33,
33,
33,
33,
33,
33,
32,
32,
33,
32,
32,
33,
33,
33,
33,
32,
32,
32,
33,
33,
33,
32,
33,
33,
33,
33,
33,
33,
32,
33,
32,
33,
33,
33,
33,
32,
33,
32,
32,
33,
33,
32,
32,
32,
32,
32,
33,
33,
32,
32,
32,
33,
33,
32,
32,
32,
33,
32,
32,
31,
33,
33,
32,
33,
32,
32,
32,
33,
32,
32,
32,
33,
32,
33,
32,
32,
32,
32,
32,
32,
33,
32,
32,
32,
32,
32,
32,
32,
32,
32,
31,
32,
31,
32,
32,
32,
32,
32,
32,
32,
32,
31,
33,
32,
32,
32,
32,
32,
32,
32,
32,
31,
31,
31,
32,
31,
31,
31,
23,
4,
-21,
-39,
-45,
-43,
-40,
-39,
-37,
-34,
-33,
-35,
-37,
-39,
-38,
-37,
-38,
-39,
-38,
-37,
-37,
-37,
-37,
-37,
-37,
-38,
-37,
-37,
-37,
-37,
-37,
-37,
-37,
-37,
-37,
-37,
-37,
-37,
-37,
-37,
-38,
-37,
-37,
-37,
-37,
-37,
-37,
-37,
-37,
-37,
-37,
-37,
-37,
-37,
-37,
-37,
-37,
-37,
-37,
-37,
-37,
-37,
-37,
-37,
-37,
-37,
-36,
-37,
-37,
-37,
-37,
-36,
-37,
-37,
-37,
-37,
-37,
-37,
-37,
-37,
-37,
-36,
-36,
-36,
-37,
-37,
-37,
-37,
-37,
-37,
-37,
-37,
-37,
-37,
-37,
-37,
-37,
-36,
-37,
-37,
-37,
-37,
-37,
-37,
-36,
-36,
-37,
-37,
-37,
-37,
-37,
-37,
-36,
-37,
-37,
-37,
-36,
-37,
-37,
-37,
-36,
-37,
-37,
-36,
-36,
-37,
-36,
-36,
-36,
-37,
-36,
-37,
-36,
-37,
-36,
-35,
-37,
-36,
-37,
-37,
-36,
-37,
-36,
-36,
-36,
-36,
-36,
-36,
-36,
-36,
-36,
-36,
-36,
-36,
-37,
-37,
-37,
-36,
-36,
-37,
-37,
-37,
-37,
-37,
-36,
-36,
-36,
-36,
-36,
-37,
-36,
-36,
-36,
-36,
-36,
-36,
-36,
-35,
-36,
-36,
-36,
-36,
-36,
-36,
-37,
-35,
-36,
-35,
-35,
-35,
-37,
-36,
-36,
-35,
-36,
-36,
-36,
-35,
-36,
-35,
-36,
-36,
-35,
-35,
-36,
-36,
-36,
-37,
-36,
-36,
-36,
-35,
-36,
-36,
-36,
-35,
-36,
-36,
-36,
-36,
-36,
-36,
-36,
-36,
-36,
-35,
-36,
-35,
-35,
-35,
-36,
-36,
-36,
-36,
-35,
-35,
-36,
-35,
-36,
-35,
-35,
-36,
-35,
-35,
-36,
-35,
-36,
-35,
-36,
-36,
-35,
-35,
-35,
-35,
-36,
-35,
-35,
-35,
-35,
-35,
-35,
-36,
-36,
-35,
-35,
-35,
-35,
-35,
-35,
-35,
-35,
-35,
-35,
-35,
-35,
-35,
-35,
-35,
-35,
-35,
-35,
-35,
-35,
-35,
-35,
-35,
-35,
-35,
-35,
-35,
-35,
-35,
-35,
-35,
-35,
-35,
-35,
-35,
-35,
-35,
-35,
-35,
-36,
-36,
-35,
-35,
-35,
-35,
-35,
-35,
-35,
-35,
-35,
-35,
-35,
-35,
-35,
-35,
-35,
-35,
-35,
-35,
-34,
-34,
-35,
-35,
-35,
-34,
-35,
-34,
-35,
-35,
-35,
-35,
-35,
-36,
-35,
-35,
-35,
-35,
-35,
-35,
-35,
-35,
-35,
-35,
-35,
-35,
-34,
-35,
-35,
-35,
-35,
-34,
-35,
-35,
-35,
-35,
-35,
-35,
-35,
-35,
-35,
-35,
-35,
-34,
-34,
-35,
-34,
-34,
-35,
-35,
-35,
-35,
-34,
-35,
-34,
-34,
-35,
-35,
-33,
-35,
-34,
-35,
-35,
-34,
-33,
-35,
-34,
-35,
-34,
-34,
-35,
-33,
-34,
-34,
-35,
-34,
-34,
-35,
-35,
-34,
-34,
-35,
-34,
-33,
-34,
-34,
-34,
-34,
-33,
-34,
-35,
-34,
-34,
-33,
-33,
-35,
-35,
-33,
-34,
-33,
-34,
-34,
-34,
-34,
-34,
-35,
-34,
-34,
-34,
-33,
-34,
-34,
-34,
-34,
-33,
-34,
-34,
-34,
-34,
-34,
-33,
-33,
-34,
-34,
-34,
-34,
-34,
-33,
-33,
-34,
-33,
-33,
-34,
-33,
-33,
-33,
-33,
-34,
-33,
-33,
-33,
-33,
-33,
-33,
-33,
-33,
-34,
-33,
-33,
-34,
-34,
-34,
-33,
-33,
-33,
-33,
-33,
-33,
-33,
-34,
-33,
-33,
-33,
-33,
-34,
-35,
-33,
-33,
-34,
-33,
-33,
-33,
-33,
-33,
-32,
-22,
-2,
