2-Passive Filters/differentiator-integrator_behaviour/data/ALL0033/A0033CH2.CSV

Memory Length,4000,
Trigger Level,0.000E+00,
Source,CH2,
Probe,1X,
Vertical Units,V,
Vertical Scale,5.000E+00,
Vertical Position,-2.000E-01,
Horizontal Units,s,
Horizontal Scale,2.500E-03,
Horizontal Position,0.000E+00,
Horizontal Mode,Main,
Sampling Period,1.000E-05,
Firmware,V1.04,
Time, ,
Mode,Fast,
Waveform Data,
-4,
-4,
-1,
0,
2,
3,
6,
8,
11,
13,
15,
17,
18,
19,
21,
23,
24,
25,
27,
29,
30,
31,
32,
33,
33,
34,
34,
34,
35,
35,
34,
34,
33,
34,
33,
31,
31,
29,
29,
28,
25,
25,
23,
22,
21,
18,
17,
15,
13,
10,
9,
6,
5,
2,
1,
-3,
-3,
-6,
-8,
-10,
-11,
-14,
-15,
-18,
-19,
-21,
-23,
-23,
-25,
-26,
-27,
-29,
-29,
-30,
-31,
-31,
-31,
-31,
-32,
-32,
-31,
-31,
-31,
-31,
-30,
-29,
-28,
-28,
-27,
-25,
-24,
-23,
-21,
-19,
-18,
-15,
-14,
-11,
-10,
-7,
-6,
-3,
-2,
0,
2,
4,
6,
9,
10,
13,
14,
17,
18,
21,
21,
23,
25,
25,
27,
29,
30,
31,
33,
33,
33,
34,
34,
35,
35,
35,
34,
34,
35,
34,
33,
32,
31,
30,
29,
28,
25,
25,
23,
21,
20,
18,
17,
15,
13,
10,
9,
7,
5,
2,
0,
-1,
-3,
-6,
-8,
-10,
-11,
-14,
-15,
-17,
-19,
-21,
-23,
-24,
-25,
-27,
-27,
-29,
-29,
-31,
-31,
-32,
-32,
-32,
-32,
-31,
-32,
-32,
-31,
-31,
-30,
-29,
-28,
-27,
-27,
-26,
-24,
-23,
-21,
-19,
-17,
-16,
-14,
-12,
-10,
-8,
-6,
-4,
-2,
1,
2,
4,
6,
9,
10,
13,
15,
17,
17,
19,
22,
24,
25,
25,
27,
29,
30,
31,
32,
33,
33,
34,
33,
34,
35,
35,
34,
34,
34,
33,
33,
32,
31,
30,
29,
27,
26,
25,
23,
21,
20,
18,
17,
15,
13,
10,
9,
6,
4,
2,
0,
-1,
-4,
-6,
-8,
-10,
-12,
-14,
-16,
-17,
-19,
-21,
-22,
-24,
-25,
-26,
-27,
-29,
-29,
-30,
-31,
-31,
-31,
-31,
-32,
-32,
-33,
-31,
-32,
-31,
-30,
-30,
-29,
-27,
-27,
-26,
-24,
-23,
-22,
-20,
-18,
-15,
-14,
-12,
-11,
-9,
-7,
-4,
-2,
1,
2,
5,
6,
9,
10,
13,
14,
16,
17,
20,
21,
23,
24,
26,
27,
29,
30,
31,
32,
33,
33,
33,
34,
34,
35,
35,
34,
34,
34,
33,
33,
33,
31,
29,
29,
27,
25,
25,
23,
22,
20,
18,
17,
14,
13,
10,
8,
7,
5,
2,
1,
-1,
-3,
-6,
-7,
-10,
-11,
-14,
-16,
-18,
-19,
-21,
-22,
-24,
-26,
-26,
-27,
-28,
-29,
-30,
-31,
-31,
-32,
-32,
-32,
-33,
-32,
-32,
-31,
-31,
-31,
-29,
-29,
-28,
-27,
-26,
-24,
-23,
-21,
-19,
-18,
-16,
-14,
-13,
-10,
-9,
-7,
-3,
-3,
0,
1,
4,
5,
7,
11,
13,
14,
17,
18,
20,
21,
22,
23,
26,
27,
27,
30,
30,
31,
33,
33,
33,
33,
34,
34,
35,
34,
34,
33,
33,
32,
31,
30,
30,
29,
27,
26,
25,
23,
21,
20,
18,
17,
14,
13,
10,
9,
6,
4,
1,
0,
-2,
-4,
-7,
-8,
-10,
-12,
-14,
-16,
-18,
-19,
-21,
-23,
-25,
-25,
-27,
-28,
-29,
-30,
-30,
-31,
-31,
-31,
-32,
-33,
-33,
-32,
-31,
-31,
-31,
-30,
-30,
-29,
-27,
-27,
-25,
-24,
-23,
-21,
-19,
-18,
-16,
-14,
-12,
-10,
-7,
-6,
-4,
-2,
1,
1,
4,
6,
8,
10,
13,
14,
16,
18,
19,
21,
23,
24,
26,
27,
29,
29,
30,
31,
33,
33,
33,
34,
34,
34,
35,
35,
34,
33,
33,
33,
33,
31,
30,
29,
27,
25,
25,
23,
21,
20,
19,
17,
15,
13,
11,
8,
6,
4,
2,
-1,
-2,
-3,
-6,
-7,
-11,
-11,
-14,
-15,
-18,
-19,
-21,
-22,
-23,
-25,
-27,
-27,
-29,
-30,
-31,
-31,
-31,
-33,
-32,
-33,
-33,
-32,
-32,
-31,
-31,
-31,
-30,
-29,
-28,
-27,
-26,
-24,
-23,
-21,
-19,
-18,
-15,
-14,
-12,
-11,
-7,
-7,
-4,
-2,
1,
2,
4,
6,
8,
10,
13,
13,
16,
17,
19,
21,
23,
25,
26,
27,
29,
30,
31,
32,
33,
33,
34,
34,
35,
34,
35,
34,
35,
34,
33,
33,
32,
31,
30,
29,
27,
26,
25,
23,
22,
20,
18,
17,
14,
13,
11,
9,
7,
5,
2,
1,
-2,
-4,
-6,
-8,
-10,
-12,
-14,
-16,
-18,
-19,
-21,
-23,
-24,
-25,
-27,
-27,
-29,
-29,
-31,
-31,
-31,
-32,
-31,
-33,
-32,
-32,
-31,
-31,
-31,
-31,
-29,
-29,
-27,
-27,
-25,
-23,
-23,
-21,
-19,
-17,
-17,
-14,
-12,
-11,
-8,
-7,
-4,
-2,
1,
3,
5,
6,
8,
10,
13,
15,
17,
18,
20,
21,
23,
25,
26,
27,
29,
30,
31,
32,
33,
33,
33,
34,
35,
35,
35,
34,
35,
34,
33,
33,
32,
31,
30,
29,
27,
26,
25,
23,
21,
21,
18,
17,
14,
13,
10,
9,
6,
5,
2,
1,
-2,
-3,
-6,
-8,
-10,
-11,
-14,
-15,
-17,
-19,
-20,
-22,
-24,
-25,
-26,
-27,
-28,
-29,
-30,
-31,
-31,
-32,
-32,
-31,
-31,
-32,
-31,
-31,
-31,
-30,
-29,
-29,
-27,
-26,
-25,
-24,
-23,
-21,
-19,
-18,
-15,
-14,
-12,
-11,
-8,
-6,
-4,
-2,
0,
2,
5,
6,
9,
10,
12,
14,
17,
18,
19,
21,
23,
25,
26,
28,
29,
30,
31,
31,
33,
33,
34,
35,
35,
35,
35,
34,
34,
34,
33,
33,
32,
31,
30,
29,
28,
26,
25,
23,
22,
20,
18,
17,
15,
13,
11,
9,
7,
5,
2,
1,
-1,
-3,
-6,
-8,
-9,
-11,
-13,
-16,
-17,
-19,
-21,
-23,
-24,
-25,
-26,
-27,
-29,
-29,
-31,
-31,
-31,
-31,
-31,
-33,
-33,
-32,
-33,
-31,
-31,
-31,
-29,
-29,
-29,
-27,
-26,
-24,
-22,
-21,
-19,
-18,
-16,
-14,
-11,
-11,
-8,
-6,
-3,
-2,
-1,
2,
4,
6,
8,
11,
13,
15,
16,
18,
20,
21,
23,
25,
26,
28,
29,
29,
31,
33,
33,
33,
34,
34,
35,
35,
35,
35,
35,
34,
33,
33,
31,
30,
30,
29,
27,
26,
25,
23,
21,
20,
18,
17,
15,
13,
10,
9,
6,
4,
2,
0,
-2,
-4,
-6,
-8,
-11,
-12,
-14,
-15,
-18,
-19,
-21,
-23,
-23,
-25,
-26,
-28,
-29,
-30,
-31,
-31,
-31,
-31,
-33,
-33,
-33,
-31,
-32,
-31,
-31,
-31,
-30,
-29,
-28,
-27,
-25,
-23,
-23,
-21,
-19,
-18,
-16,
-14,
-12,
-10,
-8,
-6,
-4,
-2,
1,
2,
4,
6,
8,
10,
13,
14,
17,
17,
21,
21,
23,
25,
26,
28,
29,
29,
30,
32,
33,
33,
34,
34,
35,
35,
35,
35,
34,
34,
33,
33,
32,
31,
30,
29,
27,
26,
25,
23,
21,
21,
19,
17,
15,
13,
11,
9,
7,
5,
2,
1,
-1,
-4,
-6,
-7,
-10,
-11,
-13,
-15,
-17,
-19,
-21,
-23,
-24,
-25,
-26,
-28,
-29,
-29,
-30,
-31,
-31,
-32,
-31,
-32,
-33,
-32,
-31,
-31,
-31,
-31,
-29,
-29,
-27,
-26,
-25,
-24,
-23,
-21,
-19,
-18,
-17,
-13,
-12,
-11,
-8,
-6,
-4,
-2,
-1,
2,
5,
6,
9,
10,
13,
14,
17,
18,
19,
22,
24,
25,
25,
27,
29,
29,
31,
33,
33,
33,
34,
34,
35,
35,
35,
35,
34,
35,
33,
33,
33,
31,
30,
29,
27,
26,
25,
23,
21,
21,
18,
17,
15,
13,
10,
9,
6,
5,
3,
1,
-1,
-4,
-6,
-8,
-10,
-11,
-14,
-15,
-18,
-20,
-21,
-22,
-23,
-25,
-27,
-27,
-28,
-29,
-30,
-31,
-31,
-31,
-31,
-32,
-32,
-32,
-33,
-31,
-31,
-30,
-30,
-29,
-27,
-27,
-25,
-23,
-23,
-21,
-19,
-18,
-15,
-13,
-11,
-10,
-8,
-6,
-4,
-1,
1,
2,
4,
6,
9,
10,
13,
14,
16,
19,
20,
22,
23,
25,
26,
27,
29,
30,
31,
32,
33,
33,
34,
34,
35,
35,
35,
35,
34,
35,
34,
33,
32,
31,
30,
29,
27,
26,
25,
23,
22,
20,
18,
16,
15,
13,
11,
9,
7,
5,
2,
1,
-2,
-4,
-5,
-7,
-10,
-11,
-13,
-15,
-17,
-19,
-21,
-23,
-23,
-25,
-26,
-27,
-28,
-29,
-30,
-31,
-31,
-31,
-32,
-32,
-32,
-32,
-31,
-31,
-31,
-31,
-29,
-29,
-27,
-26,
-25,
-24,
-23,
-21,
-19,
-18,
-15,
-14,
-12,
-10,
-7,
-7,
-4,
-1,
-1,
2,
4,
6,
9,
10,
13,
14,
17,
18,
19,
21,
23,
25,
26,
28,
29,
30,
31,
31,
33,
33,
34,
34,
35,
35,
35,
34,
34,
33,
33,
33,
33,
31,
30,
29,
27,
25,
25,
23,
22,
21,
18,
17,
14,
13,
11,
9,
6,
4,
3,
1,
-2,
-4,
-6,
-8,
-9,
-12,
-14,
-15,
-18,
-19,
-21,
-23,
-25,
-25,
-26,
-27,
-29,
-29,
-31,
-31,
-31,
-31,
-32,
-32,
-32,
-31,
-32,
-31,
-31,
-31,
-30,
-29,
-27,
-27,
-25,
-23,
-23,
-21,
-19,
-18,
-15,
-14,
-12,
-10,
-8,
-7,
-4,
-2,
-1,
2,
4,
6,
8,
11,
13,
14,
15,
18,
20,
21,
23,
25,
26,
27,
29,
30,
31,
32,
33,
33,
34,
34,
34,
35,
34,
34,
34,
33,
33,
33,
31,
31,
29,
29,
28,
26,
25,
23,
21,
20,
17,
17,
14,
13,
10,
9,
6,
4,
2,
1,
-2,
-4,
-6,
-8,
-10,
-11,
-14,
-15,
-18,
-19,
-21,
-23,
-23,
-25,
-26,
-27,
-29,
-29,
-30,
-31,
-31,
-31,
-32,
-33,
-32,
-32,
-31,
-32,
-31,
-30,
-30,
-29,
-28,
-27,
-25,
-24,
-23,
-21,
-19,
-18,
-15,
-14,
-12,
-10,
-9,
-7,
-5,
-2,
0,
2,
5,
6,
9,
10,
13,
14,
17,
18,
20,
21,
23,
25,
26,
27,
29,
30,
31,
33,
33,
33,
33,
34,
34,
35,
35,
34,
34,
33,
33,
33,
33,
31,
30,
29,
27,
26,
25,
23,
21,
20,
18,
17,
15,
13,
11,
9,
7,
5,
2,
1,
-1,
-3,
-6,
-8,
-10,
-11,
-14,
-17,
-18,
-19,
-21,
-22,
-23,
-26,
-27,
-27,
-29,
-29,
-30,
-31,
-31,
-31,
-32,
-33,
-32,
-32,
-32,
-31,
-31,
-31,
-29,
-29,
-28,
-27,
-25,
-23,
-23,
-21,
-19,
-18,
-15,
-14,
-13,
-10,
-8,
-6,
-4,
-2,
-1,
2,
4,
6,
9,
10,
13,
14,
16,
18,
19,
21,
23,
25,
26,
27,
29,
29,
31,
32,
33,
33,
34,
35,
35,
35,
35,
34,
34,
33,
33,
33,
33,
30,
29,
29,
27,
25,
25,
23,
21,
21,
18,
17,
14,
13,
11,
8,
7,
4,
3,
1,
-2,
-3,
-5,
-7,
-10,
-11,
-13,
-15,
-17,
-19,
-21,
-22,
-23,
-25,
-26,
-27,
-29,
-30,
-31,
-31,
-31,
-32,
-32,
-32,
-33,
-32,
-31,
-31,
-30,
-30,
-29,
-29,
-28,
-27,
-25,
-23,
-23,
-21,
-19,
-17,
-15,
-14,
-12,
-10,
-8,
-7,
-5,
-2,
0,
2,
5,
6,
7,
10,
12,
14,
17,
18,
19,
21,
23,
25,
26,
27,
29,
29,
31,
32,
33,
33,
33,
34,
34,
34,
35,
35,
34,
34,
33,
33,
32,
31,
29,
29,
27,
26,
25,
23,
21,
19,
18,
17,
15,
13,
11,
9,
7,
5,
2,
1,
-1,
-3,
-6,
-7,
-10,
-11,
-14,
-15,
-17,
-19,
-21,
-23,
-24,
-25,
-27,
-27,
-28,
-30,
-30,
-31,
-31,
-31,
-31,
-31,
-32,
-32,
-32,
-31,
-31,
-30,
-30,
-28,
-27,
-27,
-26,
-24,
-22,
-21,
-19,
-18,
-16,
-14,
-12,
-11,
-7,
-6,
-4,
-3,
1,
1,
5,
6,
9,
10,
13,
14,
16,
18,
20,
21,
23,
25,
26,
27,
29,
30,
30,
31,
33,
33,
33,
35,
35,
35,
35,
35,
34,
33,
33,
33,
32,
31,
30,
29,
28,
27,
25,
23,
22,
21,
19,
16,
15,
13,
10,
9,
6,
5,
3,
-1,
-1,
-4,
-6,
-7,
-10,
-12,
-14,
-15,
-18,
-19,
-21,
-23,
-23,
-25,
-27,
-28,
-29,
-29,
-30,
-31,
-31,
-32,
-32,
-33,
-33,
-32,
-32,
-31,
-31,
-31,
-30,
-29,
-27,
-27,
-26,
-24,
-23,
-22,
-19,
-18,
-15,
-14,
-11,
-11,
-8,
-6,
-4,
-2,
1,
2,
3,
6,
9,
9,
13,
15,
16,
18,
19,
21,
23,
25,
26,
27,
28,
30,
31,
33,
33,
33,
34,
34,
34,
35,
35,
35,
34,
33,
33,
33,
33,
30,
30,
28,
27,
26,
25,
23,
21,
20,
18,
17,
14,
13,
10,
9,
6,
5,
2,
1,
-2,
-3,
-7,
-8,
-10,
-11,
-14,
-16,
-18,
-19,
-21,
-23,
-24,
-25,
-26,
-28,
-28,
-30,
-30,
-31,
-31,
-31,
-32,
-32,
-32,
-32,
-32,
-31,
-31,
-31,
-30,
-29,
-28,
-26,
-25,
-24,
-23,
-21,
-19,
-17,
-15,
-14,
-13,
-11,
-9,
-6,
-3,
-2,
-1,
1,
4,
6,
9,
11,
13,
14,
16,
17,
20,
21,
23,
25,
25,
27,
29,
30,
31,
31,
33,
33,
33,
34,
34,
35,
34,
35,
34,
33,
33,
33,
32,
32,
30,
29,
27,
26,
24,
23,
21,
20,
18,
16,
15,
13,
10,
9,
7,
5,
2,
0,
-2,
-4,
-6,
-8,
-10,
-11,
-14,
-17,
-17,
-19,
-21,
-23,
-23,
-25,
-27,
-28,
-29,
-29,
-31,
-31,
-31,
-31,
-33,
-32,
-33,
-32,
-33,
-32,
-31,
-31,
-29,
-29,
-27,
-27,
-26,
-24,
-23,
-21,
-19,
-18,
-16,
-14,
-13,
-10,
-8,
-6,
-5,
-3,
-1,
2,
4,
6,
8,
9,
12,
14,
17,
18,
19,
21,
23,
25,
25,
27,
29,
30,
31,
32,
33,
33,
33,
34,
34,
35,
34,
34,
34,
33,
33,
33,
32,
31,
29,
29,
27,
26,
25,
23,
22,
20,
18,
17,
15,
13,
10,
9,
6,
5,
3,
1,
-1,
-4,
-6,
-8,
-10,
-12,
-14,
-15,
-17,
-19,
-21,
-23,
-24,
-25,
-27,
-27,
-29,
-30,
-31,
-31,
-32,
-31,
-32,
-33,
-32,
-32,
-32,
-31,
-31,
-30,
-30,
-29,
-27,
-27,
-26,
-25,
-23,
-21,
-19,
-18,
-15,
-14,
-12,
-10,
-8,
-7,
-4,
-2,
0,
1,
4,
6,
8,
10,
12,
14,
16,
17,
20,
21,
23,
25,
26,
28,
29,
29,
31,
32,
33,
33,
34,
34,
34,
35,
35,
34,
34,
33,
33,
33,
31,
31,
30,
29,
27,
26,
25,
23,
22,
20,
18,
17,
14,
13,
10,
9,
6,
5,
2,
0,
-1,
-4,
-6,
-8,
-10,
-12,
-14,
-15,
-18,
-19,
-21,
-23,
-24,
-25,
-27,
-27,
-28,
-30,
-30,
-31,
-31,
-32,
-32,
-33,
-33,
-32,
-32,
-31,
-31,
-31,
-30,
-29,
-28,
-27,
-25,
-23,
-23,
-21,
-19,
-18,
-15,
-14,
-12,
-11,
-9,
-6,
-5,
-2,
0,
2,
5,
6,
8,
10,
13,
15,
16,
18,
21,
21,
23,
24,
26,
27,
29,
29,
30,
31,
33,
34,
34,
35,
34,
34,
35,
34,
34,
34,
33,
33,
32,
31,
30,
29,
28,
27,
25,
23,
21,
20,
18,
17,
14,
13,
11,
9,
6,
5,
2,
0,
-1,
-3,
-6,
-8,
-10,
-11,
-14,
-16,
-17,
-19,
-20,
-23,
-23,
-25,
-26,
-27,
-29,
-29,
-31,
-31,
-31,
-32,
-32,
-31,
-32,
-32,
-32,
-31,
-31,
-31,
-30,
-29,
-28,
-27,
-26,
-25,
-22,
-21,
-19,
-18,
-15,
-14,
-12,
-11,
-9,
-7,
-3,
-2,
0,
2,
5,
6,
7,
10,
13,
14,
16,
18,
20,
21,
23,
25,
25,
27,
29,
30,
31,
32,
33,
33,
34,
34,
34,
35,
35,
34,
34,
34,
33,
33,
33,
31,
29,
29,
27,
26,
25,
23,
21,
20,
19,
16,
15,
13,
10,
9,
7,
5,
2,
1,
-1,
-4,
-6,
-7,
-11,
-12,
-14,
-15,
-17,
-19,
-21,
-22,
-24,
-26,
-26,
-27,
-29,
-29,
-31,
-31,
-31,
-32,
-32,
-33,
-32,
-31,
-31,
-32,
-31,
-30,
-29,
-27,
-27,
-27,
-25,
-24,
-23,
-21,
-19,
-17,
-16,
-14,
-12,
-10,
-8,
-7,
-4,
-2,
0,
2,
4,
7,
8,
10,
13,
15,
16,
18,
19,
22,
23,
25,
26,
27,
28,
30,
31,
31,
33,
33,
34,
34,
34,
35,
35,
35,
35,
34,
33,
33,
32,
32,
31,
29,
28,
26,
26,
24,
21,
21,
18,
17,
15,
13,
10,
9,
7,
5,
2,
1,
-1,
-4,
-6,
-9,
-9,
-12,
-14,
-15,
-17,
-19,
-21,
-23,
-23,
-25,
-26,
-27,
-28,
-29,
-31,
-31,
-31,
-32,
-33,
-32,
-32,
-31,
-31,
-31,
-31,
-30,
-30,
-29,
-27,
-26,
-25,
-25,
-22,
-21,
-19,
-17,
-15,
-13,
-12,
-10,
-8,
-7,
-4,
-2,
1,
2,
4,
7,
8,
10,
13,
14,
17,
17,
19,
21,
23,
25,
26,
27,
29,
29,
30,
31,
33,
34,
34,
34,
35,
35,
35,
35,
35,
34,
33,
33,
32,
31,
30,
29,
27,
26,
25,
23,
22,
20,
18,
17,
15,
13,
11,
9,
7,
5,
3,
1,
-1,
-4,
-6,
-8,
-9,
-11,
-13,
-16,
-17,
-19,
-21,
-22,
-23,
-25,
-26,
-27,
-28,
-29,
-30,
-31,
-31,
-31,
-31,
-32,
-32,
-32,
-32,
-31,
-31,
-31,
-29,
-28,
-27,
-27,
-26,
-23,
-23,
-21,
-19,
-18,
-16,
-14,
-11,
-10,
-8,
-6,
-5,
-2,
1,
2,
5,
6,
9,
9,
13,
14,
15,
18,
19,
21,
23,
25,
26,
27,
28,
30,
31,
31,
33,
34,
34,
34,
35,
34,
34,
35,
34,
33,
33,
33,
32,
32,
30,
29,
27,
27,
24,
23,
21,
20,
18,
17,
15,
13,
11,
9,
6,
4,
2,
1,
-2,
-3,
-5,
-8,
-10,
-11,
-14,
-15,
-18,
-19,
-20,
-23,
-23,
-25,
-27,
-28,
-29,
-29,
-30,
-31,
-31,
-31,
-32,
-32,
-33,
-32,
-31,
-31,
-31,
-30,
-30,
-29,
-27,
-27,
-26,
-24,
-23,
-21,
-19,
-18,
-16,
-15,
-12,
-10,
-7,
-6,
-4,
-2,
1,
1,
4,
6,
9,
10,
13,
14,
16,
17,
20,
22,
22,
25,
26,
27,
29,
30,
31,
33,
33,
33,
34,
34,
35,
35,
35,
35,
35,
33,
34,
33,
33,
31,
31,
29,
28,
27,
25,
23,
22,
21,
19,
17,
15,
13,
10,
9,
7,
5,
3,
1,
-1,
-3,
-6,
-7,
-10,
-11,
-14,
-15,
-17,
-18,
-20,
-23,
-23,
-25,
-26,
-27,
-28,
-28,
-30,
-30,
-31,
-31,
-33,
-32,
-32,
-31,
-32,
-31,
-31,
-31,
-29,
-29,
-28,
-27,
-26,
-25,
-23,
-21,
-19,
-17,
-17,
-14,
-12,
-10,
-7,
-7,
-5,
-2,
1,
2,
4,
7,
9,
10,
12,
14,
17,
18,
19,
22,
23,
25,
25,
27,
29,
30,
31,
32,
33,
33,
34,
35,
35,
35,
34,
35,
35,
34,
33,
33,
31,
32,
30,
29,
27,
25,
25,
23,
21,
20,
18,
17,
14,
13,
11,
9,
7,
5,
3,
1,
-1,
-3,
-6,
-7,
-10,
-11,
-14,
-15,
-17,
-19,
-21,
-22,
-23,
-25,
-27,
-28,
-29,
-29,
-30,
-31,
-31,
-32,
-33,
-31,
-32,
-32,
-32,
-31,
-31,
-30,
-29,
-27,
-28,
-27,
-25,
-25,
-23,
-21,
-19,
-18,
-15,
-15,
-12,
-10,
-8,
-7,
-4,
-2,
-1,
2,
4,
6,
8,
10,
13,
14,
16,
18,
20,
21,
23,
25,
26,
27,
29,
29,
31,
33,
33,
34,
33,
34,
34,
34,
34,
35,
34,
34,
33,
33,
32,
32,
30,
29,
27,
26,
25,
23,
21,
21,
18,
17,
15,
13,
11,
9,
6,
5,
3,
0,
-1,
-4,
-5,
-7,
-10,
-11,
-14,
-15,
-17,
-19,
-21,
-22,
-24,
-25,
-27,
-27,
-28,
-29,
-30,
-31,
-31,
-31,
-31,
-33,
-32,
-32,
-31,
-31,
-31,
-30,
-30,
-29,
-28,
-27,
-25,
-23,
-23,
-22,
-19,
-17,
-16,
-14,
-12,
-11,
-7,
-6,
-3,
-2,
1,
2,
5,
7,
9,
11,
13,
15,
16,
18,
19,
21,
23,
25,
25,
27,
29,
31,
30,
32,
33,
34,
34,
34,
35,
35,
35,
34,
34,
34,
33,
33,
33,
31,
31,
29,
27,
26,
25,
23,
22,
20,
19,
17,
15,
13,
11,
9,
6,
5,
3,
1,
-2,
-4,
-6,
-7,
-10,
-11,
-14,
-15,
-17,
-19,
-21,
-23,
-24,
-25,
-27,
-27,
-28,
-30,
-31,
-31,
-31,
-31,
-32,
-33,
-32,
-32,
-31,
-31,
-31,
-31,
-30,
-29,
-27,
-27,
-26,
-24,
-23,
-21,
-19,
-17,
-15,
-14,
-13,
-11,
-8,
-7,
-4,
-2,
0,
3,
3,
5,
9,
10,
12,
15,
16,
17,
19,
21,
23,
25,
26,
27,
29,
30,
31,
33,
33,
33,
33,
34,
35,
35,
35,
35,
35,
34,
33,
33,
33,
31,
29,
29,
27,
26,
25,
23,
22,
21,
18,
17,
15,
13,
11,
9,
7,
5,
3,
1,
-1,
-3,
-5,
-7,
-10,
-11,
-14,
-15,
-17,
-19,
-21,
-23,
-23,
-25,
-26,
-27,
-29,
-29,
-30,
-30,
-31,
-32,
-32,
-33,
-32,
-32,
-32,
-31,
-31,
-31,
-29,
-29,
-27,
-27,
-26,
-24,
-23,
-21,
-19,
-17,
-15,
-14,
-11,
-10,
-7,
-6,
-5,
-2,
0,
2,
5,
6,
9,
11,
13,
15,
16,
19,
19,
21,
23,
25,
26,
27,
29,
30,
31,
32,
33,
33,
34,
34,
34,
35,
35,
35,
35,
35,
33,
33,
33,
32,
30,
29,
28,
26,
25,
23,
22,
20,
18,
17,
15,
13,
11,
9,
6,
5,
3,
1,
-2,
-3,
-5,
-7,
-10,
-11,
-13,
-15,
-17,
-19,
-21,
-22,
-24,
-25,
-26,
-27,
-28,
-29,
-30,
-31,
-31,
-32,
-32,
-32,
-33,
-32,
-31,
-31,
-31,
-31,
-30,
-29,
-27,
-27,
-25,
-24,
-22,
-21,
-19,
-18,
-15,
-14,
-12,
-10,
-8,
-6,
-5,
-2,
-1,
1,
5,
6,
8,
10,
13,
14,
16,
18,
19,
21,
23,
25,
25,
28,
29,
29,
31,
31,
33,
33,
34,
34,
34,
35,
35,
34,
34,
34,
34,
33,
33,
31,
30,
29,
28,
26,
25,
23,
21,
21,
18,
16,
15,
13,
11,
9,
7,
5,
3,
1,
-1,
-3,
-6,
-8,
-10,
-11,
-13,
-15,
-17,
-19,
-20,
-23,
-23,
-25,
-27,
-27,
-29,
-29,
-30,
-31,
-31,
-31,
-31,
-32,
-32,
-32,
-31,
-31,
-31,
-30,
-30,
-29,
-27,
-27,
-26,
-24,
-22,
-21,
-19,
-18,
-15,
-14,
-12,
-10,
-8,
-6,
-4,
-2,
1,
2,
5,
6,
8,
10,
13,
14,
17,
19,
21,
21,
23,
25,
25,
27,
29,
29,
31,
32,
33,
33,
34,
34,
35,
35,
35,
35,
34,
34,
33,
33,
32,
32,
30,
29,
27,
26,
25,
24,
22,
19,
19,
17,
15,
13,
11,
9,
6,
5,
3,
1,
-1,
-4,
-6,
-7,
-10,
-12,
-14,
-15,
-17,
-19,
-21,
-23,
-24,
-25,
-26,
-27,
-29,
-29,
-30,
-31,
-31,
-31,
-32,
-33,
-32,
-31,
-32,
-31,
-31,
-30,
-30,
-29,
-28,
-27,
-26,
-24,
-23,
-21,
-20,
-18,
-16,
-14,
-12,
-10,
-8,
-6,
-5,
-1,
1,
2,
4,
6,
8,
10,
13,
14,
17,
18,
20,
21,
23,
25,
26,
27,
28,
29,
31,
32,
33,
33,
34,
34,
35,
35,
35,
35,
34,
33,
33,
33,
32,
31,
29,
29,
28,
26,
25,
23,
21,
20,
18,
17,
14,
13,
10,
9,
7,
5,
3,
1,
-2,
-4,
-6,
-8,
-10,
-11,
-14,
-15,
-17,
-19,
-21,
-22,
-23,
-25,
-26,
-27,
-29,
-29,
-31,
-31,
-31,
-31,
-32,
-33,
-32,
-33,
-32,
-31,
-31,
-30,
-30,
-29,
-28,
-26,
-26,
-24,
-23,
-22,
-19,
-19,
-15,
-14,
-13,
-10,
-7,
-7,
-4,
-2,
1,
2,
5,
6,
8,
10,
12,
13,
15,
18,
19,
21,
23,
25,
26,
28,
29,
29,
31,
32,
33,
33,
33,
34,
35,
35,
35,
35,
35,
34,
33,
33,
33,
31,
30,
29,
28,
26,
25,
23,
21,
21,
18,
17,
14,
13,
10,
9,
6,
5,
3,
1,
-1,
-3,
-6,
-8,
-10,
-11,
-14,
-15,
-17,
-19,
-21,
-23,
-23,
-25,
-27,
-28,
-29,
-31,
-31,
-31,
-31,
-32,
-32,
-32,
-31,
-31,
-32,
-32,
-31,
-31,
-30,
-29,
-27,
-27,
-26,
-23,
-22,
-21,
-19,
-19,
-15,
-14,
-12,
-11,
-8,
-6,
-3,
-2,
1,
1,
5,
5,
9,
10,
13,
14,
17,
18,
20,
21,
23,
25,
26,
27,
29,
29,
30,
32,
33,
33,
33,
34,
35,
34,
34,
34,
34,
34,
34,
33,
33,
31,
30,
29,
28,
26,
25,
23,
21,
20,
18,
17,
14,
13,
11,
9,
7,
4,
2,
1,
-1,
-3,
-6,
-7,
-10,
-12,
-14,
-15,
-18,
-19,
-21,
-22,
-24,
-25,
-26,
-28,
-29,
-29,
-30,
-31,
-31,
-32,
-32,
-32,
-33,
-32,
-32,
-31,
-31,
-30,
-30,
-29,
-27,
-27,
-25,
-24,
-22,
-22,
-19,
-17,
-17,
-14,
-12,
-10,
-9,
-6,
-3,
-2,
0,
1,
4,
6,
9,
10,
13,
14,
16,
18,
19,
21,
23,
25,
26,
26,
28,
29,
31,
31,
33,
33,
34,
35,
34,
34,
35,
34,
34,
34,
34,
33,
33,
31,
30,
29,
27,
26,
25,
23,
22,
21,
18,
17,
14,
13,
10,
9,
6,
5,
2,
1,
-1,
-3,
-6,
-8,
-10,
-11,
-14,
-16,
-18,
-19,
-21,
-23,
-24,
-25,
-26,
-27,
-28,
-29,
-30,
-31,
-31,
-31,
-32,
-32,
-32,
-32,
-32,
-31,
-31,
-30,
-30,
-29,
-27,
-27,
-25,
-24,
-23,
-21,
-19,
-18,
-15,
-14,
-12,
-11,
-8,
