2-Passive Filters/data/ALL0006/A0006CH2.CSV

Memory Length,4000,
Trigger Level,0.000E+00,
Source,CH2,
Probe,1X,
Vertical Units,V,
Vertical Scale,5.000E-02,
Vertical Position,-2.000E-03,
Horizontal Units,s,
Horizontal Scale,1.000E-02,
Horizontal Position,0.000E+00,
Horizontal Mode,Main,
Sampling Period,4.000E-05,
Firmware,V1.04,
Time, ,
Mode,Fast,
Waveform Data,
-15,
-15,
-3,
-17,
-17,
-7,
-17,
-16,
-19,
-6,
-11,
-19,
-14,
-9,
-13,
-15,
-13,
-13,
-9,
-11,
-7,
-18,
-13,
-19,
-7,
-15,
-11,
-9,
-17,
-13,
-20,
-19,
-13,
-22,
-14,
-9,
-18,
-17,
-11,
-8,
-16,
-15,
-20,
-11,
-18,
-15,
-18,
-11,
-11,
-12,
-11,
-15,
-21,
-11,
-13,
-19,
-14,
-18,
-21,
-14,
-19,
-19,
-17,
-11,
-13,
-12,
-17,
-13,
-22,
-19,
-13,
-9,
-16,
-19,
-13,
-19,
-13,
-14,
-13,
-11,
-24,
-15,
-17,
-14,
-8,
-15,
-19,
-16,
-13,
-14,
-17,
-17,
-13,
-11,
-15,
-14,
-11,
-14,
-14,
-17,
-19,
-19,
-16,
-16,
-19,
-15,
-13,
-22,
-19,
-21,
-14,
-18,
-21,
-15,
-16,
-19,
-17,
-11,
-10,
-21,
-17,
-13,
-22,
-22,
-12,
-15,
-18,
-17,
-11,
-21,
-19,
-19,
-19,
-19,
-18,
-14,
-20,
-20,
-17,
-18,
-11,
-13,
-18,
-19,
-13,
-19,
-24,
-17,
-14,
-18,
-18,
-13,
-19,
-23,
-17,
-14,
-21,
-23,
-15,
-17,
-15,
-15,
-13,
-19,
-21,
-15,
-11,
-19,
-19,
-17,
-18,
-15,
-20,
-15,
-17,
-23,
-15,
-13,
-15,
-22,
-15,
-11,
-16,
-21,
-17,
-15,
-19,
-17,
-19,
-15,
-15,
-13,
-22,
-24,
-11,
-14,
-19,
-21,
-15,
-15,
-15,
-15,
-17,
-17,
-23,
-13,
-12,
-11,
-15,
-15,
-14,
-21,
-15,
-17,
-11,
-14,
-12,
-20,
-23,
-19,
-13,
-15,
-22,
-13,
-15,
-11,
-12,
-12,
-14,
-15,
-15,
-14,
-17,
-12,
-12,
-13,
-17,
-9,
-12,
-18,
-13,
-7,
-14,
-13,
-19,
-9,
-11,
-9,
-11,
-17,
-13,
-17,
-11,
-13,
-23,
-17,
-13,
-7,
-17,
-16,
-7,
-10,
-22,
-14,
-14,
-25,
-15,
-8,
-7,
-12,
-17,
-14,
-15,
-14,
-15,
-18,
-19,
-11,
-9,
-18,
-13,
-9,
-15,
-7,
-15,
-12,
-21,
-17,
-12,
-16,
-15,
-19,
-10,
-13,
-17,
-16,
-5,
-13,
-13,
-7,
-19,
-11,
-14,
-11,
-11,
-12,
-17,
-13,
-7,
-19,
-9,
-7,
-22,
-15,
-5,
-11,
-19,
-11,
-13,
-17,
-19,
-11,
-15,
-15,
-7,
-3,
-9,
-17,
-8,
-7,
-7,
-7,
-7,
-11,
-5,
0,
-14,
-2,
-13,
-9,
-7,
-7,
-9,
-5,
-7,
-6,
-2,
-6,
-5,
-11,
-5,
-7,
-11,
3,
-7,
-6,
-12,
-11,
1,
-14,
-14,
-13,
-10,
-11,
-1,
-2,
-11,
-13,
-15,
-17,
-10,
-7,
-5,
-15,
-7,
-11,
-3,
-8,
-15,
0,
-10,
3,
1,
-9,
-11,
-9,
-8,
-11,
1,
-10,
-10,
-1,
-13,
5,
5,
-10,
-3,
4,
-9,
-2,
-10,
3,
-8,
-1,
1,
2,
3,
-5,
7,
2,
-7,
2,
6,
-8,
1,
-3,
-5,
-6,
-6,
7,
-4,
3,
5,
1,
-9,
3,
-3,
-5,
-3,
-3,
-3,
-10,
-5,
2,
-7,
0,
3,
-1,
-7,
2,
6,
2,
2,
-3,
2,
-1,
3,
5,
1,
4,
-5,
-3,
-1,
2,
-3,
6,
-5,
5,
7,
5,
-1,
-2,
-1,
-1,
4,
3,
11,
-2,
-4,
1,
-3,
7,
12,
3,
-3,
-4,
2,
7,
-5,
13,
3,
9,
9,
-2,
3,
11,
1,
3,
1,
-1,
1,
19,
3,
10,
3,
4,
3,
12,
7,
1,
9,
2,
3,
-3,
9,
6,
11,
5,
14,
22,
7,
6,
4,
18,
1,
1,
5,
7,
13,
14,
11,
1,
10,
9,
17,
6,
12,
18,
7,
7,
17,
5,
1,
1,
3,
18,
5,
17,
19,
5,
1,
4,
17,
9,
5,
20,
9,
13,
10,
17,
9,
13,
6,
15,
2,
14,
9,
15,
10,
9,
21,
14,
9,
9,
4,
7,
5,
21,
13,
11,
7,
5,
10,
15,
16,
13,
5,
10,
25,
6,
-2,
17,
17,
12,
11,
22,
17,
9,
21,
21,
19,
8,
19,
13,
15,
9,
19,
15,
7,
22,
15,
13,
21,
23,
7,
10,
9,
24,
14,
8,
15,
17,
13,
18,
14,
7,
14,
13,
11,
12,
9,
17,
17,
15,
17,
13,
13,
11,
17,
13,
8,
23,
18,
22,
10,
19,
23,
19,
11,
15,
15,
9,
18,
12,
9,
17,
25,
18,
19,
17,
21,
17,
10,
21,
18,
15,
13,
21,
20,
19,
21,
19,
13,
14,
21,
17,
14,
25,
20,
16,
9,
16,
23,
15,
11,
15,
21,
23,
15,
17,
23,
17,
21,
25,
21,
17,
25,
21,
17,
15,
15,
24,
17,
25,
19,
18,
25,
21,
25,
21,
21,
27,
17,
17,
17,
23,
17,
19,
25,
18,
17,
22,
20,
17,
17,
21,
21,
14,
19,
19,
23,
13,
21,
19,
19,
21,
21,
17,
21,
23,
17,
14,
20,
25,
19,
13,
24,
24,
21,
21,
24,
21,
15,
17,
27,
20,
15,
21,
22,
17,
20,
27,
21,
13,
24,
23,
20,
19,
24,
22,
14,
25,
24,
21,
18,
17,
17,
20,
21,
18,
20,
22,
19,
15,
20,
21,
21,
25,
18,
21,
18,
24,
20,
20,
20,
19,
21,
21,
23,
23,
19,
17,
21,
21,
17,
24,
18,
22,
16,
22,
23,
21,
19,
17,
21,
20,
17,
17,
21,
18,
16,
18,
25,
20,
15,
18,
14,
21,
25,
18,
15,
18,
21,
22,
19,
14,
17,
23,
23,
25,
19,
21,
16,
14,
19,
21,
25,
16,
16,
23,
19,
14,
18,
20,
23,
23,
22,
22,
13,
18,
13,
17,
19,
18,
21,
18,
25,
21,
17,
18,
24,
21,
17,
20,
19,
17,
11,
19,
19,
17,
13,
18,
12,
12,
17,
19,
19,
25,
19,
21,
14,
17,
17,
25,
24,
24,
19,
11,
18,
12,
19,
20,
14,
18,
15,
14,
20,
17,
15,
20,
19,
22,
14,
20,
11,
18,
24,
17,
11,
11,
8,
16,
13,
17,
11,
25,
24,
13,
13,
18,
13,
20,
18,
21,
7,
15,
13,
10,
6,
21,
11,
19,
11,
14,
23,
16,
21,
11,
15,
18,
21,
17,
7,
10,
19,
19,
17,
13,
21,
13,
20,
22,
20,
17,
20,
12,
6,
15,
10,
17,
3,
19,
21,
18,
13,
7,
9,
16,
7,
13,
13,
21,
10,
11,
1,
9,
20,
13,
9,
7,
9,
5,
3,
14,
0,
13,
10,
15,
5,
9,
5,
17,
19,
18,
12,
17,
5,
8,
21,
5,
15,
20,
1,
10,
12,
14,
3,
3,
3,
9,
3,
15,
1,
13,
13,
17,
7,
3,
1,
9,
13,
7,
5,
15,
7,
1,
-1,
10,
2,
12,
13,
-3,
17,
3,
17,
-3,
1,
13,
1,
-1,
1,
1,
13,
9,
3,
10,
-1,
1,
7,
11,
11,
10,
15,
-2,
6,
9,
11,
8,
13,
7,
1,
1,
2,
-1,
9,
9,
4,
-2,
7,
7,
5,
-1,
-1,
-3,
-3,
-1,
0,
3,
5,
-5,
8,
5,
11,
-3,
-4,
-1,
0,
5,
7,
-3,
2,
5,
2,
-7,
-1,
-5,
1,
-6,
1,
5,
9,
-1,
-6,
8,
-3,
3,
-4,
-7,
-3,
9,
9,
-9,
-8,
-7,
-2,
4,
-1,
10,
-7,
2,
1,
-2,
-11,
5,
3,
1,
-7,
-10,
-2,
-3,
-3,
-7,
-2,
-3,
-3,
-2,
-5,
-5,
-8,
5,
-1,
-2,
-12,
4,
-7,
-10,
-1,
-14,
-13,
-1,
-11,
-5,
-2,
-8,
5,
-5,
1,
-6,
4,
-17,
-16,
-1,
-7,
-16,
-13,
-1,
-17,
-3,
-6,
-3,
-15,
-11,
-1,
-5,
-6,
-11,
-9,
-3,
0,
2,
-3,
-12,
-10,
2,
-7,
1,
1,
-15,
-9,
0,
-9,
-2,
-11,
0,
0,
-15,
-1,
-9,
-7,
-15,
-12,
2,
-14,
-16,
-13,
-5,
-5,
-17,
-12,
-15,
-17,
-11,
-15,
-7,
-16,
-2,
-18,
-14,
-19,
-7,
-3,
-11,
-2,
-14,
-11,
-15,
-5,
-11,
-19,
-6,
-3,
-6,
-9,
-16,
-13,
-13,
-9,
-11,
-13,
-19,
-15,
-1,
-12,
-7,
-17,
-18,
-10,
-17,
-7,
-10,
-11,
-17,
-6,
-21,
-19,
-3,
-8,
-22,
-13,
-13,
-19,
-18,
-7,
-17,
-17,
-9,
-7,
-14,
-10,
-9,
-11,
-19,
-13,
-14,
-14,
-11,
-15,
-9,
-19,
-14,
-16,
-13,
-19,
-18,
-11,
-19,
-14,
-12,
-6,
-19,
-11,
-9,
-7,
-15,
-7,
-5,
-15,
-11,
-11,
-9,
-14,
-17,
-10,
-14,
-19,
-17,
-11,
-22,
-18,
-13,
-17,
-25,
-15,
-8,
-19,
-19,
-15,
-13,
-23,
-19,
-12,
-14,
-15,
-19,
-13,
-24,
-20,
-12,
-13,
-16,
-19,
-13,
-19,
-17,
-10,
-16,
-23,
-17,
-10,
-19,
-26,
-17,
-11,
-22,
-12,
-17,
-13,
-20,
-15,
-15,
-23,
-19,
-9,
-15,
-23,
-17,
-7,
-15,
-19,
-19,
-7,
-18,
-18,
-16,
-16,
-18,
-15,
-10,
-13,
-19,
-17,
-9,
-21,
-16,
-11,
-18,
-22,
-17,
-11,
-23,
-20,
-17,
-17,
-22,
-13,
-11,
-16,
-21,
-15,
-14,
-15,
-14,
-14,
-19,
-15,
-20,
-14,
-18,
-15,
-15,
-17,
-16,
-20,
-17,
-19,
-15,
-14,
-19,
-19,
-23,
-17,
-18,
-19,
-21,
-15,
-17,
-15,
-19,
-21,
-17,
-19,
-15,
-18,
-17,
-18,
-19,
-18,
-15,
-14,
-18,
-18,
-14,
-16,
-17,
-20,
-15,
-14,
-18,
-19,
-11,
-13,
-11,
-17,
-13,
-17,
-14,
-18,
-18,
-14,
-14,
-9,
-13,
-17,
-14,
-15,
-19,
-19,
-9,
-13,
-21,
-13,
-9,
-21,
-15,
-11,
-11,
-13,
-19,
-13,
-15,
-18,
-17,
-17,
-20,
-15,
-10,
-11,
-19,
-18,
-18,
-13,
-22,
-14,
-11,
-17,
-12,
-11,
-15,
-23,
-15,
-15,
-9,
-15,
-15,
-18,
-12,
-8,
-15,
-19,
-19,
-17,
-20,
-21,
-15,
-12,
-19,
-9,
-16,
-10,
-17,
-18,
-18,
-15,
-17,
-19,
-15,
-19,
-10,
-7,
-14,
-20,
-15,
-9,
-15,
-19,
-18,
-6,
-13,
-19,
-13,
-9,
-18,
-10,
-13,
-5,
-18,
-9,
-7,
-15,
-12,
-20,
-14,
-12,
-7,
-19,
-14,
-15,
-15,
-9,
-11,
-20,
-17,
-8,
-10,
-6,
-17,
-18,
-8,
-19,
-10,
-6,
-9,
-12,
-11,
-17,
-11,
-14,
-9,
-6,
-18,
-14,
-7,
-11,
-12,
-11,
-11,
-16,
-17,
-11,
-17,
-5,
-10,
-6,
-3,
-5,
-11,
-19,
-6,
-8,
-8,
-7,
-13,
-1,
-17,
-5,
-5,
-6,
-15,
-12,
1,
-5,
-11,
-7,
3,
-15,
-11,
-11,
-7,
-5,
-9,
-7,
-11,
-7,
0,
1,
-8,
-7,
-2,
-5,
-12,
-4,
-13,
-15,
-8,
-1,
-14,
-5,
3,
-16,
-11,
1,
5,
-11,
-8,
-11,
1,
-11,
1,
5,
3,
-1,
-11,
-7,
1,
-8,
2,
-6,
-8,
-5,
-15,
3,
-7,
-3,
0,
-3,
-8,
-11,
2,
-7,
-11,
2,
-4,
6,
-9,
-4,
-6,
-3,
-2,
7,
-11,
-1,
-10,
-5,
-4,
-10,
-3,
-2,
-11,
7,
1,
-9,
-6,
7,
-7,
-9,
-6,
11,
-2,
-5,
8,
9,
1,
7,
-3,
2,
-7,
3,
0,
-5,
-5,
7,
1,
-1,
7,
4,
-3,
-5,
4,
0,
-5,
5,
-1,
-2,
1,
7,
3,
-2,
2,
11,
-1,
6,
5,
11,
6,
2,
9,
9,
2,
9,
7,
3,
3,
11,
4,
-6,
0,
-1,
1,
5,
4,
5,
5,
-2,
9,
12,
6,
9,
3,
-5,
-3,
9,
9,
9,
7,
0,
3,
15,
1,
17,
5,
7,
2,
15,
5,
10,
13,
7,
2,
5,
2,
3,
1,
5,
6,
8,
5,
18,
6,
13,
5,
22,
-2,
2,
12,
19,
15,
2,
3,
5,
13,
5,
21,
17,
5,
7,
18,
9,
5,
17,
13,
7,
10,
9,
8,
13,
18,
7,
15,
7,
17,
19,
7,
10,
13,
7,
9,
6,
15,
9,
8,
7,
5,
9,
14,
9,
9,
0,
13,
12,
7,
3,
9,
21,
13,
16,
19,
12,
18,
22,
14,
5,
7,
24,
12,
7,
21,
9,
10,
16,
19,
5,
7,
17,
14,
9,
10,
16,
21,
21,
9,
14,
17,
19,
21,
21,
6,
9,
21,
13,
18,
13,
15,
17,
14,
15,
15,
21,
11,
21,
25,
13,
13,
17,
20,
15,
22,
14,
19,
19,
15,
11,
11,
24,
12,
18,
13,
24,
16,
15,
17,
15,
14,
14,
23,
23,
13,
13,
22,
21,
17,
22,
13,
15,
12,
23,
17,
17,
20,
15,
14,
8,
18,
13,
11,
8,
22,
17,
21,
20,
21,
16,
15,
25,
23,
21,
15,
19,
19,
13,
18,
15,
20,
20,
23,
22,
16,
14,
21,
21,
19,
25,
21,
15,
16,
20,
15,
16,
15,
23,
16,
19,
28,
19,
20,
23,
24,
23,
17,
21,
17,
21,
21,
26,
15,
21,
18,
21,
14,
19,
25,
18,
13,
21,
25,
15,
16,
27,
21,
17,
21,
27,
19,
13,
21,
23,
19,
13,
29,
21,
15,
19,
26,
21,
14,
19,
21,
15,
19,
27,
18,
17,
21,
23,
17,
19,
20,
15,
16,
24,
22,
23,
17,
23,
17,
18,
25,
22,
22,
19,
23,
19,
17,
18,
23,
20,
16,
23,
21,
19,
17,
25,
21,
23,
25,
23,
24,
18,
22,
23,
23,
18,
23,
18,
17,
26,
25,
15,
18,
27,
23,
17,
20,
26,
21,
16,
21,
17,
21,
15,
22,
18,
17,
21,
25,
20,
11,
18,
23,
20,
20,
23,
17,
12,
20,
30,
17,
13,
23,
17,
14,
17,
15,
21,
22,
23,
21,
17,
13,
21,
15,
11,
17,
20,
15,
15,
17,
24,
24,
18,
28,
23,
17,
16,
29,
23,
17,
19,
25,
21,
17,
19,
16,
9,
21,
22,
19,
25,
25,
17,
20,
21,
14,
13,
7,
22,
19,
18,
20,
21,
22,
13,
19,
19,
9,
17,
26,
24,
9,
24,
17,
15,
9,
13,
13,
17,
17,
22,
14,
11,
14,
21,
21,
11,
11,
14,
15,
13,
17,
19,
9,
21,
23,
10,
17,
13,
14,
17,
21,
17,
11,
13,
23,
22,
13,
24,
20,
9,
3,
9,
21,
12,
2,
16,
20,
17,
21,
18,
21,
14,
17,
12,
17,
21,
19,
9,
5,
19,
13,
13,
15,
7,
12,
6,
22,
12,
18,
7,
20,
18,
17,
13,
13,
13,
17,
4,
22,
17,
8,
18,
14,
4,
12,
7,
13,
3,
11,
17,
13,
7,
18,
18,
9,
19,
12,
3,
-3,
10,
11,
18,
7,
9,
10,
6,
6,
11,
8,
2,
1,
15,
1,
14,
7,
12,
2,
-2,
8,
9,
7,
7,
7,
3,
16,
6,
8,
1,
5,
9,
14,
7,
5,
9,
13,
-2,
14,
5,
6,
-3,
11,
5,
1,
-1,
0,
7,
4,
13,
-3,
15,
5,
7,
4,
-1,
7,
-3,
1,
-2,
1,
1,
-2,
13,
7,
9,
5,
1,
-1,
-1,
-2,
10,
-1,
7,
10,
9,
-2,
6,
-3,
-2,
-3,
-1,
5,
-1,
-1,
9,
-3,
9,
-6,
-2,
5,
1,
3,
-4,
3,
-8,
3,
-5,
0,
-5,
-1,
-3,
-7,
8,
3,
-8,
-10,
1,
-4,
-7,
-5,
-5,
-5,
1,
-1,
-9,
-9,
-5,
6,
-11,
5,
-10,
6,
-6,
3,
7,
7,
1,
10,
-10,
-4,
1,
6,
5,
-7,
3,
-11,
5,
1,
0,
-7,
0,
-11,
-6,
2,
-11,
-2,
2,
-1,
-1,
-1,
-6,
-3,
-7,
-9,
-13,
-11,
0,
-9,
2,
-3,
5,
1,
2,
-15,
-13,
-4,
-6,
-16,
-6,
-5,
-9,
-8,
-12,
-11,
-7,
-15,
-5,
-14,
-7,
-3,
-7,
-5,
1,
-6,
-11,
-13,
-14,
1,
-10,
-10,
-15,
-21,
-10,
-3,
-17,
-9,
-7,
-10,
-13,
-10,
-11,
-19,
-12,
-6,
-15,
-3,
-11,
-19,
-12,
-14,
-16,
-3,
1,
-14,
-3,
-3,
-15,
-12,
-14,
-5,
-10,
-5,
-14,
-12,
-15,
-13,
-4,
-18,
-20,
-7,
-8,
-17,
-10,
-4,
-11,
-9,
-7,
-13,
-6,
-7,
-9,
-11,
-10,
-6,
-14,
-11,
-15,
-14,
-13,
-15,
-11,
-11,
-17,
-13,
-15,
-19,
-10,
-11,
-12,
-7,
-12,
-14,
-9,
-15,
-20,
-10,
-19,
-13,
-14,
-10,
-19,
-11,
-18,
-11,
-15,
-21,
-14,
-20,
-19,
-11,
-7,
-17,
-19,
-17,
-15,
-19,
-24,
-13,
-17,
-22,
-15,
-16,
-8,
-15,
-13,
-14,
-17,
-16,
-11,
-11,
-10,
-7,
-15,
-17,
-10,
-11,
-17,
-17,
-9,
-15,
-15,
-17,
-13,
-12,
-21,
-15,
-13,
-17,
-17,
-14,
-15,
-18,
-17,
-19,
-15,
-14,
-11,
-17,
-15,
-23,
-17,
-11,
-17,
-14,
-14,
-16,
-14,
-17,
-16,
-18,
-21,
-15,
-15,
-23,
-17,
-12,
-19,
-13,
-15,
-19,
-19,
-18,
-15,
-17,
-17,
-18,
-14,
-19,
-24,
-13,
-12,
-20,
-21,
-17,
-17,
-19,
-21,
-14,
-22,
-21,
-16,
-14,
-20,
-21,
-19,
-15,
-22,
-19,
-14,
-17,
-24,
-13,
-14,
-17,
-17,
-15,
-17,
-21,
-15,
-12,
-17,
-22,
-14,
-17,
-15,
-12,
-14,
-24,
-17,
-19,
-17,
-23,
-13,
-15,
-19,
-19,
-17,
-14,
-23,
-13,
-15,
-11,
-17,
-19,
-14,
-23,
-15,
-17,
-17,
-19,
-15,
-15,
-12,
-15,
-17,
-14,
-20,
-17,
-17,
-15,
-19,
-13,
-18,
-22,
-17,
-15,
-15,
-21,
-14,
-11,
-18,
-23,
-18,
-12,
-15,
-13,
-14,
-15,
-19,
-15,
-12,
-25,
-17,
-20,
-11,
-21,
-19,
-17,
-15,
-21,
-17,
-6,
-17,
-20,
-13,
-11,
-22,
-19,
-11,
-18,
-14,
-15,
-13,
-21,
-19,
-11,
-17,
-21,
-15,
-9,
-11,
-13,
-10,
-14,
-14,
-19,
-10,
-11,
-15,
-17,
-11,
-17,
-15,
-13,
-18,
-17,
-18,
-11,
-11,
-10,
-9,
-11,
-21,
-19,
-12,
-11,
-14,
-14,
-20,
-19,
-15,
-14,
-6,
-21,
-14,
-11,
-19,
-12,
-9,
-14,
-20,
-13,
-12,
-13,
-25,
-15,
-6,
-12,
-22,
-15,
-9,
-19,
-13,
-14,
-11,
-17,
-11,
-9,
-13,
-19,
-4,
-16,
-13,
-16,
-15,
-22,
-5,
-4,
-12,
-21,
-18,
-2,
-13,
-15,
-15,
-6,
-23,
-7,
-15,
-17,
-20,
-5,
-13,
-14,
-15,
-7,
0,
-15,
-9,
-7,
-1,
-8,
-14,
-1,
-20,
-19,
-15,
-1,
-9,
-15,
-13,
-13,
-5,
-11,
-1,
-12,
-19,
-4,
-7,
-12,
-18,
-7,
-19,
-6,
2,
-6,
-19,
-12,
-9,
-6,
-7,
-13,
-12,
-7,
-11,
-13,
-4,
-4,
-6,
-8,
-15,
-10,
1,
-2,
-8,
-12,
-6,
-6,
-15,
-9,
-11,
-17,
-20,
-7,
1,
-3,
-13,
-14,
-1,
-9,
-5,
1,
-17,
-9,
-4,
5,
-12,
-3,
1,
-7,
-3,
6,
-6,
-7,
-11,
-10,
-6,
1,
-3,
-7,
-7,
-6,
-5,
5,
-1,
-7,
-3,
-3,
-4,
-9,
6,
1,
-7,
3,
7,
-6,
5,
-10,
-1,
-10,
10,
1,
-7,
2,
7,
5,
-6,
-6,
-7,
-3,
-5,
2,
2,
-3,
-10,
-1,
5,
-12,
0,
1,
-4,
5,
-9,
-4,
-2,
-7,
7,
1,
1,
-3,
7,
-1,
4,
7,
2,
2,
1,
3,
6,
5,
11,
0,
-1,
-6,
-1,
9,
5,
6,
10,
1,
2,
13,
2,
7,
-4,
2,
-1,
1,
4,
10,
10,
7,
10,
3,
6,
-6,
5,
-6,
3,
15,
5,
9,
1,
7,
11,
3,
-3,
15,
9,
5,
1,
1,
-7,
14,
6,
10,
11,
11,
-1,
1,
10,
7,
9,
1,
3,
13,
11,
5,
1,
-1,
9,
15,
12,
9,
5,
2,
9,
12,
15,
6,
5,
15,
15,
9,
1,
0,
6,
14,
14,
9,
7,
10,
18,
7,
15,
3,
15,
7,
5,
19,
10,
11,
13,
16,
14,
13,
9,
11,
5,
1,
6,
6,
5,
-1,
21,
15,
21,
9,
4,
14,
5,
18,
15,
20,
6,
17,
12,
15,
13,
11,
19,
21,
19,
19,
6,
8,
21,
14,
11,
15,
7,
17,
5,
21,
7,
21,
17,
19,
17,
12,
11,
15,
17,
22,
5,
21,
15,
19,
5,
15,
21,
13,
14,
15,
11,
16,
21,
17,
19,
16,
11,
19,
9,
22,
15,
9,
11,
14,
8,
19,
15,
13,
19,
20,
19,
12,
15,
21,
18,
13,
16,
23,
15,
14,
15,
15,
21,
13,
9,
17,
24,
15,
23,
19,
17,
17,
22,
19,
17,
24,
25,
24,
25,
25,
14,
10,
18,
15,
18,
19,
17,
15,
15,
17,
15,
13,
18,
21,
21,
21,
18,
21,
23,
21,
21,
23,
21,
23,
19,
19,
19,
19,
20,
22,
19,
22,
23,
25,
21,
21,
17,
15,
21,
22,
16,
21,
17,
15,
15,
25,
21,
18,
21,
17,
23,
24,
22,
18,
23,
25,
23,
24,
16,
17,
22,
19,
20,
16,
25,
23,
18,
19,
23,
17,
24,
19,
25,
22,
20,
19,
22,
22,
23,
23,
27,
19,
20,
23,
22,
23,
24,
21,
25,
19,
25,
23,
21,
17,
21,
19,
21,
25,
24,
21,
17,
22,
23,
18,
21,
19,
15,
19,
26,
20,
22,
23,
23,
19,
22,
20,
17,
21,
21,
25,
18,
22,
19,
23,
21,
19,
25,
17,
23,
22,
19,
15,
23,
18,
23,
20,
18,
25,
18,
23,
17,
24,
14,
21,
21,
21,
15,
18,
27,
21,
17,
21,
23,
16,
17,
25,
16,
21,
23,
25,
18,
25,
22,
26,
22,
21,
21,
21,
19,
21,
19,
18,
16,
22,
25,
19,
19,
24,
21,
17,
23,
19,
18,
21,
26,
16,
16,
19,
26,
14,
13,
21,
20,
14,
20,
17,
19,
18,
15,
24,
22,
19,
17,
21,
17,
17,
22,
25,
13,
19,
13,
7,
14,
26,
13,
13,
17,
27,
15,
13,
25,
13,
9,
19,
27,
16,
14,
15,
13,
21,
15,
21,
9,
17,
19,
25,
20,
16,
24,
21,
17,
9,
23,
16,
9,
19,
27,
17,
18,
15,
17,
9,
17,
27,
25,
17,
13,
13,
10,
12,
18,
17,
13,
15,
11,
12,
9,
17,
12,
18,
21,
19,
4,
17,
14,
17,
9,
3,
15,
9,
19,
9,
23,
15,
14,
17,
13,
5,
6,
22,
21,
5,
5,
12,
4,
12,
15,
5,
4,
13,
7,
18,
13,
11,
15,
15,
21,
19,
11,
21,
19,
23,
12,
20,
16,
9,
5,
10,
13,
8,
15,
19,
6,
6,
15,
12,
14,
8,
7,
10,
17,
-1,
25,
5,
13,
-2,
21,
18,
9,
7,
7,
11,
6,
15,
11,
6,
6,
3,
3,
6,
17,
8,
4,
1,
14,
3,
17,
5,
10,
13,
5,
19,
7,
-1,
9,
3,
15,
7,
7,
7,
-2,
-1,
13,
11,
17,
-3,
9,
6,
6,
9,
3,
1,
1,
1,
17,
0,
1,
7,
6,
13,
3,
-5,
2,
7,
1,
1,
6,
7,
4,
1,
5,
5,
5,
13,
6,
9,
-5,
-5,
5,
7,
-3,
-1,
3,
7,
5,
0,
3,
2,
1,
2,
-1,
1,
9,
0,
-3,
4,
10,
-3,
-3,
7,
-3,
9,
8,
-9,
-1,
-1,
5,
1,
-2,
-3,
3,
-4,
5,
5,
5,
-6,
-7,
2,
7,
2,
-3,
-3,
-1,
1,
-2,
9,
-9,
5,
1,
-1,
-13,
-3,
3,
-3,
5,
-17,
3,
-9,
-7,
-3,
1,
-7,
-6,
-5,
1,
-13,
4,
6,
-3,
2,
2,
-7,
2,
-13,
9,
-8,
1,
-7,
-11,
-10,
1,
-9,
0,
-15,
5,
-5,
-8,
1,
-5,
-3,
-4,
1,
-9,
1,
-15,
-3,
-1,
-1,
-11,
-6,
-8,
-11,
-4,
-2,
-11,
-16,
-4,
5,
-2,
-15,
-1,
-3,
-11,
-7,
4,
-17,
-16,
-17,
1,
-6,
-15,
-6,
-17,
-4,
-11,
-3,
-18,
-16,
-11,
-7,
-16,
1,
-10,
-13,
-5,
1,
-9,
-17,
-12,
-17,
-11,
-19,
-6,
-6,
-17,
-9,
-10,
-7,
-21,
-11,
-10,
-19,
-13,
-18,
-5,
-17,
-19,
-9,
-9,
-12,
-5,
-7,
-11,
-17,
-14,
-13,
-16,
-18,
-11,
-13,
-7,
-7,
-7,
-15,
-9,
-8,
-15,
-15,
-19,
-6,
-16,
-20,
-15,
-6,
-15,
-10,
-9,
-13,
-14,
-6,
-10,
-9,
-18,
-15,
-15,
-14,
-9,
-17,
-16,
-15,
-17,
-4,
-18,
-15,
-14,
-15,
-11,
-11,
-7,
-16,
-13,
-11,
-18,
-15,
-15,
-16,
-14,
-18,
-14,
-11,
-11,
-11,
-14,
-13,
-11,
-10,
-12,
-15,
-20,
-6,
-10,
-17,
-16,
-15,
-16,
-23,
-17,
-17,
-18,
-13,
-16,
-15,
-16,
-14,
-15,
-16,
-19,
-15,
-9,
-17,
-19,
-10,
-15,
-24,
-15,
-12,
-15,
-15,
-14,
-15,
-19,
-15,
-17,
-19,
-17,
-20,
-11,
-18,
-17,
-14,
-15,
-19,
-17,
-11,
-13,
-18,
-11,
-14,
-15,
-19,
-15,
-17,
-15,
-19,
-14,
-18,
-16,
-18,
-17,
-21,
-12,
-15,
-19,
-17,
-18,
-10,
-19,
-16,
-19,
-18,
-18,
-18,
-19,
-20,
-19,
-19,
-22,
-20,
-15,
-16,
-23,
-19,
-21,
-15,
-21,
-17,
-19,
-19,
-15,
-21,
-13,
-13,
-19,
-17,
-17,
-19,
-15,
-21,
-15,
-19,
-19,
-14,
-19,
-18,
-23,
-12,
-22,
-20,
-19,
-17,
-19,
-17,
-17,
-19,
-16,
-23,
-11,
-19,
-15,
-15,
-18,
-17,
-22,
-19,
-20,
-17,
-18,
-14,
-21,
-15,
-20,
-16,
-17,
-22,
-17,
-19,
-21,
-22,
-19,
-15,
-10,
-14,
-21,
-19,
-18,
-12,
-19,
-19,
-21,
-16,
-15,
-15,
-21,
-19,
-17,
-19,
-15,
-17,
-17,
-19,
-18,
-15,
-18,
-17,
-15,
-18,
-15,
-17,
-15,
-19,
-17,
-16,
-17,
-23,
-10,
-14,
-19,
-15,
-7,
-17,
-15,
-15,
-19,
-17,
-26,
-19,
-19,
-17,
-17,
-20,
-21,
-17,
-18,
-17,
-15,
-8,
-12,
-11,
-19,
-11,
