2-Passive Filters/differentiator-integrator_behaviour/data/ALL0039/A0039CH2.CSV

Memory Length,4000,
Trigger Level,0.000E+00,
Source,CH2,
Probe,1X,
Vertical Units,V,
Vertical Scale,5.000E+00,
Vertical Position,2.000E-01,
Horizontal Units,s,
Horizontal Scale,2.500E-02,
Horizontal Position,0.000E+00,
Horizontal Mode,Main,
Sampling Period,1.000E-04,
Firmware,V1.04,
Time, ,
Mode,Fast,
Waveform Data,
33,
33,
33,
33,
33,
33,
32,
33,
32,
32,
33,
33,
33,
33,
33,
33,
33,
33,
33,
33,
33,
32,
32,
32,
32,
32,
32,
32,
32,
32,
32,
32,
32,
32,
32,
31,
33,
32,
32,
32,
32,
33,
32,
33,
32,
33,
32,
33,
33,
33,
33,
33,
33,
33,
33,
33,
33,
33,
33,
33,
33,
33,
33,
33,
34,
33,
33,
33,
33,
33,
33,
33,
33,
33,
33,
33,
34,
33,
34,
33,
33,
33,
33,
34,
33,
34,
33,
34,
33,
33,
33,
33,
34,
34,
33,
33,
34,
33,
35,
34,
34,
33,
33,
34,
34,
34,
33,
34,
34,
35,
34,
33,
34,
33,
34,
34,
34,
34,
34,
33,
33,
34,
33,
34,
33,
34,
33,
33,
33,
34,
33,
33,
33,
33,
33,
34,
34,
33,
34,
33,
33,
34,
34,
34,
33,
33,
34,
33,
33,
34,
33,
33,
33,
33,
33,
33,
33,
33,
34,
33,
33,
33,
33,
33,
33,
33,
33,
33,
34,
34,
34,
33,
33,
33,
33,
33,
33,
33,
34,
33,
33,
34,
34,
34,
33,
33,
33,
33,
33,
33,
33,
33,
33,
33,
33,
34,
33,
33,
33,
33,
33,
33,
33,
33,
33,
33,
33,
33,
33,
33,
33,
33,
33,
33,
33,
33,
33,
33,
34,
33,
33,
34,
34,
33,
33,
34,
33,
33,
34,
33,
33,
33,
34,
34,
34,
34,
33,
33,
33,
33,
33,
33,
33,
33,
34,
33,
33,
33,
34,
33,
34,
-25,
-36,
-37,
-37,
-37,
-37,
-37,
-37,
-37,
-37,
-37,
-37,
-36,
-37,
-36,
-36,
-37,
-36,
-37,
-37,
-37,
-36,
-37,
-36,
-36,
-36,
-36,
-37,
-37,
-36,
-36,
-36,
-37,
-37,
-36,
-35,
-36,
-36,
-36,
-36,
-37,
-36,
-37,
-36,
-36,
-36,
-36,
-36,
-36,
-36,
-37,
-36,
-36,
-37,
-37,
-36,
-37,
-37,
-36,
-37,
-37,
-37,
-37,
-37,
-37,
-37,
-37,
-37,
-37,
-37,
-37,
-37,
-37,
-37,
-37,
-37,
-37,
-37,
-37,
-37,
-37,
-37,
-37,
-37,
-37,
-37,
-37,
-37,
-37,
-37,
-37,
-37,
-37,
-38,
-37,
-38,
-39,
-38,
-38,
-38,
-37,
-38,
-38,
-37,
-37,
-38,
-38,
-38,
-38,
-38,
-38,
-38,
-38,
-38,
-38,
-38,
-38,
-38,
-38,
-38,
-39,
-38,
-37,
-37,
-37,
-37,
-38,
-37,
-37,
-37,
-38,
-38,
-37,
-38,
-37,
-37,
-38,
-38,
-37,
-37,
-37,
-38,
-38,
-37,
-37,
-37,
-37,
-37,
-37,
-37,
-37,
-37,
-37,
-37,
-37,
-37,
-37,
-37,
-37,
-37,
-37,
-37,
-37,
-37,
-37,
-37,
-37,
-37,
-37,
-37,
-37,
-38,
-36,
-37,
-37,
-37,
-37,
-37,
-37,
-37,
-37,
-37,
-37,
-37,
-37,
-37,
-37,
-37,
-37,
-37,
-38,
-37,
-37,
-37,
-37,
-37,
-37,
-37,
-37,
-37,
-38,
-37,
-37,
-38,
-37,
-37,
-37,
-37,
-37,
-37,
-38,
-37,
-37,
-37,
-37,
-37,
-37,
-37,
-37,
-37,
-38,
-37,
-38,
-38,
-37,
-38,
-37,
-37,
-37,
-37,
-37,
-37,
-37,
-37,
-37,
-37,
-37,
-37,
-37,
-37,
-37,
-37,
-38,
-37,
-37,
-38,
-38,
-37,
15,
31,
33,
33,
33,
33,
33,
33,
33,
33,
33,
33,
32,
32,
33,
32,
32,
33,
32,
32,
33,
31,
32,
32,
33,
32,
32,
32,
32,
32,
32,
32,
32,
32,
33,
32,
31,
33,
32,
33,
32,
32,
32,
32,
33,
33,
33,
32,
32,
33,
32,
33,
32,
33,
33,
33,
33,
33,
33,
33,
33,
33,
33,
33,
33,
33,
33,
33,
33,
33,
33,
33,
34,
33,
33,
33,
34,
33,
33,
34,
34,
33,
33,
33,
33,
33,
33,
33,
33,
33,
34,
34,
34,
33,
34,
33,
34,
33,
33,
33,
33,
35,
34,
34,
34,
33,
33,
33,
33,
35,
34,
33,
34,
34,
34,
33,
35,
34,
34,
33,
34,
34,
33,
33,
33,
33,
34,
34,
34,
33,
34,
33,
33,
33,
33,
33,
33,
34,
34,
35,
34,
34,
33,
33,
34,
33,
34,
33,
34,
34,
34,
34,
34,
33,
33,
34,
33,
34,
33,
33,
33,
33,
33,
33,
33,
33,
33,
33,
33,
33,
34,
33,
33,
33,
33,
33,
33,
33,
33,
33,
33,
33,
33,
33,
33,
33,
33,
33,
34,
33,
33,
34,
33,
33,
33,
33,
33,
34,
33,
33,
33,
34,
33,
33,
33,
33,
34,
33,
33,
33,
33,
33,
33,
33,
33,
33,
33,
33,
33,
33,
33,
33,
33,
33,
33,
33,
33,
33,
33,
33,
33,
33,
33,
33,
33,
34,
33,
33,
34,
33,
34,
33,
33,
34,
33,
33,
34,
33,
33,
33,
34,
33,
-25,
-36,
-37,
-37,
-37,
-36,
-37,
-37,
-37,
-37,
-37,
-37,
-37,
-36,
-37,
-37,
-36,
-37,
-37,
-37,
-36,
-37,
-37,
-37,
-35,
-36,
-36,
-35,
-35,
-36,
-37,
-36,
-36,
-36,
-36,
-36,
-36,
-35,
-36,
-36,
-36,
-37,
-36,
-37,
-36,
-37,
-37,
-36,
-36,
-37,
-37,
-36,
-37,
-37,
-37,
-37,
-37,
-37,
-37,
-37,
-37,
-37,
-37,
-37,
-37,
-37,
-37,
-37,
-37,
-37,
-37,
-37,
-37,
-37,
-37,
-37,
-37,
-37,
-38,
-38,
-37,
-38,
-38,
-37,
-37,
-37,
-37,
-38,
-37,
-37,
-38,
-37,
-37,
-37,
-37,
-38,
-37,
-37,
-37,
-37,
-38,
-38,
-38,
-37,
-38,
-37,
-38,
-38,
-38,
-38,
-37,
-37,
-37,
-37,
-37,
-37,
-38,
-38,
-37,
-37,
-37,
-37,
-37,
-37,
-37,
-37,
-38,
-37,
-37,
-37,
-37,
-37,
-37,
-37,
-37,
-37,
-37,
-37,
-37,
-37,
-37,
-37,
-37,
-37,
-37,
-37,
-37,
-37,
-37,
-37,
-37,
-37,
-37,
-37,
-37,
-38,
-37,
-37,
-37,
-37,
-37,
-38,
-37,
-38,
-37,
-37,
-37,
-37,
-37,
-37,
-37,
-37,
-37,
-37,
-37,
-38,
-37,
-37,
-37,
-37,
-37,
-37,
-37,
-37,
-37,
-37,
-37,
-37,
-37,
-37,
-37,
-37,
-37,
-37,
-38,
-37,
-37,
-38,
-37,
-37,
-37,
-37,
-37,
-37,
-37,
-37,
-37,
-37,
-37,
-37,
-38,
-37,
-37,
-37,
-37,
-37,
-37,
-37,
-37,
-37,
-37,
-37,
-38,
-37,
-37,
-37,
-37,
-37,
-37,
-37,
-37,
-37,
-37,
-37,
-38,
-37,
-38,
-37,
-37,
-37,
-37,
-37,
-37,
-38,
-37,
-37,
-38,
-37,
15,
31,
33,
33,
33,
33,
33,
33,
33,
33,
33,
33,
33,
32,
33,
32,
33,
32,
33,
32,
32,
32,
32,
32,
31,
32,
32,
33,
32,
32,
32,
33,
32,
32,
32,
32,
32,
32,
32,
32,
33,
32,
32,
33,
32,
33,
32,
33,
32,
33,
32,
33,
33,
33,
33,
33,
33,
33,
33,
33,
33,
33,
33,
34,
33,
34,
33,
33,
33,
33,
33,
34,
34,
34,
34,
34,
34,
33,
34,
34,
33,
34,
34,
33,
33,
33,
34,
33,
33,
34,
34,
33,
34,
35,
33,
34,
33,
34,
34,
33,
33,
33,
33,
34,
33,
34,
33,
34,
33,
34,
33,
33,
34,
33,
33,
33,
33,
34,
33,
33,
33,
33,
33,
34,
33,
33,
34,
34,
33,
34,
33,
34,
33,
33,
34,
33,
33,
34,
34,
34,
34,
33,
34,
33,
33,
34,
33,
33,
33,
33,
33,
33,
33,
33,
33,
33,
33,
33,
33,
33,
33,
33,
34,
33,
33,
34,
33,
34,
33,
34,
33,
34,
34,
33,
33,
33,
33,
33,
34,
34,
34,
33,
33,
33,
34,
34,
34,
33,
33,
35,
33,
33,
34,
34,
34,
33,
34,
34,
33,
34,
34,
33,
33,
33,
33,
33,
33,
33,
33,
33,
34,
34,
33,
33,
33,
33,
33,
33,
33,
33,
33,
33,
33,
33,
35,
33,
33,
33,
33,
34,
33,
33,
33,
33,
33,
33,
33,
33,
34,
33,
33,
34,
33,
33,
33,
33,
33,
33,
34,
33,
34,
33,
-25,
-36,
-37,
-37,
-37,
-37,
-37,
-37,
-37,
-36,
-36,
-37,
-37,
-36,
-36,
-36,
-36,
-35,
-36,
-36,
-36,
-36,
-35,
-37,
-36,
-35,
-36,
-36,
-36,
-36,
-37,
-36,
-36,
-36,
-36,
-36,
-37,
-36,
-36,
-36,
-36,
-36,
-36,
-36,
-36,
-37,
-36,
-37,
-37,
-37,
-37,
-37,
-36,
-37,
-37,
-37,
-37,
-37,
-37,
-37,
-37,
-37,
-37,
-37,
-37,
-37,
-37,
-37,
-37,
-37,
-38,
-37,
-37,
-37,
-37,
-37,
-37,
-37,
-37,
-37,
-38,
-37,
-37,
-37,
-37,
-37,
-37,
-38,
-37,
-38,
-37,
-37,
-38,
-38,
-37,
-38,
-38,
-37,
-37,
-38,
-38,
-37,
-38,
-37,
-39,
-38,
-38,
-37,
-38,
-38,
-38,
-38,
-38,
-37,
-37,
-38,
-38,
-37,
-37,
-37,
-38,
-37,
-39,
-38,
-37,
-38,
-37,
-38,
-37,
-37,
-37,
-38,
-37,
-37,
-37,
-37,
-37,
-37,
-37,
-36,
-37,
-37,
-37,
-38,
-37,
-37,
-37,
-36,
-38,
-37,
-37,
-37,
-37,
-37,
-37,
-37,
-37,
-37,
-37,
-37,
-37,
-37,
-37,
-37,
-37,
-37,
-37,
-37,
-37,
-37,
-37,
-37,
-37,
-37,
-37,
-37,
-37,
-37,
-37,
-37,
-37,
-37,
-37,
-37,
-37,
-37,
-37,
-37,
-37,
-37,
-37,
-37,
-37,
-37,
-37,
-37,
-37,
-37,
-37,
-37,
-37,
-37,
-37,
-37,
-37,
-37,
-37,
-37,
-37,
-37,
-38,
-37,
-38,
-37,
-38,
-37,
-38,
-37,
-37,
-37,
-37,
-38,
-37,
-37,
-37,
-37,
-37,
-37,
-37,
-37,
-37,
-37,
-37,
-37,
-37,
-37,
-37,
-38,
-37,
-37,
-37,
-37,
-37,
-37,
-37,
-37,
-37,
-37,
14,
31,
33,
33,
33,
34,
33,
33,
32,
33,
33,
33,
33,
32,
32,
32,
32,
32,
32,
32,
33,
32,
32,
32,
32,
32,
32,
31,
31,
32,
33,
32,
32,
32,
32,
32,
32,
32,
32,
32,
32,
33,
33,
33,
33,
32,
33,
33,
33,
33,
33,
33,
33,
33,
33,
33,
33,
33,
33,
33,
33,
33,
33,
33,
33,
33,
33,
33,
34,
33,
33,
34,
33,
33,
33,
33,
34,
33,
33,
33,
34,
34,
33,
33,
33,
35,
33,
34,
33,
35,
34,
34,
34,
35,
34,
35,
34,
34,
34,
34,
34,
34,
34,
33,
34,
33,
34,
33,
35,
34,
33,
33,
34,
34,
34,
35,
33,
34,
34,
34,
35,
33,
34,
34,
33,
34,
33,
33,
34,
34,
34,
33,
33,
33,
33,
34,
33,
33,
33,
34,
33,
33,
33,
33,
33,
33,
33,
34,
34,
33,
33,
33,
34,
33,
33,
33,
33,
33,
33,
32,
33,
33,
33,
33,
33,
33,
33,
33,
33,
33,
33,
33,
33,
32,
33,
33,
33,
33,
33,
33,
32,
33,
33,
33,
33,
33,
33,
33,
33,
33,
33,
33,
33,
33,
33,
33,
33,
33,
33,
33,
33,
33,
33,
33,
34,
33,
33,
33,
33,
33,
34,
34,
33,
33,
33,
33,
33,
34,
33,
33,
33,
33,
33,
34,
34,
33,
33,
33,
33,
34,
34,
33,
33,
33,
33,
33,
33,
33,
33,
33,
34,
34,
33,
34,
33,
34,
34,
33,
33,
33,
33,
33,
-25,
-36,
-37,
-37,
-37,
-37,
-37,
-36,
-37,
-37,
-37,
-37,
-36,
-36,
-36,
-36,
-36,
-36,
-37,
-37,
-37,
-36,
-36,
-35,
-36,
-37,
-36,
-37,
-36,
-36,
-36,
-36,
-36,
-36,
-36,
-37,
-37,
-35,
-36,
-37,
-37,
-36,
-36,
-36,
-37,
-36,
-36,
-36,
-36,
-37,
-37,
-36,
-37,
-37,
-37,
-37,
-37,
-37,
-37,
-37,
-37,
-37,
-37,
-37,
-37,
-37,
-37,
-37,
-37,
-37,
-37,
-37,
-37,
-37,
-37,
-37,
-37,
-37,
-37,
-37,
-37,
-37,
-37,
-37,
-37,
-38,
-37,
-37,
-37,
-37,
-38,
-37,
-37,
-37,
-37,
-38,
-37,
-38,
-37,
-37,
-39,
-38,
-38,
-37,
-37,
-38,
-37,
-37,
-37,
-38,
-38,
-37,
-38,
-38,
-37,
-37,
-38,
-37,
-37,
-37,
-37,
-37,
-37,
-38,
-38,
-38,
-37,
-37,
-37,
-37,
-37,
-38,
-38,
-38,
-38,
-38,
-38,
-37,
-37,
-37,
-38,
-37,
-37,
-37,
-37,
-38,
-38,
-38,
-37,
-37,
-37,
-37,
-37,
-37,
-37,
-37,
-37,
-37,
-37,
-37,
-37,
-37,
-37,
-37,
-37,
-37,
-37,
-37,
-37,
-37,
-37,
-37,
-37,
-37,
-38,
-37,
-37,
-37,
-37,
-38,
-37,
-37,
-37,
-38,
-37,
-37,
-37,
-37,
-38,
-37,
-37,
-38,
-37,
-37,
-37,
-37,
-37,
-37,
-37,
-38,
-37,
-37,
-37,
-37,
-37,
-37,
-37,
-37,
-37,
-37,
-37,
-37,
-37,
-37,
-37,
-37,
-37,
-37,
-37,
-37,
-37,
-37,
-37,
-37,
-37,
-37,
-38,
-37,
-37,
-37,
-37,
-37,
-37,
-37,
-37,
-37,
-37,
-37,
-37,
-37,
-37,
-37,
-37,
-37,
-37,
-37,
-37,
-37,
13,
31,
33,
33,
33,
33,
33,
33,
33,
33,
33,
33,
33,
32,
32,
32,
33,
33,
32,
32,
32,
32,
33,
32,
32,
32,
33,
32,
32,
32,
32,
33,
31,
32,
32,
33,
32,
32,
32,
32,
33,
32,
32,
32,
32,
32,
32,
32,
33,
32,
33,
32,
33,
33,
33,
33,
33,
33,
33,
33,
33,
33,
33,
33,
33,
33,
33,
33,
33,
33,
33,
33,
33,
33,
33,
33,
33,
33,
34,
33,
34,
33,
33,
34,
33,
34,
33,
34,
34,
33,
33,
33,
34,
34,
33,
34,
33,
34,
33,
33,
34,
33,
34,
34,
35,
34,
34,
34,
34,
34,
35,
34,
34,
34,
33,
33,
34,
35,
34,
35,
33,
34,
33,
33,
34,
34,
33,
33,
33,
34,
33,
34,
34,
33,
33,
34,
33,
34,
33,
34,
33,
33,
33,
34,
33,
34,
33,
34,
33,
33,
33,
33,
33,
33,
33,
33,
34,
33,
33,
33,
33,
33,
33,
33,
34,
33,
33,
33,
34,
33,
33,
33,
33,
33,
33,
33,
33,
33,
33,
33,
33,
33,
34,
33,
33,
33,
33,
33,
33,
34,
33,
33,
34,
34,
33,
33,
33,
34,
33,
34,
34,
34,
33,
33,
33,
33,
33,
34,
33,
33,
33,
34,
33,
34,
33,
33,
34,
33,
33,
33,
33,
33,
33,
33,
34,
33,
33,
33,
34,
33,
33,
33,
34,
34,
33,
33,
34,
33,
33,
33,
33,
33,
33,
33,
33,
33,
34,
33,
33,
34,
33,
33,
-25,
-36,
-37,
-37,
-37,
-37,
-37,
-37,
-37,
-37,
-37,
-37,
-37,
-37,
-37,
-37,
-37,
-37,
-37,
-37,
-37,
-36,
-37,
-36,
-36,
-36,
-36,
-36,
-36,
-36,
-36,
-36,
-36,
-37,
-36,
-37,
-36,
-36,
-36,
-36,
-37,
-36,
-37,
-36,
-37,
-37,
-36,
-37,
-37,
-37,
-37,
-37,
-37,
-37,
-36,
-36,
-37,
-37,
-37,
-37,
-37,
-37,
-37,
-37,
-37,
-37,
-37,
-37,
-37,
-37,
-37,
-37,
-37,
-37,
-37,
-37,
-37,
-38,
-37,
-37,
-37,
-37,
-37,
-38,
-37,
-38,
-37,
-38,
-38,
-38,
-37,
-37,
-37,
-37,
-37,
-38,
-37,
-38,
-38,
-37,
-38,
-37,
-38,
-38,
-38,
-37,
-37,
-37,
-37,
-37,
-38,
-37,
-38,
-38,
-37,
-37,
-37,
-37,
-37,
-38,
-38,
-38,
-37,
-38,
-37,
-38,
-37,
-37,
-37,
-37,
-37,
-37,
-37,
-37,
-37,
-37,
-38,
-37,
-37,
-37,
-37,
-38,
-37,
-37,
-37,
-37,
-37,
-37,
-37,
-37,
-37,
-37,
-37,
-37,
-37,
-37,
-37,
-37,
-37,
-37,
-37,
-37,
-37,
-37,
-37,
-37,
-37,
-37,
-37,
-37,
-37,
-37,
-37,
-37,
-37,
-37,
-37,
-37,
-37,
-37,
-37,
-37,
-37,
-37,
-37,
-37,
-37,
-37,
-37,
-37,
-38,
-37,
-37,
-37,
-37,
-37,
-37,
-37,
-37,
-37,
-37,
-37,
-37,
-38,
-37,
-37,
-37,
-37,
-37,
-38,
-38,
-37,
-39,
-38,
-37,
-37,
-37,
-38,
-38,
-37,
-38,
-38,
-37,
-38,
-37,
-38,
-37,
-37,
-37,
-37,
-38,
-37,
-37,
-37,
-37,
-38,
-38,
-37,
-37,
-38,
-37,
-38,
-38,
-38,
-37,
-37,
-37,
-37,
13,
31,
33,
33,
34,
33,
33,
33,
33,
33,
33,
33,
33,
33,
32,
32,
33,
33,
33,
32,
32,
33,
32,
32,
33,
32,
32,
31,
33,
32,
31,
33,
32,
32,
33,
33,
33,
32,
33,
33,
32,
33,
33,
32,
33,
32,
33,
33,
32,
33,
33,
33,
32,
33,
32,
33,
33,
32,
33,
33,
33,
33,
33,
33,
33,
33,
33,
33,
33,
33,
33,
33,
33,
34,
33,
33,
33,
35,
33,
33,
33,
34,
33,
33,
34,
33,
34,
34,
33,
33,
33,
34,
34,
34,
33,
34,
34,
33,
33,
33,
33,
33,
33,
34,
33,
33,
34,
33,
34,
34,
34,
34,
34,
34,
33,
33,
33,
34,
33,
33,
34,
34,
33,
33,
34,
33,
33,
33,
34,
34,
33,
33,
33,
33,
33,
33,
34,
34,
34,
33,
34,
33,
33,
33,
34,
33,
33,
33,
33,
33,
34,
33,
33,
33,
34,
33,
33,
33,
34,
33,
33,
35,
33,
35,
33,
33,
33,
34,
33,
33,
33,
33,
34,
34,
33,
34,
33,
33,
33,
33,
33,
33,
33,
33,
33,
33,
33,
33,
33,
34,
33,
34,
33,
34,
33,
33,
34,
33,
33,
33,
33,
33,
33,
33,
33,
33,
33,
33,
33,
34,
33,
34,
33,
33,
33,
34,
33,
33,
33,
33,
34,
34,
33,
33,
33,
33,
33,
33,
33,
33,
34,
33,
33,
33,
33,
33,
34,
34,
33,
34,
33,
34,
33,
33,
33,
34,
33,
33,
33,
35,
33,
34,
-24,
-36,
-37,
-37,
-37,
-37,
-37,
-37,
-37,
-37,
-37,
-37,
-37,
-37,
-37,
-37,
-36,
-36,
-37,
-36,
-37,
-37,
-37,
-36,
-37,
-36,
-36,
-36,
-36,
-36,
-36,
-36,
-36,
-36,
-36,
-36,
-36,
-36,
-37,
-36,
-37,
-36,
-36,
-36,
-36,
-37,
-37,
-36,
-36,
-37,
-36,
-36,
-37,
-37,
-37,
-37,
-37,
-37,
-37,
-37,
-37,
-37,
-37,
-37,
-37,
-37,
-37,
-37,
-37,
-38,
-37,
-37,
-37,
-37,
-37,
-37,
-37,
-38,
-38,
-37,
-37,
-37,
-38,
-37,
-37,
-38,
-37,
-38,
-37,
-38,
-37,
-37,
-37,
-38,
-38,
-38,
-38,
-38,
-37,
-37,
-37,
-38,
-37,
-37,
-37,
-38,
-38,
-37,
-38,
-38,
-37,
-38,
-38,
-39,
-38,
-37,
-38,
-38,
-38,
-37,
-38,
-38,
-37,
-38,
-37,
-37,
-37,
-37,
-37,
-37,
-38,
-37,
-37,
-37,
-38,
-37,
-37,
-37,
-38,
-37,
-37,
-37,
-37,
-37,
-37,
-37,
-37,
-38,
-37,
-37,
-37,
-37,
-37,
-37,
-37,
-37,
-37,
-38,
-37,
-37,
-37,
-37,
-37,
-37,
-37,
-37,
-37,
-37,
-37,
-37,
-37,
-37,
-37,
-37,
-37,
-37,
-37,
-37,
-37,
-37,
-37,
-37,
-37,
-37,
-37,
-37,
-37,
-37,
-37,
-37,
-37,
-37,
-37,
-37,
-37,
-37,
-37,
-38,
-37,
-38,
-37,
-37,
-37,
-37,
-37,
-37,
-37,
-37,
-37,
-37,
-37,
-37,
-37,
-37,
-37,
-38,
-37,
-37,
-37,
-37,
-37,
-37,
-37,
-37,
-37,
-37,
-38,
-37,
-38,
-37,
-38,
-38,
-38,
-37,
-37,
-37,
-37,
-37,
-38,
-37,
-37,
-37,
-37,
-37,
-37,
-37,
-37,
-37,
13,
31,
33,
33,
33,
33,
33,
33,
33,
33,
33,
33,
33,
32,
32,
32,
31,
32,
33,
32,
31,
32,
32,
32,
32,
32,
32,
32,
32,
32,
33,
32,
32,
31,
32,
31,
32,
32,
32,
33,
32,
33,
33,
33,
33,
33,
33,
33,
33,
33,
33,
33,
32,
33,
33,
33,
33,
33,
33,
33,
33,
33,
33,
33,
33,
33,
33,
33,
33,
33,
33,
33,
33,
33,
33,
33,
33,
33,
33,
33,
34,
33,
34,
33,
33,
34,
34,
33,
34,
33,
34,
35,
34,
33,
33,
34,
33,
33,
35,
33,
34,
33,
34,
35,
33,
33,
33,
34,
34,
34,
33,
33,
33,
33,
33,
33,
33,
33,
33,
34,
33,
34,
34,
35,
33,
35,
34,
34,
33,
33,
34,
33,
33,
33,
34,
33,
34,
33,
33,
33,
33,
34,
33,
33,
33,
33,
33,
34,
33,
33,
34,
33,
33,
33,
33,
33,
33,
33,
33,
34,
33,
33,
34,
33,
33,
33,
33,
33,
34,
33,
33,
33,
33,
34,
33,
33,
33,
33,
33,
33,
33,
34,
33,
33,
33,
33,
33,
33,
33,
34,
33,
33,
34,
33,
33,
34,
34,
33,
33,
33,
33,
34,
33,
34,
34,
34,
34,
33,
33,
33,
33,
33,
34,
33,
33,
33,
34,
33,
33,
33,
33,
33,
34,
33,
33,
33,
33,
33,
33,
33,
34,
34,
33,
33,
33,
33,
33,
33,
33,
34,
34,
33,
33,
33,
34,
33,
34,
33,
33,
34,
33,
33,
-23,
-36,
-38,
-37,
-37,
-37,
-37,
-37,
-37,
-37,
-37,
-36,
-37,
-36,
-36,
-37,
-36,
-36,
-36,
-35,
-36,
-36,
-37,
-36,
-37,
-36,
-36,
-35,
-36,
-36,
-36,
-35,
-36,
-36,
-35,
-36,
-36,
-37,
-37,
-36,
-37,
-36,
-37,
-36,
-37,
-36,
-36,
-37,
-37,
-36,
-37,
-37,
-37,
-36,
-37,
-37,
-37,
-37,
-37,
-37,
-37,
-37,
-37,
-37,
-37,
-37,
-36,
-37,
-38,
-38,
-37,
-38,
-37,
-37,
-37,
-38,
-38,
-37,
-37,
-38,
-37,
-37,
-38,
-38,
-37,
-37,
-37,
-37,
-37,
-37,
-37,
-37,
-37,
-37,
-37,
-38,
-38,
-37,
-37,
-38,
-38,
-37,
-37,
-38,
-38,
-38,
-38,
-37,
-38,
-37,
-37,
-37,
-38,
-37,
-37,
-38,
-37,
-37,
-37,
-38,
-38,
-37,
-37,
-37,
-38,
-37,
-38,
-37,
-37,
-37,
-38,
-37,
-37,
-37,
-37,
-37,
-37,
-38,
-37,
-37,
-37,
-37,
-37,
-38,
-37,
-37,
-37,
-37,
-37,
-37,
-38,
-37,
-38,
-37,
-37,
-37,
-37,
-37,
-37,
-37,
-37,
-37,
-38,
-37,
-37,
-37,
-37,
-37,
-38,
-37,
-37,
-37,
-37,
-37,
-38,
-38,
-37,
-37,
-37,
-37,
-37,
-37,
-37,
-37,
-37,
-37,
-37,
-37,
-37,
-37,
-37,
-37,
-37,
-37,
-38,
-37,
-37,
-37,
-36,
-37,
-37,
-37,
-37,
-37,
-37,
-37,
-37,
-37,
-37,
-37,
-37,
-37,
-37,
-37,
-37,
-37,
-37,
-37,
-38,
-37,
-37,
-37,
-37,
-37,
-37,
-37,
-37,
-37,
-37,
-37,
-37,
-37,
-37,
-38,
-37,
-37,
-37,
-37,
-37,
-37,
-37,
-38,
-38,
-37,
-37,
-37,
-38,
-37,
11,
32,
33,
33,
33,
33,
33,
33,
33,
33,
32,
32,
33,
32,
33,
33,
33,
32,
32,
32,
32,
32,
32,
32,
33,
32,
32,
31,
32,
32,
32,
33,
32,
32,
32,
32,
32,
32,
32,
32,
32,
33,
32,
32,
31,
33,
33,
33,
32,
32,
33,
33,
33,
32,
33,
33,
33,
33,
33,
32,
33,
33,
33,
33,
33,
32,
33,
33,
33,
33,
34,
34,
33,
33,
33,
33,
33,
34,
33,
33,
34,
35,
34,
33,
34,
33,
33,
34,
34,
33,
34,
33,
34,
33,
34,
33,
33,
33,
33,
33,
33,
34,
34,
33,
35,
34,
34,
33,
34,
33,
33,
34,
34,
33,
33,
34,
33,
34,
34,
33,
34,
33,
33,
34,
34,
33,
33,
33,
33,
34,
34,
33,
33,
34,
33,
34,
33,
34,
33,
33,
33,
33,
33,
33,
34,
33,
33,
33,
33,
33,
33,
33,
33,
34,
34,
33,
33,
33,
33,
33,
33,
33,
33,
33,
33,
33,
34,
33,
33,
34,
33,
34,
34,
33,
33,
34,
33,
34,
34,
33,
34,
34,
34,
34,
33,
33,
33,
34,
33,
33,
33,
33,
33,
33,
33,
33,
33,
33,
33,
33,
33,
33,
34,
33,
33,
33,
34,
33,
33,
33,
33,
33,
33,
33,
33,
33,
33,
33,
33,
33,
33,
34,
33,
34,
33,
33,
33,
33,
33,
33,
33,
33,
33,
33,
33,
33,
33,
33,
33,
33,
33,
33,
33,
34,
33,
33,
33,
33,
33,
33,
33,
33,
-23,
-36,
-38,
-38,
-37,
-37,
-36,
-37,
-37,
-37,
-37,
-37,
-36,
-37,
-36,
-37,
-37,
-37,
-36,
-35,
-35,
-36,
-36,
-37,
-36,
-36,
-36,
-35,
-36,
-36,
-36,
-37,
-35,
-36,
-37,
-36,
-36,
-36,
-36,
-36,
-36,
-37,
-36,
-36,
-37,
-37,
-36,
-36,
-36,
-37,
-37,
-37,
-37,
-37,
-37,
-37,
-37,
-37,
-38,
-37,
-37,
-37,
-37,
-37,
-37,
-37,
-37,
-37,
-37,
-37,
-37,
-38,
-37,
-37,
-37,
-37,
-37,
-37,
-37,
-37,
-37,
-37,
-37,
-37,
-37,
-38,
-37,
-37,
-37,
-37,
-38,
-38,
-38,
-38,
-38,
-37,
-38,
-37,
-38,
-37,
-37,
-37,
-38,
-38,
-37,
-37,
-38,
-37,
-37,
-37,
-38,
-37,
-38,
-37,
-37,
-39,
-38,
-38,
-39,
-38,
-38,
-38,
-37,
-37,
-38,
-38,
-37,
-37,
-37,
-37,
-38,
-37,
-38,
-37,
-37,
-37,
-37,
-37,
-37,
-37,
-37,
-37,
-37,
-37,
-37,
-37,
-37,
-37,
-37,
-37,
-36,
-37,
-37,
-38,
-37,
-37,
-37,
-38,
-37,
-38,
-37,
-37,
-37,
-37,
-37,
-37,
-37,
-37,
-37,
-37,
-37,
-37,
-37,
-37,
-37,
-37,
-37,
-37,
-37,
-37,
-37,
-37,
-37,
-37,
-37,
-37,
-37,
-37,
-37,
-37,
-37,
-37,
-37,
-37,
-37,
-37,
-37,
-37,
-37,
-37,
-37,
-38,
-37,
-37,
-37,
-37,
-39,
-37,
-37,
-38,
-37,
-37,
-38,
-38,
-37,
-37,
-37,
-37,
-37,
-38,
-37,
-37,
-37,
-37,
-37,
-37,
-38,
-37,
-38,
-38,
-38,
-37,
-37,
-38,
-37,
-37,
-38,
-37,
-37,
-38,
-38,
-37,
-38,
-37,
-37,
-37,
-37,
-38,
11,
