2-Passive Filters/differentiator-integrator_behaviour/data/ALL0009/A0009CH2.CSV

Memory Length,4000,
Trigger Level,0.000E+00,
Source,CH2,
Probe,1X,
Vertical Units,V,
Vertical Scale,2.000E+00,
Vertical Position,-8.000E-02,
Horizontal Units,s,
Horizontal Scale,2.500E-05,
Horizontal Position,0.000E+00,
Horizontal Mode,Main,
Sampling Period,1.000E-07,
Firmware,V1.04,
Time, ,
Mode,Fast,
Waveform Data,
24,
24,
25,
25,
25,
26,
26,
26,
27,
27,
29,
28,
29,
29,
30,
31,
31,
31,
33,
32,
33,
33,
34,
34,
35,
35,
35,
36,
37,
37,
37,
37,
38,
39,
39,
40,
40,
41,
41,
41,
41,
42,
43,
42,
43,
44,
45,
45,
45,
45,
46,
46,
47,
47,
47,
48,
49,
49,
49,
49,
50,
50,
51,
51,
51,
51,
53,
53,
53,
53,
53,
53,
55,
54,
55,
55,
55,
57,
57,
57,
57,
58,
57,
58,
59,
59,
59,
59,
61,
60,
61,
61,
61,
61,
63,
62,
63,
63,
63,
63,
64,
64,
65,
65,
65,
65,
65,
65,
66,
66,
66,
66,
67,
68,
68,
68,
69,
69,
69,
69,
69,
69,
70,
70,
71,
70,
71,
71,
71,
71,
71,
72,
72,
73,
73,
73,
73,
73,
73,
73,
74,
74,
74,
75,
74,
75,
74,
75,
75,
75,
75,
76,
77,
76,
77,
77,
77,
77,
77,
77,
77,
77,
77,
77,
78,
77,
78,
78,
79,
78,
78,
79,
78,
79,
79,
79,
79,
79,
79,
79,
79,
79,
79,
79,
79,
80,
80,
79,
79,
79,
79,
80,
79,
79,
81,
80,
81,
80,
80,
79,
79,
81,
80,
80,
81,
81,
81,
81,
80,
79,
79,
79,
79,
80,
80,
80,
79,
80,
80,
79,
79,
79,
79,
79,
80,
79,
79,
79,
79,
79,
79,
78,
78,
79,
78,
78,
79,
78,
78,
78,
78,
77,
78,
77,
78,
77,
77,
77,
77,
77,
76,
77,
77,
76,
77,
76,
76,
75,
75,
74,
75,
75,
74,
75,
74,
74,
73,
73,
73,
73,
73,
72,
73,
72,
72,
72,
72,
71,
71,
70,
70,
70,
70,
70,
70,
70,
69,
69,
69,
68,
68,
68,
68,
67,
67,
67,
67,
66,
66,
66,
66,
65,
65,
65,
65,
65,
64,
63,
63,
62,
62,
62,
61,
61,
61,
61,
61,
61,
59,
59,
59,
59,
59,
58,
57,
57,
57,
57,
57,
55,
55,
55,
55,
55,
54,
54,
54,
54,
53,
52,
51,
52,
51,
51,
51,
50,
50,
49,
49,
49,
49,
48,
48,
47,
46,
47,
45,
45,
45,
45,
43,
44,
43,
42,
43,
42,
41,
41,
41,
41,
39,
39,
39,
39,
39,
37,
37,
37,
37,
35,
35,
35,
35,
34,
34,
33,
33,
32,
31,
30,
30,
30,
30,
30,
29,
29,
29,
27,
27,
26,
25,
25,
25,
25,
24,
23,
23,
23,
22,
21,
21,
21,
21,
20,
19,
19,
19,
17,
17,
17,
17,
16,
15,
15,
14,
14,
13,
13,
13,
13,
12,
11,
10,
10,
9,
9,
9,
8,
7,
7,
7,
6,
6,
5,
5,
4,
3,
3,
3,
2,
1,
1,
1,
0,
-1,
-1,
-1,
-2,
-2,
-3,
-3,
-4,
-4,
-5,
-5,
-6,
-7,
-7,
-7,
-8,
-8,
-9,
-9,
-10,
-10,
-11,
-11,
-11,
-13,
-13,
-13,
-13,
-14,
-15,
-15,
-16,
-16,
-17,
-17,
-17,
-18,
-19,
-19,
-19,
-21,
-21,
-21,
-22,
-22,
-23,
-23,
-24,
-25,
-25,
-25,
-26,
-26,
-27,
-26,
-27,
-27,
-28,
-28,
-29,
-30,
-30,
-31,
-31,
-31,
-33,
-33,
-33,
-33,
-34,
-34,
-35,
-35,
-36,
-37,
-37,
-37,
-37,
-38,
-38,
-39,
-39,
-39,
-40,
-41,
-41,
-41,
-42,
-42,
-43,
-43,
-43,
-44,
-45,
-44,
-45,
-46,
-45,
-46,
-47,
-47,
-47,
-47,
-49,
-49,
-49,
-49,
-50,
-50,
-51,
-51,
-51,
-52,
-52,
-52,
-53,
-53,
-54,
-54,
-55,
-55,
-55,
-55,
-57,
-56,
-56,
-57,
-57,
-57,
-58,
-59,
-59,
-59,
-59,
-59,
-59,
-60,
-61,
-61,
-61,
-62,
-62,
-62,
-63,
-63,
-63,
-63,
-63,
-64,
-64,
-65,
-65,
-65,
-65,
-66,
-65,
-66,
-66,
-67,
-67,
-67,
-67,
-68,
-67,
-69,
-69,
-69,
-70,
-69,
-70,
-70,
-70,
-70,
-71,
-71,
-71,
-71,
-71,
-72,
-71,
-72,
-73,
-72,
-73,
-73,
-73,
-73,
-74,
-74,
-74,
-74,
-74,
-74,
-74,
-75,
-75,
-75,
-75,
-75,
-75,
-75,
-76,
-75,
-76,
-76,
-77,
-77,
-77,
-77,
-77,
-77,
-77,
-77,
-78,
-78,
-79,
-78,
-78,
-77,
-78,
-78,
-77,
-78,
-79,
-79,
-79,
-79,
-78,
-79,
-79,
-79,
-79,
-79,
-79,
-79,
-79,
-79,
-79,
-79,
-79,
-79,
-79,
-79,
-79,
-79,
-79,
-79,
-79,
-79,
-79,
-79,
-79,
-79,
-79,
-79,
-79,
-79,
-79,
-79,
-79,
-79,
-79,
-79,
-79,
-79,
-79,
-79,
-79,
-79,
-79,
-79,
-79,
-78,
-79,
-79,
-79,
-79,
-78,
-78,
-77,
-78,
-78,
-77,
-78,
-78,
-78,
-77,
-77,
-77,
-77,
-77,
-77,
-76,
-77,
-77,
-76,
-75,
-75,
-75,
-75,
-75,
-75,
-75,
-75,
-74,
-75,
-74,
-74,
-74,
-74,
-74,
-73,
-73,
-73,
-73,
-73,
-73,
-72,
-72,
-72,
-71,
-71,
-71,
-71,
-71,
-71,
-70,
-71,
-70,
-70,
-70,
-69,
-69,
-69,
-69,
-68,
-68,
-67,
-67,
-67,
-67,
-67,
-67,
-66,
-65,
-65,
-65,
-65,
-65,
-65,
-64,
-64,
-63,
-63,
-63,
-62,
-62,
-62,
-61,
-62,
-61,
-60,
-60,
-59,
-59,
-59,
-59,
-59,
-58,
-58,
-57,
-57,
-57,
-57,
-56,
-56,
-55,
-55,
-55,
-55,
-54,
-54,
-53,
-53,
-53,
-52,
-51,
-51,
-51,
-51,
-50,
-51,
-50,
-49,
-49,
-47,
-47,
-47,
-47,
-47,
-46,
-46,
-45,
-45,
-44,
-44,
-43,
-43,
-43,
-43,
-42,
-43,
-42,
-41,
-41,
-40,
-39,
-39,
-38,
-39,
-38,
-38,
-37,
-37,
-36,
-35,
-35,
-35,
-35,
-34,
-33,
-33,
-32,
-31,
-31,
-31,
-30,
-31,
-30,
-29,
-29,
-29,
-27,
-27,
-27,
-27,
-26,
-25,
-25,
-24,
-25,
-24,
-23,
-23,
-21,
-22,
-21,
-21,
-20,
-20,
-19,
-19,
-18,
-17,
-17,
-17,
-17,
-16,
-15,
-15,
-14,
-14,
-13,
-13,
-11,
-11,
-11,
-11,
-10,
-11,
-9,
-8,
-8,
-7,
-7,
-7,
-6,
-6,
-5,
-5,
-4,
-3,
-3,
-2,
-2,
-1,
-1,
-1,
1,
0,
1,
1,
2,
3,
3,
3,
3,
4,
5,
5,
5,
6,
7,
7,
7,
8,
9,
9,
9,
11,
11,
11,
13,
13,
13,
13,
14,
14,
15,
15,
16,
16,
17,
17,
18,
18,
19,
19,
20,
21,
21,
21,
22,
21,
22,
23,
23,
24,
25,
25,
25,
25,
26,
27,
27,
27,
27,
28,
29,
29,
30,
31,
31,
32,
33,
33,
33,
33,
34,
34,
35,
35,
36,
36,
37,
37,
37,
37,
38,
38,
39,
39,
40,
41,
41,
41,
42,
42,
43,
44,
43,
45,
45,
45,
45,
45,
46,
47,
47,
47,
47,
48,
49,
49,
49,
49,
50,
50,
51,
51,
51,
52,
52,
53,
53,
53,
54,
54,
54,
55,
55,
55,
56,
57,
57,
57,
57,
57,
58,
58,
58,
59,
59,
59,
60,
61,
61,
61,
61,
62,
62,
62,
63,
63,
63,
64,
64,
63,
65,
65,
65,
65,
65,
65,
66,
66,
67,
67,
67,
67,
68,
68,
69,
69,
69,
69,
69,
69,
69,
70,
70,
71,
71,
70,
71,
71,
73,
71,
71,
73,
73,
73,
73,
73,
73,
73,
73,
74,
74,
74,
75,
75,
75,
75,
75,
75,
75,
76,
77,
76,
77,
76,
77,
77,
77,
77,
77,
77,
78,
78,
77,
78,
77,
77,
77,
78,
78,
78,
79,
79,
78,
79,
79,
79,
79,
79,
79,
79,
79,
79,
80,
79,
79,
80,
79,
79,
79,
81,
81,
80,
80,
79,
79,
80,
80,
80,
80,
81,
80,
81,
79,
80,
80,
80,
80,
80,
80,
80,
81,
81,
80,
81,
79,
79,
80,
79,
79,
80,
80,
79,
79,
79,
79,
79,
79,
79,
79,
79,
79,
78,
78,
78,
78,
78,
78,
78,
78,
77,
77,
77,
77,
77,
77,
77,
77,
77,
77,
77,
76,
77,
76,
76,
75,
76,
75,
75,
75,
74,
74,
74,
73,
73,
73,
73,
73,
73,
73,
73,
73,
72,
71,
71,
72,
71,
71,
71,
70,
70,
70,
69,
70,
69,
69,
69,
69,
69,
69,
68,
68,
67,
67,
67,
67,
67,
66,
66,
65,
65,
65,
65,
65,
65,
63,
64,
63,
63,
63,
62,
62,
61,
61,
61,
61,
60,
60,
59,
59,
59,
59,
58,
57,
57,
57,
57,
57,
56,
56,
55,
55,
54,
54,
53,
53,
53,
53,
53,
53,
52,
51,
51,
51,
50,
49,
49,
49,
49,
49,
48,
47,
47,
46,
46,
46,
45,
45,
45,
45,
44,
43,
42,
43,
41,
41,
41,
41,
40,
40,
39,
39,
38,
38,
37,
37,
37,
37,
37,
36,
35,
34,
33,
33,
33,
33,
33,
32,
31,
31,
31,
30,
29,
29,
29,
28,
27,
27,
26,
26,
25,
25,
25,
25,
23,
23,
23,
22,
22,
21,
21,
21,
20,
19,
18,
18,
18,
18,
17,
17,
17,
16,
14,
15,
13,
13,
13,
13,
13,
11,
11,
10,
10,
9,
9,
9,
8,
9,
7,
6,
6,
6,
5,
5,
3,
5,
3,
3,
2,
1,
1,
1,
0,
0,
-1,
-1,
-1,
-2,
-3,
-3,
-3,
-4,
-5,
-5,
-6,
-7,
-6,
-8,
-7,
-9,
-9,
-9,
-10,
-10,
-11,
-11,
-11,
-12,
-13,
-13,
-14,
-14,
-15,
-15,
-15,
-17,
-17,
-17,
-18,
-18,
-19,
-19,
-19,
-20,
-21,
-21,
-21,
-23,
-23,
-23,
-23,
-24,
-25,
-25,
-25,
-26,
-27,
-27,
-27,
-28,
-28,
-28,
-29,
-30,
-30,
-31,
-31,
-31,
-31,
-33,
-33,
-33,
-34,
-35,
-35,
-35,
-35,
-37,
-37,
-37,
-38,
-38,
-39,
-39,
-39,
-39,
-41,
-41,
-41,
-41,
-42,
-42,
-42,
-43,
-43,
-44,
-44,
-44,
-45,
-46,
-46,
-46,
-47,
-47,
-47,
-47,
-48,
-49,
-49,
-50,
-50,
-50,
-51,
-51,
-51,
-52,
-52,
-52,
-53,
-53,
-54,
-54,
-55,
-55,
-55,
-55,
-55,
-56,
-56,
-57,
-57,
-58,
-58,
-58,
-59,
-59,
-59,
-59,
-60,
-60,
-61,
-61,
-61,
-62,
-62,
-62,
-63,
-62,
-63,
-63,
-63,
-64,
-64,
-65,
-65,
-64,
-65,
-65,
-66,
-66,
-66,
-67,
-67,
-67,
-68,
-67,
-68,
-69,
-69,
-70,
-69,
-69,
-70,
-70,
-70,
-71,
-71,
-71,
-71,
-71,
-71,
-71,
-72,
-72,
-72,
-71,
-73,
-73,
-73,
-73,
-74,
-74,
-75,
-74,
-75,
-74,
-75,
-75,
-75,
-75,
-75,
-75,
-75,
-76,
-76,
-75,
-76,
-77,
-76,
-77,
-77,
-77,
-77,
-77,
-77,
-77,
-78,
-77,
-78,
-78,
-78,
-78,
-78,
-78,
-78,
-78,
-78,
-78,
-79,
-79,
-79,
-79,
-79,
-79,
-79,
-79,
-79,
-79,
-79,
-79,
-79,
-79,
-79,
-79,
-79,
-79,
-79,
-79,
-79,
-79,
-79,
-79,
-79,
-79,
-79,
-79,
-79,
-79,
-79,
-79,
-80,
-79,
-79,
-79,
-79,
-79,
-79,
-79,
-78,
-79,
-79,
-79,
-79,
-78,
-79,
-79,
-79,
-79,
-79,
-78,
-78,
-78,
-78,
-78,
-78,
-77,
-78,
-78,
-78,
-77,
-77,
-77,
-77,
-77,
-77,
-76,
-77,
-76,
-75,
-76,
-76,
-76,
-75,
-75,
-75,
-75,
-75,
-75,
-74,
-74,
-75,
-74,
-74,
-74,
-74,
-73,
-73,
-73,
-73,
-73,
-72,
-72,
-72,
-71,
-71,
-71,
-71,
-71,
-71,
-71,
-70,
-69,
-70,
-69,
-69,
-69,
-69,
-69,
-69,
-67,
-67,
-67,
-67,
-66,
-67,
-66,
-65,
-66,
-65,
-65,
-65,
-65,
-64,
-64,
-63,
-63,
-63,
-62,
-63,
-63,
-61,
-61,
-61,
-61,
-60,
-60,
-61,
-59,
-59,
-59,
-58,
-58,
-58,
-57,
-58,
-57,
-57,
-57,
-56,
-55,
-55,
-55,
-54,
-54,
-54,
-53,
-53,
-54,
-52,
-51,
-51,
-51,
-51,
-50,
-50,
-49,
-49,
-49,
-48,
-47,
-47,
-47,
-47,
-46,
-46,
-46,
-45,
-45,
-45,
-44,
-43,
-43,
-43,
-42,
-42,
-41,
-41,
-41,
-41,
-39,
-39,
-39,
-38,
-38,
-38,
-37,
-37,
-36,
-35,
-35,
-35,
-34,
-34,
-33,
-33,
-33,
-31,
-31,
-31,
-30,
-29,
-29,
-29,
-29,
-28,
-27,
-27,
-27,
-26,
-26,
-25,
-25,
-25,
-24,
-23,
-23,
-23,
-22,
-21,
-22,
-20,
-20,
-19,
-19,
-19,
-19,
-18,
-17,
-17,
-16,
-17,
-15,
-15,
-14,
-14,
-13,
-13,
-11,
-11,
-11,
-11,
-11,
-10,
-9,
-8,
-8,
-7,
-7,
-7,
-7,
-6,
-6,
-5,
-3,
-5,
-3,
-2,
-2,
-2,
-1,
-1,
0,
1,
1,
1,
2,
2,
2,
3,
3,
4,
5,
5,
5,
6,
7,
7,
9,
9,
9,
9,
9,
10,
11,
11,
12,
13,
13,
13,
14,
14,
14,
15,
15,
16,
17,
17,
17,
18,
18,
19,
19,
20,
21,
21,
21,
22,
22,
23,
23,
24,
25,
25,
25,
25,
25,
27,
27,
27,
27,
28,
29,
29,
29,
30,
31,
31,
32,
33,
33,
33,
34,
34,
35,
35,
36,
36,
37,
37,
37,
37,
38,
39,
39,
39,
40,
40,
41,
41,
42,
42,
43,
43,
43,
44,
45,
45,
45,
45,
46,
46,
47,
47,
47,
47,
49,
49,
49,
49,
49,
51,
50,
51,
51,
52,
53,
53,
53,
53,
53,
53,
55,
55,
55,
55,
55,
57,
57,
57,
57,
57,
57,
58,
58,
59,
59,
59,
61,
60,
61,
61,
61,
61,
62,
63,
63,
63,
63,
63,
64,
65,
65,
65,
65,
65,
65,
65,
66,
67,
67,
67,
67,
67,
68,
68,
67,
69,
69,
69,
69,
69,
69,
70,
70,
70,
70,
71,
71,
71,
71,
72,
72,
72,
73,
73,
73,
73,
73,
73,
73,
74,
74,
74,
74,
74,
75,
75,
76,
75,
75,
76,
75,
76,
77,
76,
77,
77,
77,
77,
77,
77,
77,
77,
78,
77,
78,
77,
78,
79,
78,
79,
78,
78,
79,
78,
79,
79,
79,
79,
79,
79,
79,
79,
79,
79,
80,
79,
80,
79,
79,
80,
79,
79,
80,
80,
80,
80,
80,
80,
79,
80,
79,
80,
80,
80,
81,
80,
80,
79,
80,
80,
81,
80,
80,
80,
80,
79,
79,
79,
79,
79,
79,
79,
79,
79,
79,
79,
79,
79,
79,
79,
79,
78,
78,
78,
78,
78,
79,
78,
77,
77,
77,
77,
77,
77,
77,
77,
77,
77,
76,
77,
75,
76,
76,
76,
76,
75,
75,
74,
75,
74,
74,
74,
74,
74,
73,
73,
73,
73,
73,
72,
72,
73,
72,
71,
71,
71,
71,
71,
71,
70,
70,
69,
70,
69,
69,
69,
69,
69,
69,
68,
68,
67,
67,
67,
67,
66,
66,
65,
65,
65,
65,
65,
65,
64,
65,
63,
63,
63,
63,
63,
62,
61,
61,
61,
61,
60,
59,
59,
59,
58,
59,
58,
59,
57,
57,
57,
56,
55,
56,
55,
55,
55,
54,
54,
53,
53,
53,
52,
52,
52,
51,
51,
51,
50,
50,
49,
49,
49,
49,
49,
48,
47,
46,
46,
46,
45,
45,
45,
44,
44,
43,
42,
42,
41,
42,
41,
41,
40,
39,
39,
39,
39,
38,
38,
37,
36,
36,
36,
35,
35,
35,
34,
34,
33,
33,
32,
32,
30,
31,
30,
30,
29,
29,
29,
28,
27,
27,
26,
26,
25,
25,
25,
24,
23,
23,
22,
22,
22,
21,
21,
21,
19,
19,
19,
19,
18,
17,
17,
17,
15,
15,
15,
15,
14,
13,
13,
13,
13,
12,
11,
11,
10,
9,
9,
9,
9,
8,
7,
7,
6,
5,
5,
5,
4,
5,
3,
3,
2,
1,
1,
1,
0,
1,
-1,
-1,
-1,
-2,
-3,
-3,
-3,
-5,
-5,
-5,
-6,
-7,
-7,
-7,
-8,
-9,
-9,
-9,
-10,
-10,
-11,
-11,
-11,
-12,
-13,
-13,
-14,
-14,
-15,
-15,
-15,
-16,
-17,
-18,
-18,
-19,
-19,
-19,
-19,
-20,
-21,
-21,
-21,
-23,
-23,
-23,
-23,
-24,
-25,
-25,
-26,
-26,
-27,
-27,
-27,
-27,
-28,
-29,
-29,
-29,
-31,
-31,
-31,
-31,
-32,
-32,
-33,
-33,
-34,
-35,
-35,
-35,
-36,
-36,
-37,
-37,
-38,
-38,
-38,
-39,
-39,
-39,
-40,
-41,
-41,
-42,
-42,
-42,
-43,
-43,
-44,
-43,
-44,
-45,
-45,
-45,
-46,
-46,
-47,
-47,
-47,
-48,
-48,
-47,
-49,
-49,
-50,
-49,
-51,
-51,
-51,
-52,
-51,
-52,
-53,
-53,
-54,
-54,
-55,
-55,
-55,
-55,
-56,
-55,
-56,
-56,
-57,
-58,
-58,
-58,
-59,
-59,
-59,
-60,
-60,
-59,
-60,
-60,
-61,
-62,
-62,
-62,
-62,
-63,
-63,
-63,
-63,
-64,
-64,
-65,
-65,
-65,
-65,
-66,
-66,
-66,
-67,
-67,
-67,
-67,
-67,
-67,
-68,
-68,
-69,
-69,
-69,
-69,
-70,
-70,
-70,
-70,
-71,
-71,
-71,
-71,
-71,
-71,
-71,
-72,
-73,
-73,
-73,
-72,
-73,
-73,
-74,
-74,
-74,
-74,
-74,
-75,
-74,
-75,
-75,
-75,
-75,
-75,
-75,
-75,
-76,
-75,
-77,
-75,
-77,
-77,
-77,
-77,
-77,
-77,
-77,
-77,
-77,
-77,
-77,
-77,
-78,
-78,
-78,
-78,
-79,
-78,
-79,
-78,
-79,
-79,
-79,
-79,
-79,
-79,
-79,
-79,
-79,
-79,
-79,
-79,
-79,
-79,
-79,
-79,
-79,
-79,
-79,
-79,
-79,
-79,
-79,
-79,
-79,
-79,
-79,
-79,
-79,
-79,
-79,
-79,
-79,
-79,
-79,
-79,
-79,
-79,
-79,
-79,
-79,
-79,
-79,
-79,
-79,
-79,
-79,
-79,
-79,
-79,
-79,
-78,
-78,
-78,
-78,
-78,
-78,
-78,
-78,
-78,
-77,
-77,
-77,
-77,
-77,
-77,
-77,
-77,
-77,
-77,
-76,
-76,
-75,
-75,
-75,
-75,
-75,
-75,
-75,
-75,
-75,
-75,
-74,
-74,
-74,
-74,
-74,
-73,
-73,
-73,
-73,
-73,
-72,
-71,
-71,
-71,
-71,
-71,
-71,
-71,
-71,
-71,
-70,
-70,
-70,
-70,
-69,
-69,
-69,
-68,
-69,
-67,
-67,
-67,
-67,
-67,
-66,
-67,
-66,
-66,
-65,
-65,
-65,
-64,
-64,
-64,
-64,
-63,
-63,
-63,
-63,
-62,
-61,
-62,
-61,
-61,
-61,
-60,
-60,
-59,
-59,
-59,
-59,
-58,
-58,
-57,
-57,
-57,
-56,
-56,
-56,
-55,
-55,
-55,
-55,
-54,
-53,
-53,
-53,
-52,
-51,
-51,
-51,
-51,
-51,
-51,
-50,
-50,
-49,
-48,
-48,
-47,
-47,
-47,
-46,
-46,
-46,
-45,
-45,
-45,
-44,
-43,
-43,
-43,
-43,
-43,
-42,
-41,
-41,
-41,
-41,
-39,
-39,
-39,
-39,
-38,
-38,
-37,
-37,
-36,
-36,
-34,
-35,
-35,
-35,
-34,
-33,
-32,
-32,
-31,
-31,
-31,
-30,
-30,
-29,
-29,
-28,
-27,
-27,
-27,
-27,
-26,
-26,
-25,
-25,
-24,
-23,
-23,
-23,
-22,
-21,
-20,
-21,
-20,
-19,
-19,
-19,
-18,
-18,
-17,
-17,
-17,
-15,
-15,
-15,
-14,
-13,
-13,
-13,
-12,
-11,
-11,
-11,
-10,
-10,
-9,
-9,
-8,
-7,
-7,
-7,
-6,
-6,
-5,
-5,
-4,
-3,
-3,
-3,
-2,
-1,
-1,
0,
1,
1,
1,
1,
2,
2,
3,
3,
3,
4,
5,
5,
5,
6,
7,
7,
7,
7,
9,
9,
9,
10,
10,
11,
11,
13,
13,
13,
14,
14,
15,
15,
15,
15,
17,
17,
17,
18,
18,
19,
20,
20,
20,
21,
21,
21,
23,
23,
23,
24,
25,
25,
25,
25,
26,
26,
27,
27,
29,
29,
29,
29,
30,
30,
31,
32,
32,
33,
33,
33,
33,
34,
35,
35,
36,
36,
37,
37,
37,
37,
38,
38,
39,
39,
39,
40,
41,
41,
42,
42,
42,
43,
44,
44,
44,
45,
45,
45,
46,
46,
47,
47,
47,
48,
48,
49,
49,
49,
49,
50,
51,
51,
52,
51,
53,
53,
53,
53,
53,
54,
55,
55,
55,
55,
55,
57,
57,
57,
57,
57,
58,
58,
58,
59,
59,
59,
60,
60,
61,
61,
61,
62,
62,
62,
62,
62,
63,
64,
64,
65,
65,
65,
65,
65,
65,
66,
66,
66,
67,
67,
67,
68,
69,
68,
69,
68,
69,
69,
69,
69,
69,
70,
70,
70,
70,
71,
71,
71,
71,
71,
72,
73,
73,
73,
73,
73,
73,
73,
74,
73,
74,
74,
74,
75,
75,
75,
75,
75,
76,
75,
77,
77,
77,
76,
77,
77,
77,
77,
77,
77,
78,
77,
77,
78,
78,
77,
77,
78,
79,
79,
78,
79,
79,
79,
79,
79,
79,
79,
79,
80,
79,
79,
79,
79,
79,
79,
79,
80,
80,
79,
80,
80,
79,
79,
80,
80,
80,
80,
80,
81,
81,
79,
81,
79,
79,
80,
80,
80,
80,
80,
80,
80,
80,
79,
79,
79,
79,
79,
79,
79,
79,
79,
80,
79,
79,
79,
79,
78,
78,
79,
79,
78,
79,
79,
79,
78,
78,
78,
78,
78,
78,
77,
77,
77,
77,
77,
77,
77,
77,
76,
77,
77,
77,
75,
76,
75,
75,
74,
75,
74,
74,
75,
74,
74,
74,
73,
73,
73,
73,
72,
73,
73,
72,
72,
71,
71,
71,
71,
70,
70,
70,
70,
70,
69,
69,
69,
69,
69,
69,
69,
68,
67,
67,
67,
67,
66,
66,
66,
65,
65,
65,
65,
65,
64,
64,
64,
63,
63,
63,
62,
62,
61,
61,
61,
61,
61,
60,
59,
59,
59,
58,
57,
58,
57,
57,
57,
56,
56,
56,
55,
55,
55,
55,
54,
53,
53,
53,
53,
52,
52,
51,
51,
51,
51,
50,
49,
49,
49,
49,
48,
47,
47,
46,
46,
45,
45,
45,
45,
44,
43,
44,
43,
42,
42,
41,
41,
41,
41,
40,
39,
39,
39,
38,
37,
37,
37,
37,
36,
35,
35,
34,
33,
34,
33,
33,
33,
32,
31,
30,
31,
30,
29,
29,
28,
28,
27,
27,
26,
26,
26,
25,
25,
25,
23,
23,
23,
22,
21,
21,
21,
21,
19,
19,
18,
19,
18,
17,
17,
17,
17,
15,
15,
15,
14,
13,
13,
13,
12,
12,
11,
10,
10,
9,
9,
9,
8,
8,
7,
6,
6,
5,
5,
4,
4,
4,
3,
3,
2,
1,
1,
1,
0,
0,
-1,
-1,
-2,
-2,
-3,
-3,
-3,
-4,
-5,
-5,
-6,
-6,
-7,
-7,
-8,
-7,
-9,
-10,
-10,
-11,
-11,
-11,
-11,
-11,
-13,
-13,
-14,
-14,
-14,
-15,
-15,
-17,
-17,
-17,
-17,
-18,
-19,
-19,
-19,
-20,
-21,
-21,
-22,
-22,
-23,
-23,
-23,
-24,
-25,
-25,
-25,
-26,
-27,
-27,
-27,
-27,
-29,
-29,
-29,
-29,
-30,
-31,
-31,
-31,
-32,
-32,
-32,
-33,
-33,
-34,
-35,
-35,
-36,
-36,
-37,
-37,
-37,
-38,
-39,
-39,
-39,
-39,
-40,
-40,
-41,
-42,
-42,
-43,
-43,
-43,
-43,
-43,
-45,
-45,
-45,
-45,
-46,
-46,
-47,
-47,
-47,
-48,
-48,
-49,
-49,
-49,
-50,
-50,
-51,
-51,
-51,
-51,
-52,
-53,
-53,
-53,
-54,
-54,
-55,
-55,
-55,
-55,
-56,
-56,
-57,
-57,
-57,
-57,
-57,
-59,
-59,
-59,
-59,
-59,
-59,
-60,
-60,
-61,
-61,
-61,
-62,
-62,
-62,
-63,
-63,
-63,
-63,
-64,
-65,
-65,
-66,
-65,
-65,
-65,
-65,
-66,
-66,
-66,
-67,
-67,
-67,
-68,
-69,
-69,
-69,
-69,
-69,
-69,
-70,
-70,
-71,
-71,
-71,
-71,
-71,
-71,
-71,
-71,
-72,
-72,
-73,
-73,
-73,
-73,
-73,
-73,
-74,
-74,
-74,
-74,
-75,
-74,
-75,
-75,
-75,
-75,
-75,
-75,
-76,
-76,
-76,
-76,
-77,
-75,
-77,
-77,
-77,
-77,
-77,
-78,
-77,
-77,
-77,
-77,
-78,
-78,
-78,
-79,
-79,
-78,
-79,
-78,
-79,
-79,
-79,
-79,
-79,
-79,
-79,
-79,
-79,
-79,
-79,
-79,
-79,
-79,
-79,
-79,
-79,
-79,
-79,
-79,
-79,
-79,
-79,
-79,
-79,
-79,
-79,
-79,
-79,
-79,
-79,
-79,
-79,
-79,
-79,
-79,
-79,
-79,
-79,
-79,
-79,
-79,
-79,
-79,
-79,
-79,
-78,
-79,
-79,
-79,
-79,
-78,
-79,
-78,
-79,
-78,
-78,
-78,
-78,
-77,
-78,
-78,
-78,
-77,
-77,
-77,
-77,
-77,
-77,
-77,
-77,
-77,
-77,
-76,
-76,
-76,
-75,
-75,
-75,
-75,
-75,
-75,
-75,
-75,
-75,
-75,
-74,
-73,
-73,
-73,
-74,
-73,
-73,
-73,
-73,
-72,
-71,
-71,
-71,
-71,
-71,
-71,
-71,
-71,
-71,
-70,
-70,
-69,
-69,
-69,
-69,
-69,
-69,
-68,
-68,
-67,
-67,
-66,
-67,
-67,
-66,
-65,
-66,
-66,
-65,
-64,
-63,
-64,
-63,
-63,
-63,
-63,
-63,
-62,
-62,
-61,
-61,
-60,
-61,
-61,
-60,
-59,
-59,
-59,
-59,
-58,
-58,
-57,
-57,
-57,
-57,
-57,
-57,
-55,
-55,
-55,
-54,
-54,
-54,
-53,
-53,
-52,
-53,
-51,
-51,
-51,
-51,
-50,
-51,
-49,
-49,
-49,
-48,
-48,
-48,
-47,
-47,
-47,
-46,
-46,
-45,
-45,
-44,
-43,
-44,
-43,
-43,
-42,
-42,
-42,
-41,
-41,
-40,
-39,
-39,
-39,
-39,
-38,
-38,
-37,
-37,
-36,
-35,
-35,
-35,
-34,
-35,
-33,
-33,
-33,
-31,
-31,
-31,
-31,
-30,
-29,
-30,
-29,
-29,
-27,
-27,
-27,
-26,
-26,
-25,
-25,
-25,
-23,
-23,
-23,
-23,
-22,
-22,
-22,
-21,
-20,
-19,
-19,
-19,
-18,
-17,
-17,
-17,
-16,
-15,
-15,
-15,
-14,
-14,
-13,
-13,
-12,
-12,
-11,
-11,
-11,
-9,
-9,
-9,
-7,
-8,
-7,
-7,
-7,
-6,
-5,
-5,
-4,
-3,
-3,
-3,
-2,
-2,
-1,
-1,
1,
0,
1,
1,
1,
2,
3,
3,
4,
4,
5,
5,
5,
5,
7,
7,
7,
9,
9,
9,
10,
10,
11,
11,
11,
13,
13,
13,
14,
14,
15,
15,
16,
15,
17,
17,
18,
17,
19,
19,
20,
20,
21,
21,
21,
21,
23,
22,
