2-Passive Filters/differentiator-integrator_behaviour/data/ALL0018/A0018CH1.CSV

Memory Length,4000,
Trigger Level,0.000E+00,
Source,CH1,
Probe,1X,
Vertical Units,V,
Vertical Scale,5.000E+00,
Vertical Position,0.000E+00,
Horizontal Units,s,
Horizontal Scale,2.500E-07,
Horizontal Position,0.000E+00,
Horizontal Mode,Main,
Sampling Period,1.000E-08,
Firmware,V1.04,
Time, ,
Mode,Fast,
Waveform Data,
24,
24,
36,
44,
41,
36,
33,
35,
36,
34,
34,
35,
37,
38,
36,
36,
36,
37,
36,
36,
35,
36,
36,
36,
36,
37,
36,
36,
36,
36,
36,
36,
36,
36,
36,
36,
36,
36,
36,
36,
36,
36,
36,
36,
36,
36,
36,
34,
20,
2,
-10,
-18,
-30,
-41,
-42,
-37,
-32,
-33,
-34,
-34,
-34,
-34,
-36,
-37,
-36,
-35,
-36,
-36,
-36,
-35,
-34,
-36,
-36,
-36,
-36,
-36,
-36,
-36,
-35,
-36,
-34,
-36,
-35,
-36,
-36,
-36,
-36,
-35,
-36,
-35,
-36,
-36,
-35,
-36,
-36,
-36,
-36,
-30,
-10,
6,
16,
24,
36,
44,
41,
35,
34,
35,
36,
34,
34,
35,
37,
38,
36,
36,
36,
36,
36,
36,
36,
36,
36,
37,
36,
36,
37,
36,
36,
36,
36,
36,
36,
36,
36,
36,
36,
36,
36,
36,
36,
36,
36,
36,
36,
36,
36,
35,
22,
2,
-10,
-18,
-30,
-40,
-42,
-37,
-32,
-33,
-34,
-34,
-33,
-34,
-36,
-38,
-36,
-36,
-35,
-36,
-36,
-35,
-34,
-35,
-36,
-36,
-36,
-36,
-35,
-36,
-36,
-35,
-36,
-36,
-36,
-36,
-36,
-35,
-36,
-36,
-36,
-35,
-36,
-36,
-36,
-36,
-36,
-34,
-36,
-30,
-12,
6,
15,
24,
36,
44,
41,
36,
33,
34,
36,
35,
34,
35,
38,
38,
36,
36,
36,
37,
36,
36,
36,
36,
37,
36,
36,
36,
36,
36,
36,
36,
36,
36,
36,
36,
36,
36,
36,
36,
36,
36,
36,
35,
36,
36,
36,
36,
36,
34,
20,
1,
-10,
-18,
-30,
-41,
-42,
-37,
-32,
-33,
-34,
-34,
-32,
-34,
-36,
-37,
-37,
-35,
-35,
-36,
-36,
-35,
-34,
-36,
-35,
-36,
-36,
-35,
-36,
-36,
-36,
-35,
-36,
-36,
-36,
-36,
-36,
-36,
-36,
-36,
-36,
-35,
-36,
-36,
-36,
-34,
-35,
-36,
-36,
-30,
-11,
6,
15,
24,
36,
44,
42,
36,
33,
34,
36,
35,
34,
35,
37,
38,
36,
36,
36,
38,
36,
36,
36,
36,
37,
36,
36,
36,
36,
36,
36,
36,
36,
36,
36,
36,
36,
36,
36,
36,
36,
36,
36,
36,
36,
36,
36,
36,
36,
35,
20,
2,
-10,
-18,
-30,
-40,
-42,
-37,
-33,
-32,
-34,
-34,
-33,
-34,
-36,
-37,
-36,
-36,
-35,
-36,
-36,
-35,
-35,
-36,
-36,
-36,
-35,
-36,
-36,
-36,
-35,
-35,
-35,
-36,
-35,
-36,
-36,
-36,
-36,
-35,
-35,
-36,
-36,
-36,
-36,
-36,
-35,
-35,
-36,
-30,
-12,
6,
14,
23,
36,
44,
42,
36,
33,
35,
36,
34,
34,
36,
37,
38,
36,
36,
36,
37,
36,
36,
36,
36,
36,
36,
36,
36,
36,
36,
36,
36,
36,
36,
36,
36,
36,
36,
36,
36,
37,
36,
36,
36,
36,
36,
36,
36,
36,
34,
21,
2,
-10,
-18,
-30,
-40,
-42,
-37,
-33,
-32,
-34,
-34,
-34,
-34,
-36,
-38,
-37,
-36,
-36,
-36,
-36,
-35,
-36,
-36,
-36,
-36,
-36,
-36,
-36,
-36,
-36,
-34,
-35,
-36,
-35,
-35,
-36,
-35,
-36,
-36,
-35,
-36,
-36,
-35,
-36,
-36,
-36,
-36,
-35,
-30,
-11,
6,
16,
24,
36,
44,
42,
36,
34,
34,
36,
34,
34,
35,
38,
38,
36,
36,
36,
36,
36,
36,
36,
36,
36,
36,
36,
37,
36,
36,
36,
36,
36,
36,
36,
36,
36,
36,
36,
36,
36,
36,
36,
36,
36,
36,
36,
36,
36,
34,
20,
2,
-10,
-18,
-30,
-40,
-42,
-37,
-32,
-33,
-34,
-34,
-33,
-34,
-36,
-36,
-36,
-35,
-35,
-36,
-36,
-35,
-36,
-36,
-36,
-36,
-35,
-35,
-36,
-36,
-36,
-35,
-36,
-36,
-36,
-36,
-36,
-36,
-36,
-36,
-35,
-36,
-36,
-36,
-36,
-36,
-36,
-35,
-36,
-30,
-12,
6,
15,
24,
36,
44,
42,
36,
33,
34,
35,
34,
34,
35,
38,
38,
37,
36,
37,
37,
36,
36,
36,
36,
36,
36,
36,
36,
37,
36,
36,
36,
36,
36,
36,
36,
36,
36,
36,
36,
36,
36,
36,
36,
36,
36,
36,
36,
36,
34,
20,
2,
-10,
-18,
-30,
-40,
-42,
-38,
-33,
-32,
-34,
-34,
-34,
-34,
-36,
-38,
-37,
-36,
-35,
-36,
-36,
-35,
-35,
-36,
-36,
-36,
-34,
-36,
-36,
-36,
-36,
-36,
-36,
-36,
-36,
-35,
-36,
-35,
-36,
-36,
-36,
-36,
-36,
-36,
-35,
-35,
-36,
-36,
-36,
-30,
-11,
6,
14,
24,
36,
44,
42,
35,
33,
34,
36,
34,
34,
36,
37,
38,
36,
36,
36,
37,
36,
36,
36,
36,
36,
36,
36,
36,
36,
37,
36,
36,
36,
36,
36,
36,
36,
36,
36,
36,
36,
36,
36,
36,
36,
36,
36,
36,
36,
35,
21,
2,
-10,
-18,
-30,
-40,
-42,
-38,
-32,
-32,
-34,
-34,
-33,
-34,
-36,
-37,
-37,
-36,
-36,
-36,
-36,
-36,
-34,
-35,
-36,
-36,
-35,
-36,
-36,
-36,
-36,
-36,
-34,
-36,
-36,
-36,
-35,
-36,
-36,
-36,
-36,
-35,
-36,
-36,
-35,
-36,
-36,
-35,
-36,
-30,
-12,
6,
14,
24,
36,
44,
42,
36,
33,
35,
36,
34,
34,
35,
37,
38,
36,
36,
36,
37,
37,
36,
35,
36,
36,
36,
36,
36,
36,
36,
36,
36,
36,
36,
36,
36,
36,
36,
36,
36,
36,
36,
36,
36,
36,
36,
36,
36,
36,
34,
20,
2,
-10,
-18,
-30,
-41,
-42,
-37,
-32,
-33,
-34,
-34,
-33,
-33,
-36,
-38,
-36,
-36,
-36,
-36,
-36,
-35,
-34,
-35,
-36,
-36,
-36,
-36,
-36,
-36,
-36,
-36,
-36,
-36,
-35,
-36,
-36,
-36,
-36,
-36,
-36,
-36,
-36,
-36,
-36,
-36,
-36,
-36,
-36,
-30,
-11,
6,
14,
24,
36,
44,
42,
36,
33,
34,
36,
34,
34,
35,
36,
38,
36,
35,
38,
37,
36,
36,
36,
36,
37,
36,
36,
36,
36,
36,
36,
36,
36,
36,
36,
36,
36,
36,
36,
36,
36,
36,
36,
36,
36,
36,
36,
36,
36,
34,
22,
2,
-10,
-18,
-31,
-40,
-42,
-36,
-32,
-33,
-35,
-34,
-33,
-33,
-36,
-36,
-36,
-35,
-35,
-36,
-36,
-35,
-36,
-36,
-36,
-36,
-36,
-36,
-36,
-36,
-35,
-36,
-36,
-36,
-35,
-36,
-35,
-36,
-36,
-36,
-35,
-36,
-36,
-36,
-35,
-36,
-36,
-36,
-35,
-30,
-11,
6,
15,
24,
36,
44,
41,
36,
33,
34,
36,
34,
33,
35,
38,
38,
36,
36,
37,
36,
38,
36,
35,
36,
37,
36,
36,
36,
36,
36,
36,
36,
36,
36,
36,
36,
37,
36,
36,
36,
36,
36,
36,
36,
36,
36,
36,
36,
36,
35,
22,
2,
-10,
-16,
-30,
-40,
-42,
-38,
-32,
-32,
-35,
-34,
-32,
-34,
-36,
-38,
-36,
-35,
-36,
-36,
-36,
-35,
-35,
-35,
-36,
-36,
-35,
-36,
-36,
-36,
-35,
-36,
-36,
-36,
-36,
-35,
-35,
-36,
-36,
-36,
-35,
-36,
-36,
-36,
-36,
-36,
-36,
-36,
-34,
-30,
-12,
6,
15,
24,
36,
45,
42,
35,
33,
34,
36,
34,
34,
35,
37,
38,
37,
36,
36,
36,
36,
36,
35,
36,
37,
36,
36,
36,
36,
36,
36,
35,
36,
36,
36,
36,
36,
36,
36,
36,
36,
36,
36,
36,
36,
36,
36,
36,
36,
35,
22,
2,
-10,
-18,
-30,
-40,
-42,
-37,
-32,
-33,
-34,
-34,
-33,
-33,
-36,
-38,
-36,
-35,
-36,
-36,
-36,
-35,
-35,
-36,
-36,
-36,
-36,
-36,
-36,
-36,
-36,
-36,
-34,
-35,
-36,
-35,
-36,
-36,
-35,
-35,
-35,
-36,
-36,
-36,
-36,
-35,
-36,
-36,
-36,
-30,
-12,
6,
15,
24,
35,
44,
42,
36,
34,
34,
36,
34,
34,
35,
38,
38,
36,
36,
36,
37,
36,
36,
36,
36,
36,
36,
36,
36,
36,
36,
36,
36,
36,
36,
36,
36,
36,
36,
36,
36,
36,
36,
36,
36,
36,
36,
36,
36,
36,
35,
22,
2,
-10,
-18,
-30,
-40,
-42,
-38,
-32,
-32,
-35,
-34,
-32,
-34,
-36,
-37,
-36,
-36,
-34,
-36,
-36,
-36,
-35,
-36,
-36,
-36,
-35,
-36,
-36,
-35,
-36,
-36,
-35,
-36,
-36,
-36,
-36,
-36,
-36,
-35,
-35,
-35,
-36,
-36,
-34,
-35,
-35,
-36,
-36,
-30,
-11,
6,
14,
24,
36,
44,
42,
36,
34,
34,
36,
35,
34,
35,
38,
38,
38,
36,
36,
37,
36,
36,
36,
36,
37,
36,
36,
36,
37,
36,
36,
36,
36,
36,
36,
36,
36,
36,
36,
36,
36,
36,
36,
36,
36,
36,
36,
36,
36,
34,
22,
2,
-10,
-18,
-30,
-40,
-42,
-37,
-32,
-32,
-34,
-34,
-33,
-33,
-36,
-37,
-37,
-34,
-36,
-35,
-36,
-35,
-34,
-35,
-36,
-36,
-35,
-36,
-36,
-36,
-34,
-36,
-36,
-36,
-35,
-35,
-36,
-35,
-36,
-34,
-36,
-36,
-36,
-36,
-36,
-36,
-35,
-36,
-36,
-30,
-11,
6,
14,
24,
36,
44,
42,
36,
34,
34,
36,
34,
34,
34,
38,
38,
36,
36,
36,
38,
36,
36,
36,
36,
36,
36,
36,
36,
36,
36,
36,
36,
36,
36,
36,
36,
36,
37,
36,
36,
36,
36,
36,
36,
36,
36,
36,
36,
36,
34,
21,
2,
-10,
-18,
-30,
-40,
-42,
-37,
-32,
-32,
-34,
-34,
-33,
-34,
-36,
-38,
-36,
-36,
-35,
-36,
-36,
-34,
-34,
-35,
-36,
-36,
-36,
-35,
-36,
-36,
-36,
-36,
-35,
-36,
-36,
-35,
-36,
-35,
-36,
-34,
-36,
-35,
-35,
-36,
-35,
-36,
-36,
-36,
-36,
-30,
-12,
5,
15,
24,
36,
44,
42,
36,
33,
35,
36,
34,
34,
35,
38,
37,
37,
36,
36,
38,
36,
36,
36,
36,
36,
36,
36,
36,
36,
36,
36,
36,
36,
37,
36,
36,
36,
36,
36,
36,
36,
36,
36,
36,
36,
36,
36,
36,
36,
35,
22,
2,
-10,
-18,
-30,
-40,
-42,
-37,
-32,
-33,
-35,
-34,
-34,
-33,
-36,
-37,
-36,
-35,
-36,
-36,
-36,
-35,
-35,
-35,
-35,
-36,
-36,
-35,
-36,
-36,
-36,
-35,
-35,
-35,
-36,
-35,
-36,
-36,
-36,
-36,
-36,
-36,
-35,
-36,
-35,
-36,
-36,
-35,
-36,
-30,
-12,
5,
14,
24,
36,
44,
42,
36,
34,
34,
36,
34,
34,
34,
38,
38,
36,
36,
36,
36,
38,
36,
36,
36,
36,
36,
36,
36,
36,
36,
36,
36,
36,
36,
36,
36,
36,
36,
36,
36,
36,
36,
36,
36,
36,
36,
36,
36,
36,
35,
22,
2,
-10,
-18,
-30,
-40,
-42,
-37,
-33,
-32,
-35,
-34,
-33,
-34,
-36,
-36,
-36,
-35,
-36,
-36,
-36,
-35,
-36,
-36,
-36,
-36,
-36,
-35,
-36,
-36,
-35,
-36,
-36,
-36,
-36,
-36,
-36,
-36,
-36,
-36,
-35,
-35,
-36,
-35,
-36,
-36,
-36,
-36,
-36,
-30,
-12,
6,
14,
22,
36,
44,
42,
36,
34,
34,
36,
34,
34,
36,
38,
38,
36,
36,
36,
38,
36,
36,
36,
36,
36,
36,
36,
36,
36,
36,
36,
36,
36,
36,
36,
36,
36,
36,
36,
36,
36,
36,
36,
36,
36,
36,
36,
36,
36,
34,
22,
2,
-10,
-18,
-30,
-40,
-42,
-38,
-33,
-32,
-34,
-34,
-33,
-33,
-36,
-36,
-36,
-35,
-36,
-36,
-36,
-36,
-34,
-36,
-36,
-35,
-36,
-36,
-36,
-36,
-35,
-35,
-35,
-36,
-36,
-36,
-36,
-36,
-35,
-36,
-36,
-36,
-36,
-36,
-36,
-36,
-36,
-35,
-36,
-30,
-12,
6,
14,
24,
36,
44,
43,
36,
32,
34,
35,
35,
34,
35,
37,
38,
36,
36,
36,
37,
36,
36,
36,
36,
37,
36,
36,
36,
36,
36,
36,
36,
36,
36,
36,
36,
36,
36,
36,
36,
36,
36,
36,
36,
36,
36,
36,
36,
36,
35,
21,
2,
-10,
-18,
-30,
-40,
-42,
-37,
-32,
-33,
-34,
-34,
-32,
-33,
-36,
-38,
-36,
-34,
-35,
-36,
-36,
-35,
-36,
-35,
-36,
-36,
-36,
-35,
-34,
-36,
-36,
-36,
-35,
-36,
-35,
-36,
-36,
-36,
-36,
-36,
-36,
-35,
-36,
-36,
-36,
-36,
-35,
-36,
-36,
-30,
-12,
6,
14,
24,
36,
44,
42,
36,
32,
34,
36,
35,
34,
36,
38,
38,
36,
36,
36,
38,
37,
36,
36,
36,
36,
36,
36,
36,
36,
36,
36,
36,
36,
36,
36,
36,
36,
36,
36,
37,
36,
36,
36,
36,
36,
36,
36,
36,
36,
34,
22,
3,
-10,
-16,
-30,
-40,
-42,
-37,
-32,
-33,
-35,
-34,
-33,
-34,
-36,
-37,
-37,
-35,
-36,
-36,
-36,
-36,
-36,
-35,
-36,
-36,
-36,
-36,
-36,
-36,
-36,
-35,
-36,
-35,
-36,
-35,
-36,
-35,
-36,
-36,
-36,
-36,
-35,
-36,
-35,
-36,
-36,
-36,
-35,
-30,
-12,
6,
14,
23,
36,
44,
42,
36,
33,
34,
36,
34,
34,
34,
38,
38,
37,
36,
36,
36,
36,
36,
36,
36,
36,
36,
36,
36,
36,
36,
36,
36,
36,
36,
36,
37,
36,
36,
36,
36,
36,
36,
36,
36,
36,
36,
36,
36,
36,
34,
22,
2,
-10,
-18,
-30,
-40,
-42,
-38,
-32,
-32,
-34,
-35,
-32,
-34,
-36,
-37,
-37,
-35,
-36,
-36,
-36,
-36,
-35,
-35,
-36,
-36,
-35,
-35,
-36,
-36,
-36,
-36,
-36,
-36,
-35,
-36,
-35,
-36,
-36,
-36,
-36,
-36,
-36,
-34,
-36,
-36,
-36,
-35,
-36,
-30,
-12,
6,
14,
24,
36,
44,
42,
36,
34,
34,
36,
35,
33,
35,
38,
38,
36,
36,
36,
38,
38,
36,
36,
36,
36,
36,
36,
36,
36,
36,
36,
36,
36,
36,
36,
36,
36,
36,
36,
36,
36,
36,
36,
36,
36,
36,
36,
36,
36,
35,
22,
2,
-10,
-18,
-30,
-40,
-42,
-38,
-32,
-32,
-34,
-34,
-33,
-33,
-36,
-37,
-37,
-36,
-36,
-36,
-36,
-36,
-34,
-34,
-36,
-36,
-36,
-36,
-36,
-36,
-36,
-36,
-35,
-36,
-36,
-36,
-36,
-36,
-36,
-36,
-36,
-36,
-36,
-36,
-36,
-35,
-34,
-36,
-35,
-30,
-12,
6,
14,
23,
36,
44,
42,
36,
34,
34,
36,
34,
34,
35,
38,
38,
37,
36,
36,
36,
36,
36,
36,
36,
36,
36,
36,
36,
36,
36,
36,
36,
36,
36,
36,
36,
36,
36,
36,
36,
36,
36,
36,
36,
36,
36,
36,
36,
36,
34,
22,
2,
-10,
-18,
-30,
-40,
-42,
-37,
-32,
-34,
-34,
-34,
-33,
-34,
-36,
-38,
-36,
-35,
-36,
-36,
-36,
-36,
-34,
-35,
-36,
-36,
-34,
-36,
-36,
-36,
-36,
-36,
-35,
-36,
-36,
-36,
-36,
-36,
-36,
-36,
-36,
-35,
-35,
-36,
-36,
-36,
-36,
-36,
-36,
-30,
-12,
6,
14,
24,
36,
44,
42,
36,
33,
34,
36,
34,
34,
36,
37,
38,
36,
36,
36,
36,
36,
36,
36,
37,
36,
36,
36,
36,
36,
36,
36,
36,
36,
36,
36,
36,
36,
36,
36,
36,
36,
37,
36,
36,
36,
36,
36,
36,
36,
35,
22,
2,
-10,
-18,
-29,
-40,
-42,
-38,
-32,
-33,
-34,
-34,
-33,
-34,
-36,
-38,
-36,
-36,
-35,
-36,
-36,
-36,
-34,
-35,
-36,
-36,
-36,
-36,
-36,
-36,
-36,
-34,
-36,
-36,
-36,
-35,
-36,
-35,
-36,
-36,
-36,
-36,
-36,
-36,
-35,
-36,
-35,
-35,
-36,
-30,
-12,
6,
14,
24,
35,
44,
42,
36,
33,
34,
36,
34,
34,
35,
38,
38,
36,
36,
36,
36,
36,
36,
36,
36,
36,
36,
36,
36,
36,
36,
36,
36,
36,
36,
36,
36,
36,
36,
36,
36,
36,
36,
36,
36,
36,
36,
36,
36,
36,
34,
22,
2,
-10,
-18,
-30,
-40,
-42,
-38,
-33,
-33,
-34,
-34,
-32,
-33,
-36,
-37,
-36,
-36,
-36,
-36,
-36,
-36,
-35,
-36,
-36,
-36,
-36,
-36,
-36,
-36,
-36,
-34,
-36,
-36,
-36,
-36,
-36,
-36,
-36,
-36,
-35,
-34,
-36,
-36,
-35,
-36,
-35,
-36,
-36,
-31,
-12,
5,
15,
24,
36,
44,
42,
36,
34,
34,
36,
34,
34,
35,
38,
38,
38,
36,
36,
37,
36,
36,
35,
36,
36,
36,
36,
36,
36,
36,
36,
36,
36,
36,
36,
36,
36,
36,
36,
36,
36,
36,
36,
36,
36,
36,
36,
36,
36,
35,
22,
2,
-10,
-18,
-30,
-40,
-42,
-38,
-32,
-32,
-34,
-34,
-32,
-34,
-36,
-37,
-36,
-36,
-35,
-36,
-36,
-36,
-35,
-35,
-36,
-36,
-36,
-35,
-35,
-36,
-35,
-35,
-35,
-36,
-35,
-36,
-34,
-36,
-36,
-35,
-36,
-35,
-36,
-36,
-36,
-35,
-35,
-36,
-36,
-30,
-12,
6,
14,
23,
36,
44,
42,
36,
33,
34,
36,
34,
34,
35,
38,
38,
36,
36,
36,
36,
36,
36,
36,
36,
36,
36,
36,
36,
36,
36,
36,
36,
36,
36,
36,
36,
36,
36,
36,
36,
36,
36,
36,
36,
36,
36,
36,
36,
36,
36,
22,
2,
-10,
-17,
-30,
-40,
-42,
-37,
-32,
-32,
-34,
-36,
-34,
-33,
-36,
-37,
-36,
-35,
-36,
-36,
-36,
-35,
-35,
-36,
-36,
-36,
-36,
-36,
-36,
-36,
-36,
-35,
-34,
-35,
-35,
-36,
-35,
-36,
-36,
-36,
-36,
-35,
-35,
-34,
-36,
-36,
-35,
-36,
-36,
-30,
-12,
6,
14,
24,
35,
44,
42,
36,
33,
34,
36,
35,
34,
34,
37,
38,
36,
36,
36,
36,
36,
36,
36,
36,
36,
36,
36,
36,
36,
36,
36,
36,
36,
36,
36,
36,
36,
36,
36,
36,
36,
36,
36,
36,
36,
36,
36,
36,
36,
34,
22,
3,
-10,
-18,
-30,
-40,
-42,
-37,
-33,
-32,
-34,
-34,
-33,
-34,
-36,
-36,
-36,
-36,
-35,
-36,
-36,
-35,
-34,
-35,
-36,
-36,
-36,
-36,
-36,
-36,
-36,
-36,
-35,
-36,
-35,
-36,
-36,
-36,
-36,
-35,
-35,
-36,
-36,
-35,
-36,
-36,
-36,
-35,
-35,
-30,
-12,
6,
14,
24,
36,
44,
41,
36,
33,
34,
35,
34,
34,
35,
38,
38,
37,
36,
36,
36,
36,
36,
36,
36,
37,
37,
36,
36,
36,
36,
36,
36,
36,
36,
36,
36,
36,
36,
36,
36,
36,
36,
36,
36,
36,
36,
36,
36,
36,
35,
22,
3,
-10,
-17,
-30,
-40,
-42,
-38,
-33,
-32,
-35,
-34,
-33,
-33,
-36,
-37,
-36,
-35,
-36,
-36,
-36,
-35,
-34,
-36,
-36,
-36,
-36,
-36,
-36,
-35,
-35,
-34,
-35,
-36,
-36,
-36,
-36,
-35,
-36,
-36,
-36,
-34,
-35,
-36,
-35,
-36,
-36,
-36,
-35,
-30,
-12,
5,
14,
24,
36,
44,
42,
36,
33,
34,
36,
34,
34,
35,
38,
38,
36,
36,
37,
37,
36,
36,
36,
36,
36,
37,
36,
36,
36,
36,
36,
36,
36,
36,
36,
36,
36,
36,
36,
36,
36,
36,
36,
36,
36,
36,
37,
36,
36,
35,
22,
3,
-10,
-18,
-29,
-40,
-42,
-38,
-33,
-32,
-34,
-34,
-33,
-32,
-35,
-37,
-37,
-36,
-35,
-36,
-36,
-35,
-35,
-36,
-36,
-36,
-35,
-35,
-35,
-36,
-36,
-34,
-35,
-34,
-36,
-36,
-36,
-35,
-36,
-36,
-36,
-35,
-35,
-36,
-36,
-34,
-36,
-36,
-36,
-30,
-12,
4,
14,
23,
36,
44,
42,
36,
33,
34,
36,
34,
34,
34,
38,
38,
36,
36,
36,
37,
37,
36,
36,
36,
37,
37,
36,
36,
37,
36,
36,
36,
36,
35,
36,
36,
36,
36,
36,
36,
36,
36,
36,
36,
36,
36,
36,
36,
37,
35,
22,
3,
-10,
-18,
-29,
-40,
-42,
-37,
-32,
-32,
-35,
-34,
-33,
-34,
-36,
-37,
-36,
-36,
-36,
-36,
-36,
-35,
-34,
-35,
-36,
-36,
-35,
-35,
-35,
-36,
-36,
-35,
-36,
-35,
-36,
-36,
-35,
-36,
-36,
-36,
-35,
-35,
-35,
-36,
-36,
-35,
-36,
-36,
-35,
-30,
-12,
4,
14,
23,
36,
44,
42,
36,
33,
35,
36,
34,
33,
35,
38,
38,
36,
36,
36,
37,
36,
36,
36,
36,
36,
36,
36,
36,
37,
36,
36,
36,
36,
36,
36,
36,
36,
36,
36,
36,
36,
36,
36,
36,
35,
36,
36,
36,
36,
35,
22,
3,
-10,
-18,
-30,
-40,
-42,
-37,
-32,
-32,
-34,
-35,
-33,
-34,
-36,
-37,
-36,
-35,
-36,
-36,
-36,
-35,
-35,
-36,
-36,
-36,
-36,
-35,
-36,
-36,
-36,
-35,
-36,
-35,
-35,
-34,
-36,
-35,
-36,
-36,
-34,
-36,
-36,
-36,
-36,
-36,
-35,
-36,
-36,
-30,
-13,
5,
14,
23,
36,
44,
42,
36,
34,
34,
36,
34,
34,
36,
37,
38,
36,
36,
36,
36,
36,
36,
36,
36,
36,
36,
36,
36,
36,
36,
36,
36,
36,
36,
36,
36,
36,
36,
36,
36,
36,
36,
36,
36,
36,
36,
36,
36,
36,
34,
22,
2,
-10,
-18,
-30,
-40,
-42,
-38,
-33,
-32,
-34,
-34,
-33,
-33,
-36,
-38,
-36,
-36,
-35,
-36,
-36,
-36,
-34,
-36,
-36,
-36,
-36,
-35,
-36,
-36,
-35,
-35,
-36,
-36,
-36,
-36,
-36,
-36,
-34,
-36,
-36,
-36,
-36,
-35,
-35,
-36,
-35,
-36,
-36,
-31,
-12,
5,
14,
23,
36,
43,
42,
36,
34,
34,
36,
34,
34,
34,
37,
38,
36,
36,
36,
37,
37,
36,
36,
36,
36,
36,
36,
36,
36,
37,
36,
36,
36,
36,
36,
36,
36,
36,
36,
36,
36,
36,
36,
36,
36,
36,
36,
36,
36,
34,
22,
3,
-10,
-18,
-29,
-40,
-42,
-38,
-32,
-32,
-34,
-34,
-33,
-34,
-36,
-38,
-36,
-36,
-35,
-36,
-36,
-35,
-34,
-36,
-36,
-36,
-36,
-36,
-36,
-36,
-35,
-35,
-36,
-36,
-35,
-36,
-36,
-36,
-36,
-35,
-36,
-36,
-36,
-36,
-36,
-36,
-36,
-36,
-35,
-30,
-12,
5,
14,
24,
36,
44,
42,
36,
33,
34,
36,
34,
34,
35,
38,
38,
36,
36,
38,
37,
36,
36,
36,
36,
36,
36,
36,
36,
36,
36,
36,
36,
36,
36,
36,
36,
36,
36,
36,
36,
36,
36,
36,
36,
36,
36,
36,
36,
36,
34,
22,
2,
-10,
-18,
-30,
-40,
-42,
-38,
-33,
-32,
-35,
-34,
-33,
-34,
-36,
-37,
-36,
-35,
-36,
-36,
-36,
-35,
-34,
-36,
-36,
-36,
-36,
-35,
-36,
-36,
-36,
-36,
-36,
-36,
-36,
-36,
-36,
-36,
-36,
-36,
-35,
-36,
-36,
-36,
-36,
-36,
-36,
-36,
-35,
-30,
-12,
5,
14,
22,
35,
44,
42,
36,
34,
34,
36,
35,
34,
36,
37,
38,
38,
36,
36,
37,
36,
36,
36,
36,
36,
36,
36,
36,
36,
36,
36,
36,
36,
36,
36,
36,
36,
37,
36,
36,
36,
36,
36,
36,
37,
36,
36,
36,
36,
34,
22,
3,
-10,
-18,
-30,
-40,
-42,
-38,
-33,
-32,
-34,
-35,
-32,
-33,
-36,
-37,
-37,
-36,
-36,
-35,
-36,
-34,
-34,
-36,
-36,
-36,
-36,
-36,
-36,
-36,
-36,
-35,
-36,
-34,
-36,
-35,
-36,
-36,
-36,
-36,
-36,
-36,
-36,
-36,
-35,
-36,
-36,
-36,
-35,
-31,
-12,
5,
14,
23,
36,
44,
42,
36,
33,
35,
36,
34,
34,
35,
38,
38,
36,
36,
36,
38,
36,
36,
36,
36,
37,
36,
36,
36,
36,
36,
36,
36,
36,
36,
36,
36,
36,
36,
36,
36,
36,
36,
36,
36,
35,
36,
36,
36,
36,
34,
22,
3,
-10,
-18,
-29,
-40,
-42,
-38,
-32,
-33,
-34,
-34,
-33,
-34,
-36,
-37,
-36,
-35,
-36,
-36,
-36,
-36,
-35,
-36,
-36,
-36,
-36,
-35,
-36,
-36,
-36,
-35,
-36,
-36,
-36,
-36,
-36,
-36,
-36,
-36,
-35,
-36,
-36,
-36,
-36,
-36,
-35,
-36,
-36,
-30,
-12,
5,
14,
23,
36,
44,
42,
36,
34,
34,
36,
34,
34,
35,
37,
38,
36,
36,
36,
37,
36,
36,
36,
36,
36,
36,
36,
36,
36,
36,
36,
36,
36,
36,
36,
36,
36,
36,
36,
36,
36,
36,
36,
36,
36,
36,
36,
36,
36,
34,
22,
2,
-10,
-18,
-30,
-40,
-42,
-38,
-32,
-32,
-34,
-34,
-33,
-33,
-36,
-37,
-37,
-36,
-35,
-36,
-36,
-35,
-34,
-34,
-36,
-36,
-36,
-36,
-36,
-36,
-36,
-35,
-36,
-36,
-36,
-36,
-36,
-35,
-36,
-36,
-36,
-36,
-36,
-36,
-36,
-36,
-36,
-36,
-36,
-30,
-13,
5,
14,
22,
35,
44,
42,
36,
33,
34,
36,
34,
33,
35,
38,
38,
37,
36,
36,
36,
36,
36,
36,
36,
36,
36,
36,
36,
36,
36,
36,
36,
36,
36,
36,
36,
36,
36,
36,
36,
36,
36,
36,
36,
36,
36,
36,
36,
36,
36,
22,
3,
-10,
-18,
-29,
-40,
-42,
-37,
-34,
-32,
-34,
-34,
-33,
-34,
-36,
-38,
-36,
-35,
-36,
-36,
-36,
-36,
-35,
-36,
-36,
-36,
-36,
-36,
-36,
-36,
-36,
-35,
-36,
-36,
-36,
-36,
-36,
-36,
-36,
-36,
-34,
-36,
-36,
-36,
-36,
-35,
-36,
-36,
-36,
-30,
-12,
5,
14,
23,
36,
44,
42,
36,
32,
35,
36,
34,
34,
36,
37,
38,
36,
36,
36,
36,
36,
36,
36,
36,
36,
36,
36,
36,
36,
36,
36,
36,
36,
36,
36,
36,
36,
36,
36,
36,
36,
36,
36,
36,
36,
36,
36,
36,
36,
34,
22,
3,
-10,
-17,
-29,
-40,
-42,
-38,
-33,
-32,
-34,
-34,
-33,
-34,
-36,
-36,
-36,
-36,
-36,
-36,
-36,
-36,
-35,
-36,
-36,
-36,
-36,
-35,
-36,
-36,
-36,
-34,
-36,
-36,
-36,
-35,
-35,
-36,
-35,
-35,
-36,
-36,
-36,
-36,
-36,
-36,
-36,
-35,
-36,
-30,
-12,
4,
