2-Passive Filters/differentiator-integrator_behaviour/data/ALL0018/A0018CH2.CSV

Memory Length,4000,
Trigger Level,0.000E+00,
Source,CH2,
Probe,1X,
Vertical Units,V,
Vertical Scale,5.000E+00,
Vertical Position,-2.000E-01,
Horizontal Units,s,
Horizontal Scale,2.500E-07,
Horizontal Position,0.000E+00,
Horizontal Mode,Main,
Sampling Period,1.000E-08,
Firmware,V1.04,
Time, ,
Mode,Fast,
Waveform Data,
39,
39,
43,
41,
39,
38,
37,
33,
31,
34,
36,
38,
37,
37,
37,
37,
37,
35,
35,
36,
37,
36,
36,
36,
36,
37,
36,
36,
37,
36,
36,
36,
36,
37,
36,
35,
36,
36,
37,
36,
36,
35,
36,
36,
36,
35,
35,
35,
31,
17,
-6,
-29,
-40,
-41,
-38,
-37,
-35,
-32,
-29,
-30,
-33,
-35,
-34,
-34,
-35,
-35,
-35,
-33,
-33,
-34,
-33,
-33,
-34,
-34,
-34,
-34,
-34,
-34,
-34,
-34,
-33,
-33,
-34,
-33,
-34,
-34,
-33,
-33,
-35,
-33,
-33,
-34,
-34,
-33,
-33,
-33,
-33,
-33,
-25,
-5,
19,
38,
44,
42,
40,
39,
37,
33,
31,
33,
36,
37,
37,
36,
37,
37,
37,
35,
35,
37,
36,
35,
36,
36,
37,
36,
36,
35,
37,
36,
35,
35,
36,
36,
36,
36,
35,
36,
36,
36,
35,
35,
35,
35,
35,
36,
36,
36,
31,
17,
-6,
-29,
-39,
-41,
-39,
-36,
-35,
-31,
-29,
-30,
-33,
-35,
-35,
-34,
-35,
-35,
-35,
-34,
-33,
-33,
-35,
-33,
-34,
-34,
-33,
-34,
-34,
-33,
-34,
-34,
-34,
-34,
-34,
-34,
-33,
-33,
-33,
-34,
-34,
-34,
-33,
-33,
-34,
-34,
-33,
-33,
-34,
-33,
-24,
-5,
20,
38,
44,
41,
40,
38,
36,
33,
31,
33,
37,
37,
37,
37,
37,
37,
37,
35,
35,
35,
36,
37,
36,
37,
37,
37,
37,
35,
37,
35,
36,
36,
36,
36,
36,
36,
35,
35,
36,
35,
35,
35,
35,
37,
35,
35,
36,
36,
31,
17,
-5,
-29,
-41,
-41,
-38,
-37,
-35,
-31,
-29,
-29,
-31,
-35,
-34,
-34,
-34,
-35,
-34,
-33,
-33,
-33,
-34,
-33,
-33,
-34,
-33,
-34,
-33,
-33,
-33,
-34,
-33,
-34,
-34,
-34,
-34,
-34,
-34,
-33,
-33,
-34,
-34,
-33,
-34,
-33,
-33,
-33,
-33,
-33,
-25,
-6,
19,
38,
44,
42,
39,
38,
37,
33,
31,
33,
36,
37,
37,
36,
37,
37,
37,
35,
36,
37,
37,
37,
36,
36,
37,
37,
35,
35,
36,
36,
36,
36,
35,
37,
37,
36,
35,
36,
36,
36,
36,
35,
35,
36,
35,
35,
35,
36,
31,
17,
-5,
-29,
-39,
-41,
-38,
-37,
-35,
-31,
-29,
-30,
-33,
-35,
-34,
-34,
-35,
-35,
-35,
-33,
-33,
-33,
-35,
-34,
-33,
-33,
-34,
-34,
-34,
-33,
-34,
-34,
-33,
-34,
-33,
-33,
-34,
-34,
-33,
-34,
-34,
-33,
-33,
-33,
-33,
-33,
-34,
-33,
-33,
-33,
-25,
-5,
19,
38,
44,
42,
40,
38,
36,
33,
31,
33,
36,
37,
37,
37,
37,
37,
37,
35,
35,
36,
37,
36,
36,
36,
37,
36,
37,
36,
37,
35,
36,
35,
37,
36,
37,
37,
35,
36,
35,
35,
35,
36,
36,
35,
36,
36,
36,
35,
31,
17,
-6,
-29,
-39,
-41,
-38,
-37,
-35,
-31,
-29,
-29,
-33,
-35,
-35,
-34,
-35,
-35,
-35,
-34,
-33,
-34,
-34,
-33,
-34,
-33,
-34,
-34,
-33,
-34,
-34,
-34,
-34,
-33,
-33,
-34,
-34,
-34,
-33,
-33,
-33,
-34,
-33,
-33,
-33,
-33,
-34,
-33,
-34,
-33,
-25,
-5,
19,
39,
45,
42,
40,
39,
36,
33,
32,
34,
35,
37,
36,
36,
38,
37,
37,
35,
35,
35,
37,
36,
36,
37,
37,
36,
36,
36,
37,
36,
35,
37,
36,
36,
37,
37,
36,
35,
35,
36,
35,
36,
35,
36,
36,
36,
35,
35,
31,
17,
-6,
-29,
-40,
-41,
-38,
-36,
-35,
-31,
-29,
-30,
-32,
-34,
-35,
-34,
-34,
-35,
-35,
-33,
-33,
-34,
-34,
-33,
-34,
-33,
-35,
-34,
-33,
-33,
-34,
-34,
-34,
-34,
-34,
-34,
-34,
-34,
-33,
-33,
-34,
-34,
-34,
-33,
-33,
-34,
-33,
-33,
-33,
-32,
-25,
-6,
19,
38,
45,
42,
39,
38,
36,
33,
31,
33,
36,
37,
37,
36,
37,
37,
37,
35,
35,
36,
37,
36,
37,
37,
36,
36,
37,
36,
36,
36,
36,
36,
35,
37,
37,
37,
37,
36,
36,
35,
36,
36,
35,
36,
36,
35,
35,
35,
31,
17,
-6,
-29,
-39,
-40,
-38,
-37,
-35,
-31,
-29,
-30,
-33,
-35,
-35,
-34,
-35,
-35,
-34,
-33,
-33,
-33,
-34,
-33,
-33,
-33,
-34,
-34,
-33,
-34,
-33,
-34,
-34,
-34,
-33,
-33,
-34,
-33,
-33,
-34,
-34,
-34,
-33,
-33,
-33,
-34,
-33,
-34,
-33,
-32,
-25,
-6,
19,
38,
43,
42,
40,
38,
36,
32,
32,
33,
36,
37,
37,
37,
37,
37,
36,
35,
35,
36,
36,
36,
35,
36,
36,
37,
37,
35,
37,
36,
35,
36,
35,
35,
36,
36,
36,
35,
36,
37,
35,
35,
35,
35,
36,
36,
35,
35,
31,
17,
-6,
-29,
-39,
-41,
-38,
-36,
-35,
-31,
-29,
-31,
-33,
-35,
-35,
-34,
-35,
-35,
-35,
-34,
-33,
-33,
-33,
-33,
-33,
-33,
-33,
-33,
-34,
-34,
-34,
-33,
-33,
-34,
-33,
-33,
-33,
-34,
-34,
-33,
-34,
-33,
-33,
-33,
-33,
-34,
-34,
-33,
-33,
-32,
-24,
-5,
19,
38,
45,
41,
40,
38,
36,
33,
31,
33,
37,
37,
37,
37,
37,
37,
37,
35,
36,
36,
37,
36,
36,
36,
37,
36,
36,
36,
37,
36,
36,
35,
36,
36,
37,
36,
35,
36,
35,
36,
35,
36,
36,
36,
36,
35,
36,
36,
31,
17,
-6,
-29,
-39,
-41,
-38,
-37,
-35,
-31,
-29,
-30,
-33,
-35,
-35,
-34,
-35,
-35,
-35,
-33,
-33,
-34,
-34,
-34,
-34,
-34,
-34,
-34,
-33,
-33,
-34,
-34,
-34,
-34,
-33,
-34,
-34,
-34,
-33,
-33,
-34,
-34,
-33,
-33,
-34,
-34,
-34,
-33,
-33,
-33,
-25,
-7,
19,
37,
44,
42,
39,
39,
37,
33,
31,
33,
36,
37,
37,
36,
37,
37,
37,
36,
35,
37,
36,
36,
35,
36,
37,
36,
35,
36,
36,
36,
36,
36,
36,
36,
36,
36,
36,
35,
36,
36,
35,
36,
35,
36,
36,
35,
36,
35,
31,
17,
-6,
-29,
-39,
-41,
-38,
-37,
-35,
-31,
-30,
-29,
-33,
-35,
-35,
-34,
-34,
-34,
-35,
-34,
-33,
-33,
-34,
-34,
-33,
-33,
-35,
-34,
-34,
-34,
-34,
-33,
-33,
-33,
-34,
-34,
-34,
-34,
-33,
-34,
-33,
-34,
-33,
-34,
-34,
-33,
-33,
-33,
-33,
-31,
-25,
-6,
18,
38,
43,
42,
39,
38,
36,
33,
31,
33,
37,
37,
37,
37,
37,
37,
37,
35,
36,
36,
37,
35,
35,
36,
37,
37,
37,
36,
36,
37,
36,
37,
36,
35,
37,
36,
36,
36,
36,
36,
36,
36,
36,
36,
35,
35,
36,
35,
31,
17,
-6,
-29,
-39,
-41,
-37,
-37,
-35,
-32,
-29,
-29,
-32,
-35,
-35,
-34,
-35,
-35,
-35,
-34,
-33,
-34,
-34,
-34,
-33,
-33,
-33,
-33,
-33,
-34,
-34,
-33,
-33,
-33,
-34,
-33,
-34,
-34,
-34,
-33,
-34,
-34,
-34,
-33,
-34,
-34,
-33,
-34,
-33,
-32,
-25,
-6,
18,
38,
44,
42,
41,
39,
36,
33,
31,
33,
37,
37,
37,
36,
37,
37,
36,
35,
36,
37,
37,
36,
37,
37,
35,
37,
37,
37,
36,
37,
37,
36,
36,
35,
36,
37,
36,
35,
36,
36,
36,
37,
36,
35,
36,
36,
35,
35,
31,
17,
-6,
-29,
-40,
-41,
-39,
-37,
-35,
-31,
-29,
-30,
-33,
-35,
-35,
-34,
-35,
-35,
-35,
-33,
-33,
-34,
-34,
-34,
-34,
-33,
-33,
-34,
-34,
-33,
-33,
-33,
-34,
-33,
-33,
-34,
-34,
-34,
-34,
-33,
-33,
-34,
-34,
-34,
-34,
-33,
-34,
-33,
-34,
-33,
-25,
-7,
18,
38,
45,
42,
40,
38,
36,
33,
32,
33,
37,
37,
37,
37,
37,
37,
37,
35,
35,
37,
37,
35,
36,
36,
37,
37,
36,
35,
37,
36,
35,
36,
36,
36,
36,
36,
37,
36,
35,
36,
35,
36,
37,
35,
36,
35,
36,
35,
31,
17,
-6,
-28,
-39,
-41,
-38,
-37,
-35,
-31,
-29,
-30,
-33,
-35,
-35,
-33,
-35,
-35,
-35,
-33,
-33,
-34,
-34,
-34,
-33,
-33,
-34,
-35,
-34,
-33,
-33,
-34,
-34,
-33,
-33,
-33,
-34,
-33,
-33,
-33,
-34,
-33,
-33,
-33,
-33,
-33,
-33,
-33,
-33,
-32,
-25,
-7,
18,
38,
44,
43,
40,
38,
37,
33,
31,
33,
36,
37,
37,
36,
37,
37,
36,
35,
35,
37,
37,
36,
36,
37,
37,
37,
37,
37,
37,
36,
36,
35,
36,
36,
35,
37,
35,
35,
36,
37,
35,
35,
35,
35,
35,
37,
35,
36,
31,
17,
-5,
-29,
-40,
-41,
-38,
-37,
-35,
-31,
-29,
-29,
-33,
-35,
-35,
-34,
-34,
-35,
-35,
-33,
-33,
-33,
-33,
-34,
-33,
-34,
-34,
-34,
-34,
-33,
-33,
-33,
-33,
-34,
-33,
-33,
-33,
-34,
-33,
-33,
-33,
-34,
-33,
-34,
-33,
-34,
-33,
-34,
-33,
-33,
-25,
-6,
19,
37,
44,
42,
40,
38,
37,
33,
31,
33,
36,
37,
37,
36,
37,
37,
37,
36,
35,
37,
37,
35,
35,
37,
37,
37,
37,
36,
35,
37,
36,
35,
36,
37,
36,
35,
35,
35,
36,
35,
35,
35,
35,
36,
36,
36,
36,
36,
31,
17,
-5,
-29,
-40,
-41,
-38,
-37,
-35,
-32,
-29,
-30,
-33,
-34,
-35,
-34,
-34,
-35,
-35,
-34,
-33,
-33,
-34,
-33,
-34,
-33,
-34,
-34,
-33,
-33,
-33,
-33,
-33,
-33,
-34,
-34,
-33,
-33,
-34,
-33,
-33,
-34,
-34,
-33,
-33,
-33,
-34,
-33,
-34,
-33,
-25,
-7,
18,
38,
44,
42,
39,
38,
36,
33,
32,
33,
36,
37,
37,
37,
37,
37,
37,
35,
35,
36,
37,
36,
35,
36,
36,
37,
36,
35,
36,
36,
36,
35,
35,
35,
36,
37,
36,
36,
35,
36,
35,
35,
35,
35,
35,
35,
35,
35,
31,
17,
-5,
-28,
-40,
-41,
-38,
-36,
-35,
-32,
-30,
-31,
-33,
-35,
-35,
-34,
-35,
-35,
-35,
-33,
-33,
-33,
-33,
-33,
-34,
-34,
-34,
-34,
-33,
-34,
-33,
-34,
-34,
-34,
-34,
-34,
-33,
-34,
-33,
-34,
-33,
-33,
-33,
-33,
-34,
-33,
-33,
-34,
-33,
-31,
-24,
-6,
19,
37,
44,
42,
39,
39,
36,
33,
32,
33,
36,
37,
37,
36,
37,
37,
36,
35,
35,
36,
37,
35,
35,
36,
37,
36,
36,
36,
36,
36,
37,
36,
35,
36,
36,
36,
35,
35,
35,
36,
35,
36,
36,
36,
35,
35,
36,
35,
31,
18,
-5,
-28,
-39,
-41,
-38,
-37,
-35,
-31,
-29,
-31,
-32,
-35,
-34,
-34,
-35,
-35,
-35,
-33,
-33,
-34,
-34,
-34,
-33,
-34,
-34,
-34,
-34,
-33,
-33,
-34,
-34,
-33,
-33,
-34,
-33,
-33,
-34,
-34,
-33,
-34,
-33,
-33,
-34,
-34,
-33,
-33,
-33,
-33,
-25,
-7,
19,
38,
45,
42,
40,
39,
36,
33,
31,
33,
36,
37,
37,
37,
37,
37,
37,
35,
36,
36,
37,
36,
36,
36,
37,
37,
35,
36,
37,
37,
36,
35,
35,
37,
37,
37,
36,
35,
36,
35,
36,
36,
35,
36,
35,
36,
36,
36,
31,
17,
-5,
-29,
-40,
-41,
-38,
-37,
-34,
-32,
-29,
-30,
-32,
-35,
-34,
-34,
-35,
-35,
-35,
-34,
-33,
-33,
-34,
-34,
-33,
-34,
-34,
-34,
-34,
-34,
-34,
-33,
-33,
-33,
-33,
-34,
-33,
-34,
-34,
-34,
-34,
-33,
-34,
-33,
-33,
-33,
-34,
-33,
-33,
-33,
-25,
-7,
18,
37,
43,
42,
39,
39,
37,
33,
31,
33,
36,
37,
37,
37,
37,
38,
37,
35,
35,
36,
36,
35,
35,
36,
37,
36,
36,
36,
35,
36,
36,
36,
36,
36,
36,
36,
36,
35,
36,
36,
35,
36,
36,
35,
35,
36,
36,
35,
31,
17,
-5,
-29,
-41,
-41,
-38,
-37,
-35,
-32,
-29,
-30,
-33,
-35,
-35,
-34,
-34,
-35,
-35,
-34,
-33,
-33,
-35,
-33,
-33,
-34,
-34,
-34,
-34,
-33,
-33,
-33,
-33,
-34,
-33,
-33,
-34,
-34,
-34,
-33,
-33,
-33,
-34,
-34,
-33,
-33,
-34,
-33,
-34,
-32,
-25,
-7,
17,
37,
43,
42,
39,
38,
36,
33,
31,
34,
37,
37,
37,
37,
37,
37,
37,
35,
36,
37,
37,
36,
36,
37,
37,
37,
36,
36,
35,
36,
37,
36,
35,
36,
35,
36,
36,
35,
36,
37,
36,
36,
35,
37,
36,
35,
35,
35,
32,
17,
-5,
-28,
-39,
-41,
-38,
-37,
-35,
-32,
-29,
-30,
-32,
-35,
-35,
-34,
-34,
-35,
-35,
-33,
-33,
-33,
-34,
-34,
-34,
-34,
-34,
-34,
-33,
-33,
-33,
-34,
-34,
-33,
-33,
-33,
-33,
-33,
-34,
-33,
-33,
-33,
-34,
-34,
-34,
-33,
-33,
-34,
-34,
-33,
-25,
-6,
18,
37,
44,
41,
40,
37,
37,
33,
31,
33,
37,
37,
37,
37,
37,
38,
37,
35,
36,
36,
37,
36,
36,
36,
37,
37,
36,
35,
36,
37,
35,
35,
36,
36,
36,
36,
35,
35,
35,
36,
35,
35,
35,
36,
36,
36,
35,
36,
31,
18,
-5,
-27,
-40,
-41,
-38,
-37,
-35,
-32,
-29,
-30,
-33,
-35,
-35,
-33,
-34,
-35,
-35,
-34,
-33,
-34,
-34,
-34,
-33,
-34,
-34,
-34,
-33,
-33,
-34,
-34,
-34,
-33,
-33,
-34,
-33,
-34,
-33,
-33,
-34,
-33,
-34,
-34,
-34,
-33,
-33,
-33,
-33,
-33,
-25,
-6,
18,
37,
43,
43,
39,
39,
36,
33,
33,
33,
37,
37,
37,
37,
37,
37,
37,
36,
35,
37,
36,
37,
36,
36,
37,
36,
36,
35,
36,
37,
35,
35,
36,
36,
36,
36,
36,
36,
35,
36,
36,
35,
35,
36,
35,
35,
35,
36,
31,
18,
-4,
-27,
-39,
-41,
-38,
-37,
-35,
-32,
-29,
-29,
-33,
-35,
-35,
-34,
-34,
-35,
-34,
-33,
-33,
-33,
-33,
-34,
-33,
-33,
-34,
-33,
-33,
-34,
-34,
-34,
-33,
-34,
-34,
-33,
-33,
-33,
-34,
-34,
-33,
-34,
-34,
-34,
-33,
-34,
-34,
-34,
-33,
-32,
-25,
-7,
18,
37,
43,
42,
40,
38,
36,
33,
32,
33,
37,
37,
37,
37,
37,
37,
37,
35,
36,
37,
36,
36,
37,
36,
37,
36,
36,
36,
36,
36,
36,
35,
35,
36,
36,
36,
36,
36,
36,
36,
36,
35,
36,
35,
36,
36,
35,
35,
31,
18,
-4,
-27,
-40,
-40,
-38,
-37,
-35,
-32,
-29,
-29,
-33,
-34,
-35,
-34,
-35,
-35,
-34,
-33,
-33,
-33,
-34,
-34,
-33,
-33,
-34,
-34,
-33,
-34,
-33,
-34,
-34,
-34,
-34,
-34,
-34,
-34,
-33,
-33,
-33,
-34,
-33,
-35,
-34,
-33,
-33,
-34,
-34,
-32,
-25,
-7,
18,
37,
44,
42,
41,
38,
37,
32,
31,
33,
37,
37,
37,
37,
37,
37,
36,
35,
35,
37,
36,
36,
36,
37,
37,
36,
37,
35,
36,
35,
35,
37,
36,
36,
36,
37,
35,
35,
35,
35,
36,
35,
35,
36,
36,
36,
36,
35,
31,
18,
-5,
-28,
-39,
-41,
-39,
-37,
-35,
-31,
-29,
-30,
-32,
-34,
-35,
-35,
-35,
-35,
-35,
-34,
-33,
-33,
-34,
-34,
-33,
-33,
-34,
-34,
-34,
-33,
-34,
-33,
-34,
-33,
-34,
-33,
-34,
-33,
-33,
-33,
-34,
-34,
-33,
-34,
-34,
-33,
-33,
-35,
-34,
-32,
-25,
-7,
18,
38,
44,
42,
40,
39,
36,
33,
31,
34,
36,
37,
37,
37,
37,
37,
37,
36,
35,
37,
37,
36,
35,
37,
37,
35,
36,
36,
35,
35,
36,
36,
36,
37,
35,
36,
35,
35,
36,
35,
36,
36,
36,
36,
35,
35,
35,
35,
32,
18,
-4,
-27,
-39,
-41,
-39,
-37,
-36,
-32,
-29,
-30,
-32,
-35,
-35,
-34,
-34,
-35,
-35,
-34,
-33,
-33,
-33,
-34,
-33,
-33,
-34,
-34,
-34,
-33,
-33,
-34,
-33,
-34,
-34,
-33,
-34,
-34,
-33,
-34,
-34,
-34,
-33,
-33,
-33,
-34,
-33,
-33,
-33,
-33,
-25,
-7,
17,
37,
44,
42,
40,
38,
37,
32,
32,
33,
37,
37,
37,
36,
37,
37,
37,
35,
35,
36,
37,
37,
36,
37,
36,
37,
36,
37,
37,
35,
36,
35,
37,
36,
36,
36,
36,
35,
35,
36,
36,
35,
35,
36,
36,
36,
36,
35,
31,
18,
-5,
-27,
-39,
-41,
-38,
-36,
-35,
-32,
-29,
-30,
-33,
-35,
-35,
-34,
-34,
-35,
-35,
-34,
-33,
-33,
-34,
-34,
-33,
-34,
-33,
-34,
-34,
-34,
-34,
-33,
-34,
-33,
-33,
-34,
-33,
-34,
-33,
-34,
-33,
-33,
-34,
-34,
-33,
-33,
-34,
-34,
-33,
-33,
-25,
-7,
18,
37,
45,
42,
40,
38,
36,
33,
31,
33,
36,
37,
37,
36,
37,
37,
36,
36,
36,
35,
36,
36,
37,
36,
37,
37,
36,
35,
36,
37,
35,
36,
36,
37,
37,
36,
36,
36,
36,
36,
35,
35,
37,
36,
36,
36,
36,
35,
31,
18,
-5,
-28,
-39,
-41,
-39,
-37,
-35,
-32,
-29,
-29,
-32,
-34,
-34,
-33,
-34,
-35,
-35,
-34,
-33,
-34,
-34,
-34,
-34,
-34,
-33,
-35,
-33,
-33,
-33,
-34,
-34,
-33,
-33,
-34,
-34,
-34,
-34,
-33,
-33,
-34,
-34,
-33,
-34,
-33,
-33,
-34,
-33,
-32,
-25,
-7,
17,
37,
44,
42,
40,
39,
36,
33,
31,
33,
36,
37,
37,
37,
37,
37,
37,
35,
36,
37,
36,
36,
36,
36,
36,
36,
36,
36,
37,
35,
36,
35,
36,
37,
36,
37,
35,
36,
35,
36,
37,
35,
36,
36,
35,
36,
35,
35,
32,
18,
-4,
-27,
-39,
-41,
-38,
-37,
-35,
-31,
-29,
-29,
-32,
-35,
-34,
-34,
-34,
-35,
-35,
-33,
-33,
-34,
-34,
-33,
-34,
-33,
-34,
-34,
-33,
-34,
-34,
-33,
-34,
-33,
-34,
-33,
-34,
-34,
-34,
-33,
-34,
-33,
-34,
-33,
-33,
-33,
-33,
-33,
-34,
-32,
-25,
-7,
18,
37,
44,
42,
41,
38,
36,
33,
31,
33,
37,
37,
37,
37,
37,
37,
37,
35,
36,
37,
37,
36,
35,
37,
37,
37,
36,
36,
35,
37,
36,
36,
37,
36,
36,
35,
36,
36,
36,
36,
36,
36,
35,
36,
35,
35,
36,
35,
32,
18,
-5,
-27,
-39,
-41,
-39,
-36,
-35,
-32,
-29,
-29,
-33,
-35,
-34,
-34,
-35,
-34,
-34,
-33,
-33,
-33,
-34,
-33,
-33,
-33,
-34,
-34,
-34,
-34,
-34,
-34,
-33,
-34,
-33,
-34,
-34,
-34,
-33,
-33,
-33,
-33,
-34,
-34,
-33,
-33,
-33,
-33,
-33,
-33,
-25,
-6,
19,
37,
45,
41,
39,
38,
37,
33,
31,
33,
37,
37,
37,
36,
37,
37,
37,
36,
35,
37,
37,
36,
35,
37,
37,
36,
36,
36,
37,
37,
36,
37,
36,
37,
37,
35,
36,
36,
36,
35,
35,
35,
36,
35,
35,
37,
35,
35,
31,
19,
-5,
-29,
-39,
-41,
-39,
-37,
-35,
-32,
-29,
-30,
-33,
-35,
-35,
-34,
-34,
-35,
-35,
-34,
-33,
-34,
-34,
-34,
-33,
-34,
-34,
-34,
-33,
-33,
-33,
-34,
-33,
-33,
-34,
-34,
-33,
-34,
-34,
-33,
-34,
-34,
-34,
-34,
-33,
-33,
-34,
-33,
-34,
-32,
-25,
-7,
17,
37,
44,
42,
40,
38,
36,
33,
31,
33,
35,
37,
37,
37,
37,
37,
37,
35,
36,
36,
37,
36,
36,
37,
37,
37,
36,
36,
37,
36,
35,
36,
36,
36,
36,
36,
35,
35,
36,
35,
35,
35,
36,
35,
35,
35,
36,
35,
31,
18,
-4,
-27,
-39,
-41,
-38,
-37,
-35,
-31,
-29,
-30,
-33,
-35,
-35,
-34,
-34,
-36,
-35,
-33,
-33,
-33,
-33,
-34,
-33,
-33,
-34,
-34,
-33,
-34,
-34,
-34,
-33,
-34,
-33,
-34,
-34,
-34,
-33,
-34,
-33,
-34,
-33,
-34,
-34,
-33,
-33,
-33,
-33,
-33,
-25,
-7,
18,
38,
42,
42,
40,
38,
36,
33,
32,
33,
36,
37,
37,
36,
37,
38,
37,
35,
36,
36,
36,
36,
35,
37,
36,
37,
36,
37,
37,
36,
35,
35,
36,
36,
36,
37,
36,
35,
36,
36,
36,
36,
35,
35,
37,
36,
35,
35,
32,
18,
-4,
-28,
-39,
-41,
-39,
-37,
-36,
-32,
-29,
-29,
-32,
-35,
-35,
-34,
-34,
-35,
-35,
-33,
-33,
-34,
-34,
-34,
-33,
-34,
-34,
-34,
-34,
-33,
-33,
-34,
-33,
-33,
-33,
-33,
-34,
-34,
-34,
-33,
-33,
-33,
-33,
-33,
-33,
-34,
-34,
-33,
-34,
-32,
-25,
-7,
18,
37,
44,
42,
39,
38,
36,
33,
31,
33,
36,
37,
37,
37,
37,
37,
37,
36,
35,
36,
37,
36,
36,
36,
37,
37,
35,
35,
36,
37,
37,
36,
36,
35,
37,
36,
36,
35,
35,
36,
37,
35,
37,
37,
36,
36,
36,
35,
32,
18,
-5,
-27,
-40,
-41,
-39,
-37,
-35,
-31,
-29,
-29,
-32,
-34,
-35,
-34,
-34,
-35,
-35,
-34,
-33,
-34,
-34,
-34,
-33,
-34,
-34,
-34,
-33,
-34,
-34,
-34,
-33,
-33,
-33,
-33,
-34,
-34,
-34,
-33,
-34,
-34,
-34,
-33,
-33,
-33,
-34,
-34,
-34,
-33,
-25,
-7,
17,
37,
43,
43,
40,
39,
36,
33,
31,
33,
36,
37,
37,
36,
37,
37,
37,
35,
35,
36,
36,
35,
36,
36,
37,
37,
37,
35,
37,
36,
36,
35,
36,
35,
36,
37,
36,
36,
35,
37,
36,
36,
35,
37,
35,
35,
35,
35,
31,
19,
-4,
-27,
-39,
-41,
-38,
-37,
-35,
-32,
-29,
-30,
-32,
-35,
-35,
-33,
-34,
-35,
-35,
-33,
-33,
-33,
-34,
-34,
-33,
-34,
-34,
-34,
-34,
-34,
-33,
-33,
-34,
-34,
-34,
-33,
-34,
-34,
-33,
-33,
-33,
-34,
-33,
-33,
-34,
-33,
-34,
-34,
-34,
-32,
-25,
-7,
18,
37,
45,
42,
40,
38,
37,
33,
32,
33,
36,
37,
37,
37,
37,
37,
37,
35,
35,
36,
37,
36,
36,
36,
37,
36,
37,
36,
36,
37,
37,
36,
36,
37,
37,
35,
35,
35,
36,
36,
36,
35,
35,
36,
35,
36,
36,
36,
31,
19,
-4,
-27,
-39,
-41,
-39,
-37,
-35,
-31,
-30,
-29,
-32,
-35,
-35,
-34,
-35,
-35,
-35,
-33,
-33,
-33,
-34,
-33,
-33,
-34,
-35,
-34,
-34,
-34,
-33,
-34,
-34,
-33,
-34,
-34,
-34,
-33,
-33,
-33,
-33,
-33,
-34,
-33,
-33,
-33,
-34,
-33,
-33,
-33,
-25,
-7,
17,
37,
44,
42,
39,
38,
36,
33,
32,
33,
35,
37,
37,
37,
37,
37,
37,
36,
35,
36,
36,
36,
36,
36,
36,
36,
35,
36,
35,
35,
37,
35,
36,
35,
37,
36,
35,
35,
36,
36,
35,
36,
35,
36,
37,
35,
35,
35,
31,
19,
-5,
-27,
-39,
-41,
-39,
-36,
-35,
-32,
-29,
-30,
-32,
-35,
-35,
-35,
-35,
-35,
-35,
-34,
-33,
-34,
-33,
-33,
-34,
-34,
-34,
-33,
-33,
-33,
-33,
-33,
-33,
-34,
-34,
-33,
-34,
-34,
-34,
-33,
-34,
-33,
-34,
-33,
-33,
-33,
-34,
-34,
-34,
-33,
-26,
-7,
17,
37,
44,
43,
40,
38,
37,
33,
32,
33,
36,
37,
37,
37,
37,
37,
37,
35,
35,
37,
37,
37,
36,
36,
37,
36,
36,
37,
36,
36,
36,
36,
37,
36,
36,
37,
36,
36,
36,
37,
35,
35,
35,
36,
37,
35,
36,
36,
31,
19,
-3,
-27,
-39,
-41,
-38,
-37,
-35,
-31,
-29,
-30,
-33,
-35,
-35,
-35,
-34,
-35,
-35,
-34,
-33,
-33,
-34,
-34,
-34,
-34,
-34,
-34,
-34,
-33,
-33,
-33,
-33,
-33,
-33,
-33,
-33,
-34,
-34,
-34,
-34,
-33,
-33,
-34,
-33,
-33,
-34,
-33,
-33,
-33,
-25,
-7,
17,
37,
44,
42,
39,
38,
36,
33,
31,
33,
36,
37,
37,
37,
37,
37,
37,
35,
35,
37,
36,
37,
36,
37,
37,
37,
37,
36,
35,
37,
37,
36,
36,
36,
36,
36,
35,
36,
36,
36,
35,
35,
35,
36,
36,
36,
36,
35,
31,
18,
-4,
-27,
-40,
-39,
-38,
-37,
-35,
-31,
-30,
-29,
-32,
-35,
-35,
-34,
-35,
-35,
-34,
-34,
-33,
-33,
-34,
-34,
-33,
-33,
-34,
-34,
-33,
-33,
-34,
-33,
-33,
-33,
-34,
-34,
-34,
-34,
-33,
-34,
-33,
-34,
-34,
-34,
-33,
-33,
-33,
-33,
-33,
-31,
-25,
-7,
17,
37,
43,
43,
40,
39,
37,
33,
31,
33,
36,
37,
37,
37,
37,
37,
37,
35,
35,
36,
36,
35,
35,
37,
37,
37,
37,
37,
37,
36,
35,
37,
35,
36,
37,
36,
35,
35,
37,
35,
36,
36,
36,
36,
35,
35,
35,
35,
31,
18,
-3,
-27,
-39,
-41,
-38,
-37,
-35,
-31,
-30,
-30,
-33,
-35,
-35,
-34,
-34,
-35,
-35,
-34,
-33,
-33,
-33,
-34,
-33,
-33,
-34,
-34,
-33,
-33,
-33,
-33,
-33,
-34,
-34,
-33,
-34,
-33,
-33,
-34,
-33,
-34,
-34,
-34,
-33,
-33,
-34,
-33,
-34,
-33,
-25,
-7,
17,
37,
44,
43,
40,
39,
37,
33,
31,
33,
36,
37,
37,
37,
37,
37,
37,
35,
35,
36,
37,
37,
36,
36,
37,
37,
37,
37,
36,
36,
35,
36,
36,
37,
37,
36,
36,
36,
35,
35,
36,
35,
35,
35,
35,
36,
35,
36,
31,
19,
-3,
-27,
-40,
-41,
-39,
-37,
-35,
-32,
-29,
-29,
-32,
-34,
-34,
-34,
-34,
-35,
-35,
-34,
-33,
-34,
-34,
-34,
-33,
-33,
-33,
-33,
-33,
-34,
-34,
-34,
-34,
-34,
-33,
-34,
-34,
-34,
-34,
-33,
-34,
-33,
-33,
-33,
-33,
-33,
-33,
-33,
-34,
-33,
-25,
-7,
