2-Passive Filters/differentiator-integrator_behaviour/data/ALL0059/A0059CH2.CSV

Memory Length,4000,
Trigger Level,0.000E+00,
Source,CH2,
Probe,1X,
Vertical Units,V,
Vertical Scale,1.000E+01,
Vertical Position,4.000E-01,
Horizontal Units,s,
Horizontal Scale,2.500E-08,
Horizontal Position,0.000E+00,
Horizontal Mode,Main,
Sampling Period,1.000E-09,
Firmware,V1.04,
Time, ,
Mode,Fast,
Waveform Data,
-3,
-2,
-1,
0,
2,
2,
3,
3,
5,
5,
7,
7,
9,
9,
10,
10,
11,
12,
13,
13,
14,
15,
15,
15,
15,
16,
15,
15,
16,
15,
15,
16,
15,
16,
15,
14,
13,
13,
13,
13,
11,
11,
10,
8,
8,
7,
7,
6,
4,
4,
2,
0,
-1,
-1,
-3,
-1,
-4,
-4,
-5,
-8,
-8,
-9,
-10,
-9,
-12,
-11,
-13,
-15,
-15,
-15,
-15,
-15,
-16,
-16,
-17,
-17,
-17,
-17,
-17,
-17,
-17,
-17,
-17,
-17,
-17,
-16,
-15,
-14,
-13,
-13,
-12,
-12,
-11,
-10,
-9,
-9,
-7,
-7,
-5,
-4,
-4,
-2,
-1,
-1,
1,
1,
3,
4,
5,
7,
7,
7,
9,
9,
11,
11,
12,
12,
13,
13,
15,
14,
15,
15,
15,
15,
16,
15,
16,
16,
16,
15,
15,
15,
15,
15,
13,
13,
13,
11,
11,
11,
9,
9,
7,
7,
7,
5,
4,
3,
3,
3,
-1,
0,
-1,
-4,
-4,
-5,
-7,
-6,
-9,
-8,
-9,
-11,
-11,
-12,
-13,
-13,
-15,
-15,
-15,
-16,
-16,
-17,
-17,
-17,
-17,
-17,
-17,
-17,
-17,
-17,
-17,
-17,
-16,
-16,
-15,
-14,
-13,
-13,
-13,
-13,
-11,
-10,
-9,
-7,
-7,
-7,
-5,
-6,
-3,
-3,
-1,
0,
1,
2,
3,
2,
5,
5,
7,
8,
9,
9,
11,
9,
12,
11,
12,
13,
15,
14,
15,
15,
15,
15,
15,
16,
16,
15,
15,
15,
15,
15,
15,
15,
13,
13,
13,
13,
11,
11,
10,
9,
8,
7,
7,
6,
4,
3,
3,
1,
0,
-1,
-2,
-1,
-5,
-4,
-5,
-7,
-8,
-9,
-10,
-9,
-12,
-11,
-12,
-13,
-13,
-15,
-15,
-15,
-16,
-17,
-17,
-16,
-17,
-17,
-17,
-17,
-17,
-17,
-16,
-15,
-16,
-15,
-15,
-15,
-13,
-13,
-13,
-11,
-11,
-9,
-9,
-10,
-7,
-7,
-5,
-3,
-3,
-2,
-1,
-2,
1,
1,
3,
4,
5,
5,
7,
7,
9,
9,
10,
11,
11,
11,
13,
12,
15,
13,
15,
15,
15,
16,
16,
16,
16,
16,
15,
15,
15,
15,
15,
15,
14,
14,
13,
11,
11,
11,
10,
11,
7,
7,
7,
5,
4,
3,
2,
3,
-1,
-1,
-1,
-3,
-4,
-5,
-6,
-5,
-9,
-8,
-9,
-11,
-11,
-12,
-13,
-12,
-15,
-14,
-15,
-17,
-15,
-16,
-17,
-16,
-17,
-17,
-17,
-17,
-17,
-16,
-17,
-16,
-16,
-16,
-15,
-15,
-13,
-13,
-12,
-13,
-11,
-10,
-9,
-9,
-7,
-7,
-5,
-5,
-3,
-3,
-1,
0,
1,
3,
3,
3,
6,
5,
7,
7,
8,
9,
11,
10,
12,
12,
12,
13,
14,
15,
15,
15,
16,
15,
16,
15,
15,
15,
15,
15,
15,
15,
15,
14,
13,
13,
13,
13,
11,
11,
9,
8,
7,
7,
7,
6,
4,
3,
3,
0,
0,
-1,
-1,
-2,
-4,
-5,
-6,
-7,
-9,
-9,
-9,
-9,
-12,
-12,
-12,
-13,
-15,
-15,
-15,
-15,
-16,
-16,
-17,
-17,
-17,
-17,
-17,
-18,
-17,
-17,
-17,
-17,
-16,
-15,
-14,
-15,
-13,
-13,
-12,
-11,
-11,
-9,
-9,
-9,
-8,
-7,
-5,
-4,
-3,
-2,
-1,
-1,
1,
2,
3,
4,
5,
6,
7,
7,
9,
9,
11,
11,
12,
13,
13,
12,
14,
15,
15,
15,
15,
16,
16,
15,
16,
16,
15,
15,
15,
15,
15,
15,
14,
13,
13,
12,
11,
11,
9,
9,
7,
7,
6,
5,
5,
3,
2,
2,
0,
0,
-2,
-3,
-4,
-5,
-7,
-7,
-8,
-9,
-10,
-11,
-12,
-12,
-13,
-13,
-14,
-15,
-15,
-15,
-17,
-16,
-17,
-17,
-17,
-17,
-17,
-17,
-17,
-17,
-17,
-17,
-16,
-16,
-15,
-14,
-14,
-13,
-12,
-12,
-11,
-10,
-9,
-9,
-7,
-7,
-5,
-6,
-3,
-2,
-1,
0,
1,
1,
3,
3,
5,
5,
7,
8,
8,
9,
10,
10,
11,
12,
13,
14,
14,
14,
15,
15,
15,
16,
16,
16,
16,
16,
15,
16,
15,
15,
15,
14,
14,
13,
12,
13,
11,
11,
9,
9,
7,
7,
5,
7,
4,
3,
3,
0,
0,
-1,
-2,
-1,
-5,
-4,
-6,
-7,
-8,
-9,
-10,
-9,
-12,
-11,
-13,
-13,
-15,
-15,
-16,
-15,
-16,
-16,
-17,
-17,
-17,
-17,
-17,
-17,
-17,
-17,
-17,
-17,
-16,
-15,
-15,
-15,
-13,
-13,
-13,
-11,
-11,
-11,
-9,
-9,
-7,
-7,
-6,
-5,
-3,
-3,
-1,
-2,
1,
1,
3,
4,
4,
6,
7,
6,
8,
8,
9,
11,
11,
12,
13,
13,
14,
14,
15,
15,
15,
16,
16,
15,
15,
16,
15,
15,
15,
15,
15,
15,
13,
14,
13,
11,
11,
11,
10,
10,
7,
8,
6,
5,
4,
3,
3,
3,
-1,
0,
-1,
-3,
-5,
-5,
-7,
-5,
-9,
-8,
-9,
-11,
-11,
-12,
-12,
-13,
-15,
-15,
-15,
-16,
-16,
-16,
-17,
-17,
-17,
-17,
-17,
-17,
-17,
-17,
-17,
-17,
-16,
-16,
-15,
-15,
-13,
-13,
-12,
-13,
-11,
-10,
-9,
-8,
-8,
-6,
-6,
-7,
-3,
-3,
-1,
0,
1,
1,
3,
3,
5,
5,
7,
8,
9,
9,
10,
10,
12,
12,
13,
13,
14,
15,
15,
15,
15,
15,
16,
16,
16,
15,
15,
16,
15,
15,
15,
14,
14,
12,
13,
12,
11,
11,
10,
9,
7,
7,
7,
7,
4,
4,
3,
1,
-1,
-1,
-3,
-1,
-5,
-5,
-5,
-8,
-9,
-9,
-9,
-9,
-12,
-12,
-12,
-14,
-14,
-15,
-15,
-15,
-16,
-16,
-17,
-17,
-17,
-17,
-17,
-17,
-17,
-17,
-17,
-17,
-15,
-16,
-15,
-15,
-13,
-13,
-12,
-12,
-10,
-10,
-9,
-9,
-8,
-7,
-5,
-4,
-3,
-2,
-1,
-1,
1,
1,
3,
4,
5,
6,
6,
6,
8,
9,
10,
11,
12,
13,
13,
12,
14,
14,
15,
15,
15,
15,
15,
15,
16,
16,
15,
15,
15,
15,
15,
15,
14,
13,
13,
12,
11,
10,
9,
10,
7,
7,
6,
5,
4,
3,
2,
3,
0,
-1,
-2,
-3,
-5,
-5,
-6,
-6,
-9,
-9,
-9,
-11,
-11,
-13,
-13,
-13,
-15,
-15,
-15,
-17,
-16,
-17,
-17,
-17,
-18,
-17,
-17,
-17,
-17,
-17,
-16,
-17,
-16,
-15,
-15,
-15,
-13,
-13,
-12,
-13,
-11,
-11,
-9,
-8,
-7,
-7,
-5,
-6,
-3,
-3,
-1,
-1,
1,
1,
3,
3,
5,
5,
7,
7,
9,
9,
10,
9,
11,
12,
13,
13,
14,
15,
15,
15,
15,
16,
16,
16,
16,
15,
16,
16,
15,
15,
15,
15,
13,
13,
13,
12,
11,
11,
10,
8,
8,
7,
6,
7,
3,
3,
2,
1,
-1,
-1,
-2,
-1,
-5,
-5,
-6,
-7,
-8,
-9,
-9,
-9,
-13,
-12,
-13,
-14,
-15,
-15,
-15,
-15,
-17,
-16,
-17,
-17,
-17,
-17,
-17,
-17,
-17,
-16,
-17,
-17,
-16,
-16,
-15,
-15,
-13,
-13,
-12,
-12,
-11,
-10,
-9,
-9,
-7,
-7,
-6,
-5,
-3,
-2,
-1,
-2,
1,
1,
3,
4,
5,
6,
7,
7,
9,
9,
11,
11,
11,
12,
13,
13,
15,
13,
15,
15,
15,
15,
16,
16,
16,
15,
15,
15,
15,
15,
15,
15,
14,
13,
12,
11,
11,
11,
9,
9,
7,
7,
6,
5,
5,
3,
3,
3,
0,
0,
-1,
-3,
-4,
-5,
-6,
-6,
-8,
-9,
-9,
-11,
-11,
-12,
-13,
-13,
-15,
-14,
-15,
-15,
-16,
-16,
-17,
-17,
-17,
-17,
-17,
-17,
-17,
-17,
-17,
-17,
-15,
-15,
-15,
-13,
-13,
-13,
-13,
-13,
-11,
-11,
-9,
-8,
-7,
-7,
-5,
-6,
-3,
-3,
-1,
0,
1,
2,
3,
3,
5,
5,
7,
8,
8,
9,
11,
10,
12,
12,
13,
14,
13,
14,
15,
15,
15,
15,
15,
15,
16,
15,
16,
15,
15,
15,
15,
13,
13,
13,
13,
13,
11,
11,
9,
9,
8,
7,
7,
6,
4,
3,
1,
1,
0,
-1,
-1,
-1,
-5,
-4,
-6,
-7,
-8,
-9,
-10,
-9,
-12,
-12,
-13,
-13,
-14,
-15,
-15,
-15,
-16,
-17,
-17,
-17,
-17,
-17,
-17,
-17,
-17,
-17,
-17,
-16,
-16,
-15,
-15,
-15,
-14,
-13,
-13,
-11,
-10,
-10,
-9,
-9,
-8,
-7,
-6,
-4,
-3,
-3,
-1,
-1,
1,
1,
3,
5,
5,
6,
7,
7,
8,
9,
9,
11,
12,
12,
13,
12,
13,
15,
15,
15,
15,
16,
16,
16,
16,
15,
16,
15,
15,
15,
15,
15,
13,
14,
13,
12,
11,
11,
10,
10,
7,
7,
6,
4,
4,
3,
2,
3,
0,
1,
-1,
-4,
-4,
-5,
-6,
-5,
-8,
-8,
-9,
-11,
-12,
-12,
-13,
-13,
-14,
-15,
-15,
-16,
-15,
-17,
-17,
-17,
-17,
-17,
-17,
-17,
-17,
-17,
-16,
-17,
-15,
-15,
-15,
-13,
-13,
-13,
-12,
-13,
-11,
-10,
-9,
-8,
-7,
-6,
-5,
-6,
-3,
-3,
-1,
0,
1,
3,
3,
2,
5,
5,
7,
7,
8,
11,
10,
9,
12,
12,
13,
13,
14,
14,
15,
15,
15,
15,
15,
16,
16,
16,
15,
15,
15,
15,
15,
13,
13,
13,
13,
12,
11,
11,
10,
8,
7,
7,
6,
7,
4,
3,
3,
0,
0,
-1,
-3,
-1,
-4,
-5,
-6,
-8,
-9,
-9,
-9,
-9,
-12,
-11,
-11,
-14,
-15,
-15,
-15,
-15,
-15,
-17,
-17,
-17,
-17,
-17,
-17,
-17,
-17,
-17,
-17,
-17,
-16,
-15,
-14,
-15,
-13,
-13,
-13,
-11,
-11,
-10,
-9,
-9,
-7,
-7,
-6,
-4,
-3,
-2,
-1,
-1,
1,
1,
3,
4,
5,
6,
7,
6,
9,
9,
10,
11,
11,
12,
13,
12,
14,
14,
15,
15,
15,
15,
15,
15,
15,
15,
15,
15,
15,
15,
15,
15,
14,
13,
12,
12,
11,
10,
9,
9,
7,
7,
6,
5,
4,
3,
3,
3,
0,
0,
-1,
-3,
-4,
-5,
-6,
-5,
-8,
-9,
-11,
-11,
-11,
-12,
-13,
-13,
-14,
-15,
-15,
-15,
-16,
-17,
-17,
-17,
-17,
-17,
-17,
-17,
-17,
-17,
-17,
-17,
-17,
-15,
-15,
-14,
-14,
-13,
-12,
-13,
-11,
-10,
-9,
-9,
-7,
-7,
-5,
-5,
-3,
-2,
-2,
0,
1,
2,
3,
3,
4,
5,
7,
8,
9,
9,
10,
11,
11,
12,
13,
13,
14,
15,
15,
15,
15,
17,
15,
15,
15,
16,
15,
15,
15,
15,
15,
14,
13,
13,
12,
12,
11,
11,
10,
9,
8,
7,
5,
6,
4,
3,
3,
1,
0,
-1,
-2,
-1,
-4,
-5,
-6,
-8,
-9,
-9,
-10,
-9,
-11,
-11,
-12,
-13,
-15,
-14,
-15,
-15,
-16,
-16,
-16,
-17,
-17,
-17,
-17,
-17,
-16,
-17,
-16,
-16,
-17,
-16,
-15,
-15,
-13,
-13,
-12,
-12,
-11,
-9,
-9,
-9,
-7,
-7,
-5,
-5,
-3,
-2,
-1,
-1,
1,
1,
3,
4,
4,
6,
7,
7,
9,
9,
11,
10,
11,
12,
13,
13,
15,
15,
15,
14,
15,
15,
16,
16,
16,
16,
16,
15,
15,
15,
15,
15,
15,
13,
13,
11,
11,
11,
9,
10,
7,
7,
7,
5,
4,
3,
1,
3,
0,
-1,
-1,
-4,
-4,
-5,
-7,
-6,
-9,
-9,
-9,
-11,
-12,
-12,
-13,
-13,
-15,
-15,
-15,
-16,
-16,
-17,
-17,
-17,
-17,
-17,
-17,
-17,
-17,
-17,
-17,
-17,
-16,
-17,
-15,
-14,
-13,
-13,
-12,
-13,
-10,
-11,
-9,
-8,
-7,
-6,
-5,
-7,
-4,
-3,
-1,
0,
1,
1,
3,
2,
5,
5,
7,
8,
9,
9,
10,
10,
12,
11,
13,
13,
13,
14,
15,
15,
16,
15,
16,
16,
16,
15,
15,
15,
15,
15,
15,
14,
13,
13,
13,
13,
11,
11,
10,
8,
8,
7,
7,
6,
4,
3,
3,
1,
0,
-1,
-1,
-1,
-5,
-4,
-5,
-7,
-8,
-9,
-9,
-9,
-11,
-12,
-13,
-14,
-13,
-15,
-15,
-15,
-16,
-16,
-17,
-17,
-17,
-17,
-17,
-17,
-17,
-17,
-17,
-16,
-15,
-15,
-15,
-15,
-13,
-13,
-13,
-11,
-10,
-10,
-9,
-10,
-8,
-7,
-5,
-3,
-3,
-2,
-1,
-1,
1,
1,
3,
4,
5,
6,
7,
6,
8,
9,
10,
11,
12,
12,
13,
13,
14,
14,
15,
15,
15,
16,
16,
15,
16,
16,
15,
15,
15,
15,
15,
15,
13,
14,
12,
11,
11,
11,
9,
11,
7,
7,
7,
4,
4,
4,
2,
3,
0,
0,
-1,
-3,
-4,
-5,
-6,
-6,
-8,
-8,
-9,
-12,
-12,
-12,
-13,
-12,
-15,
-14,
-15,
-17,
-16,
-17,
-17,
-16,
-17,
-17,
-17,
-17,
-17,
-17,
-17,
-16,
-15,
-15,
-14,
-15,
-14,
-13,
-12,
-12,
-10,
-10,
-9,
-9,
-8,
-6,
-5,
-6,
-3,
-3,
-1,
0,
1,
1,
3,
3,
4,
5,
7,
7,
8,
9,
10,
10,
12,
12,
13,
13,
13,
14,
15,
15,
15,
15,
15,
15,
15,
15,
15,
16,
15,
15,
14,
14,
14,
13,
13,
13,
11,
11,
10,
8,
8,
7,
6,
6,
4,
3,
3,
1,
0,
-1,
-3,
-1,
-5,
-4,
-6,
-8,
-8,
-9,
-10,
-9,
-11,
-11,
-12,
-13,
-15,
-15,
-15,
-15,
-16,
-16,
-17,
-17,
-17,
-17,
-17,
-17,
-17,
-17,
-17,
-17,
-16,
-15,
-15,
-15,
-13,
-13,
-13,
-11,
-11,
-10,
-9,
-9,
-7,
-7,
-6,
-4,
-3,
-2,
-1,
-1,
1,
1,
3,
5,
5,
6,
7,
6,
8,
9,
10,
11,
11,
12,
13,
12,
14,
14,
15,
15,
16,
15,
16,
15,
15,
15,
15,
16,
15,
15,
15,
14,
13,
13,
13,
12,
11,
11,
10,
9,
7,
7,
6,
5,
5,
3,
2,
2,
0,
0,
-2,
-3,
-4,
-5,
-7,
-6,
-8,
-9,
-10,
-9,
-11,
-12,
-13,
-13,
-14,
-13,
-15,
-15,
-16,
-16,
-17,
-17,
-17,
-17,
-17,
-17,
-17,
-17,
-17,
-17,
-15,
-15,
-15,
-14,
-14,
-13,
-12,
-13,
-11,
-9,
-9,
-7,
-8,
-7,
-5,
-6,
-3,
-2,
-2,
0,
1,
2,
3,
3,
5,
5,
7,
7,
9,
9,
11,
10,
11,
12,
13,
14,
13,
14,
15,
15,
15,
16,
16,
15,
16,
15,
15,
16,
15,
15,
15,
14,
13,
13,
12,
13,
11,
11,
9,
8,
7,
7,
6,
6,
4,
3,
3,
1,
1,
-1,
-2,
-1,
-5,
-4,
-6,
-7,
-8,
-9,
-10,
-9,
-12,
-12,
-13,
-14,
-13,
-15,
-16,
-15,
-16,
-17,
-17,
-17,
-17,
-17,
-18,
-17,
-17,
-17,
-17,
-16,
-16,
-15,
-15,
-15,
-13,
-13,
-13,
-11,
-11,
-11,
-9,
-9,
-7,
-8,
-6,
-5,
-3,
-3,
-1,
-1,
1,
1,
3,
4,
5,
6,
7,
7,
9,
9,
9,
11,
12,
12,
13,
12,
15,
15,
15,
15,
16,
15,
16,
15,
16,
16,
15,
15,
15,
15,
15,
15,
13,
13,
12,
11,
11,
11,
10,
10,
7,
7,
6,
5,
4,
3,
2,
3,
-1,
-1,
-1,
-3,
-5,
-5,
-5,
-6,
-9,
-9,
-10,
-11,
-11,
-13,
-12,
-12,
-15,
-15,
-15,
-16,
-16,
-17,
-17,
-17,
-17,
-17,
-17,
-17,
-17,
-17,
-16,
-17,
-16,
-16,
-15,
-13,
-13,
-13,
-11,
-13,
-11,
-11,
-9,
-8,
-8,
-6,
-5,
-6,
-3,
-3,
-1,
1,
1,
2,
3,
2,
5,
5,
7,
7,
8,
9,
11,
9,
12,
12,
13,
14,
15,
14,
15,
15,
15,
16,
15,
16,
15,
15,
15,
15,
15,
15,
15,
15,
14,
14,
13,
12,
11,
11,
10,
8,
7,
7,
7,
7,
4,
3,
3,
1,
0,
-1,
-2,
-1,
-4,
-5,
-6,
-7,
-8,
-9,
-9,
-9,
-12,
-12,
-13,
-14,
-15,
-15,
-15,
-15,
-17,
-16,
-17,
-17,
-17,
-17,
-17,
-17,
-17,
-17,
-17,
-16,
-16,
-15,
-15,
-15,
-14,
-13,
-12,
-12,
-11,
-11,
-9,
-9,
-7,
-7,
-5,
-5,
-3,
-2,
-1,
-1,
1,
1,
3,
3,
5,
5,
7,
7,
8,
9,
10,
11,
11,
12,
13,
13,
13,
13,
15,
15,
15,
16,
15,
16,
15,
15,
15,
15,
15,
15,
15,
15,
13,
13,
12,
12,
11,
11,
8,
10,
7,
7,
6,
5,
4,
3,
1,
3,
0,
-1,
-2,
-3,
-4,
-5,
-7,
-5,
-8,
-9,
-10,
-11,
-12,
-12,
-12,
-12,
-14,
-15,
-15,
-16,
-16,
-16,
-17,
-17,
-17,
-17,
-17,
-17,
-17,
-17,
-17,
-17,
-17,
-15,
-15,
-14,
-13,
-13,
-12,
-12,
-11,
-10,
-9,
-8,
-8,
-7,
-5,
-7,
-4,
-3,
-1,
-1,
1,
1,
3,
3,
5,
5,
7,
7,
8,
9,
11,
10,
11,
12,
13,
13,
13,
14,
15,
15,
15,
15,
16,
15,
16,
15,
16,
15,
15,
15,
15,
14,
14,
13,
13,
13,
11,
11,
9,
8,
7,
7,
7,
7,
4,
3,
2,
1,
0,
-1,
-3,
-2,
-4,
-5,
-5,
-7,
-8,
-9,
-9,
-10,
-12,
-11,
-13,
-13,
-14,
-15,
-15,
-15,
-16,
-16,
-17,
-17,
-17,
-17,
-17,
-17,
-17,
-17,
-17,
-16,
-15,
-15,
-14,
-16,
-13,
-13,
-13,
-11,
-11,
-10,
-9,
-9,
-8,
-7,
-5,
-3,
-3,
-1,
-1,
-1,
1,
1,
3,
4,
5,
6,
7,
6,
8,
8,
11,
11,
11,
12,
13,
13,
14,
15,
15,
15,
15,
15,
17,
16,
15,
16,
16,
15,
15,
15,
15,
15,
14,
13,
13,
12,
11,
11,
9,
11,
7,
7,
7,
4,
4,
3,
2,
3,
0,
0,
-1,
-3,
-4,
-5,
-6,
-6,
-8,
-9,
-9,
-11,
-12,
-12,
-13,
-13,
-14,
-15,
-15,
-16,
-16,
-16,
-17,
-17,
-17,
-17,
-17,
-17,
-17,
-17,
-17,
-17,
-16,
-16,
-15,
-14,
-13,
-13,
-13,
-13,
-10,
-10,
-9,
-8,
-8,
-5,
-5,
-6,
-3,
-3,
-1,
0,
1,
2,
3,
3,
5,
5,
7,
7,
9,
9,
10,
10,
11,
11,
12,
13,
14,
15,
15,
15,
15,
16,
16,
15,
15,
15,
15,
16,
15,
15,
15,
14,
13,
13,
13,
13,
11,
11,
9,
8,
7,
7,
7,
7,
4,
3,
2,
0,
0,
-1,
-2,
-1,
-4,
-5,
-5,
-7,
-8,
-9,
-9,
-9,
-12,
-11,
-13,
-13,
-14,
-15,
-15,
-15,
-16,
-16,
-17,
-17,
-17,
-17,
-17,
-17,
-17,
-17,
-17,
-16,
-15,
-15,
-15,
-15,
-13,
-13,
-13,
-11,
-11,
-11,
-9,
-9,
-8,
-7,
-5,
-4,
-3,
-3,
-1,
-1,
1,
1,
3,
4,
5,
6,
7,
7,
8,
9,
9,
11,
11,
12,
13,
13,
14,
14,
15,
15,
15,
16,
15,
16,
16,
16,
15,
15,
15,
15,
15,
15,
13,
14,
13,
12,
11,
11,
10,
10,
7,
7,
6,
4,
4,
3,
3,
3,
0,
-1,
-1,
-4,
-4,
-5,
-5,
-6,
-9,
-9,
-9,
-11,
-11,
-13,
-12,
-13,
-14,
-13,
-15,
-16,
-17,
-16,
-17,
-17,
-17,
-17,
-17,
-17,
-17,
-17,
-16,
-17,
-16,
-16,
-15,
-14,
-13,
-13,
-12,
-12,
-11,
-10,
-9,
-9,
-7,
-7,
-5,
-7,
-3,
-3,
-1,
0,
1,
2,
3,
3,
5,
5,
7,
8,
9,
9,
11,
9,
12,
12,
13,
13,
14,
15,
15,
14,
15,
16,
16,
15,
16,
15,
16,
15,
15,
15,
15,
14,
14,
13,
12,
13,
11,
11,
10,
8,
7,
7,
6,
6,
5,
3,
2,
0,
-1,
-1,
-1,
-1,
-3,
-5,
-7,
-8,
-8,
-9,
-10,
-9,
-12,
-11,
-13,
-14,
-15,
-15,
-15,
-15,
-16,
-16,
-17,
-17,
-17,
-17,
-17,
-17,
-17,
-17,
-17,
-17,
-16,
-16,
-15,
-15,
-13,
-13,
-12,
-12,
-11,
-10,
-9,
-9,
-7,
-7,
-5,
-4,
-3,
-2,
-1,
-1,
1,
1,
3,
4,
4,
6,
7,
7,
9,
9,
9,
11,
11,
12,
13,
12,
14,
13,
15,
15,
15,
15,
16,
15,
16,
15,
16,
15,
15,
15,
14,
15,
13,
13,
13,
12,
11,
11,
9,
10,
7,
7,
6,
5,
5,
3,
2,
3,
0,
-1,
-1,
-3,
-3,
-5,
-6,
-5,
-8,
-9,
-9,
-11,
-11,
-12,
-13,
-13,
-14,
-15,
-16,
-16,
-16,
-17,
-17,
-16,
-17,
-17,
-17,
-17,
-17,
-17,
-17,
-17,
-16,
-16,
-15,
-14,
-13,
-13,
-12,
-13,
-11,
-10,
-10,
-8,
-7,
-6,
-5,
-6,
-3,
-3,
-1,
-1,
0,
2,
3,
3,
4,
5,
7,
7,
8,
9,
10,
10,
11,
12,
12,
13,
14,
15,
15,
15,
15,
16,
16,
16,
15,
15,
16,
16,
15,
15,
15,
14,
13,
13,
13,
12,
11,
11,
10,
8,
8,
7,
6,
6,
4,
4,
3,
1,
-1,
-1,
-2,
-1,
-5,
-4,
-5,
-8,
-9,
-9,
-10,
-9,
-12,
-11,
-12,
-14,
-15,
-15,
-16,
-15,
-16,
-16,
-17,
-17,
-17,
-17,
-17,
-17,
-17,
-17,
-17,
-16,
-15,
-15,
-15,
-15,
-13,
-13,
-12,
-12,
-11,
-11,
-9,
-9,
-7,
-7,
-5,
-4,
-3,
-1,
-1,
-2,
1,
1,
3,
4,
5,
7,
7,
6,
9,
9,
10,
11,
11,
13,
13,
12,
14,
14,
15,
15,
15,
15,
16,
15,
16,
16,
15,
15,
15,
15,
15,
14,
14,
13,
13,
11,
11,
11,
10,
10,
7,
7,
7,
5,
3,
3,
3,
3,
0,
0,
-1,
-3,
-4,
-5,
-6,
-5,
-8,
-9,
-9,
-11,
-12,
-12,
-13,
-12,
-15,
-15,
-15,
-16,
-17,
-16,
-16,
-17,
-17,
-17,
-17,
-17,
-17,
-17,
-17,
-17,
-16,
-17,
-15,
-15,
-13,
-13,
-12,
-13,
-11,
-11,
-9,
-8,
-7,
-7,
-5,
-6,
-3,
-3,
-1,
0,
1,
1,
3,
2,
5,
4,
7,
7,
8,
9,
9,
9,
11,
11,
13,
13,
15,
15,
15,
15,
15,
15,
16,
15,
16,
15,
16,
15,
15,
15,
15,
15,
14,
13,
13,
12,
11,
11,
9,
8,
8,
7,
6,
7,
4,
3,
3,
1,
0,
-1,
-2,
-1,
-4,
-5,
-6,
-7,
-8,
-9,
-10,
-9,
-12,
-11,
-13,
-13,
-14,
-15,
-15,
-15,
-17,
-16,
-17,
-17,
-17,
-17,
-17,
-17,
-17,
-16,
-17,
-16,
-15,
-16,
-15,
-15,
-14,
-13,
-13,
-11,
-11,
-10,
-9,
-9,
-8,
-7,
-6,
-4,
-3,
-2,
-1,
-2,
0,
1,
3,
4,
5,
5,
7,
7,
9,
9,
9,
11,
11,
13,
13,
12,
13,
15,
15,
15,
16,
16,
15,
16,
15,
16,
16,
15,
15,
15,
15,
15,
13,
13,
12,
11,
11,
11,
9,
10,
7,
7,
7,
5,
4,
3,
2,
3,
0,
0,
-1,
-3,
-4,
-5,
-5,
-5,
-9,
-8,
-9,
-11,
-12,
-12,
-13,
-13,
-14,
-15,
-15,
-16,
-16,
-16,
-17,
-17,
-17,
-17,
-17,
-17,
-17,
-17,
-16,
-17,
-16,
-15,
-15,
-14,
-14,
-13,
-12,
-12,
-11,
-10,
-9,
-8,
-8,
-6,
-5,
-6,
-3,
-3,
-1,
0,
0,
2,
3,
3,
5,
5,
7,
8,
8,
9,
10,
10,
12,
12,
13,
14,
14,
15,
15,
15,
15,
15,
16,
15,
15,
15,
16,
15,
15,
15,
15,
14,
13,
13,
13,
13,
11,
11,
11,
8,
7,
7,
6,
6,
4,
3,
3,
1,
0,
-1,
-2,
-2,
-4,
-5,
-6,
-8,
-9,
-9,
-9,
-9,
-11,
-12,
-13,
-15,
-15,
-15,
-15,
-15,
-16,
-17,
-16,
-17,
-17,
-18,
-17,
-17,
-17,
-17,
-17,
-16,
-16,
-16,
-14,
-15,
-13,
-13,
-13,
-11,
-11,
-10,
-9,
-11,
-7,
-7,
-6,
-4,
-3,
-2,
-1,
-2,
1,
1,
3,
5,
5,
5,
7,
5,
9,
9,
10,
11,
12,
12,
13,
12,
14,
14,
15,
15,
16,
15,
16,
15,
15,
16,
15,
15,
15,
14,
15,
15,
13,
14,
13,
12,
11,
10,
9,
10,
7,
7,
6,
5,
5,
3,
3,
3,
0,
0,
-2,
-3,
-4,
-5,
-5,
-5,
-9,
-9,
-9,
-11,
-11,
-13,
-12,
-13,
-15,
-15,
-15,
-16,
-16,
-17,
-17,
-17,
-17,
-17,
-17,
-17,
-16,
-17,
-17,
-17,
-16,
-16,
-15,
-14,
-13,
-13,
-12,
-13,
-11,
-10,
-9,
-8,
-7,
-7,
-5,
-6,
-3,
-2,
-1,
0,
1,
2,
3,
3,
5,
6,
7,
8,
9,
10,
11,
9,
11,
12,
13,
14,
14,
15,
15,
15,
15,
16,
15,
15,
16,
16,
16,
16,
15,
15,
15,
13,
14,
13,
13,
13,
11,
11,
9,
8,
7,
7,
6,
7,
4,
5,
3,
0,
0,
-1,
-2,
-1,
-4,
-5,
-5,
-8,
-8,
-9,
-9,
-9,
-12,
-11,
-12,
-14,
-15,
-15,
-15,
-15,
-16,
-17,
-17,
-18,
-17,
-17,
-17,
-17,
-17,
-17,
-16,
-17,
-16,
-15,
-15,
-15,
-13,
-13,
-13,
-11,
-11,
-10,
-9,
-9,
-7,
-7,
-5,
-5,
-4,
-1,
-1,
-2,
0,
1,
3,
3,
4,
6,
7,
7,
9,
8,
10,
11,
12,
13,
13,
13,
13,
13,
15,
15,
16,
16,
15,
15,
16,
15,
16,
15,
15,
15,
15,
15,
13,
13,
13,
11,
11,
11,
10,
10,
8,
8,
7,
4,
5,
3,
2,
3,
0,
0,
-1,
-4,
-4,
-5,
-6,
-5,
-8,
-9,
-10,
-11,
-11,
-13,
-12,
-13,
-14,
-15,
-15,
-16,
-16,
-16,
-17,
-16,
-17,
-17,
-17,
-17,
-17,
-17,
-17,
-17,
-16,
-16,
-15,
-14,
-14,
-13,
-12,
-13,
-11,
-11,
-9,
-8,
-8,
-7,
-5,
-6,
