2-Passive Filters/differentiator-integrator_behaviour/data/ALL0065/A0065CH2.CSV

Memory Length,4000,
Trigger Level,0.000E+00,
Source,CH2,
Probe,1X,
Vertical Units,V,
Vertical Scale,5.000E+00,
Vertical Position,2.000E-01,
Horizontal Units,s,
Horizontal Scale,2.500E-07,
Horizontal Position,0.000E+00,
Horizontal Mode,Main,
Sampling Period,1.000E-08,
Firmware,V1.04,
Time, ,
Mode,Fast,
Waveform Data,
39,
39,
42,
39,
37,
36,
33,
30,
30,
32,
35,
35,
35,
35,
35,
35,
35,
34,
34,
35,
35,
34,
34,
34,
35,
35,
34,
34,
34,
33,
34,
35,
33,
35,
34,
34,
34,
34,
33,
33,
33,
34,
34,
34,
34,
34,
34,
33,
26,
9,
-16,
-36,
-43,
-43,
-40,
-37,
-36,
-33,
-31,
-33,
-36,
-36,
-36,
-37,
-36,
-37,
-37,
-35,
-35,
-35,
-36,
-35,
-35,
-36,
-36,
-35,
-36,
-35,
-35,
-36,
-36,
-35,
-35,
-35,
-35,
-35,
-35,
-35,
-36,
-36,
-36,
-36,
-35,
-35,
-35,
-35,
-35,
-33,
-21,
0,
24,
40,
42,
39,
37,
36,
33,
30,
29,
33,
35,
35,
35,
35,
35,
35,
34,
34,
35,
35,
35,
35,
34,
34,
35,
35,
34,
34,
34,
34,
35,
34,
33,
35,
34,
35,
35,
34,
34,
34,
34,
33,
34,
33,
34,
34,
33,
33,
26,
9,
-15,
-35,
-43,
-42,
-39,
-37,
-36,
-33,
-31,
-32,
-36,
-37,
-36,
-35,
-36,
-36,
-36,
-35,
-35,
-36,
-36,
-35,
-35,
-36,
-36,
-36,
-36,
-35,
-35,
-35,
-36,
-36,
-35,
-36,
-35,
-35,
-35,
-35,
-35,
-35,
-35,
-35,
-35,
-35,
-36,
-36,
-36,
-33,
-22,
0,
23,
39,
43,
39,
37,
36,
33,
30,
31,
32,
35,
35,
35,
35,
35,
35,
35,
34,
34,
35,
35,
33,
35,
35,
35,
35,
34,
34,
34,
34,
34,
35,
35,
34,
35,
35,
34,
33,
35,
34,
34,
34,
35,
34,
33,
34,
33,
33,
26,
10,
-15,
-35,
-43,
-42,
-39,
-37,
-36,
-33,
-31,
-32,
-36,
-37,
-36,
-36,
-36,
-37,
-36,
-36,
-35,
-36,
-36,
-36,
-35,
-36,
-35,
-36,
-36,
-35,
-35,
-35,
-36,
-35,
-36,
-36,
-37,
-36,
-36,
-35,
-35,
-35,
-36,
-35,
-35,
-36,
-35,
-36,
-35,
-33,
-22,
-1,
23,
39,
43,
39,
37,
36,
33,
30,
31,
33,
35,
35,
35,
35,
35,
35,
34,
33,
35,
35,
35,
34,
34,
34,
35,
34,
34,
35,
34,
34,
33,
33,
35,
34,
34,
34,
34,
34,
35,
33,
33,
34,
33,
34,
33,
33,
34,
33,
27,
9,
-15,
-36,
-43,
-41,
-39,
-38,
-37,
-32,
-31,
-32,
-35,
-37,
-36,
-36,
-37,
-37,
-36,
-35,
-35,
-36,
-36,
-35,
-35,
-36,
-36,
-36,
-36,
-35,
-35,
-36,
-36,
-35,
-35,
-35,
-36,
-36,
-35,
-35,
-36,
-35,
-35,
-36,
-35,
-35,
-35,
-36,
-35,
-32,
-22,
-1,
24,
39,
43,
39,
37,
35,
34,
31,
29,
32,
35,
35,
35,
35,
35,
35,
35,
34,
34,
34,
35,
34,
34,
35,
35,
35,
35,
34,
34,
34,
33,
33,
33,
34,
35,
34,
33,
34,
33,
35,
33,
34,
34,
35,
33,
34,
35,
33,
27,
10,
-15,
-36,
-43,
-41,
-39,
-38,
-36,
-32,
-31,
-33,
-35,
-37,
-36,
-36,
-36,
-37,
-36,
-35,
-35,
-36,
-36,
-36,
-36,
-35,
-36,
-36,
-35,
-35,
-35,
-36,
-35,
-36,
-35,
-35,
-35,
-35,
-35,
-36,
-35,
-36,
-35,
-35,
-36,
-35,
-35,
-35,
-35,
-33,
-22,
0,
24,
39,
43,
39,
37,
36,
33,
31,
30,
33,
35,
35,
35,
35,
35,
35,
35,
34,
33,
35,
35,
34,
34,
34,
35,
35,
35,
34,
34,
34,
34,
33,
34,
34,
34,
34,
35,
34,
34,
34,
34,
34,
35,
33,
33,
35,
34,
33,
25,
9,
-15,
-35,
-43,
-41,
-39,
-38,
-36,
-33,
-31,
-33,
-36,
-37,
-36,
-35,
-37,
-37,
-37,
-35,
-35,
-35,
-35,
-36,
-35,
-36,
-35,
-37,
-36,
-35,
-36,
-36,
-35,
-35,
-35,
-36,
-36,
-36,
-35,
-35,
-36,
-35,
-35,
-35,
-35,
-35,
-35,
-35,
-35,
-33,
-21,
-1,
24,
39,
42,
39,
37,
35,
33,
30,
30,
32,
35,
35,
35,
35,
36,
35,
34,
34,
34,
34,
35,
34,
33,
35,
35,
35,
35,
35,
33,
34,
35,
34,
35,
34,
34,
34,
34,
34,
34,
35,
35,
33,
35,
34,
35,
34,
33,
33,
26,
10,
-14,
-35,
-43,
-41,
-39,
-37,
-36,
-33,
-31,
-32,
-35,
-37,
-36,
-36,
-36,
-37,
-36,
-35,
-35,
-35,
-36,
-36,
-35,
-35,
-36,
-36,
-36,
-35,
-35,
-36,
-36,
-35,
-36,
-35,
-36,
-36,
-35,
-35,
-36,
-35,
-35,
-36,
-35,
-35,
-35,
-36,
-36,
-33,
-22,
0,
25,
39,
42,
39,
37,
36,
33,
31,
29,
33,
35,
35,
35,
35,
35,
35,
35,
34,
34,
35,
35,
35,
34,
35,
35,
35,
35,
34,
34,
34,
34,
34,
35,
35,
34,
34,
33,
34,
34,
33,
34,
33,
33,
34,
33,
34,
34,
33,
26,
10,
-15,
-36,
-44,
-42,
-39,
-38,
-37,
-33,
-31,
-33,
-35,
-37,
-36,
-36,
-37,
-37,
-36,
-35,
-35,
-35,
-35,
-35,
-35,
-36,
-36,
-36,
-36,
-35,
-35,
-35,
-35,
-36,
-35,
-35,
-36,
-36,
-35,
-35,
-35,
-35,
-35,
-35,
-35,
-35,
-36,
-35,
-35,
-33,
-23,
-1,
23,
39,
42,
39,
37,
36,
34,
31,
29,
32,
35,
35,
35,
35,
35,
35,
35,
34,
34,
34,
35,
35,
34,
34,
34,
35,
34,
34,
33,
33,
35,
34,
33,
35,
35,
34,
34,
34,
34,
33,
34,
33,
33,
34,
33,
34,
35,
33,
26,
9,
-14,
-35,
-43,
-41,
-39,
-37,
-36,
-33,
-31,
-33,
-36,
-37,
-36,
-36,
-36,
-37,
-37,
-36,
-36,
-36,
-35,
-35,
-35,
-36,
-36,
-36,
-36,
-35,
-35,
-35,
-35,
-35,
-36,
-35,
-36,
-36,
-36,
-35,
-35,
-35,
-35,
-35,
-35,
-35,
-36,
-35,
-35,
-33,
-22,
-1,
23,
39,
43,
39,
37,
36,
34,
31,
29,
32,
35,
35,
35,
35,
36,
36,
35,
34,
33,
35,
35,
34,
35,
35,
35,
35,
35,
33,
34,
34,
33,
34,
34,
35,
35,
34,
33,
34,
35,
34,
34,
33,
35,
34,
33,
34,
34,
34,
26,
11,
-15,
-35,
-43,
-42,
-40,
-37,
-35,
-33,
-30,
-32,
-35,
-37,
-36,
-36,
-37,
-37,
-36,
-35,
-35,
-35,
-35,
-35,
-35,
-35,
-35,
-36,
-35,
-35,
-35,
-35,
-35,
-35,
-36,
-36,
-36,
-35,
-36,
-35,
-35,
-35,
-35,
-35,
-36,
-35,
-36,
-35,
-35,
-33,
-21,
-1,
24,
39,
42,
39,
37,
37,
33,
30,
30,
32,
35,
35,
35,
35,
35,
35,
35,
34,
35,
35,
35,
33,
35,
34,
35,
35,
34,
34,
34,
35,
34,
35,
35,
34,
35,
34,
35,
34,
34,
34,
33,
34,
33,
34,
33,
35,
34,
33,
26,
10,
-15,
-36,
-43,
-42,
-39,
-37,
-35,
-32,
-31,
-32,
-36,
-36,
-37,
-36,
-37,
-37,
-36,
-36,
-35,
-35,
-36,
-35,
-35,
-36,
-37,
-36,
-36,
-35,
-35,
-35,
-35,
-35,
-35,
-35,
-35,
-35,
-35,
-35,
-35,
-35,
-35,
-35,
-36,
-35,
-36,
-35,
-36,
-33,
-23,
-1,
24,
39,
43,
39,
37,
36,
34,
31,
31,
33,
35,
35,
35,
35,
35,
35,
34,
33,
34,
34,
35,
35,
34,
34,
35,
35,
35,
35,
34,
35,
34,
34,
33,
35,
34,
34,
35,
34,
34,
34,
35,
34,
34,
35,
33,
34,
33,
33,
26,
9,
-15,
-36,
-43,
-41,
-39,
-37,
-36,
-32,
-31,
-32,
-35,
-37,
-37,
-36,
-37,
-37,
-36,
-35,
-35,
-35,
-35,
-35,
-36,
-36,
-36,
-36,
-36,
-35,
-36,
-35,
-35,
-35,
-35,
-36,
-36,
-36,
-35,
-35,
-35,
-35,
-35,
-35,
-35,
-35,
-35,
-35,
-35,
-33,
-22,
-1,
24,
39,
43,
39,
37,
36,
33,
30,
30,
32,
35,
35,
35,
35,
35,
35,
34,
34,
34,
35,
35,
35,
34,
35,
35,
34,
34,
34,
34,
34,
35,
34,
34,
34,
34,
35,
34,
33,
34,
33,
34,
34,
35,
34,
33,
34,
35,
33,
27,
10,
-15,
-35,
-43,
-42,
-39,
-37,
-37,
-32,
-31,
-33,
-36,
-37,
-36,
-36,
-37,
-37,
-36,
-35,
-35,
-35,
-36,
-35,
-35,
-35,
-36,
-36,
-35,
-35,
-36,
-36,
-35,
-35,
-35,
-35,
-36,
-35,
-35,
-36,
-36,
-36,
-35,
-35,
-36,
-35,
-35,
-35,
-35,
-33,
-23,
-1,
24,
39,
43,
39,
36,
36,
34,
31,
31,
32,
35,
35,
35,
35,
35,
35,
34,
33,
34,
35,
34,
34,
35,
34,
35,
35,
35,
34,
34,
35,
35,
34,
35,
35,
35,
34,
34,
35,
34,
34,
33,
34,
33,
34,
34,
34,
34,
33,
26,
11,
-14,
-34,
-43,
-41,
-39,
-38,
-36,
-33,
-31,
-32,
-35,
-37,
-36,
-35,
-37,
-36,
-36,
-35,
-35,
-35,
-36,
-36,
-35,
-35,
-36,
-35,
-36,
-35,
-35,
-36,
-35,
-35,
-35,
-35,
-36,
-36,
-36,
-35,
-35,
-36,
-35,
-35,
-35,
-35,
-35,
-35,
-35,
-33,
-23,
-1,
23,
39,
42,
39,
37,
36,
33,
31,
30,
32,
35,
35,
35,
35,
35,
35,
35,
34,
34,
35,
35,
34,
35,
34,
34,
35,
34,
35,
33,
34,
33,
34,
33,
34,
33,
34,
33,
34,
35,
34,
34,
34,
34,
34,
34,
33,
34,
33,
27,
10,
-14,
-35,
-43,
-41,
-39,
-37,
-35,
-33,
-31,
-32,
-35,
-37,
-36,
-36,
-37,
-37,
-36,
-35,
-35,
-36,
-35,
-36,
-36,
-36,
-36,
-35,
-36,
-35,
-35,
-36,
-35,
-35,
-35,
-35,
-36,
-36,
-35,
-35,
-35,
-36,
-35,
-35,
-35,
-35,
-35,
-35,
-36,
-33,
-23,
-1,
23,
39,
43,
39,
37,
35,
33,
31,
29,
32,
35,
35,
35,
35,
35,
35,
35,
34,
34,
35,
35,
35,
35,
35,
35,
35,
35,
34,
34,
34,
33,
34,
34,
35,
34,
34,
33,
34,
34,
35,
34,
34,
34,
35,
35,
34,
34,
33,
27,
10,
-15,
-35,
-43,
-41,
-39,
-37,
-36,
-33,
-31,
-32,
-36,
-37,
-37,
-36,
-37,
-37,
-37,
-35,
-35,
-35,
-36,
-36,
-35,
-36,
-36,
-35,
-36,
-35,
-35,
-35,
-35,
-35,
-35,
-35,
-36,
-35,
-35,
-35,
-35,
-35,
-35,
-35,
-35,
-35,
-36,
-35,
-36,
-33,
-22,
-1,
24,
39,
42,
39,
37,
36,
33,
30,
30,
33,
35,
35,
35,
35,
35,
35,
35,
34,
33,
35,
35,
35,
34,
35,
35,
35,
35,
34,
33,
34,
34,
34,
34,
35,
33,
34,
35,
35,
34,
35,
34,
34,
34,
35,
34,
33,
34,
33,
26,
10,
-15,
-35,
-43,
-42,
-39,
-37,
-37,
-33,
-30,
-33,
-35,
-37,
-36,
-35,
-37,
-37,
-36,
-35,
-35,
-35,
-36,
-35,
-35,
-36,
-36,
-36,
-36,
-35,
-36,
-35,
-36,
-35,
-35,
-35,
-35,
-35,
-36,
-35,
-35,
-35,
-35,
-35,
-35,
-35,
-35,
-35,
-35,
-33,
-22,
-1,
23,
39,
42,
39,
37,
36,
33,
31,
30,
32,
35,
35,
35,
35,
35,
35,
34,
33,
35,
34,
34,
34,
34,
35,
34,
35,
35,
35,
34,
35,
35,
34,
33,
35,
35,
34,
33,
35,
34,
34,
34,
34,
34,
34,
33,
35,
34,
33,
26,
10,
-15,
-35,
-43,
-41,
-39,
-37,
-36,
-33,
-31,
-32,
-35,
-37,
-36,
-36,
-36,
-37,
-36,
-35,
-35,
-35,
-36,
-35,
-36,
-35,
-36,
-36,
-35,
-35,
-35,
-36,
-36,
-35,
-36,
-35,
-35,
-36,
-35,
-36,
-35,
-35,
-35,
-35,
-35,
-35,
-35,
-35,
-35,
-33,
-22,
-1,
23,
39,
43,
39,
37,
36,
33,
29,
30,
32,
35,
35,
35,
34,
35,
35,
35,
34,
34,
35,
35,
34,
33,
35,
35,
35,
34,
35,
34,
34,
33,
34,
34,
33,
34,
33,
34,
35,
34,
34,
34,
34,
34,
34,
35,
33,
34,
33,
26,
10,
-15,
-35,
-43,
-41,
-39,
-37,
-36,
-32,
-30,
-33,
-35,
-37,
-37,
-36,
-36,
-37,
-36,
-35,
-35,
-36,
-36,
-35,
-36,
-35,
-36,
-36,
-36,
-36,
-36,
-36,
-36,
-35,
-35,
-35,
-36,
-36,
-35,
-35,
-35,
-35,
-35,
-35,
-35,
-35,
-35,
-36,
-35,
-33,
-23,
-1,
23,
39,
42,
39,
37,
35,
33,
30,
29,
33,
35,
35,
35,
35,
35,
35,
33,
34,
34,
35,
35,
35,
35,
35,
35,
35,
35,
34,
35,
35,
34,
34,
34,
34,
34,
34,
34,
33,
34,
34,
33,
34,
34,
34,
35,
34,
33,
33,
27,
11,
-14,
-35,
-43,
-41,
-39,
-39,
-36,
-33,
-31,
-32,
-36,
-36,
-36,
-36,
-36,
-36,
-37,
-35,
-35,
-35,
-36,
-36,
-36,
-36,
-35,
-36,
-35,
-36,
-35,
-35,
-36,
-36,
-35,
-36,
-36,
-36,
-35,
-36,
-35,
-35,
-35,
-36,
-36,
-36,
-35,
-35,
-35,
-33,
-22,
-1,
23,
39,
43,
39,
37,
36,
33,
29,
30,
32,
35,
35,
35,
35,
35,
36,
35,
33,
34,
35,
35,
34,
34,
35,
35,
34,
34,
35,
34,
35,
33,
33,
33,
34,
34,
35,
33,
35,
34,
34,
35,
34,
33,
35,
33,
34,
33,
33,
27,
11,
-13,
-35,
-43,
-42,
-40,
-37,
-36,
-33,
-30,
-33,
-35,
-36,
-37,
-36,
-37,
-37,
-37,
-35,
-35,
-35,
-36,
-36,
-35,
-36,
-36,
-36,
-36,
-35,
-35,
-35,
-35,
-35,
-35,
-35,
-36,
-35,
-35,
-36,
-36,
-35,
-35,
-35,
-36,
-36,
-36,
-35,
-35,
-33,
-23,
-1,
23,
39,
43,
39,
37,
35,
33,
31,
30,
32,
35,
35,
35,
35,
35,
35,
35,
34,
33,
35,
34,
34,
34,
34,
35,
34,
35,
34,
34,
34,
35,
33,
34,
35,
35,
34,
33,
34,
34,
35,
33,
33,
34,
33,
34,
33,
33,
33,
27,
11,
-14,
-35,
-43,
-42,
-39,
-39,
-36,
-32,
-30,
-32,
-35,
-37,
-36,
-36,
-37,
-37,
-36,
-35,
-36,
-35,
-36,
-35,
-36,
-35,
-36,
-36,
-36,
-35,
-35,
-35,
-36,
-35,
-36,
-36,
-36,
-35,
-35,
-36,
-35,
-35,
-35,
-36,
-36,
-36,
-36,
-36,
-35,
-33,
-22,
-1,
23,
39,
43,
39,
37,
36,
34,
31,
30,
32,
35,
35,
35,
35,
35,
35,
34,
34,
35,
35,
35,
34,
34,
34,
34,
35,
35,
33,
34,
35,
35,
34,
35,
33,
33,
34,
34,
35,
33,
34,
33,
34,
33,
35,
34,
34,
35,
33,
27,
11,
-13,
-35,
-43,
-42,
-39,
-37,
-36,
-32,
-31,
-32,
-35,
-37,
-36,
-37,
-37,
-37,
-36,
-35,
-35,
-36,
-36,
-35,
-35,
-36,
-36,
-37,
-36,
-35,
-36,
-35,
-35,
-36,
-35,
-35,
-35,
-36,
-36,
-35,
-35,
-35,
-35,
-35,
-35,
-35,
-35,
-35,
-35,
-33,
-23,
-1,
23,
39,
43,
39,
37,
36,
33,
31,
31,
32,
35,
35,
35,
35,
35,
35,
35,
33,
34,
35,
34,
35,
34,
35,
35,
35,
34,
35,
35,
34,
34,
34,
33,
34,
35,
34,
33,
34,
35,
34,
34,
34,
34,
34,
33,
33,
33,
33,
27,
10,
-14,
-35,
-43,
-41,
-39,
-38,
-36,
-32,
-31,
-32,
-36,
-37,
-37,
-36,
-37,
-37,
-36,
-35,
-35,
-36,
-36,
-35,
-35,
-36,
-36,
-36,
-36,
-35,
-35,
-35,
-35,
-35,
-35,
-35,
-36,
-35,
-35,
-35,
-35,
-35,
-35,
-35,
-35,
-35,
-36,
-35,
-35,
-33,
-23,
-1,
23,
39,
43,
39,
37,
36,
33,
31,
29,
32,
35,
36,
35,
35,
35,
36,
34,
33,
33,
34,
35,
34,
35,
35,
35,
35,
34,
33,
33,
33,
34,
33,
34,
33,
34,
33,
34,
34,
34,
34,
34,
34,
35,
34,
34,
34,
33,
33,
27,
11,
-15,
-35,
-43,
-41,
-39,
-37,
-36,
-33,
-31,
-32,
-35,
-37,
-36,
-36,
-36,
-37,
-36,
-35,
-35,
-35,
-35,
-36,
-35,
-36,
-36,
-35,
-36,
-36,
-35,
-35,
-36,
-35,
-35,
-35,
-35,
-35,
-36,
-35,
-35,
-35,
-36,
-35,
-35,
-35,
-36,
-35,
-36,
-33,
-22,
-1,
23,
39,
43,
39,
37,
35,
33,
31,
30,
33,
35,
35,
35,
35,
35,
35,
34,
33,
33,
35,
35,
34,
34,
35,
35,
35,
33,
35,
34,
34,
35,
35,
35,
34,
34,
34,
35,
33,
34,
34,
33,
33,
34,
34,
34,
34,
34,
34,
27,
11,
-13,
-35,
-43,
-42,
-39,
-38,
-37,
-33,
-31,
-33,
-35,
-37,
-36,
-35,
-36,
-37,
-36,
-35,
-35,
-35,
-36,
-35,
-35,
-36,
-36,
-36,
-36,
-36,
-35,
-35,
-35,
-35,
-35,
-35,
-36,
-35,
-35,
-35,
-35,
-35,
-35,
-35,
-36,
-36,
-35,
-35,
-35,
-33,
-24,
-2,
23,
39,
42,
39,
37,
36,
33,
30,
31,
32,
35,
35,
35,
35,
35,
36,
34,
33,
35,
35,
35,
35,
34,
35,
35,
35,
35,
34,
33,
35,
34,
34,
33,
35,
34,
34,
34,
34,
33,
33,
33,
34,
34,
33,
33,
35,
33,
33,
26,
11,
-14,
-35,
-43,
-42,
-39,
-37,
-36,
-32,
-31,
-32,
-35,
-36,
-37,
-36,
-37,
-37,
-36,
-35,
-35,
-36,
-35,
-35,
-35,
-35,
-36,
-36,
-35,
-36,
-35,
-35,
-36,
-35,
-35,
-36,
-36,
-36,
-35,
-35,
-35,
-35,
-35,
-35,
-35,
-35,
-36,
-35,
-36,
-33,
-23,
-2,
23,
39,
42,
39,
37,
36,
34,
31,
29,
33,
35,
35,
35,
35,
35,
35,
35,
33,
34,
35,
35,
34,
35,
35,
35,
35,
35,
35,
34,
34,
34,
34,
35,
34,
35,
35,
34,
35,
34,
34,
35,
33,
34,
34,
34,
34,
34,
33,
27,
11,
-14,
-35,
-43,
-43,
-39,
-37,
-36,
-33,
-31,
-31,
-35,
-37,
-36,
-36,
-36,
-37,
-36,
-35,
-35,
-35,
-36,
-36,
-35,
-35,
-36,
-36,
-35,
-36,
-35,
-35,
-36,
-35,
-35,
-35,
-35,
-36,
-35,
-35,
-36,
-35,
-35,
-35,
-35,
-35,
-35,
-36,
-35,
-33,
-23,
-1,
23,
39,
43,
39,
37,
35,
33,
31,
30,
32,
35,
35,
35,
35,
35,
35,
35,
33,
34,
34,
35,
35,
34,
33,
34,
35,
35,
35,
34,
35,
35,
33,
35,
35,
34,
35,
33,
34,
33,
33,
34,
35,
34,
34,
34,
35,
34,
33,
27,
11,
-13,
-34,
-43,
-42,
-40,
-38,
-36,
-33,
-31,
-32,
-35,
-37,
-36,
-36,
-37,
-37,
-36,
-35,
-35,
-35,
-36,
-36,
-36,
-36,
-36,
-35,
-36,
-35,
-35,
-36,
-36,
-35,
-35,
-35,
-36,
-35,
-35,
-35,
-36,
-35,
-35,
-35,
-35,
-36,
-35,
-35,
-35,
-33,
-23,
-1,
23,
39,
41,
39,
37,
36,
33,
30,
30,
32,
35,
35,
35,
35,
35,
35,
35,
35,
35,
35,
35,
35,
34,
34,
34,
35,
34,
34,
35,
33,
35,
33,
34,
35,
35,
35,
34,
34,
35,
35,
34,
34,
34,
34,
33,
34,
33,
33,
27,
11,
-14,
-35,
-43,
-41,
-39,
-37,
-36,
-33,
-31,
-33,
-36,
-37,
-36,
-35,
-36,
-37,
-37,
-36,
-35,
-36,
-36,
-35,
-36,
-36,
-36,
-36,
-35,
-35,
-35,
-35,
-35,
-35,
-35,
-35,
-36,
-35,
-36,
-35,
-36,
-35,
-35,
-35,
-36,
-35,
-35,
-35,
-35,
-33,
-23,
-1,
22,
39,
42,
39,
37,
36,
33,
31,
30,
32,
35,
35,
35,
35,
35,
35,
34,
33,
34,
35,
35,
33,
33,
34,
35,
35,
35,
35,
34,
34,
34,
35,
34,
33,
35,
35,
34,
34,
34,
34,
34,
34,
34,
34,
33,
34,
34,
33,
27,
11,
-13,
-35,
-43,
-41,
-39,
-37,
-37,
-32,
-31,
-33,
-35,
-37,
-36,
-36,
-36,
-37,
-36,
-35,
-35,
-35,
-36,
-35,
-35,
-36,
-36,
-36,
-36,
-35,
-35,
-35,
-35,
-35,
-35,
-36,
-36,
-36,
-36,
-35,
-36,
-36,
-35,
-36,
-35,
-35,
-35,
-36,
-35,
-33,
-23,
-1,
23,
39,
43,
39,
37,
36,
33,
31,
30,
32,
35,
35,
35,
34,
35,
35,
35,
34,
33,
34,
35,
34,
34,
35,
35,
35,
35,
34,
34,
34,
33,
34,
34,
34,
33,
34,
35,
34,
34,
34,
34,
34,
34,
34,
34,
34,
33,
33,
27,
11,
-13,
-35,
-43,
-42,
-39,
-38,
-36,
-33,
-31,
-32,
-36,
-36,
-36,
-36,
-37,
-37,
-37,
-36,
-35,
-36,
-36,
-36,
-35,
-35,
-35,
-36,
-36,
-35,
-35,
-35,
-35,
-35,
-35,
-36,
-36,
-36,
-35,
-35,
-35,
-35,
-35,
-35,
-35,
-36,
-35,
-36,
-35,
-33,
-24,
-2,
23,
39,
42,
39,
37,
36,
33,
30,
30,
32,
35,
35,
35,
34,
35,
35,
35,
34,
35,
35,
35,
34,
35,
35,
35,
34,
34,
33,
34,
35,
34,
33,
35,
35,
35,
34,
35,
33,
34,
34,
34,
34,
34,
35,
34,
34,
35,
33,
26,
11,
-13,
-35,
-43,
-41,
-39,
-37,
-37,
-33,
-31,
-32,
-36,
-37,
-36,
-36,
-37,
-37,
-36,
-35,
-35,
-35,
-36,
-35,
-35,
-36,
-36,
-35,
-36,
-35,
-36,
-35,
-35,
-35,
-36,
-36,
-36,
-35,
-35,
-35,
-35,
-35,
-35,
-35,
-35,
-35,
-35,
-35,
-35,
-33,
-24,
-3,
23,
39,
42,
39,
37,
36,
33,
31,
30,
32,
35,
35,
35,
34,
35,
35,
35,
33,
33,
34,
35,
34,
34,
35,
35,
35,
35,
34,
34,
35,
34,
34,
33,
34,
34,
34,
35,
34,
35,
33,
35,
34,
33,
33,
33,
34,
33,
33,
27,
11,
-13,
-34,
-43,
-41,
-39,
-38,
-36,
-33,
-31,
-32,
-35,
-37,
-37,
-36,
-36,
-37,
-36,
-35,
-35,
-35,
-36,
-35,
-35,
-36,
-35,
-36,
-35,
-36,
-35,
-36,
-35,
-36,
-35,
-35,
-35,
-36,
-36,
-36,
-35,
-35,
-36,
-36,
-35,
-35,
-36,
-36,
-35,
-33,
-23,
-1,
23,
39,
43,
39,
37,
35,
33,
31,
30,
32,
35,
35,
35,
35,
35,
36,
35,
34,
34,
34,
35,
34,
33,
34,
35,
34,
35,
34,
35,
34,
34,
34,
33,
33,
34,
34,
34,
33,
34,
33,
33,
33,
35,
34,
33,
34,
34,
33,
27,
11,
-13,
-35,
-43,
-42,
-39,
-38,
-35,
-33,
-31,
-32,
-35,
-37,
-36,
-36,
-37,
-37,
-36,
-36,
-35,
-36,
-35,
-35,
-35,
-35,
-35,
-36,
-35,
-35,
-35,
-35,
-35,
-36,
-35,
-36,
-37,
-36,
-36,
-35,
-35,
-35,
-36,
-36,
-35,
-35,
-35,
-35,
-35,
-34,
-24,
-1,
23,
39,
42,
39,
37,
36,
34,
30,
29,
32,
35,
35,
35,
34,
35,
35,
35,
33,
35,
35,
35,
35,
34,
34,
34,
35,
35,
33,
34,
34,
33,
35,
33,
34,
35,
34,
33,
35,
34,
33,
33,
34,
34,
33,
34,
35,
35,
33,
27,
11,
-13,
-35,
-43,
-42,
-39,
-38,
-36,
-33,
-31,
-33,
-36,
-37,
-37,
-35,
-37,
-37,
-36,
-35,
-35,
-35,
-36,
-35,
-35,
-36,
-35,
-36,
-35,
-36,
-35,
-35,
-35,
-35,
-36,
-35,
-35,
-35,
-35,
-35,
-36,
-35,
-35,
-35,
-35,
-35,
-36,
-36,
-36,
-33,
-24,
-2,
23,
39,
42,
39,
37,
36,
33,
30,
29,
32,
35,
35,
34,
35,
35,
35,
34,
33,
35,
34,
34,
34,
34,
34,
35,
34,
35,
34,
35,
34,
34,
34,
34,
35,
35,
34,
33,
34,
33,
33,
34,
34,
34,
35,
33,
33,
34,
33,
27,
11,
-13,
-34,
-43,
-42,
-39,
-38,
-37,
-32,
-31,
-31,
-35,
-36,
-36,
-36,
-36,
-37,
-36,
-35,
-35,
-35,
-36,
-35,
-35,
-35,
-36,
-35,
-36,
-35,
-35,
-35,
-35,
-35,
-35,
-35,
-36,
-35,
-35,
-35,
-36,
-35,
-35,
-35,
-35,
-35,
-35,
-36,
-35,
-33,
-23,
-1,
23,
39,
42,
39,
36,
36,
34,
31,
30,
32,
35,
35,
35,
35,
35,
35,
35,
35,
34,
34,
34,
34,
33,
35,
35,
35,
35,
33,
33,
35,
34,
34,
33,
34,
33,
33,
33,
34,
34,
33,
33,
34,
34,
34,
34,
33,
33,
34,
27,
11,
-14,
-35,
-44,
-41,
-39,
-38,
-37,
-32,
-31,
-33,
-35,
-37,
-36,
-35,
-37,
-37,
-36,
-35,
-35,
-35,
-35,
-36,
-35,
-35,
-36,
-35,
-36,
-35,
-35,
-36,
-36,
-35,
-35,
-35,
-36,
-35,
-36,
-36,
-35,
-35,
-35,
-35,
-35,
-36,
-35,
-36,
-36,
-33,
-24,
-2,
23,
39,
42,
39,
37,
36,
33,
31,
31,
32,
35,
35,
35,
35,
35,
35,
34,
34,
33,
35,
35,
34,
34,
35,
35,
35,
34,
35,
35,
35,
34,
34,
34,
35,
34,
34,
34,
34,
34,
34,
35,
34,
33,
34,
35,
34,
34,
33,
27,
11,
-13,
-34,
-43,
-41,
-39,
-37,
-37,
-33,
-31,
-32,
-35,
-37,
-36,
-36,
-36,
-37,
-36,
-35,
-35,
-35,
-35,
-35,
-36,
-36,
-36,
-36,
-36,
-35,
-35,
-36,
-36,
-35,
-35,
-35,
-35,
-35,
-35,
-35,
-35,
-35,
-35,
-36,
-35,
-35,
-36,
-35,
-36,
-33,
-24,
-2,
22,
39,
43,
39,
37,
36,
34,
30,
30,
32,
35,
35,
35,
35,
35,
35,
34,
33,
33,
35,
34,
34,
35,
35,
35,
35,
34,
34,
35,
34,
34,
35,
34,
34,
35,
35,
35,
34,
34,
35,
34,
34,
34,
35,
35,
34,
34,
33,
27,
11,
-13,
-33,
-43,
-43,
-40,
-38,
-36,
-33,
-30,
-33,
-35,
-37,
-37,
-36,
-36,
-37,
-36,
-35,
-35,
-35,
-36,
-36,
-35,
-35,
-36,
-35,
-35,
-35,
-35,
-36,
-35,
-35,
-35,
-35,
-37,
-36,
-35,
-35,
-36,
-35,
-35,
-36,
-36,
-35,
-35,
-36,
-36,
-33,
-23,
-2,
