2-Passive Filters/differentiator-integrator_behaviour/data/ALL0013/A0013CH2.CSV

Memory Length,4000,
Trigger Level,0.000E+00,
Source,CH2,
Probe,1X,
Vertical Units,V,
Vertical Scale,5.000E+00,
Vertical Position,-2.000E-01,
Horizontal Units,s,
Horizontal Scale,1.000E-02,
Horizontal Position,0.000E+00,
Horizontal Mode,Main,
Sampling Period,4.000E-05,
Firmware,V1.04,
Time, ,
Mode,Fast,
Waveform Data,
1,
1,
1,
1,
2,
1,
2,
2,
2,
1,
2,
1,
2,
2,
2,
2,
2,
1,
1,
2,
2,
1,
1,
1,
1,
1,
1,
1,
2,
1,
1,
2,
1,
1,
2,
2,
1,
2,
2,
2,
1,
1,
1,
1,
1,
2,
1,
2,
2,
1,
2,
2,
2,
2,
1,
1,
1,
1,
1,
1,
2,
1,
1,
1,
1,
2,
1,
2,
1,
1,
1,
2,
1,
1,
1,
1,
1,
1,
1,
1,
1,
1,
1,
1,
1,
1,
1,
1,
1,
2,
1,
1,
2,
2,
1,
1,
1,
2,
1,
1,
1,
1,
1,
1,
1,
1,
2,
1,
1,
1,
1,
1,
1,
1,
1,
1,
1,
1,
1,
1,
1,
2,
2,
1,
2,
1,
2,
2,
1,
-34,
-13,
-5,
-1,
1,
1,
1,
1,
1,
1,
1,
1,
1,
1,
2,
1,
2,
1,
1,
2,
1,
1,
2,
1,
2,
1,
1,
1,
2,
1,
1,
1,
1,
1,
1,
1,
1,
2,
1,
1,
2,
1,
1,
1,
1,
1,
2,
1,
2,
1,
2,
2,
1,
1,
2,
1,
1,
1,
1,
1,
1,
2,
1,
1,
1,
1,
2,
1,
2,
1,
1,
2,
1,
1,
1,
2,
1,
1,
1,
2,
1,
2,
1,
1,
1,
1,
2,
2,
1,
2,
2,
1,
1,
1,
2,
1,
1,
2,
1,
1,
1,
1,
2,
1,
2,
1,
1,
2,
1,
2,
2,
1,
2,
1,
1,
2,
1,
2,
2,
1,
1,
1,
1,
2,
1,
1,
1,
1,
2,
1,
1,
1,
1,
1,
1,
2,
1,
1,
1,
2,
1,
1,
2,
2,
2,
1,
2,
1,
1,
1,
1,
2,
1,
1,
1,
2,
1,
1,
1,
1,
1,
1,
1,
2,
1,
1,
1,
2,
1,
1,
1,
2,
1,
1,
1,
2,
1,
1,
1,
1,
1,
1,
1,
1,
2,
1,
1,
1,
1,
1,
2,
2,
2,
1,
1,
1,
2,
2,
1,
1,
1,
1,
2,
2,
2,
1,
2,
2,
2,
1,
2,
2,
1,
2,
1,
1,
2,
1,
2,
1,
1,
1,
1,
2,
1,
1,
2,
3,
1,
2,
2,
2,
1,
2,
2,
1,
1,
1,
2,
2,
1,
2,
1,
1,
2,
1,
2,
1,
2,
1,
2,
2,
1,
2,
1,
1,
2,
2,
1,
1,
1,
1,
1,
2,
2,
2,
1,
2,
2,
1,
2,
1,
1,
2,
1,
1,
1,
2,
1,
1,
1,
1,
1,
1,
1,
2,
1,
1,
1,
1,
1,
1,
1,
2,
2,
2,
1,
1,
1,
1,
1,
1,
2,
1,
1,
1,
2,
1,
1,
2,
1,
2,
1,
1,
1,
2,
1,
2,
1,
1,
1,
1,
1,
2,
1,
1,
1,
1,
1,
1,
1,
1,
1,
1,
1,
1,
1,
1,
1,
2,
1,
1,
1,
1,
1,
1,
1,
1,
1,
1,
1,
1,
1,
1,
2,
1,
1,
1,
2,
2,
2,
2,
2,
1,
1,
1,
1,
2,
2,
2,
2,
2,
1,
2,
1,
1,
2,
2,
2,
1,
1,
1,
2,
1,
2,
1,
2,
2,
1,
1,
1,
2,
2,
1,
1,
1,
1,
1,
1,
1,
1,
2,
2,
1,
1,
1,
1,
2,
1,
1,
1,
3,
2,
1,
1,
1,
2,
1,
2,
1,
1,
2,
1,
1,
2,
2,
1,
1,
1,
2,
1,
2,
1,
2,
2,
2,
2,
2,
2,
1,
1,
2,
2,
1,
1,
2,
2,
2,
2,
2,
2,
2,
1,
1,
2,
2,
2,
2,
1,
2,
3,
2,
1,
1,
1,
1,
2,
2,
1,
2,
1,
1,
1,
1,
1,
2,
2,
1,
2,
2,
1,
2,
2,
2,
1,
2,
2,
2,
1,
1,
1,
1,
1,
2,
2,
2,
2,
1,
2,
2,
2,
2,
2,
2,
1,
1,
2,
1,
1,
2,
2,
2,
1,
2,
1,
1,
2,
2,
1,
1,
1,
2,
1,
1,
2,
2,
2,
2,
2,
2,
2,
2,
2,
2,
2,
2,
2,
2,
1,
1,
2,
1,
1,
2,
1,
2,
2,
1,
1,
2,
2,
2,
1,
2,
2,
1,
1,
1,
2,
1,
2,
1,
1,
2,
1,
1,
2,
1,
1,
1,
1,
1,
1,
1,
2,
2,
2,
1,
2,
2,
1,
2,
1,
1,
2,
1,
2,
1,
2,
1,
2,
2,
1,
2,
2,
2,
2,
1,
1,
2,
2,
1,
1,
2,
2,
2,
2,
2,
2,
1,
2,
2,
2,
1,
1,
2,
2,
1,
1,
2,
59,
25,
12,
6,
3,
2,
1,
1,
2,
1,
2,
2,
1,
2,
2,
2,
1,
1,
1,
1,
1,
1,
2,
2,
1,
1,
1,
1,
1,
1,
1,
1,
1,
1,
2,
1,
1,
1,
2,
1,
1,
2,
2,
1,
1,
1,
1,
2,
2,
1,
1,
2,
1,
2,
1,
1,
2,
2,
1,
1,
1,
2,
1,
1,
1,
1,
2,
1,
2,
1,
1,
2,
1,
1,
1,
2,
2,
1,
2,
2,
2,
1,
1,
1,
2,
2,
1,
1,
1,
1,
1,
2,
1,
2,
1,
2,
1,
1,
1,
1,
1,
1,
1,
1,
1,
1,
1,
2,
1,
1,
1,
1,
1,
1,
1,
1,
2,
1,
1,
1,
1,
1,
2,
1,
2,
1,
1,
1,
2,
1,
1,
2,
1,
1,
1,
2,
1,
1,
1,
1,
1,
1,
1,
1,
1,
2,
1,
1,
2,
1,
1,
1,
1,
1,
1,
2,
1,
1,
2,
1,
1,
2,
2,
1,
1,
1,
1,
1,
2,
1,
1,
1,
2,
1,
2,
1,
1,
2,
2,
2,
2,
1,
1,
2,
1,
1,
1,
1,
1,
2,
1,
1,
1,
2,
1,
2,
1,
1,
1,
1,
1,
1,
2,
2,
1,
1,
1,
1,
1,
1,
1,
2,
1,
1,
2,
1,
1,
1,
2,
1,
1,
1,
2,
1,
1,
2,
2,
1,
1,
1,
2,
1,
1,
2,
2,
2,
1,
1,
1,
2,
1,
1,
1,
2,
1,
1,
1,
1,
1,
1,
1,
2,
1,
1,
1,
2,
2,
2,
1,
1,
2,
2,
1,
2,
1,
1,
1,
2,
2,
2,
1,
1,
2,
2,
1,
2,
2,
1,
2,
1,
1,
1,
2,
1,
2,
1,
1,
1,
1,
1,
1,
1,
1,
1,
1,
2,
2,
1,
1,
1,
1,
1,
2,
1,
2,
2,
2,
2,
2,
1,
2,
1,
2,
1,
2,
1,
1,
1,
1,
1,
1,
1,
1,
2,
1,
1,
1,
2,
2,
1,
1,
1,
1,
1,
1,
1,
1,
2,
2,
2,
1,
1,
1,
1,
1,
1,
2,
1,
2,
1,
1,
2,
1,
2,
1,
1,
1,
2,
1,
1,
2,
1,
1,
1,
1,
2,
1,
1,
2,
1,
1,
2,
2,
2,
1,
1,
2,
1,
2,
1,
2,
1,
2,
2,
1,
1,
1,
1,
2,
1,
2,
1,
2,
1,
1,
1,
2,
1,
1,
1,
1,
2,
1,
1,
2,
1,
2,
1,
2,
1,
1,
1,
1,
1,
2,
1,
1,
1,
1,
1,
1,
1,
1,
1,
1,
2,
1,
1,
1,
2,
1,
2,
2,
2,
1,
1,
1,
1,
2,
1,
2,
1,
2,
1,
2,
2,
1,
1,
2,
2,
1,
1,
2,
1,
2,
1,
1,
2,
2,
2,
1,
1,
1,
1,
2,
1,
2,
1,
2,
1,
1,
1,
2,
2,
2,
1,
2,
1,
1,
2,
2,
1,
1,
1,
2,
2,
1,
2,
2,
1,
2,
2,
1,
2,
1,
2,
2,
1,
2,
1,
1,
2,
1,
1,
2,
2,
2,
1,
2,
2,
2,
2,
2,
1,
2,
1,
2,
1,
2,
1,
1,
1,
1,
1,
1,
2,
1,
1,
1,
1,
2,
1,
2,
2,
1,
1,
1,
2,
1,
1,
1,
1,
2,
1,
2,
2,
1,
1,
1,
1,
2,
1,
1,
1,
2,
1,
2,
2,
2,
2,
1,
1,
1,
1,
1,
1,
2,
1,
1,
1,
1,
1,
1,
1,
2,
2,
2,
1,
1,
1,
1,
1,
2,
1,
1,
1,
1,
1,
1,
1,
2,
1,
1,
2,
1,
1,
1,
2,
1,
2,
2,
1,
1,
1,
1,
2,
1,
1,
1,
1,
1,
2,
2,
1,
1,
1,
1,
1,
1,
1,
2,
1,
2,
1,
1,
2,
1,
1,
2,
2,
-35,
-13,
-5,
1,
1,
2,
1,
1,
2,
1,
2,
1,
1,
1,
1,
1,
1,
2,
1,
1,
2,
2,
1,
2,
1,
1,
1,
2,
1,
1,
1,
1,
1,
1,
1,
1,
1,
2,
1,
1,
1,
1,
1,
1,
2,
1,
1,
1,
1,
1,
1,
1,
1,
1,
1,
1,
1,
1,
1,
1,
1,
1,
1,
1,
1,
1,
1,
1,
1,
1,
1,
1,
1,
2,
1,
1,
1,
1,
1,
1,
1,
1,
1,
1,
1,
1,
1,
1,
1,
1,
1,
2,
1,
1,
1,
1,
1,
2,
2,
1,
1,
1,
1,
1,
1,
1,
1,
2,
2,
1,
1,
1,
1,
1,
1,
1,
1,
1,
1,
1,
2,
1,
1,
1,
1,
1,
1,
1,
2,
1,
1,
1,
1,
1,
1,
1,
2,
1,
1,
1,
1,
1,
2,
1,
2,
1,
1,
1,
1,
1,
1,
2,
1,
2,
1,
1,
2,
2,
2,
2,
2,
2,
2,
2,
2,
1,
2,
2,
1,
2,
2,
2,
2,
1,
2,
1,
1,
1,
2,
2,
1,
2,
1,
1,
2,
1,
2,
2,
2,
2,
1,
1,
1,
1,
1,
1,
1,
1,
1,
2,
2,
1,
2,
2,
2,
1,
1,
2,
1,
1,
1,
1,
2,
1,
1,
2,
1,
1,
2,
2,
1,
1,
1,
2,
2,
1,
1,
1,
2,
2,
2,
1,
2,
1,
2,
2,
2,
2,
1,
2,
1,
1,
1,
1,
2,
1,
2,
1,
1,
2,
2,
1,
1,
1,
1,
1,
2,
2,
2,
1,
1,
2,
1,
1,
2,
2,
1,
1,
1,
1,
1,
1,
1,
1,
1,
2,
2,
1,
1,
2,
2,
1,
1,
1,
1,
1,
2,
1,
2,
2,
1,
2,
2,
1,
2,
2,
1,
1,
1,
1,
1,
1,
2,
2,
2,
2,
1,
1,
2,
2,
1,
1,
1,
2,
2,
2,
1,
2,
1,
2,
2,
2,
2,
3,
2,
2,
2,
2,
2,
2,
1,
1,
1,
1,
1,
1,
2,
1,
1,
2,
2,
1,
2,
2,
2,
2,
1,
2,
2,
2,
1,
1,
1,
2,
1,
1,
2,
1,
2,
2,
2,
2,
1,
2,
1,
2,
1,
2,
2,
2,
2,
1,
1,
1,
1,
2,
1,
2,
1,
2,
1,
1,
2,
2,
1,
2,
2,
1,
1,
1,
1,
1,
1,
1,
2,
1,
1,
1,
1,
1,
2,
1,
1,
1,
1,
2,
1,
1,
1,
1,
1,
2,
1,
2,
1,
1,
1,
1,
2,
1,
1,
1,
1,
2,
1,
1,
1,
1,
2,
2,
1,
1,
1,
1,
1,
1,
1,
1,
1,
1,
1,
1,
1,
1,
1,
1,
1,
1,
1,
1,
2,
1,
1,
2,
1,
1,
1,
2,
1,
1,
2,
1,
1,
1,
1,
1,
2,
1,
2,
1,
1,
2,
1,
1,
1,
2,
1,
1,
1,
1,
2,
1,
1,
2,
1,
2,
1,
1,
2,
1,
1,
1,
1,
2,
2,
1,
1,
2,
2,
1,
1,
1,
2,
1,
1,
1,
2,
1,
1,
1,
1,
1,
2,
1,
1,
1,
1,
2,
1,
2,
2,
1,
2,
2,
2,
1,
2,
2,
1,
1,
1,
2,
1,
1,
2,
2,
1,
1,
2,
2,
2,
1,
3,
1,
2,
3,
2,
2,
2,
1,
1,
2,
2,
1,
2,
2,
2,
2,
1,
1,
1,
1,
2,
2,
1,
1,
1,
1,
2,
1,
2,
2,
2,
1,
2,
1,
2,
1,
2,
1,
2,
2,
2,
2,
1,
2,
1,
1,
2,
2,
2,
1,
3,
2,
2,
2,
1,
1,
1,
1,
1,
1,
1,
2,
2,
1,
1,
1,
1,
1,
1,
1,
1,
1,
1,
1,
1,
1,
2,
2,
61,
25,
11,
5,
3,
2,
2,
2,
2,
2,
1,
2,
1,
2,
1,
2,
1,
2,
1,
1,
2,
2,
1,
1,
2,
2,
1,
2,
2,
1,
1,
2,
1,
2,
2,
2,
2,
1,
1,
2,
1,
2,
1,
2,
2,
1,
2,
1,
2,
2,
2,
1,
2,
1,
2,
2,
1,
1,
2,
2,
2,
1,
2,
1,
2,
2,
2,
1,
1,
1,
2,
2,
2,
2,
1,
2,
2,
1,
2,
2,
1,
1,
1,
2,
2,
1,
2,
2,
2,
1,
1,
2,
2,
1,
2,
1,
1,
1,
1,
1,
1,
2,
1,
1,
1,
2,
2,
1,
2,
2,
2,
1,
1,
2,
2,
2,
2,
1,
1,
1,
1,
1,
1,
1,
1,
1,
2,
1,
1,
1,
1,
2,
1,
1,
1,
1,
1,
1,
1,
1,
1,
1,
1,
1,
1,
1,
1,
1,
1,
2,
1,
2,
1,
1,
1,
1,
2,
1,
1,
1,
1,
1,
2,
2,
1,
1,
2,
1,
2,
2,
1,
1,
1,
1,
2,
1,
1,
1,
1,
1,
1,
1,
1,
2,
1,
1,
2,
1,
2,
2,
1,
2,
2,
1,
1,
2,
2,
1,
2,
1,
2,
1,
1,
1,
2,
1,
2,
1,
2,
1,
1,
2,
1,
1,
2,
2,
2,
1,
2,
2,
1,
1,
2,
1,
2,
2,
1,
1,
1,
1,
1,
2,
1,
2,
1,
1,
2,
1,
1,
1,
2,
1,
2,
1,
1,
1,
1,
2,
1,
1,
1,
1,
2,
1,
1,
1,
1,
2,
1,
1,
1,
2,
1,
2,
1,
1,
1,
1,
1,
1,
1,
1,
2,
1,
2,
1,
1,
2,
2,
1,
2,
1,
1,
1,
1,
1,
1,
1,
1,
1,
2,
1,
2,
1,
1,
1,
1,
1,
1,
1,
2,
2,
1,
1,
1,
1,
1,
1,
1,
1,
2,
1,
2,
1,
1,
2,
1,
1,
1,
1,
1,
1,
1,
2,
2,
1,
1,
1,
2,
1,
1,
1,
1,
1,
1,
1,
2,
1,
2,
1,
1,
1,
1,
1,
1,
2,
2,
2,
2,
1,
1,
1,
1,
2,
1,
2,
1,
1,
1,
1,
2,
1,
2,
2,
1,
1,
2,
1,
1,
1,
1,
1,
1,
2,
2,
1,
2,
1,
1,
2,
1,
1,
2,
1,
1,
1,
2,
1,
2,
1,
1,
2,
2,
1,
1,
2,
2,
1,
2,
2,
1,
2,
1,
1,
1,
1,
1,
1,
2,
2,
2,
2,
2,
1,
2,
2,
2,
2,
2,
1,
1,
1,
1,
1,
2,
1,
1,
1,
2,
1,
1,
1,
1,
1,
1,
1,
1,
1,
1,
3,
2,
2,
1,
1,
1,
1,
1,
1,
1,
2,
1,
1,
2,
1,
2,
1,
2,
2,
1,
2,
1,
1,
2,
1,
1,
1,
1,
1,
2,
1,
1,
2,
1,
1,
1,
1,
1,
1,
1,
2,
2,
1,
1,
1,
1,
1,
1,
1,
1,
1,
2,
1,
1,
1,
2,
1,
1,
1,
1,
1,
1,
1,
1,
1,
2,
2,
2,
2,
1,
1,
1,
1,
1,
1,
1,
2,
1,
2,
1,
2,
1,
2,
2,
1,
1,
1,
1,
2,
1,
1,
2,
1,
1,
2,
1,
1,
2,
1,
1,
1,
1,
1,
1,
2,
1,
1,
1,
2,
1,
1,
2,
1,
1,
2,
2,
1,
2,
1,
1,
1,
1,
1,
2,
2,
1,
2,
1,
1,
1,
2,
1,
2,
1,
1,
2,
2,
2,
1,
2,
2,
1,
2,
2,
2,
2,
2,
1,
2,
2,
1,
1,
2,
1,
2,
2,
2,
2,
2,
2,
1,
2,
1,
1,
1,
1,
2,
2,
2,
2,
2,
1,
1,
2,
2,
1,
1,
2,
2,
1,
1,
1,
2,
2,
1,
1,
1,
1,
2,
1,
2,
-36,
-13,
-4,
-1,
1,
1,
1,
1,
2,
1,
1,
2,
2,
1,
2,
1,
1,
1,
1,
2,
1,
2,
2,
1,
1,
1,
1,
1,
1,
1,
2,
1,
1,
1,
1,
1,
1,
2,
1,
1,
1,
2,
1,
1,
1,
2,
2,
1,
1,
1,
1,
1,
1,
1,
1,
1,
2,
1,
1,
1,
2,
1,
2,
2,
1,
1,
1,
1,
1,
1,
1,
2,
2,
1,
1,
1,
1,
1,
1,
2,
2,
1,
1,
1,
1,
1,
2,
1,
1,
1,
1,
1,
1,
1,
1,
1,
1,
1,
1,
2,
1,
1,
1,
2,
2,
1,
1,
1,
2,
1,
2,
1,
1,
1,
2,
1,
2,
2,
1,
1,
1,
1,
1,
1,
2,
1,
2,
1,
1,
1,
1,
2,
1,
1,
2,
2,
2,
1,
1,
2,
2,
2,
2,
1,
2,
1,
1,
1,
1,
2,
2,
1,
1,
1,
2,
1,
1,
2,
1,
1,
1,
2,
1,
2,
1,
1,
1,
1,
1,
1,
1,
1,
1,
1,
2,
1,
1,
1,
1,
2,
1,
2,
1,
1,
1,
1,
1,
1,
2,
1,
1,
1,
2,
1,
1,
1,
1,
2,
2,
1,
1,
2,
2,
2,
1,
1,
1,
2,
1,
2,
2,
2,
1,
1,
1,
1,
2,
2,
1,
2,
1,
2,
2,
2,
2,
1,
1,
1,
2,
2,
1,
2,
2,
2,
1,
2,
2,
2,
2,
2,
2,
2,
2,
2,
2,
2,
2,
2,
2,
2,
2,
2,
2,
1,
1,
1,
2,
1,
1,
1,
1,
1,
2,
2,
2,
2,
1,
2,
2,
1,
1,
2,
1,
2,
1,
1,
1,
2,
1,
1,
1,
2,
2,
1,
1,
2,
1,
1,
2,
2,
1,
1,
2,
1,
2,
2,
1,
1,
1,
1,
1,
2,
2,
1,
2,
1,
1,
1,
1,
2,
2,
2,
1,
2,
2,
2,
1,
2,
1,
2,
1,
1,
2,
2,
1,
1,
2,
2,
2,
1,
2,
2,
1,
1,
2,
1,
1,
2,
1,
1,
2,
1,
2,
2,
1,
2,
1,
2,
2,
1,
1,
1,
2,
1,
1,
2,
1,
1,
1,
1,
2,
1,
2,
2,
1,
1,
1,
2,
1,
1,
1,
1,
2,
1,
1,
2,
1,
2,
1,
1,
1,
2,
1,
2,
1,
1,
1,
2,
2,
1,
2,
1,
2,
1,
2,
2,
1,
1,
2,
1,
1,
1,
1,
2,
1,
1,
1,
1,
2,
2,
1,
2,
1,
2,
1,
1,
1,
1,
1,
1,
2,
1,
1,
1,
1,
1,
2,
2,
2,
2,
1,
2,
1,
2,
2,
1,
1,
1,
1,
1,
2,
2,
2,
2,
1,
2,
1,
1,
2,
2,
2,
2,
2,
2,
1,
1,
2,
1,
2,
2,
2,
1,
2,
2,
1,
1,
1,
1,
1,
2,
2,
1,
2,
2,
1,
1,
2,
2,
2,
2,
1,
2,
1,
1,
1,
1,
2,
2,
1,
2,
2,
1,
2,
1,
1,
2,
2,
1,
1,
2,
2,
1,
1,
2,
1,
2,
1,
1,
1,
2,
2,
1,
1,
1,
1,
1,
1,
2,
1,
1,
1,
2,
1,
1,
2,
1,
2,
2,
2,
1,
1,
1,
1,
1,
1,
2,
1,
2,
1,
1,
1,
2,
2,
1,
1,
2,
1,
1,
2,
1,
2,
1,
2,
1,
2,
1,
1,
1,
1,
1,
1,
2,
2,
2,
2,
1,
1,
1,
1,
2,
1,
1,
2,
1,
1,
2,
2,
2,
1,
1,
2,
1,
2,
1,
2,
1,
2,
1,
1,
1,
1,
2,
1,
1,
1,
1,
1,
2,
2,
2,
1,
1,
1,
1,
2,
1,
1,
1,
1,
2,
1,
1,
2,
1,
1,
1,
1,
1,
1,
2,
62,
25,
12,
6,
3,
2,
2,
1,
1,
1,
2,
1,
1,
1,
1,
1,
1,
1,
1,
1,
1,
2,
2,
2,
1,
1,
1,
1,
2,
1,
1,
1,
1,
1,
1,
2,
1,
1,
2,
1,
2,
2,
1,
2,
1,
1,
1,
1,
2,
1,
2,
1,
2,
1,
1,
2,
1,
2,
1,
1,
1,
1,
1,
2,
2,
1,
2,
1,
2,
1,
1,
1,
1,
2,
1,
2,
2,
2,
2,
1,
2,
1,
2,
2,
1,
2,
1,
2,
1,
2,
1,
2,
2,
1,
1,
1,
2,
2,
1,
2,
1,
1,
2,
1,
1,
1,
2,
1,
1,
1,
2,
1,
1,
1,
1,
2,
1,
1,
1,
2,
1,
1,
1,
1,
1,
1,
1,
1,
1,
2,
1,
1,
1,
1,
1,
2,
1,
1,
1,
2,
2,
1,
2,
1,
2,
1,
1,
1,
1,
1,
1,
2,
1,
2,
1,
2,
1,
1,
1,
1,
1,
1,
1,
1,
1,
2,
1,
1,
1,
1,
2,
1,
1,
1,
1,
2,
1,
1,
1,
1,
2,
2,
2,
2,
2,
1,
1,
1,
2,
2,
2,
1,
1,
2,
1,
1,
1,
1,
2,
1,
1,
2,
2,
1,
1,
1,
1,
1,
1,
1,
2,
1,
2,
1,
1,
1,
1,
1,
2,
1,
1,
1,
1,
2,
1,
1,
2,
1,
1,
1,
1,
2,
1,
1,
1,
2,
2,
2,
1,
1,
1,
1,
1,
1,
1,
2,
2,
2,
1,
2,
1,
2,
1,
2,
2,
2,
1,
2,
1,
1,
1,
2,
1,
1,
2,
2,
2,
2,
2,
1,
2,
2,
1,
1,
1,
2,
2,
1,
1,
2,
1,
2,
1,
2,
2,
1,
1,
2,
1,
2,
1,
1,
1,
2,
2,
2,
2,
1,
2,
2,
1,
1,
1,
2,
1,
2,
1,
1,
1,
1,
1,
2,
2,
1,
1,
1,
1,
1,
2,
1,
1,
1,
1,
1,
1,
2,
2,
1,
1,
1,
1,
1,
2,
1,
1,
1,
1,
1,
1,
1,
1,
2,
1,
2,
2,
2,
2,
2,
1,
1,
2,
1,
1,
1,
1,
2,
1,
1,
1,
2,
1,
2,
1,
1,
1,
1,
1,
2,
2,
2,
1,
1,
1,
1,
1,
1,
1,
1,
2,
1,
2,
1,
2,
1,
1,
1,
2,
1,
1,
1,
1,
1,
2,
3,
1,
1,
1,
1,
1,
2,
1,
1,
1,
2,
1,
1,
1,
1,
1,
1,
2,
1,
1,
2,
2,
1,
1,
2,
1,
2,
1,
1,
1,
1,
1,
1,
1,
1,
1,
1,
1,
1,
1,
1,
1,
1,
1,
1,
1,
2,
1,
1,
1,
2,
2,
2,
1,
2,
1,
1,
1,
1,
2,
1,
2,
1,
1,
1,
2,
2,
1,
1,
2,
2,
2,
2,
1,
1,
2,
1,
2,
2,
2,
1,
2,
1,
1,
2,
1,
2,
1,
2,
1,
1,
1,
1,
2,
1,
2,
1,
1,
1,
1,
1,
1,
1,
2,
2,
2,
1,
2,
2,
2,
2,
2,
2,
1,
1,
1,
2,
1,
1,
2,
1,
1,
1,
1,
1,
2,
2,
2,
1,
1,
1,
1,
1,
1,
3,
2,
1,
1,
2,
1,
2,
1,
1,
2,
2,
2,
1,
1,
1,
1,
2,
2,
1,
1,
2,
2,
1,
1,
1,
2,
1,
1,
2,
1,
1,
1,
1,
2,
1,
1,
1,
2,
2,
1,
1,
1,
1,
1,
1,
1,
1,
1,
1,
2,
1,
1,
1,
1,
2,
1,
1,
1,
1,
3,
2,
1,
1,
1,
1,
2,
2,
1,
1,
2,
1,
1,
1,
1,
1,
1,
1,
2,
1,
1,
1,
1,
1,
1,
1,
1,
2,
2,
1,
1,
1,
1,
2,
1,
2,
2,
2,
2,
2,
1,
1,
1,
1,
-37,
-14,
-5,
-1,
1,
1,
1,
1,
1,
1,
2,
1,
2,
2,
1,
1,
2,
1,
1,
1,
1,
1,
2,
2,
1,
1,
2,
2,
2,
1,
1,
1,
2,
2,
1,
1,
2,
2,
1,
1,
1,
1,
2,
2,
1,
1,
2,
1,
1,
1,
2,
1,
1,
2,
1,
2,
1,
1,
1,
1,
2,
1,
1,
1,
1,
1,
1,
1,
1,
1,
2,
2,
1,
1,
2,
2,
1,
1,
1,
1,
1,
1,
1,
1,
1,
1,
1,
1,
1,
2,
1,
1,
1,
2,
2,
1,
1,
1,
1,
1,
2,
1,
1,
1,
1,
1,
1,
1,
1,
1,
1,
1,
2,
2,
1,
1,
1,
1,
1,
1,
2,
