2-Passive Filters/data/ALL0031/A0031CH1.CSV

Memory Length,4000,
Trigger Level,0.000E+00,
Source,CH1,
Probe,1X,
Vertical Units,V,
Vertical Scale,5.000E+00,
Vertical Position,0.000E+00,
Horizontal Units,s,
Horizontal Scale,2.500E-08,
Horizontal Position,0.000E+00,
Horizontal Mode,Main,
Sampling Period,1.000E-09,
Firmware,V1.04,
Time, ,
Mode,Fast,
Waveform Data,
0,
4,
4,
6,
8,
11,
12,
12,
15,
17,
18,
18,
21,
23,
24,
24,
26,
27,
27,
28,
28,
28,
30,
30,
31,
30,
31,
30,
29,
29,
30,
28,
28,
26,
26,
25,
23,
22,
22,
20,
20,
16,
16,
15,
11,
9,
9,
8,
6,
2,
3,
0,
-4,
-6,
-6,
-7,
-8,
-12,
-12,
-14,
-16,
-18,
-18,
-19,
-20,
-23,
-22,
-24,
-26,
-27,
-26,
-26,
-26,
-28,
-28,
-28,
-28,
-28,
-28,
-27,
-26,
-26,
-26,
-25,
-24,
-22,
-22,
-20,
-18,
-18,
-16,
-14,
-13,
-12,
-10,
-8,
-6,
-6,
-4,
-1,
1,
3,
4,
6,
8,
10,
12,
14,
16,
18,
18,
20,
20,
22,
23,
24,
26,
26,
26,
29,
28,
30,
30,
30,
30,
30,
30,
30,
30,
30,
28,
28,
26,
26,
25,
26,
24,
23,
22,
20,
18,
16,
15,
14,
12,
11,
9,
8,
4,
2,
1,
0,
-2,
-4,
-4,
-6,
-10,
-12,
-13,
-14,
-16,
-18,
-18,
-19,
-22,
-23,
-24,
-24,
-26,
-26,
-26,
-27,
-28,
-28,
-29,
-28,
-28,
-28,
-28,
-28,
-27,
-26,
-26,
-25,
-24,
-22,
-22,
-21,
-18,
-16,
-16,
-15,
-13,
-11,
-10,
-9,
-6,
-3,
-3,
-1,
1,
4,
4,
6,
8,
12,
12,
13,
15,
18,
18,
19,
22,
24,
23,
25,
26,
26,
27,
28,
29,
31,
30,
30,
30,
31,
30,
30,
30,
30,
29,
28,
28,
27,
26,
26,
22,
22,
22,
20,
19,
17,
16,
14,
11,
10,
10,
6,
6,
4,
2,
0,
-4,
-4,
-6,
-8,
-9,
-12,
-12,
-14,
-17,
-18,
-17,
-20,
-21,
-22,
-24,
-24,
-26,
-27,
-26,
-28,
-28,
-28,
-28,
-28,
-28,
-28,
-27,
-28,
-26,
-26,
-26,
-25,
-23,
-22,
-22,
-20,
-20,
-18,
-16,
-16,
-13,
-10,
-10,
-9,
-6,
-4,
-3,
-1,
2,
4,
6,
6,
8,
10,
12,
14,
16,
18,
19,
19,
22,
22,
24,
24,
26,
28,
28,
28,
30,
28,
30,
30,
30,
30,
30,
30,
30,
29,
30,
28,
27,
26,
26,
24,
24,
22,
22,
21,
18,
16,
16,
14,
13,
10,
10,
8,
4,
2,
2,
0,
-2,
-5,
-6,
-6,
-10,
-12,
-12,
-14,
-16,
-18,
-18,
-18,
-22,
-22,
-23,
-24,
-25,
-27,
-26,
-26,
-28,
-28,
-28,
-29,
-28,
-28,
-28,
-28,
-26,
-26,
-26,
-25,
-24,
-22,
-22,
-20,
-18,
-18,
-16,
-15,
-14,
-11,
-10,
-8,
-6,
-4,
-4,
-1,
0,
4,
4,
6,
9,
10,
11,
14,
14,
17,
18,
20,
22,
24,
24,
25,
26,
26,
28,
28,
30,
30,
30,
30,
30,
32,
31,
31,
30,
29,
29,
28,
28,
28,
26,
26,
24,
22,
22,
20,
19,
17,
16,
16,
12,
10,
10,
7,
6,
4,
3,
2,
-3,
-5,
-6,
-7,
-9,
-11,
-12,
-13,
-16,
-18,
-18,
-20,
-20,
-22,
-22,
-24,
-26,
-26,
-27,
-27,
-27,
-27,
-28,
-28,
-28,
-28,
-28,
-27,
-26,
-26,
-26,
-24,
-23,
-22,
-22,
-20,
-20,
-17,
-16,
-16,
-13,
-10,
-10,
-8,
-6,
-4,
-4,
-2,
2,
4,
4,
6,
8,
11,
12,
13,
16,
18,
18,
20,
21,
24,
23,
25,
26,
27,
27,
28,
28,
31,
30,
30,
31,
30,
31,
30,
30,
31,
30,
28,
28,
26,
26,
25,
24,
23,
23,
20,
18,
16,
16,
13,
13,
11,
10,
7,
4,
2,
2,
0,
-2,
-4,
-4,
-6,
-10,
-12,
-12,
-14,
-15,
-17,
-17,
-20,
-22,
-22,
-24,
-24,
-26,
-26,
-26,
-26,
-28,
-28,
-28,
-28,
-28,
-28,
-28,
-27,
-28,
-26,
-26,
-25,
-24,
-22,
-22,
-21,
-19,
-17,
-16,
-16,
-13,
-12,
-10,
-9,
-6,
-3,
-4,
0,
1,
4,
4,
6,
9,
12,
12,
12,
14,
17,
18,
19,
20,
24,
23,
26,
26,
26,
28,
28,
29,
30,
30,
30,
30,
31,
31,
30,
29,
30,
29,
28,
28,
28,
26,
25,
24,
22,
22,
20,
19,
18,
16,
14,
12,
10,
8,
7,
5,
4,
2,
0,
-2,
-6,
-6,
-8,
-10,
-10,
-12,
-14,
-16,
-18,
-18,
-20,
-21,
-22,
-22,
-24,
-25,
-27,
-26,
-28,
-28,
-27,
-28,
-28,
-28,
-28,
-28,
-28,
-26,
-26,
-26,
-24,
-22,
-22,
-22,
-21,
-20,
-18,
-17,
-15,
-13,
-12,
-10,
-9,
-6,
-5,
-4,
0,
2,
4,
4,
6,
8,
10,
10,
14,
16,
18,
18,
20,
21,
22,
23,
24,
26,
27,
27,
28,
29,
30,
30,
31,
30,
30,
30,
30,
30,
30,
28,
28,
28,
27,
26,
24,
24,
23,
22,
20,
18,
16,
16,
14,
12,
12,
9,
8,
4,
2,
2,
0,
-2,
-3,
-6,
-6,
-10,
-12,
-13,
-14,
-16,
-17,
-18,
-19,
-22,
-23,
-24,
-24,
-26,
-26,
-26,
-27,
-28,
-28,
-28,
-28,
-28,
-28,
-27,
-28,
-26,
-26,
-26,
-25,
-24,
-22,
-22,
-21,
-18,
-18,
-16,
-16,
-14,
-11,
-10,
-8,
-6,
-4,
-4,
-2,
2,
3,
4,
6,
8,
10,
12,
13,
16,
16,
19,
19,
22,
22,
23,
26,
26,
27,
28,
28,
29,
29,
30,
30,
32,
30,
31,
30,
29,
28,
29,
29,
28,
27,
28,
25,
22,
22,
22,
20,
20,
16,
17,
14,
10,
10,
9,
8,
6,
3,
3,
0,
-4,
-6,
-6,
-8,
-9,
-10,
-12,
-14,
-18,
-18,
-19,
-19,
-20,
-22,
-23,
-24,
-26,
-26,
-26,
-27,
-28,
-28,
-28,
-30,
-29,
-28,
-28,
-26,
-26,
-26,
-26,
-25,
-24,
-22,
-22,
-20,
-20,
-18,
-17,
-16,
-12,
-10,
-10,
-8,
-6,
-5,
-4,
-2,
2,
4,
4,
6,
8,
10,
12,
12,
16,
18,
18,
20,
21,
22,
23,
23,
26,
27,
26,
28,
29,
30,
30,
29,
30,
30,
30,
30,
30,
30,
30,
28,
27,
26,
26,
24,
24,
22,
22,
20,
18,
16,
16,
14,
13,
11,
10,
7,
5,
2,
2,
0,
-3,
-4,
-5,
-7,
-10,
-13,
-12,
-14,
-14,
-18,
-18,
-20,
-22,
-23,
-23,
-24,
-26,
-26,
-26,
-26,
-28,
-28,
-28,
-29,
-28,
-28,
-28,
-27,
-26,
-26,
-26,
-24,
-24,
-22,
-22,
-20,
-18,
-16,
-16,
-15,
-13,
-11,
-12,
-8,
-5,
-3,
-4,
-1,
0,
3,
4,
6,
10,
12,
11,
13,
14,
17,
17,
20,
22,
24,
24,
24,
26,
26,
26,
28,
31,
30,
30,
29,
30,
30,
30,
31,
32,
30,
29,
28,
28,
27,
26,
26,
24,
22,
21,
20,
19,
17,
16,
16,
12,
9,
9,
8,
6,
4,
2,
1,
-2,
-5,
-6,
-8,
-8,
-11,
-12,
-13,
-16,
-18,
-18,
-20,
-21,
-22,
-22,
-22,
-25,
-27,
-27,
-27,
-27,
-28,
-28,
-28,
-28,
-28,
-28,
-28,
-26,
-26,
-26,
-24,
-24,
-22,
-22,
-20,
-18,
-17,
-16,
-14,
-13,
-10,
-10,
-8,
-6,
-4,
-4,
-1,
2,
4,
5,
6,
9,
10,
12,
13,
16,
18,
18,
20,
22,
23,
24,
24,
26,
27,
28,
28,
29,
30,
30,
30,
30,
30,
30,
31,
30,
30,
30,
28,
27,
26,
26,
26,
24,
23,
23,
20,
18,
16,
16,
14,
13,
10,
10,
8,
4,
2,
2,
0,
-2,
-4,
-4,
-8,
-10,
-12,
-12,
-14,
-16,
-17,
-18,
-20,
-22,
-22,
-24,
-25,
-25,
-26,
-26,
-28,
-29,
-28,
-29,
-28,
-28,
-28,
-26,
-28,
-27,
-26,
-26,
-25,
-25,
-22,
-22,
-21,
-20,
-16,
-16,
-14,
-13,
-12,
-10,
-10,
-6,
-4,
-3,
-1,
2,
4,
4,
6,
8,
12,
12,
14,
14,
17,
18,
19,
22,
24,
24,
24,
26,
27,
28,
28,
29,
30,
30,
30,
30,
31,
30,
30,
30,
30,
29,
28,
28,
28,
26,
26,
24,
22,
22,
20,
19,
17,
16,
15,
12,
10,
10,
7,
5,
4,
3,
0,
-2,
-4,
-6,
-8,
-10,
-10,
-12,
-14,
-16,
-18,
-18,
-20,
-22,
-21,
-23,
-24,
-25,
-26,
-26,
-28,
-28,
-28,
-28,
-28,
-28,
-28,
-28,
-28,
-28,
-26,
-26,
-24,
-24,
-21,
-22,
-21,
-20,
-18,
-16,
-15,
-12,
-10,
-10,
-8,
-7,
-4,
-4,
-1,
2,
4,
4,
6,
8,
10,
12,
14,
16,
18,
19,
19,
22,
22,
22,
25,
26,
27,
28,
28,
28,
30,
30,
31,
31,
30,
30,
30,
30,
30,
30,
30,
27,
26,
26,
24,
24,
24,
22,
22,
18,
16,
16,
14,
12,
11,
10,
9,
4,
2,
2,
0,
-2,
-3,
-4,
-6,
-10,
-12,
-12,
-14,
-15,
-18,
-18,
-18,
-22,
-23,
-23,
-24,
-25,
-26,
-26,
-26,
-28,
-28,
-28,
-28,
-28,
-28,
-28,
-27,
-27,
-26,
-26,
-25,
-24,
-22,
-22,
-20,
-18,
-17,
-17,
-15,
-13,
-12,
-10,
-9,
-6,
-4,
-3,
0,
1,
3,
4,
6,
8,
10,
11,
14,
16,
17,
18,
19,
21,
22,
23,
24,
26,
26,
28,
28,
28,
30,
30,
30,
30,
30,
32,
30,
30,
28,
30,
29,
28,
28,
28,
26,
22,
21,
22,
20,
20,
18,
16,
14,
11,
9,
8,
8,
6,
4,
4,
0,
-4,
-6,
-6,
-8,
-9,
-10,
-11,
-14,
-18,
-18,
-18,
-20,
-21,
-22,
-22,
-24,
-26,
-26,
-26,
-26,
-28,
-27,
-28,
-28,
-28,
-28,
-27,
-26,
-26,
-26,
-26,
-25,
-24,
-21,
-22,
-20,
-20,
-17,
-17,
-15,
-13,
-10,
-10,
-8,
-7,
-4,
-4,
-1,
2,
4,
4,
6,
8,
10,
11,
13,
16,
18,
18,
19,
22,
22,
24,
24,
26,
27,
28,
28,
28,
30,
30,
30,
31,
31,
30,
30,
30,
30,
30,
28,
28,
26,
26,
24,
24,
22,
22,
20,
18,
16,
16,
14,
12,
11,
10,
7,
4,
2,
2,
-1,
-2,
-5,
-5,
-7,
-10,
-12,
-12,
-14,
-16,
-18,
-18,
-19,
-22,
-22,
-22,
-25,
-26,
-26,
-26,
-26,
-28,
-28,
-28,
-28,
-28,
-28,
-28,
-26,
-26,
-26,
-25,
-25,
-24,
-22,
-23,
-20,
-20,
-16,
-16,
-14,
-13,
-12,
-10,
-8,
-6,
-3,
-2,
-2,
1,
3,
4,
6,
8,
12,
12,
12,
14,
17,
18,
20,
21,
23,
24,
24,
26,
26,
27,
28,
29,
30,
30,
30,
30,
31,
30,
31,
30,
29,
30,
28,
28,
26,
26,
26,
22,
22,
22,
20,
20,
17,
16,
15,
12,
10,
10,
6,
6,
4,
2,
1,
-4,
-6,
-6,
-7,
-8,
-12,
-12,
-14,
-16,
-19,
-18,
-20,
-20,
-22,
-22,
-24,
-26,
-28,
-27,
-28,
-27,
-28,
-28,
-28,
-28,
-29,
-28,
-26,
-26,
-26,
-26,
-25,
-23,
-22,
-22,
-20,
-18,
-18,
-17,
-15,
-12,
-12,
-10,
-8,
-6,
-5,
-4,
-1,
2,
4,
5,
8,
8,
10,
12,
14,
16,
18,
18,
20,
22,
22,
23,
24,
26,
27,
28,
29,
30,
30,
30,
30,
31,
30,
30,
32,
31,
30,
30,
28,
26,
26,
26,
26,
24,
23,
22,
20,
18,
17,
15,
15,
12,
12,
8,
8,
4,
2,
1,
1,
-2,
-4,
-5,
-7,
-10,
-12,
-14,
-14,
-16,
-18,
-18,
-18,
-22,
-22,
-24,
-24,
-25,
-26,
-26,
-27,
-28,
-28,
-30,
-28,
-28,
-28,
-28,
-27,
-26,
-26,
-26,
-24,
-24,
-22,
-22,
-21,
-18,
-16,
-17,
-15,
-13,
-11,
-10,
-8,
-6,
-3,
-4,
-1,
1,
3,
4,
6,
9,
12,
11,
14,
15,
17,
18,
20,
22,
24,
24,
24,
25,
27,
28,
28,
29,
30,
30,
30,
30,
31,
30,
30,
30,
31,
30,
29,
28,
27,
26,
26,
24,
22,
22,
20,
19,
16,
16,
14,
12,
10,
9,
8,
6,
4,
2,
0,
-3,
-4,
-6,
-8,
-10,
-11,
-12,
-14,
-16,
-18,
-18,
-20,
-22,
-22,
-24,
-24,
-26,
-26,
-26,
-28,
-28,
-28,
-28,
-28,
-28,
-28,
-28,
-28,
-28,
-26,
-26,
-25,
-23,
-22,
-22,
-21,
-20,
-18,
-16,
-16,
-13,
-10,
-10,
-8,
-6,
-4,
-4,
-1,
2,
4,
4,
6,
8,
10,
12,
13,
15,
18,
18,
19,
21,
22,
23,
24,
26,
26,
28,
28,
30,
28,
30,
30,
30,
30,
30,
30,
30,
30,
30,
28,
28,
26,
26,
25,
24,
22,
22,
21,
18,
16,
16,
14,
14,
10,
10,
8,
4,
2,
2,
0,
-2,
-4,
-4,
-7,
-10,
-12,
-12,
-14,
-15,
-18,
-18,
-19,
-22,
-23,
-23,
-24,
-25,
-26,
-26,
-26,
-28,
-28,
-28,
-28,
-28,
-28,
-28,
-27,
-26,
-26,
-26,
-24,
-23,
-22,
-22,
-20,
-18,
-17,
-16,
-14,
-13,
-12,
-10,
-8,
-6,
-4,
-4,
0,
1,
3,
4,
6,
9,
10,
11,
14,
14,
17,
18,
19,
22,
22,
22,
25,
26,
27,
28,
28,
30,
29,
29,
30,
30,
31,
31,
31,
30,
30,
28,
29,
28,
27,
27,
26,
24,
22,
21,
21,
19,
18,
17,
14,
12,
10,
8,
7,
6,
4,
2,
1,
-2,
-4,
-6,
-7,
-8,
-10,
-12,
-14,
-16,
-17,
-18,
-20,
-21,
-22,
-22,
-24,
-26,
-26,
-28,
-28,
-28,
-27,
-28,
-28,
-28,
-28,
-28,
-27,
-28,
-26,
-26,
-24,
-23,
-22,
-22,
-20,
-18,
-16,
-16,
-15,
-12,
-10,
-10,
-8,
-6,
-4,
-4,
-2,
2,
4,
5,
6,
8,
11,
11,
14,
16,
18,
18,
20,
20,
24,
23,
25,
26,
26,
27,
28,
28,
30,
30,
30,
31,
31,
30,
31,
30,
30,
30,
28,
28,
26,
26,
25,
24,
24,
23,
20,
18,
16,
16,
14,
13,
12,
10,
8,
5,
2,
2,
0,
-2,
-4,
-4,
-8,
-10,
-12,
-12,
-14,
-16,
-17,
-18,
-20,
-22,
-22,
-22,
-24,
-24,
-26,
-26,
-27,
-28,
-28,
-28,
-28,
-27,
-28,
-28,
-28,
-26,
-26,
-24,
-26,
-24,
-22,
-22,
-21,
-18,
-17,
-16,
-16,
-13,
-12,
-10,
-8,
-6,
-4,
-2,
-2,
1,
3,
5,
6,
10,
11,
12,
12,
16,
17,
18,
20,
22,
22,
24,
24,
25,
26,
28,
29,
28,
30,
30,
30,
30,
30,
31,
30,
29,
29,
30,
29,
28,
27,
26,
26,
24,
22,
22,
20,
20,
16,
16,
15,
12,
10,
9,
7,
6,
3,
2,
1,
-2,
-6,
-6,
-7,
-10,
-12,
-12,
-14,
-16,
-18,
-18,
-20,
-21,
-22,
-22,
-24,
-26,
-26,
-26,
-28,
-28,
-28,
-28,
-28,
-28,
-28,
-28,
-27,
-26,
-26,
-26,
-25,
-23,
-22,
-22,
-20,
-20,
-18,
-16,
-14,
-12,
-10,
-10,
-8,
-6,
-5,
-4,
-1,
2,
4,
4,
6,
8,
10,
11,
13,
16,
18,
18,
20,
22,
22,
23,
24,
26,
28,
28,
28,
30,
30,
30,
31,
30,
30,
30,
30,
30,
30,
30,
30,
27,
26,
26,
25,
24,
23,
22,
22,
18,
16,
16,
14,
13,
12,
9,
8,
4,
2,
2,
0,
-2,
-4,
-5,
-7,
-10,
-12,
-12,
-13,
-16,
-16,
-18,
-18,
-22,
-23,
-24,
-24,
-26,
-25,
-26,
-26,
-29,
-28,
-28,
-28,
-28,
-26,
-28,
-27,
-26,
-26,
-26,
-24,
-24,
-22,
-22,
-19,
-18,
-17,
-16,
-15,
-12,
-11,
-10,
-9,
-6,
-4,
-4,
-1,
1,
4,
4,
6,
9,
12,
11,
13,
16,
17,
18,
20,
22,
24,
23,
24,
26,
27,
28,
28,
30,
30,
30,
30,
31,
31,
32,
30,
30,
30,
28,
29,
28,
28,
27,
26,
23,
22,
22,
20,
20,
17,
17,
14,
12,
10,
10,
8,
6,
4,
3,
1,
-4,
-5,
-6,
-7,
-9,
-11,
-12,
-14,
-17,
-17,
-18,
-19,
-21,
-22,
-23,
-23,
-26,
-26,
-28,
-27,
-28,
-28,
-28,
-28,
-28,
-28,
-28,
-28,
-26,
-26,
-26,
-25,
-24,
-22,
-22,
-20,
-20,
-18,
-16,
-15,
-14,
-11,
-10,
-8,
-7,
-5,
-4,
-2,
2,
4,
4,
6,
8,
10,
10,
14,
16,
18,
18,
20,
21,
22,
23,
24,
26,
28,
27,
28,
30,
29,
30,
30,
30,
31,
30,
30,
30,
30,
30,
28,
28,
27,
26,
24,
24,
22,
22,
20,
18,
16,
16,
14,
13,
10,
10,
7,
4,
4,
2,
0,
-2,
-4,
-6,
-8,
-10,
-12,
-12,
-14,
-15,
-18,
-18,
-20,
-22,
-22,
-24,
-24,
-25,
-26,
-27,
-27,
-28,
-28,
-28,
-28,
-28,
-28,
-28,
-28,
-26,
-26,
-26,
-24,
-24,
-23,
-22,
-20,
-18,
-16,
-17,
-15,
-14,
-12,
-12,
-9,
-6,
-4,
-3,
0,
1,
2,
4,
6,
9,
10,
11,
13,
15,
17,
17,
20,
22,
23,
23,
24,
26,
28,
26,
28,
28,
30,
30,
30,
31,
31,
30,
31,
30,
30,
28,
28,
28,
27,
26,
26,
23,
22,
21,
20,
20,
18,
16,
14,
12,
10,
9,
6,
6,
4,
2,
1,
-3,
-4,
-6,
-8,
-8,
-10,
-12,
-13,
-16,
-18,
-18,
-20,
-20,
-22,
-22,
-24,
-25,
-26,
-26,
-27,
-28,
-28,
-28,
-28,
-28,
-28,
-27,
-27,
-26,
-26,
-26,
-24,
-23,
-22,
-22,
-20,
-19,
-18,
-16,
-15,
-13,
-10,
-10,
-8,
-6,
-4,
-4,
-1,
2,
4,
4,
6,
8,
10,
11,
14,
15,
18,
18,
20,
21,
22,
24,
24,
26,
27,
28,
28,
28,
29,
30,
30,
30,
30,
30,
30,
30,
29,
30,
28,
27,
26,
26,
25,
24,
22,
23,
20,
18,
16,
16,
14,
12,
11,
10,
8,
4,
2,
2,
-1,
-2,
-4,
-4,
-7,
-11,
-12,
-12,
-14,
-16,
-17,
-17,
-20,
-22,
-22,
-24,
-24,
-25,
-26,
-26,
-28,
-28,
-28,
-28,
-29,
-28,
-28,
-27,
-28,
-27,
-26,
-26,
-24,
-24,
-22,
-21,
-22,
-18,
-17,
-16,
-15,
-13,
-12,
-10,
-10,
-6,
-4,
-3,
-1,
1,
2,
5,
6,
9,
12,
12,
14,
16,
16,
18,
18,
21,
24,
24,
24,
26,
26,
26,
27,
28,
30,
30,
30,
30,
31,
30,
30,
30,
30,
29,
28,
28,
26,
26,
25,
24,
22,
22,
20,
18,
17,
16,
14,
12,
10,
9,
8,
6,
3,
2,
0,
-2,
-5,
-6,
-8,
-10,
-11,
-12,
-14,
-16,
-18,
-18,
-20,
-22,
-22,
-24,
-24,
-26,
-27,
-26,
-27,
-28,
-28,
-28,
-28,
-28,
-28,
-28,
-28,
-28,
-26,
-26,
-25,
-23,
-22,
-22,
-21,
-20,
-17,
-18,
-16,
-12,
-11,
-10,
-9,
-7,
-5,
-4,
-2,
2,
4,
4,
6,
8,
10,
11,
13,
16,
18,
18,
19,
21,
22,
22,
24,
26,
27,
27,
28,
28,
30,
29,
32,
32,
30,
31,
30,
30,
30,
29,
29,
28,
26,
26,
26,
24,
23,
22,
21,
18,
16,
16,
14,
13,
10,
10,
8,
6,
2,
2,
0,
-2,
-4,
-5,
-7,
-10,
-12,
-12,
-14,
-16,
-18,
-18,
-18,
-22,
-22,
-23,
-24,
-24,
-26,
-26,
-27,
-28,
-28,
-28,
-28,
-28,
-28,
-28,
-26,
-26,
-26,
-26,
-25,
-24,
-22,
-22,
-21,
-19,
-18,
-16,
-15,
-13,
-11,
-10,
-8,
-6,
-4,
-3,
0,
1,
4,
4,
6,
8,
10,
11,
13,
15,
17,
18,
20,
21,
22,
24,
24,
26,
27,
28,
28,
29,
29,
30,
30,
30,
31,
32,
30,
30,
30,
30,
28,
28,
27,
28,
25,
24,
22,
22,
20,
20,
16,
18,
14,
12,
10,
10,
8,
6,
4,
4,
0,
-3,
-6,
-6,
-7,
-8,
-10,
-10,
-14,
-16,
-18,
-18,
-20,
-21,
-22,
-22,
-24,
-26,
-26,
-27,
-27,
-27,
-28,
-27,
-28,
-28,
-28,
-28,
-27,
-26,
-26,
-26,
-25,
-24,
-22,
-22,
-20,
-20,
-18,
-16,
-15,
-13,
-10,
-10,
-8,
-7,
-4,
-4,
-2,
1,
4,
4,
6,
8,
10,
12,
14,
16,
18,
18,
20,
21,
22,
22,
24,
26,
27,
27,
28,
28,
30,
30,
30,
30,
30,
30,
30,
30,
30,
30,
28,
28,
26,
26,
25,
24,
23,
22,
21,
19,
16,
16,
13,
12,
11,
10,
8,
6,
2,
1,
0,
-2,
-4,
-6,
-6,
-10,
-12,
-12,
-14,
-16,
-17,
-18,
-19,
-21,
-22,
-24,
-25,
-25,
-26,
-26,
-26,
-27,
-28,
-28,
-29,
-28,
-28,
-28,
-28,
-26,
-26,
-26,
-26,
-24,
-22,
-22,
-20,
-18,
-16,
-17,
-15,
-14,
-12,
-10,
-8,
-6,
-3,
-4,
-2,
1,
3,
4,
6,
9,
12,
11,
13,
14,
17,
18,
21,
22,
23,
23,
24,
26,
26,
27,
29,
30,
30,
29,
30,
30,
31,
30,
31,
30,
29,
28,
28,
28,
28,
26,
26,
23,
22,
22,
20,
20,
17,
16,
16,
12,
10,
9,
8,
6,
4,
2,
2,
-3,
-6,
-6,
-8,
-9,
-10,
-12,
-13,
-16,
-18,
-18,
-18,
-21,
-22,
-23,
-22,
-26,
-27,
-26,
-26,
-27,
-28,
-28,
-28,
-28,
-28,
-28,
-27,
-26,
-26,
-25,
-24,
-24,
-22,
-22,
-22,
-18,
-17,
-16,
-14,
-13,
-11,
-10,
-9,
-6,
-5,
-4,
-1,
1,
4,
4,
6,
9,
10,
12,
13,
15,
18,
18,
20,
22,
22,
24,
24,
26,
26,
27,
28,
29,
30,
30,
30,
30,
30,
29,
30,
30,
30,
30,
30,
26,
26,
26,
26,
25,
22,
22,
21,
18,
16,
15,
15,
14,
10,
10,
8,
4,
2,
2,
0,
-1,
-4,
-6,
-7,
-10,
-12,
-13,
-14,
-15,
-17,
-18,
-19,
-22,
-22,
-24,
-24,
-25,
-26,
-26,
-26,
-28,
-28,
-28,
-28,
-28,
-28,
-28,
-27,
-28,
-26,
-26,
-24,
-24,
-22,
-22,
-21,
-19,
-16,
-16,
-15,
-14,
-11,
-10,
-9,
-6,
-4,
-3,
-1,
1,
4,
4,
6,
8,
12,
12,
12,
14,
17,
18,
20,
21,
24,
23,
24,
26,
26,
26,
28,
28,
30,
30,
30,
30,
31,
31,
30,
30,
30,
28,
28,
28,
27,
27,
25,
24,
22,
22,
20,
20,
18,
16,
14,
12,
10,
9,
7,
6,
4,
2,
1,
-2,
-4,
-6,
-8,
-9,
-11,
-12,
-14,
-16,
-18,
-18,
-20,
-20,
-22,
-24,
-24,
-26,
-26,
-26,
-28,
-28,
-28,
-28,
-28,
-28,
-28,
-27,
-28,
-28,
-26,
-26,
-25,
-24,
-22,
-22,
-21,
-20,
-18,
-18,
-14,
-14,
-10,
-10,
-9,
-6,
-4,
-4,
-1,
2,
4,
5,
6,
8,
10,
10,
14,
15,
18,
19,
20,
22,
22,
23,
24,
26,
28,
28,
28,
30,
30,
29,
30,
30,
31,
31,
30,
31,
30,
30,
29,
27,
26,
26,
24,
25,
22,
22,
20,
18,
16,
16,
14,
14,
10,
10,
8,
4,
2,
2,
0,
0,
-4,
-5,
-7,
-10,
-12,
-12,
-14,
-14,
-18,
-17,
-20,
-21,
-23,
-23,
-24,
-24,
-26,
-26,
-27,
-28,
-28,
-28,
-28,
-28,
-28,
-28,
-28,
-28,
-26,
-26,
-24,
-23,
-24,
-22,
-20,
-19,
-17,
-16,
-14,
-12,
-12,
-10,
-9,
-6,
-4,
-3,
0,
2,
2,
4,
6,
8,
10,
11,
14,
14,
17,
18,
20,
22,
22,
24,
26,
26,
26,
26,
28,
28,
29,
30,
31,
30,
30,
30,
31,
30,
29,
30,
30,
28,
26,
27,
25,
23,
22,
22,
21,
20,
18,
16,
14,
12,
10,
9,
8,
6,
4,
2,
0,
-4,
-6,
-6,
-7,
-9,
-11,
-12,
-14,
-17,
-18,
-18,
-20,
-20,
-22,
-22,
-24,
-26,
-26,
-27,
-26,
-28,
-28,
-28,
-29,
-28,
-27,
-28,
-27,
-27,
-26,
-26,
-25,
-24,
-22,
-22,
-21,
-20,
-18,
-16,
-16,
-12,
-10,
-10,
-8,
-7,
-4,
-4,
-2,
2,
5,
4,
6,
8,
11,
11,
14,
16,
18,
18,
19,
20,
22,
23,
24,
26,
28,
27,
28,
28,
30,
29,
30,
30,
32,
30,
30,
29,
30,
30,
28,
27,
26,
26,
25,
24,
22,
22,
20,
18,
16,
16,
14,
12,
11,
10,
8,
4,
2,
2,
-1,
-2,
-4,
-4,
-6,
-10,
-12,
-12,
-14,
-16,
-17,
-18,
-18,
-22,
-22,
-22,
-26,
-26,
-26,
-26,
-27,
-28,
-28,
-28,
-30,
-28,
-28,
-27,
-28,
-26,
-26,
-25,
-25,
-24,
-22,
-22,
-21,
-18,
-17,
-16,
-16,
-14,
-12,
-10,
-9,
-6,
-4,
-2,
-2,
1,
3,
4,
6,
8,
10,
11,
12,
14,
17,
18,
20,
22,
23,
24,
24,
26,
26,
28,
28,
29,
30,
30,
30,
32,
30,
32,
30,
30,
30,
29,
29,
28,
26,
26,
26,
24,
22,
22,
20,
20,
17,
17,
14,
12,
10,
10,
7,
6,
4,
2,
1,
-2,
-6,
-6,
-7,
-9,
-10,
-12,
-14,
-16,
-18,
-18,
-20,
-20,
-22,
-23,
-24,
-26,
-28,
-27,
-26,
-28,
-28,
-28,
-28,
-28,
-29,
-28,
-27,
-26,
-26,
-26,
-25,
-24,
-23,
-22,
-20,
-20,
-18,
-16,
-15,
-13,
-12,
-10,
-8,
-6,
-4,
-3,
-1,
1,
3,
4,
6,
6,
10,
12,
12,
16,
16,
18,
20,
21,
22,
24,
24,
26,
26,
27,
29,
28,
30,
30,
30,
31,
30,
30,
31,
30,
30,
30,
28,
28,
26,
25,
26,
24,
23,
22,
20,
18,
16,
15,
15,
13,
11,
10,
8,
5,
2,
2,
0,
-2,
-4,
-6,
-7,
-10,
-12,
-13,
-14,
-16,
-18,
-18,
-20,
-22,
-22,
-24,
-24,
-26,
-26,
-26,
-26,
-28,
-28,
-29,
-28,
-28,
-28,
-28,
-26,
-27,
-26,
-26,
-24,
-24,
-22,
-22,
-20,
-19,
-17,
-18,
-15,
-14,
-12,
-10,
-8,
-6,
-4,
-4,
0,
