2-Passive Filters/data/ALL0058/A0058CH1.CSV

Memory Length,4000,
Trigger Level,0.000E+00,
Source,CH1,
Probe,1X,
Vertical Units,V,
Vertical Scale,5.000E+00,
Vertical Position,0.000E+00,
Horizontal Units,s,
Horizontal Scale,2.500E-07,
Horizontal Position,0.000E+00,
Horizontal Mode,Main,
Sampling Period,1.000E-08,
Firmware,V1.04,
Time, ,
Mode,Fast,
Waveform Data,
6,
6,
9,
11,
13,
15,
17,
18,
20,
22,
24,
26,
27,
28,
30,
31,
32,
32,
34,
34,
35,
35,
36,
36,
36,
36,
36,
34,
34,
34,
34,
32,
32,
30,
28,
26,
25,
24,
22,
21,
18,
16,
15,
13,
11,
8,
6,
4,
2,
0,
-2,
-4,
-7,
-9,
-10,
-13,
-15,
-16,
-18,
-20,
-22,
-24,
-26,
-26,
-28,
-30,
-30,
-30,
-32,
-32,
-32,
-33,
-34,
-34,
-34,
-34,
-34,
-33,
-32,
-32,
-30,
-30,
-28,
-28,
-26,
-25,
-23,
-22,
-20,
-18,
-16,
-14,
-13,
-10,
-8,
-6,
-4,
-2,
0,
2,
4,
7,
10,
10,
12,
15,
17,
18,
20,
22,
24,
25,
27,
28,
30,
31,
32,
33,
34,
34,
35,
35,
36,
36,
36,
36,
36,
35,
34,
34,
32,
32,
31,
30,
28,
26,
25,
23,
22,
20,
18,
16,
15,
13,
10,
8,
6,
4,
2,
0,
-2,
-5,
-7,
-8,
-10,
-12,
-14,
-16,
-18,
-20,
-22,
-23,
-25,
-26,
-28,
-30,
-30,
-31,
-32,
-32,
-32,
-32,
-34,
-34,
-34,
-34,
-33,
-33,
-32,
-32,
-32,
-30,
-29,
-28,
-26,
-25,
-23,
-22,
-20,
-18,
-16,
-14,
-13,
-10,
-8,
-7,
-4,
-2,
0,
2,
4,
6,
10,
11,
12,
15,
17,
18,
20,
22,
24,
26,
27,
28,
30,
30,
32,
33,
34,
34,
34,
35,
36,
36,
36,
36,
36,
34,
34,
34,
33,
32,
31,
30,
28,
27,
25,
24,
22,
20,
18,
17,
15,
12,
11,
9,
6,
4,
2,
0,
-3,
-4,
-7,
-8,
-10,
-12,
-14,
-16,
-18,
-20,
-22,
-23,
-25,
-26,
-28,
-28,
-30,
-31,
-32,
-32,
-32,
-33,
-34,
-34,
-34,
-34,
-33,
-32,
-32,
-32,
-30,
-30,
-28,
-28,
-26,
-24,
-23,
-22,
-20,
-18,
-16,
-14,
-12,
-10,
-8,
-6,
-4,
-2,
0,
2,
5,
6,
10,
10,
12,
15,
16,
19,
20,
22,
24,
26,
27,
28,
30,
30,
32,
33,
34,
35,
35,
36,
36,
36,
36,
36,
35,
35,
34,
34,
34,
32,
31,
30,
28,
26,
25,
24,
22,
20,
18,
17,
15,
13,
10,
9,
6,
4,
2,
0,
-2,
-4,
-7,
-8,
-11,
-13,
-14,
-16,
-18,
-20,
-22,
-24,
-24,
-26,
-28,
-29,
-30,
-30,
-32,
-32,
-33,
-33,
-33,
-34,
-34,
-34,
-34,
-33,
-33,
-32,
-31,
-30,
-28,
-28,
-26,
-26,
-24,
-22,
-20,
-18,
-16,
-14,
-12,
-10,
-8,
-7,
-4,
-2,
0,
2,
6,
6,
9,
10,
13,
15,
16,
18,
20,
22,
24,
26,
27,
28,
30,
30,
32,
32,
34,
34,
35,
35,
36,
36,
36,
35,
35,
34,
34,
33,
32,
32,
30,
30,
28,
27,
26,
24,
22,
20,
18,
16,
16,
13,
11,
9,
6,
4,
2,
0,
-2,
-5,
-6,
-9,
-10,
-13,
-14,
-16,
-18,
-20,
-22,
-23,
-24,
-26,
-28,
-29,
-30,
-31,
-32,
-32,
-33,
-34,
-33,
-34,
-33,
-34,
-34,
-33,
-32,
-32,
-30,
-30,
-29,
-28,
-26,
-25,
-23,
-22,
-20,
-18,
-16,
-14,
-12,
-10,
-9,
-6,
-4,
-2,
0,
2,
4,
7,
9,
12,
13,
16,
16,
19,
20,
22,
24,
25,
26,
28,
29,
31,
32,
33,
34,
34,
34,
36,
36,
36,
36,
36,
36,
35,
34,
34,
32,
32,
30,
29,
28,
26,
26,
24,
22,
20,
18,
16,
14,
13,
10,
8,
6,
4,
2,
0,
-2,
-4,
-6,
-9,
-12,
-13,
-14,
-16,
-18,
-20,
-22,
-24,
-25,
-26,
-27,
-29,
-30,
-31,
-31,
-32,
-33,
-33,
-34,
-34,
-34,
-34,
-34,
-33,
-32,
-32,
-31,
-30,
-29,
-28,
-26,
-25,
-23,
-22,
-20,
-18,
-17,
-14,
-12,
-10,
-8,
-6,
-5,
-2,
0,
2,
4,
7,
9,
10,
13,
14,
17,
19,
21,
22,
24,
26,
26,
28,
30,
30,
32,
32,
34,
34,
34,
36,
36,
36,
36,
36,
36,
34,
34,
34,
32,
32,
31,
30,
28,
26,
25,
24,
22,
20,
18,
16,
14,
12,
10,
9,
6,
4,
2,
0,
-3,
-4,
-6,
-8,
-10,
-12,
-14,
-16,
-18,
-20,
-22,
-24,
-25,
-27,
-27,
-28,
-30,
-31,
-32,
-32,
-32,
-34,
-33,
-33,
-33,
-34,
-34,
-33,
-32,
-32,
-31,
-30,
-29,
-28,
-26,
-25,
-23,
-22,
-20,
-18,
-16,
-14,
-12,
-10,
-8,
-6,
-4,
-2,
0,
2,
4,
6,
8,
11,
12,
15,
16,
18,
20,
22,
24,
25,
26,
28,
29,
31,
32,
33,
34,
34,
34,
34,
36,
36,
36,
36,
36,
34,
34,
33,
33,
32,
31,
30,
28,
26,
25,
24,
22,
20,
19,
16,
15,
12,
10,
8,
6,
4,
2,
0,
-2,
-4,
-7,
-9,
-12,
-14,
-14,
-17,
-18,
-21,
-22,
-24,
-26,
-26,
-28,
-29,
-30,
-30,
-32,
-32,
-33,
-34,
-34,
-33,
-34,
-34,
-34,
-32,
-32,
-32,
-31,
-30,
-28,
-28,
-26,
-25,
-23,
-22,
-20,
-18,
-16,
-14,
-12,
-11,
-8,
-6,
-5,
-2,
0,
2,
4,
6,
10,
10,
13,
14,
17,
18,
21,
22,
24,
25,
27,
28,
30,
30,
32,
33,
34,
34,
35,
35,
36,
36,
36,
35,
35,
34,
34,
34,
32,
32,
31,
30,
28,
26,
26,
24,
22,
20,
18,
17,
14,
13,
10,
9,
6,
4,
2,
0,
-2,
-5,
-7,
-8,
-11,
-12,
-14,
-16,
-18,
-20,
-22,
-23,
-25,
-26,
-28,
-28,
-30,
-31,
-32,
-32,
-33,
-34,
-34,
-34,
-34,
-34,
-33,
-32,
-32,
-32,
-31,
-30,
-29,
-28,
-26,
-25,
-23,
-22,
-20,
-18,
-16,
-15,
-13,
-10,
-8,
-7,
-4,
-2,
0,
2,
4,
6,
9,
10,
13,
15,
17,
18,
20,
22,
24,
26,
26,
28,
30,
31,
32,
32,
34,
34,
34,
35,
36,
36,
36,
36,
35,
35,
34,
34,
33,
32,
30,
30,
28,
26,
25,
24,
22,
20,
18,
16,
14,
12,
10,
9,
7,
4,
1,
0,
-2,
-6,
-6,
-8,
-10,
-12,
-14,
-16,
-18,
-20,
-22,
-24,
-25,
-26,
-28,
-30,
-30,
-32,
-32,
-32,
-33,
-34,
-34,
-34,
-34,
-34,
-34,
-32,
-33,
-32,
-32,
-30,
-29,
-28,
-26,
-25,
-24,
-22,
-20,
-19,
-16,
-14,
-12,
-10,
-8,
-6,
-5,
-2,
0,
2,
5,
6,
8,
10,
14,
14,
16,
18,
20,
22,
24,
25,
27,
28,
30,
31,
32,
33,
34,
34,
34,
35,
35,
36,
36,
36,
35,
35,
34,
34,
32,
32,
30,
29,
28,
27,
25,
24,
22,
20,
18,
16,
14,
13,
10,
8,
6,
4,
2,
0,
-2,
-4,
-6,
-8,
-10,
-12,
-15,
-17,
-18,
-20,
-22,
-24,
-25,
-26,
-28,
-29,
-30,
-30,
-32,
-32,
-33,
-34,
-34,
-34,
-34,
-34,
-34,
-32,
-32,
-32,
-31,
-30,
-29,
-28,
-26,
-25,
-24,
-21,
-20,
-18,
-16,
-14,
-12,
-10,
-8,
-6,
-4,
-2,
0,
2,
5,
6,
9,
12,
13,
14,
16,
19,
20,
22,
24,
25,
26,
28,
29,
30,
32,
33,
34,
34,
35,
34,
35,
35,
36,
35,
36,
34,
34,
33,
33,
32,
31,
30,
28,
27,
25,
24,
22,
20,
18,
16,
14,
12,
11,
8,
6,
4,
2,
0,
-2,
-4,
-7,
-8,
-10,
-13,
-15,
-16,
-18,
-20,
-22,
-24,
-26,
-26,
-28,
-29,
-30,
-31,
-32,
-32,
-34,
-34,
-34,
-34,
-34,
-34,
-33,
-32,
-33,
-32,
-32,
-30,
-29,
-28,
-27,
-26,
-24,
-22,
-20,
-18,
-16,
-15,
-13,
-10,
-8,
-6,
-5,
-2,
0,
2,
4,
6,
9,
10,
13,
15,
17,
18,
20,
22,
24,
25,
27,
28,
30,
31,
32,
33,
34,
34,
34,
36,
36,
36,
36,
36,
36,
34,
34,
33,
33,
31,
31,
29,
28,
26,
26,
24,
22,
20,
18,
16,
14,
12,
11,
8,
6,
4,
2,
0,
-2,
-4,
-6,
-8,
-11,
-13,
-15,
-16,
-18,
-20,
-22,
-23,
-25,
-27,
-28,
-29,
-30,
-31,
-32,
-32,
-33,
-34,
-34,
-34,
-34,
-34,
-34,
-34,
-32,
-32,
-30,
-30,
-29,
-28,
-26,
-25,
-23,
-22,
-20,
-18,
-16,
-15,
-12,
-10,
-9,
-6,
-5,
-2,
0,
2,
4,
7,
9,
11,
12,
15,
16,
18,
20,
22,
24,
24,
26,
28,
30,
31,
32,
33,
34,
34,
35,
36,
36,
36,
36,
36,
35,
35,
34,
34,
33,
32,
30,
30,
28,
26,
26,
24,
22,
20,
18,
16,
15,
12,
11,
8,
6,
4,
2,
0,
-2,
-5,
-7,
-9,
-10,
-13,
-14,
-16,
-18,
-20,
-22,
-23,
-25,
-26,
-28,
-29,
-30,
-31,
-32,
-32,
-33,
-34,
-34,
-34,
-34,
-34,
-34,
-32,
-32,
-32,
-32,
-30,
-29,
-28,
-26,
-24,
-24,
-22,
-20,
-18,
-16,
-14,
-13,
-10,
-8,
-6,
-4,
-2,
0,
2,
5,
6,
9,
10,
12,
14,
17,
18,
21,
22,
24,
25,
26,
28,
29,
31,
32,
32,
34,
34,
34,
35,
36,
36,
36,
35,
35,
34,
34,
34,
33,
32,
31,
30,
28,
26,
26,
24,
22,
21,
19,
16,
15,
12,
10,
9,
6,
4,
2,
0,
-2,
-4,
-7,
-8,
-11,
-14,
-14,
-16,
-18,
-20,
-22,
-23,
-25,
-26,
-28,
-28,
-30,
-31,
-32,
-32,
-33,
-34,
-33,
-33,
-34,
-34,
-33,
-33,
-32,
-32,
-31,
-30,
-29,
-28,
-26,
-25,
-24,
-22,
-20,
-18,
-17,
-15,
-12,
-10,
-9,
-6,
-5,
-2,
0,
2,
4,
6,
9,
11,
13,
16,
16,
18,
20,
22,
24,
26,
26,
28,
29,
30,
32,
33,
34,
34,
35,
36,
36,
36,
36,
36,
36,
35,
34,
34,
33,
32,
31,
30,
28,
26,
25,
24,
22,
20,
18,
17,
14,
12,
10,
9,
6,
4,
2,
0,
-2,
-4,
-6,
-8,
-10,
-12,
-14,
-16,
-18,
-20,
-22,
-24,
-25,
-27,
-28,
-30,
-30,
-31,
-32,
-32,
-33,
-34,
-33,
-34,
-34,
-34,
-34,
-33,
-32,
-32,
-32,
-30,
-29,
-28,
-26,
-25,
-24,
-22,
-20,
-18,
-16,
-14,
-14,
-10,
-8,
-7,
-4,
-2,
0,
2,
4,
6,
10,
10,
13,
15,
17,
19,
20,
22,
24,
26,
27,
28,
29,
30,
32,
33,
34,
34,
34,
36,
36,
36,
36,
36,
35,
34,
34,
34,
33,
32,
31,
29,
28,
26,
26,
24,
22,
20,
18,
17,
15,
13,
10,
8,
6,
4,
2,
0,
-3,
-5,
-7,
-9,
-11,
-12,
-15,
-16,
-18,
-20,
-22,
-22,
-26,
-27,
-28,
-30,
-30,
-30,
-32,
-32,
-33,
-33,
-34,
-34,
-34,
-34,
-34,
-33,
-32,
-32,
-30,
-30,
-29,
-28,
-26,
-25,
-24,
-22,
-20,
-18,
-17,
-14,
-12,
-10,
-9,
-6,
-5,
-2,
0,
2,
4,
6,
9,
11,
13,
15,
17,
18,
20,
22,
24,
26,
27,
28,
30,
30,
32,
32,
34,
34,
34,
35,
36,
36,
36,
36,
36,
35,
34,
34,
33,
32,
30,
30,
28,
26,
25,
24,
22,
20,
18,
16,
15,
12,
10,
8,
6,
4,
2,
0,
-2,
-4,
-7,
-8,
-10,
-12,
-14,
-16,
-18,
-20,
-22,
-23,
-24,
-27,
-28,
-29,
-30,
-31,
-32,
-33,
-32,
-33,
-33,
-34,
-34,
-33,
-34,
-33,
-32,
-32,
-30,
-30,
-29,
-28,
-26,
-24,
-23,
-22,
-20,
-18,
-16,
-14,
-13,
-10,
-8,
-6,
-4,
-2,
0,
2,
4,
7,
9,
10,
12,
15,
16,
18,
20,
22,
24,
26,
26,
28,
30,
30,
32,
33,
34,
34,
35,
36,
36,
36,
36,
35,
35,
35,
34,
34,
33,
32,
32,
30,
28,
27,
25,
24,
22,
20,
18,
16,
15,
13,
11,
8,
6,
4,
2,
0,
-2,
-4,
-6,
-8,
-11,
-12,
-14,
-16,
-18,
-20,
-22,
-23,
-24,
-26,
-28,
-28,
-30,
-30,
-32,
-32,
-32,
-33,
-34,
-34,
-34,
-34,
-33,
-32,
-32,
-31,
-31,
-30,
-29,
-28,
-26,
-25,
-24,
-22,
-20,
-18,
-16,
-14,
-12,
-10,
-8,
-6,
-5,
-3,
0,
2,
5,
7,
10,
11,
12,
15,
16,
18,
20,
22,
24,
26,
27,
28,
30,
32,
32,
32,
34,
34,
36,
36,
36,
36,
36,
36,
35,
35,
34,
33,
33,
32,
30,
30,
28,
26,
25,
24,
22,
21,
18,
17,
15,
12,
11,
8,
6,
4,
2,
0,
-2,
-4,
-6,
-8,
-11,
-13,
-16,
-17,
-18,
-20,
-22,
-23,
-26,
-26,
-28,
-29,
-30,
-31,
-32,
-32,
-32,
-33,
-34,
-34,
-34,
-33,
-33,
-32,
-32,
-32,
-31,
-30,
-28,
-28,
-27,
-25,
-24,
-22,
-20,
-18,
-16,
-15,
-12,
-10,
-8,
-6,
-4,
-2,
0,
2,
4,
6,
9,
11,
12,
14,
17,
19,
20,
22,
24,
25,
26,
28,
29,
31,
32,
33,
34,
34,
35,
35,
36,
36,
35,
36,
36,
34,
34,
34,
33,
32,
30,
30,
28,
26,
24,
24,
22,
20,
18,
16,
15,
13,
10,
9,
6,
4,
2,
0,
-3,
-4,
-6,
-8,
-10,
-13,
-15,
-17,
-18,
-20,
-22,
-23,
-26,
-27,
-27,
-29,
-30,
-32,
-31,
-32,
-33,
-34,
-34,
-34,
-34,
-34,
-34,
-32,
-32,
-32,
-31,
-30,
-28,
-28,
-26,
-25,
-24,
-22,
-20,
-18,
-16,
-14,
-13,
-10,
-8,
-7,
-4,
-2,
0,
2,
4,
7,
10,
11,
13,
14,
17,
18,
20,
22,
24,
26,
27,
29,
30,
30,
31,
32,
34,
34,
36,
35,
36,
36,
36,
36,
36,
35,
34,
34,
33,
32,
32,
30,
28,
26,
26,
24,
22,
20,
18,
16,
15,
13,
12,
9,
6,
4,
2,
0,
-2,
-4,
-6,
-8,
-10,
-13,
-14,
-16,
-18,
-20,
-22,
-22,
-24,
-26,
-27,
-28,
-30,
-30,
-32,
-32,
-32,
-33,
-33,
-34,
-34,
-34,
-34,
-33,
-32,
-32,
-32,
-30,
-29,
-28,
-26,
-25,
-23,
-22,
-20,
-18,
-16,
-14,
-12,
-10,
-8,
-6,
-4,
-2,
0,
2,
5,
7,
9,
11,
14,
15,
17,
18,
20,
22,
23,
26,
26,
28,
29,
31,
32,
33,
34,
34,
35,
35,
36,
36,
36,
36,
36,
36,
34,
34,
32,
32,
31,
30,
28,
26,
26,
24,
22,
20,
19,
16,
15,
13,
11,
9,
6,
4,
2,
0,
-2,
-4,
-6,
-8,
-10,
-13,
-15,
-16,
-18,
-20,
-22,
-24,
-24,
-26,
-28,
-29,
-30,
-31,
-32,
-32,
-33,
-34,
-34,
-33,
-34,
-34,
-33,
-33,
-32,
-32,
-30,
-30,
-30,
-28,
-26,
-25,
-24,
-22,
-20,
-18,
-16,
-14,
-12,
-10,
-8,
-7,
-4,
-2,
0,
2,
4,
6,
10,
11,
12,
14,
16,
18,
20,
22,
24,
26,
26,
28,
30,
31,
32,
33,
34,
34,
35,
36,
36,
36,
36,
36,
36,
34,
34,
34,
34,
32,
31,
30,
28,
28,
25,
24,
22,
21,
18,
16,
15,
12,
11,
8,
6,
4,
2,
0,
-2,
-5,
-8,
-9,
-10,
-12,
-15,
-16,
-18,
-20,
-22,
-23,
-25,
-26,
-28,
-30,
-30,
-31,
-32,
-32,
-33,
-33,
-34,
-34,
-34,
-34,
-33,
-34,
-32,
-32,
-30,
-30,
-29,
-28,
-26,
-26,
-24,
-22,
-20,
-18,
-16,
-15,
-12,
-10,
-8,
-7,
-4,
-2,
0,
2,
4,
6,
9,
10,
13,
14,
17,
18,
20,
22,
24,
26,
26,
28,
30,
31,
32,
33,
34,
34,
35,
35,
36,
36,
36,
35,
34,
35,
34,
34,
34,
32,
31,
30,
28,
27,
25,
24,
22,
20,
18,
17,
15,
13,
11,
9,
6,
4,
2,
0,
-2,
-5,
-7,
-8,
-10,
-12,
-15,
-16,
-18,
-20,
-22,
-23,
-25,
-26,
-28,
-29,
-29,
-31,
-32,
-32,
-33,
-34,
-34,
-34,
-34,
-34,
-34,
-32,
-32,
-31,
-32,
-30,
-30,
-28,
-26,
-25,
-24,
-22,
-20,
-18,
-17,
-15,
-12,
-10,
-8,
-7,
-4,
-2,
0,
2,
4,
6,
9,
10,
12,
14,
16,
18,
21,
22,
24,
25,
27,
28,
30,
30,
31,
32,
34,
34,
35,
35,
36,
35,
36,
35,
34,
34,
34,
34,
33,
32,
31,
30,
28,
26,
26,
24,
22,
20,
19,
16,
14,
12,
10,
8,
6,
4,
2,
0,
-2,
-5,
-6,
-9,
-10,
-12,
-15,
-16,
-18,
-20,
-22,
-23,
-24,
-26,
-28,
-30,
-30,
-30,
-30,
-32,
-33,
-34,
-34,
-33,
-34,
-34,
-34,
-33,
-32,
-32,
-32,
-30,
-29,
-28,
-27,
-25,
-24,
-21,
-20,
-18,
-16,
-14,
-12,
-11,
-9,
-6,
-4,
-2,
0,
2,
4,
7,
9,
10,
13,
14,
16,
18,
20,
22,
24,
26,
26,
28,
29,
30,
32,
33,
34,
34,
34,
35,
35,
36,
36,
36,
36,
34,
34,
34,
33,
32,
30,
30,
28,
26,
25,
24,
22,
20,
18,
16,
15,
12,
10,
8,
6,
4,
2,
0,
-2,
-4,
-7,
-8,
-10,
-13,
-14,
-16,
-18,
-20,
-22,
-23,
-25,
-26,
-28,
-29,
-30,
-31,
-32,
-32,
-34,
-34,
-34,
-34,
-34,
-34,
-33,
-33,
-33,
-32,
-32,
-30,
-29,
-28,
-26,
-25,
-23,
-22,
-20,
-18,
-17,
-15,
-13,
-10,
-8,
-6,
-4,
-2,
0,
2,
4,
6,
9,
10,
13,
15,
16,
18,
20,
22,
24,
25,
27,
28,
30,
30,
31,
32,
34,
34,
34,
35,
35,
36,
36,
35,
35,
34,
34,
34,
32,
32,
30,
30,
28,
26,
25,
24,
22,
21,
19,
17,
14,
13,
10,
9,
6,
4,
2,
0,
-2,
-4,
-6,
-8,
-10,
-13,
-14,
-16,
-18,
-20,
-22,
-24,
-25,
-26,
-28,
-28,
-30,
-30,
-32,
-32,
-32,
-33,
-34,
-34,
-34,
-34,
-34,
-33,
-32,
-32,
-31,
-30,
-29,
-28,
-26,
-25,
-23,
-22,
-20,
-18,
-17,
-14,
-12,
-11,
-9,
-6,
-5,
-2,
0,
2,
4,
6,
9,
11,
13,
15,
17,
18,
20,
22,
24,
25,
26,
28,
30,
30,
32,
32,
34,
34,
34,
34,
36,
36,
36,
35,
35,
35,
35,
34,
32,
32,
30,
29,
28,
26,
26,
24,
22,
20,
18,
16,
14,
12,
10,
9,
6,
4,
2,
0,
-2,
-4,
-7,
-9,
-10,
-13,
-14,
-16,
-18,
-20,
-22,
-24,
-24,
-26,
-28,
-28,
-30,
-31,
-32,
-32,
-33,
-34,
-34,
-33,
-34,
-34,
-33,
-33,
-32,
-32,
-30,
-30,
-29,
-28,
-28,
-25,
-24,
-22,
-20,
-18,
-16,
-15,
-12,
-10,
-9,
-6,
-4,
-2,
0,
2,
4,
6,
8,
10,
12,
15,
17,
19,
20,
22,
24,
26,
26,
28,
30,
31,
32,
33,
34,
34,
35,
35,
36,
36,
35,
35,
36,
34,
34,
34,
32,
32,
31,
30,
28,
26,
26,
24,
22,
20,
19,
16,
14,
12,
12,
9,
6,
4,
2,
-1,
-2,
-4,
-6,
-9,
-11,
-13,
-14,
-16,
-18,
-20,
-22,
-23,
-26,
-26,
-28,
-28,
-30,
-31,
-32,
-32,
-32,
-33,
-33,
-33,
-34,
-34,
-34,
-32,
-32,
-32,
-31,
-30,
-29,
-28,
-26,
-25,
-23,
-21,
-20,
-18,
-16,
-15,
-14,
-10,
-9,
-6,
-4,
-2,
0,
2,
4,
6,
8,
10,
13,
15,
16,
18,
20,
22,
23,
26,
26,
28,
30,
31,
32,
32,
34,
34,
35,
34,
36,
36,
36,
36,
36,
34,
34,
34,
33,
32,
31,
30,
28,
26,
26,
24,
22,
20,
18,
16,
14,
13,
10,
8,
6,
4,
2,
0,
-2,
-4,
-7,
-8,
-10,
-12,
-14,
-16,
-18,
-20,
-21,
-23,
-25,
-26,
-28,
-30,
-30,
-30,
-32,
-32,
-32,
-33,
-34,
-34,
-34,
-34,
-34,
-33,
-32,
-32,
-32,
-30,
-29,
-28,
-26,
-26,
-23,
-22,
-20,
-18,
-16,
-14,
-12,
-10,
-8,
-7,
-4,
-2,
0,
2,
4,
6,
9,
10,
13,
14,
16,
19,
20,
22,
24,
26,
27,
28,
29,
31,
32,
32,
34,
34,
34,
36,
36,
35,
36,
36,
36,
35,
34,
34,
32,
32,
31,
29,
28,
26,
26,
24,
22,
20,
18,
17,
15,
12,
11,
9,
6,
4,
2,
0,
-2,
-4,
-7,
-9,
-11,
-13,
-15,
-17,
-18,
-20,
-22,
-24,
-26,
-26,
-28,
-29,
-30,
-31,
-32,
-32,
-32,
-32,
-34,
-34,
-34,
-34,
-34,
-33,
-32,
-32,
-31,
-30,
-29,
-28,
-26,
-26,
-24,
-22,
-20,
-18,
-17,
-14,
-13,
-10,
-8,
-6,
-5,
-2,
0,
2,
4,
6,
9,
10,
12,
14,
16,
18,
20,
22,
23,
25,
26,
28,
29,
30,
32,
32,
34,
34,
34,
35,
36,
36,
36,
36,
35,
35,
34,
34,
33,
32,
31,
30,
28,
26,
26,
24,
22,
20,
18,
16,
15,
12,
10,
9,
6,
4,
2,
0,
-2,
-4,
-6,
-8,
-10,
-14,
-14,
-17,
-18,
-20,
-22,
-24,
-26,
-26,
-28,
-28,
-30,
-30,
-32,
-32,
-32,
-33,
-34,
-34,
-34,
-34,
-33,
-33,
-32,
-32,
-32,
-30,
-30,
-28,
-26,
-25,
-24,
-22,
-20,
-18,
-16,
-15,
-12,
-11,
-8,
-7,
-4,
-2,
0,
2,
4,
6,
8,
10,
13,
14,
16,
18,
21,
22,
24,
25,
26,
28,
30,
31,
32,
32,
33,
34,
34,
34,
36,
35,
35,
36,
35,
34,
34,
34,
33,
32,
30,
29,
28,
27,
25,
24,
22,
20,
18,
17,
14,
13,
10,
9,
6,
4,
2,
0,
-3,
-4,
-6,
-9,
-10,
-14,
-14,
-17,
-18,
-20,
-22,
-23,
-25,
-26,
-28,
-29,
-30,
-31,
-32,
-32,
-33,
-33,
-33,
-34,
-34,
-33,
-33,
-33,
-32,
-32,
-30,
-30,
-28,
-28,
-26,
-26,
-24,
-22,
-20,
-18,
-17,
-15,
-13,
-10,
-9,
-7,
-4,
-2,
0,
2,
4,
6,
9,
11,
12,
14,
17,
18,
20,
22,
24,
25,
28,
29,
30,
30,
31,
32,
34,
34,
34,
34,
36,
36,
36,
36,
36,
35,
34,
34,
33,
32,
31,
30,
28,
26,
26,
24,
22,
20,
19,
16,
16,
12,
11,
8,
6,
4,
2,
0,
-2,
-5,
-6,
-8,
-10,
-12,
-15,
-16,
-18,
-20,
-22,
-23,
-24,
-26,
-28,
-28,
-30,
-30,
-32,
-32,
-32,
-33,
-34,
-34,
-34,
-34,
-33,
-34,
-32,
-32,
-31,
-30,
-28,
-28,
-26,
-25,
-23,
-22,
-20,
-18,
-16,
-14,
-12,
-10,
-9,
-6,
-4,
-2,
0,
2,
4,
6,
9,
11,
12,
14,
16,
18,
20,
22,
24,
25,
27,
28,
30,
31,
32,
33,
34,
34,
34,
35,
36,
36,
36,
36,
36,
35,
34,
34,
33,
32,
31,
30,
28,
27,
26,
24,
22,
20,
18,
17,
15,
12,
10,
8,
7,
4,
2,
0,
-2,
-4,
-7,
-8,
-11,
-12,
-14,
-16,
-18,
-20,
-22,
-23,
-24,
-26,
-28,
-28,
-30,
-30,
-30,
-32,
-33,
-33,
-33,
-34,
-34,
-33,
-33,
-32,
-32,
-32,
-31,
-30,
-28,
-28,
-26,
-25,
-24,
-22,
-20,
-18,
-16,
-14,
-12,
-11,
-9,
-6,
-4,
-2,
0,
2,
4,
6,
9,
10,
12,
15,
17,
18,
20,
22,
23,
26,
27,
28,
30,
31,
32,
33,
34,
34,
34,
35,
36,
36,
36,
35,
35,
34,
34,
34,
33,
32,
30,
30,
28,
26,
26,
24,
22,
20,
19,
17,
15,
12,
11,
9,
7,
4,
2,
0,
-2,
-4,
-6,
-8,
-10,
-13,
-14,
-16,
-18,
-20,
-21,
-24,
-24,
-26,
-28,
-29,
-30,
-31,
-30,
-32,
-33,
-33,
-34,
-34,
-34,
-34,
-34,
-32,
-32,
-31,
-31,
-30,
-30,
-28,
-26,
-24,
-24,
-22,
-20,
-18,
-16,
-15,
-12,
-10,
-9,
-6,
-4,
-2,
0,
2,
4,
7,
9,
10,
13,
15,
16,
18,
20,
22,
24,
26,
27,
28,
30,
30,
32,
33,
34,
34,
34,
35,
36,
35,
36,
35,
36,
35,
34,
34,
33,
32,
31,
30,
28,
27,
25,
24,
22,
20,
18,
17,
15,
14,
11,
9,
6,
4,
2,
0,
-2,
-4,
-6,
-8,
-10,
-13,
-14,
-16,
-18,
-20,
-22,
-23,
-24,
-26,
-28,
-29,
-30,
-30,
-32,
-32,
-32,
-33,
-33,
-33,
-34,
-34,
-34,
-34,
-33,
-32,
-31,
-30,
-30,
-28,
-26,
-25,
-24,
-22,
-20,
-18,
-16,
-14,
-12,
-10,
-8,
-6,
-4,
-2,
0,
2,
4,
6,
10,
11,
13,
15,
16,
18,
20,
22,
24,
26,
26,
28,
30,
31,
32,
33,
34,
34,
35,
36,
35,
36,
36,
36,
36,
35,
34,
34,
33,
32,
31,
30,
28,
27,
26,
24,
22,
20,
18,
18,
15,
12,
10,
8,
6,
4,
2,
0,
-2,
-4,
-6,
-8,
-10,
-12,
-14,
-16,
-18,
-20,
-22,
-23,
-25,
-26,
-28,
-28,
-30,
-30,
-32,
-32,
-32,
-32,
-34,
-33,
-34,
-34,
-34,
-33,
-32,
-32,
-30,
-30,
-29,
-28,
-26,
-26,
-24,
-22,
-20,
-18,
-16,
-15,
-12,
-10,
-8,
-6,
-4,
-2,
0,
2,
4,
7,
9,
10,
12,
15,
16,
18,
20,
22,
24,
25,
26,
29,
30,
30,
32,
32,
34,
34,
35,
35,
36,
36,
36,
36,
36,
36,
34,
34,
33,
32,
32,
30,
28,
27,
25,
24,
22,
20,
18,
17,
15,
12,
10,
9,
6,
4,
2,
0,
-3,
-4,
-6,
-8,
-10,
-12,
-14,
-16,
-18,
-20,
-22,
-24,
-24,
-26,
-27,
-28,
-30,
-31,
-32,
-32,
-32,
-34,
-34,
-34,
-34,
-34,
-33,
-32,
-32,
-32,
-31,
-30,
-28,
-28,
-26,
-25,
-24,
-22,
-20,
-19,
-17,
-14,
-12,
-10,
-8,
-7,
-4,
-2,
0,
2,
