2-Passive Filters/data/ALL0019/A0019CH1.CSV

Memory Length,4000,
Trigger Level,0.000E+00,
Source,CH1,
Probe,1X,
Vertical Units,V,
Vertical Scale,5.000E+00,
Vertical Position,0.000E+00,
Horizontal Units,s,
Horizontal Scale,2.500E-08,
Horizontal Position,0.000E+00,
Horizontal Mode,Main,
Sampling Period,1.000E-09,
Firmware,V1.04,
Time, ,
Mode,Fast,
Waveform Data,
0,
2,
4,
8,
6,
8,
8,
12,
12,
14,
16,
20,
20,
20,
20,
24,
24,
26,
28,
32,
31,
32,
31,
35,
34,
36,
36,
38,
38,
36,
33,
36,
35,
33,
32,
30,
28,
27,
23,
23,
24,
19,
17,
13,
12,
10,
8,
6,
6,
4,
0,
-2,
-2,
-3,
-6,
-6,
-6,
-10,
-10,
-12,
-12,
-13,
-14,
-16,
-16,
-19,
-20,
-21,
-22,
-23,
-25,
-26,
-26,
-28,
-28,
-28,
-28,
-30,
-31,
-28,
-27,
-26,
-28,
-23,
-25,
-24,
-23,
-18,
-18,
-18,
-16,
-12,
-14,
-12,
-10,
-6,
-5,
-3,
-2,
1,
0,
2,
4,
6,
6,
8,
9,
13,
12,
14,
16,
18,
18,
20,
20,
25,
24,
24,
26,
29,
30,
32,
32,
36,
34,
34,
36,
37,
36,
38,
34,
32,
33,
32,
32,
30,
29,
28,
24,
19,
20,
18,
18,
15,
14,
14,
9,
4,
5,
4,
3,
-2,
-2,
-2,
-5,
-8,
-7,
-8,
-10,
-12,
-12,
-12,
-16,
-17,
-18,
-18,
-20,
-20,
-22,
-22,
-25,
-26,
-28,
-28,
-28,
-27,
-29,
-26,
-28,
-28,
-28,
-28,
-26,
-22,
-26,
-20,
-22,
-18,
-18,
-18,
-16,
-11,
-14,
-10,
-8,
-4,
-6,
-4,
-3,
0,
0,
2,
4,
9,
7,
8,
10,
13,
11,
14,
16,
20,
18,
20,
21,
24,
24,
26,
26,
30,
30,
31,
32,
36,
33,
38,
37,
37,
36,
36,
34,
37,
34,
34,
32,
29,
28,
28,
24,
24,
22,
20,
18,
14,
13,
12,
9,
7,
6,
4,
2,
-1,
-2,
-3,
-4,
-6,
-7,
-9,
-10,
-12,
-12,
-14,
-14,
-16,
-16,
-18,
-20,
-22,
-22,
-23,
-26,
-24,
-27,
-26,
-28,
-28,
-28,
-28,
-30,
-25,
-30,
-26,
-25,
-21,
-24,
-22,
-23,
-17,
-22,
-16,
-14,
-10,
-12,
-10,
-10,
-5,
-7,
-4,
-2,
2,
1,
3,
4,
6,
6,
8,
10,
14,
12,
14,
14,
18,
17,
20,
22,
26,
24,
26,
26,
30,
28,
32,
33,
36,
34,
36,
35,
36,
34,
36,
36,
35,
34,
33,
32,
30,
28,
27,
24,
20,
20,
18,
18,
14,
14,
12,
8,
4,
5,
3,
3,
-2,
-1,
-2,
-6,
-8,
-8,
-8,
-10,
-12,
-12,
-14,
-15,
-17,
-18,
-19,
-20,
-22,
-22,
-22,
-25,
-26,
-28,
-28,
-29,
-29,
-29,
-26,
-28,
-28,
-28,
-26,
-26,
-26,
-26,
-21,
-22,
-20,
-18,
-16,
-16,
-14,
-12,
-9,
-9,
-6,
-6,
-4,
-2,
0,
0,
4,
4,
7,
7,
8,
10,
10,
12,
16,
16,
18,
19,
20,
21,
23,
23,
27,
27,
30,
30,
32,
32,
34,
33,
38,
36,
34,
36,
37,
36,
32,
34,
36,
32,
26,
28,
28,
26,
22,
22,
20,
16,
10,
12,
12,
10,
6,
6,
4,
2,
-3,
-2,
-3,
-4,
-6,
-7,
-8,
-10,
-12,
-12,
-14,
-14,
-16,
-16,
-18,
-20,
-23,
-22,
-23,
-23,
-26,
-26,
-26,
-28,
-31,
-29,
-28,
-28,
-28,
-28,
-24,
-24,
-25,
-24,
-21,
-20,
-18,
-18,
-15,
-12,
-11,
-12,
-9,
-8,
-6,
-6,
-4,
-2,
2,
1,
3,
4,
6,
6,
8,
10,
14,
12,
14,
16,
18,
18,
20,
22,
25,
24,
26,
28,
29,
28,
33,
34,
34,
35,
38,
36,
37,
36,
36,
38,
34,
36,
36,
32,
32,
30,
26,
28,
22,
23,
22,
18,
16,
14,
10,
10,
6,
6,
6,
2,
0,
-2,
-4,
-4,
-7,
-6,
-8,
-10,
-11,
-12,
-14,
-14,
-18,
-16,
-17,
-20,
-21,
-21,
-23,
-23,
-26,
-26,
-25,
-28,
-28,
-30,
-29,
-24,
-26,
-26,
-23,
-26,
-24,
-26,
-24,
-18,
-16,
-18,
-14,
-15,
-13,
-14,
-12,
-8,
-3,
-5,
-3,
-2,
0,
0,
2,
4,
8,
7,
8,
10,
11,
10,
14,
16,
20,
18,
20,
22,
22,
22,
25,
28,
32,
30,
32,
34,
34,
34,
34,
38,
38,
38,
38,
37,
34,
34,
32,
33,
28,
31,
28,
26,
20,
22,
18,
17,
12,
14,
10,
10,
6,
7,
4,
0,
-2,
0,
-4,
-4,
-8,
-6,
-9,
-10,
-13,
-12,
-13,
-15,
-18,
-16,
-18,
-19,
-22,
-20,
-22,
-24,
-27,
-26,
-28,
-27,
-28,
-26,
-27,
-26,
-30,
-28,
-27,
-25,
-23,
-22,
-22,
-21,
-20,
-18,
-16,
-14,
-12,
-10,
-10,
-8,
-6,
-6,
-4,
-2,
1,
2,
2,
4,
6,
6,
9,
9,
13,
14,
14,
16,
18,
18,
20,
22,
24,
24,
26,
28,
28,
30,
32,
33,
36,
36,
36,
38,
36,
38,
37,
37,
34,
36,
34,
34,
29,
32,
28,
26,
22,
22,
20,
19,
14,
16,
12,
10,
5,
5,
4,
2,
-1,
0,
-2,
-4,
-6,
-8,
-8,
-9,
-12,
-11,
-14,
-14,
-16,
-18,
-18,
-18,
-22,
-20,
-22,
-23,
-25,
-26,
-26,
-26,
-28,
-26,
-28,
-26,
-26,
-26,
-25,
-24,
-24,
-22,
-22,
-18,
-16,
-18,
-14,
-14,
-12,
-11,
-10,
-7,
-4,
-6,
-3,
-2,
1,
0,
2,
4,
8,
6,
8,
10,
12,
12,
14,
17,
20,
18,
20,
22,
24,
24,
26,
28,
31,
30,
32,
34,
35,
36,
36,
38,
38,
37,
38,
38,
37,
37,
32,
34,
30,
28,
30,
26,
25,
23,
18,
19,
14,
13,
12,
10,
8,
6,
2,
2,
0,
-2,
-3,
-5,
-6,
-7,
-10,
-10,
-12,
-12,
-12,
-14,
-16,
-16,
-19,
-18,
-22,
-22,
-22,
-24,
-24,
-26,
-28,
-26,
-26,
-28,
-26,
-26,
-26,
-26,
-27,
-24,
-20,
-24,
-21,
-20,
-18,
-18,
-18,
-14,
-10,
-12,
-10,
-8,
-6,
-6,
-4,
-2,
2,
0,
2,
4,
6,
6,
9,
10,
14,
13,
14,
15,
17,
18,
20,
22,
25,
24,
26,
28,
29,
30,
32,
34,
36,
34,
36,
38,
38,
36,
36,
36,
36,
34,
33,
34,
31,
30,
26,
25,
20,
21,
18,
18,
14,
14,
10,
8,
4,
5,
2,
2,
0,
-1,
-2,
-6,
-8,
-7,
-10,
-10,
-12,
-12,
-14,
-16,
-17,
-18,
-18,
-18,
-20,
-21,
-24,
-25,
-25,
-27,
-28,
-28,
-27,
-28,
-29,
-29,
-26,
-27,
-28,
-26,
-24,
-24,
-22,
-22,
-17,
-18,
-18,
-16,
-12,
-12,
-10,
-10,
-5,
-6,
-4,
-3,
0,
0,
4,
4,
8,
6,
8,
8,
12,
12,
15,
16,
20,
18,
20,
20,
24,
24,
26,
26,
32,
30,
30,
32,
35,
35,
36,
36,
37,
36,
36,
34,
36,
36,
35,
30,
28,
27,
26,
24,
24,
24,
22,
17,
12,
11,
10,
7,
6,
6,
4,
2,
-2,
-2,
-3,
-6,
-6,
-6,
-8,
-10,
-13,
-13,
-13,
-15,
-16,
-16,
-18,
-20,
-22,
-23,
-23,
-26,
-26,
-25,
-26,
-29,
-28,
-30,
-29,
-30,
-26,
-26,
-25,
-28,
-24,
-25,
-23,
-23,
-18,
-18,
-16,
-16,
-12,
-12,
-10,
-10,
-6,
-6,
-4,
-4,
2,
0,
3,
4,
6,
6,
8,
9,
14,
14,
14,
15,
18,
17,
20,
20,
25,
24,
26,
26,
30,
30,
33,
32,
34,
34,
34,
35,
38,
38,
38,
34,
34,
34,
34,
31,
30,
30,
29,
26,
20,
21,
20,
17,
14,
14,
12,
9,
4,
6,
4,
2,
0,
-1,
-3,
-4,
-8,
-8,
-8,
-10,
-12,
-12,
-13,
-15,
-18,
-18,
-18,
-20,
-20,
-21,
-22,
-24,
-27,
-26,
-28,
-28,
-28,
-29,
-26,
-30,
-28,
-28,
-28,
-26,
-24,
-26,
-21,
-22,
-18,
-18,
-18,
-16,
-13,
-14,
-10,
-9,
-4,
-5,
-4,
-2,
0,
-1,
3,
4,
8,
6,
8,
10,
12,
11,
14,
14,
19,
18,
19,
21,
24,
23,
26,
26,
31,
30,
30,
33,
34,
32,
37,
36,
36,
38,
35,
36,
34,
32,
34,
32,
26,
32,
26,
26,
22,
20,
20,
18,
12,
16,
10,
10,
6,
6,
4,
2,
-2,
0,
-3,
-4,
-6,
-7,
-9,
-10,
-12,
-12,
-14,
-14,
-16,
-16,
-18,
-20,
-24,
-20,
-23,
-24,
-26,
-27,
-26,
-28,
-30,
-26,
-30,
-29,
-28,
-29,
-26,
-26,
-24,
-21,
-23,
-23,
-19,
-20,
-16,
-15,
-12,
-10,
-10,
-10,
-6,
-6,
-4,
-2,
2,
1,
2,
2,
6,
7,
8,
10,
14,
12,
14,
14,
17,
18,
20,
22,
25,
25,
26,
26,
29,
28,
32,
33,
34,
36,
35,
34,
36,
36,
38,
36,
34,
36,
32,
30,
29,
31,
27,
24,
22,
22,
18,
15,
14,
15,
11,
8,
6,
6,
4,
1,
-2,
0,
-4,
-5,
-7,
-7,
-9,
-10,
-12,
-12,
-13,
-15,
-16,
-17,
-18,
-21,
-22,
-20,
-22,
-26,
-26,
-25,
-28,
-30,
-30,
-26,
-28,
-29,
-26,
-26,
-28,
-28,
-26,
-23,
-22,
-22,
-16,
-18,
-17,
-16,
-14,
-11,
-10,
-8,
-4,
-6,
-4,
-2,
0,
1,
2,
4,
8,
6,
8,
10,
12,
12,
14,
16,
19,
18,
20,
20,
24,
24,
26,
27,
31,
30,
32,
32,
33,
35,
36,
36,
38,
38,
38,
35,
34,
36,
33,
32,
30,
29,
28,
25,
22,
22,
19,
17,
14,
12,
12,
10,
6,
6,
4,
2,
-1,
-2,
-2,
-4,
-6,
-8,
-9,
-10,
-12,
-12,
-12,
-14,
-17,
-18,
-18,
-19,
-22,
-22,
-22,
-25,
-26,
-26,
-27,
-27,
-26,
-28,
-28,
-28,
-30,
-29,
-27,
-26,
-21,
-25,
-22,
-20,
-22,
-21,
-16,
-14,
-10,
-12,
-10,
-8,
-8,
-8,
-4,
-1,
2,
0,
3,
4,
6,
6,
9,
9,
14,
12,
14,
15,
17,
17,
20,
22,
25,
24,
26,
28,
27,
29,
31,
34,
37,
35,
36,
37,
34,
36,
36,
38,
36,
35,
34,
33,
28,
28,
25,
26,
22,
22,
22,
19,
14,
14,
10,
10,
6,
6,
5,
3,
0,
-1,
-4,
-4,
-6,
-6,
-8,
-10,
-12,
-12,
-14,
-14,
-16,
-16,
-18,
-19,
-22,
-22,
-24,
-24,
-24,
-26,
-26,
-28,
-30,
-28,
-30,
-26,
-25,
-26,
-24,
-26,
-26,
-24,
-24,
-20,
-16,
-18,
-14,
-17,
-14,
-12,
-12,
-8,
-4,
-6,
-4,
-4,
0,
0,
2,
4,
8,
7,
8,
8,
12,
12,
14,
16,
20,
18,
20,
20,
23,
24,
25,
28,
33,
30,
32,
32,
34,
34,
34,
38,
38,
36,
38,
35,
34,
38,
32,
33,
30,
28,
28,
24,
22,
26,
18,
18,
14,
12,
12,
8,
6,
9,
4,
2,
-2,
-2,
-2,
-6,
-6,
-6,
-9,
-10,
-13,
-12,
-12,
-14,
-17,
-16,
-18,
-20,
-22,
-22,
-22,
-24,
-27,
-23,
-28,
-27,
-27,
-30,
-26,
-28,
-28,
-24,
-28,
-26,
-22,
-27,
-22,
-22,
-20,
-16,
-18,
-15,
-10,
-14,
-10,
-8,
-6,
-4,
-4,
-2,
2,
0,
2,
4,
6,
6,
8,
9,
14,
12,
14,
16,
18,
18,
19,
22,
26,
23,
26,
26,
28,
30,
30,
32,
36,
33,
36,
38,
36,
38,
35,
36,
34,
32,
34,
34,
30,
32,
26,
24,
20,
20,
20,
20,
15,
14,
11,
8,
4,
6,
4,
4,
-1,
-1,
-2,
-6,
-7,
-8,
-8,
-9,
-12,
-12,
-14,
-15,
-17,
-17,
-18,
-18,
-22,
-20,
-24,
-25,
-26,
-26,
-26,
-25,
-29,
-27,
-29,
-30,
-26,
-28,
-27,
-22,
-26,
-24,
-23,
-24,
-18,
-18,
-17,
-12,
-14,
-14,
-10,
-10,
-4,
-5,
-4,
-1,
0,
0,
3,
2,
8,
8,
8,
10,
11,
11,
15,
15,
19,
18,
20,
22,
23,
24,
26,
26,
31,
30,
32,
34,
34,
35,
35,
34,
36,
38,
36,
38,
36,
34,
32,
30,
29,
30,
26,
27,
24,
22,
18,
17,
13,
15,
10,
10,
8,
6,
4,
2,
-2,
0,
-4,
-6,
-6,
-6,
-10,
-10,
-12,
-12,
-14,
-15,
-16,
-16,
-19,
-20,
-22,
-22,
-24,
-23,
-25,
-26,
-28,
-29,
-28,
-27,
-28,
-30,
-26,
-28,
-28,
-27,
-22,
-23,
-23,
-24,
-18,
-18,
-17,
-16,
-11,
-12,
-11,
-12,
-6,
-6,
-4,
-1,
2,
1,
2,
2,
6,
6,
8,
10,
14,
12,
14,
14,
18,
18,
20,
21,
26,
24,
26,
25,
30,
30,
32,
32,
36,
35,
35,
34,
38,
37,
36,
35,
34,
34,
32,
30,
31,
30,
27,
24,
20,
20,
18,
16,
15,
15,
10,
10,
4,
4,
3,
2,
0,
0,
-3,
-5,
-7,
-8,
-9,
-10,
-11,
-11,
-14,
-14,
-17,
-18,
-18,
-20,
-20,
-20,
-24,
-25,
-26,
-28,
-28,
-30,
-27,
-28,
-28,
-28,
-30,
-30,
-28,
-28,
-24,
-24,
-22,
-22,
-22,
-20,
-18,
-17,
-13,
-12,
-10,
-8,
-8,
-7,
-4,
-3,
0,
0,
2,
4,
6,
6,
8,
9,
12,
12,
14,
16,
18,
18,
20,
20,
24,
24,
25,
28,
28,
30,
31,
31,
34,
34,
36,
36,
32,
35,
36,
35,
36,
34,
36,
32,
24,
28,
28,
26,
23,
22,
21,
18,
10,
14,
12,
10,
6,
6,
6,
1,
-2,
-1,
-2,
-4,
-6,
-8,
-8,
-10,
-14,
-12,
-14,
-14,
-16,
-17,
-18,
-20,
-24,
-22,
-24,
-24,
-25,
-27,
-26,
-27,
-32,
-28,
-28,
-28,
-26,
-29,
-24,
-24,
-26,
-24,
-22,
-22,
-18,
-21,
-15,
-14,
-12,
-11,
-10,
-9,
-5,
-7,
-3,
-2,
2,
2,
4,
4,
6,
6,
9,
10,
14,
14,
14,
14,
18,
17,
20,
22,
24,
24,
25,
26,
30,
28,
32,
34,
34,
36,
36,
35,
38,
36,
38,
38,
34,
36,
36,
32,
32,
28,
27,
27,
22,
24,
22,
17,
16,
14,
11,
10,
6,
7,
5,
2,
0,
-1,
-4,
-4,
-7,
-6,
-8,
-10,
-11,
-12,
-14,
-15,
-18,
-16,
-18,
-20,
-20,
-22,
-22,
-24,
-26,
-24,
-25,
-30,
-26,
-30,
-28,
-26,
-25,
-25,
-24,
-27,
-23,
-26,
-22,
-18,
-14,
-16,
-15,
-16,
-11,
-15,
-10,
-8,
-2,
-6,
-3,
-4,
0,
0,
2,
4,
8,
7,
8,
9,
12,
11,
14,
16,
20,
18,
20,
20,
24,
22,
26,
28,
32,
30,
32,
31,
36,
32,
36,
38,
38,
38,
38,
34,
35,
32,
34,
33,
30,
31,
28,
24,
22,
22,
20,
18,
13,
14,
12,
8,
5,
6,
4,
1,
-2,
-1,
-4,
-4,
-7,
-6,
-8,
-10,
-13,
-12,
-13,
-15,
-16,
-17,
-18,
-20,
-22,
-20,
-22,
-26,
-26,
-26,
-26,
-26,
-28,
-26,
-28,
-30,
-29,
-28,
-24,
-25,
-24,
-22,
-22,
-22,
-22,
-20,
-14,
-14,
-12,
-11,
-10,
-8,
-8,
-6,
-2,
-2,
1,
1,
2,
4,
6,
6,
10,
9,
13,
12,
14,
15,
17,
18,
22,
22,
25,
24,
26,
26,
28,
29,
33,
33,
34,
36,
36,
35,
36,
36,
38,
36,
32,
36,
34,
30,
28,
30,
29,
26,
20,
22,
20,
17,
14,
14,
12,
9,
4,
6,
4,
1,
-1,
0,
-3,
-4,
-7,
-7,
-8,
-10,
-12,
-12,
-13,
-14,
-17,
-17,
-18,
-20,
-22,
-22,
-22,
-24,
-26,
-26,
-26,
-29,
-29,
-29,
-26,
-26,
-27,
-26,
-26,
-26,
-25,
-24,
-20,
-20,
-18,
-17,
-16,
-15,
-13,
-12,
-10,
-8,
-4,
-5,
-4,
-2,
0,
0,
2,
4,
8,
7,
8,
10,
12,
12,
14,
16,
20,
19,
20,
22,
24,
24,
26,
28,
31,
30,
32,
32,
34,
34,
37,
37,
38,
38,
38,
36,
36,
35,
33,
34,
32,
30,
28,
25,
24,
24,
18,
18,
16,
13,
12,
8,
7,
7,
2,
1,
0,
-1,
-4,
-5,
-6,
-6,
-10,
-10,
-12,
-13,
-14,
-16,
-16,
-16,
-18,
-19,
-21,
-22,
-22,
-25,
-26,
-26,
-28,
-26,
-25,
-28,
-28,
-28,
-28,
-29,
-28,
-25,
-18,
-24,
-22,
-22,
-18,
-20,
-19,
-14,
-8,
-12,
-10,
-9,
-6,
-7,
-4,
-3,
2,
0,
2,
4,
5,
6,
8,
9,
14,
12,
14,
15,
17,
17,
20,
22,
26,
24,
26,
26,
29,
28,
30,
32,
38,
36,
36,
36,
35,
36,
34,
34,
36,
34,
32,
32,
28,
30,
26,
22,
22,
22,
18,
18,
13,
15,
10,
6,
4,
5,
2,
2,
-2,
0,
-3,
-6,
-8,
-6,
-9,
-10,
-12,
-10,
-14,
-16,
-18,
-17,
-19,
-20,
-22,
-22,
-23,
-26,
-24,
-26,
-29,
-26,
-30,
-28,
-29,
-30,
-26,
-27,
-28,
-26,
-26,
-24,
-23,
-23,
-18,
-18,
-18,
-16,
-13,
-12,
-10,
-10,
-6,
-6,
-4,
-2,
0,
0,
4,
4,
8,
6,
8,
9,
12,
11,
14,
16,
19,
18,
20,
21,
23,
24,
26,
27,
31,
30,
30,
32,
33,
35,
36,
35,
37,
36,
36,
36,
34,
36,
34,
30,
28,
29,
26,
26,
22,
24,
20,
17,
12,
13,
12,
10,
6,
8,
4,
2,
-2,
-2,
-2,
-4,
-6,
-6,
-8,
-10,
-12,
-12,
-14,
-14,
-16,
-16,
-18,
-20,
-22,
-22,
-22,
-24,
-26,
-24,
-26,
-28,
-28,
-29,
-27,
-26,
-26,
-25,
-26,
-26,
-22,
-26,
-21,
-20,
-18,
-18,
-16,
-13,
-11,
-14,
-8,
-8,
-6,
-6,
-4,
0,
2,
0,
4,
4,
6,
6,
8,
10,
14,
13,
15,
15,
18,
19,
20,
22,
26,
24,
26,
28,
30,
30,
31,
34,
36,
34,
37,
38,
38,
38,
36,
38,
35,
33,
36,
34,
33,
31,
26,
28,
22,
21,
22,
20,
16,
15,
10,
10,
5,
6,
6,
2,
0,
-1,
-4,
-4,
-8,
-8,
-8,
-10,
-10,
-12,
-14,
-14,
-17,
-17,
-18,
-18,
-20,
-20,
-24,
-23,
-26,
-27,
-24,
-26,
-26,
-26,
-30,
-26,
-26,
-29,
-24,
-24,
-23,
-23,
-24,
-20,
-17,
-20,
-14,
-14,
-12,
-12,
-10,
-8,
-4,
-6,
-3,
-1,
0,
0,
4,
4,
8,
7,
8,
10,
12,
11,
14,
15,
19,
18,
20,
22,
24,
24,
26,
28,
32,
28,
32,
34,
34,
34,
35,
38,
36,
36,
38,
36,
36,
36,
32,
34,
28,
28,
28,
26,
24,
22,
19,
17,
12,
13,
11,
10,
6,
6,
4,
1,
-2,
-2,
-3,
-4,
-6,
-6,
-9,
-10,
-13,
-12,
-12,
-15,
-16,
-16,
-18,
-19,
-22,
-22,
-22,
-24,
-25,
-26,
-27,
-27,
-29,
-29,
-26,
-28,
-26,
-26,
-26,
-26,
-24,
-24,
-22,
-22,
-19,
-18,
-16,
-14,
-12,
-12,
-10,
-10,
-6,
-6,
-3,
-2,
1,
1,
2,
3,
6,
6,
10,
10,
13,
13,
14,
16,
17,
18,
20,
21,
24,
24,
25,
26,
30,
30,
32,
33,
34,
34,
36,
36,
38,
38,
38,
36,
33,
34,
34,
32,
32,
32,
28,
26,
20,
20,
20,
16,
15,
15,
12,
10,
4,
5,
4,
1,
-1,
-1,
-3,
-4,
-8,
-8,
-8,
-10,
-12,
-11,
-13,
-14,
-18,
-18,
-18,
-19,
-20,
-20,
-22,
-23,
-28,
-26,
-26,
-29,
-27,
-28,
-26,
-26,
-28,
-27,
-24,
-26,
-24,
-23,
-22,
-20,
-19,
-18,
-15,
-16,
-12,
-12,
-10,
-8,
-6,
-6,
-2,
-2,
0,
0,
2,
4,
7,
7,
9,
10,
11,
12,
14,
16,
19,
18,
20,
20,
24,
24,
26,
28,
30,
30,
33,
32,
34,
36,
37,
37,
34,
37,
38,
36,
36,
34,
35,
32,
27,
29,
28,
25,
23,
22,
20,
18,
12,
14,
12,
10,
6,
6,
4,
1,
-2,
-2,
-3,
-5,
-6,
-7,
-8,
-10,
-13,
-12,
-13,
-15,
-16,
-16,
-18,
-20,
-23,
-22,
-22,
-24,
-26,
-26,
-26,
-28,
-30,
-28,
-26,
-28,
-28,
-30,
-24,
-26,
-24,
-23,
-22,
-23,
-20,
-22,
-15,
-16,
-12,
-10,
-10,
-9,
-7,
-8,
-4,
-2,
2,
1,
2,
4,
6,
6,
9,
10,
14,
13,
14,
16,
17,
18,
20,
21,
25,
24,
26,
26,
28,
28,
32,
32,
34,
36,
36,
36,
36,
34,
38,
36,
34,
36,
33,
31,
28,
28,
28,
24,
20,
24,
19,
18,
14,
13,
11,
8,
4,
6,
3,
2,
-1,
-1,
-3,
-4,
-8,
-6,
-9,
-10,
-12,
-12,
-14,
-16,
-18,
-16,
-18,
-20,
-21,
-22,
-23,
-25,
-27,
-24,
-28,
-28,
-29,
-30,
-28,
-30,
-28,
-25,
-28,
-28,
-26,
-26,
-22,
-22,
-18,
-16,
-18,
-18,
-14,
-14,
-10,
-10,
-4,
-5,
-4,
-4,
0,
0,
2,
4,
8,
7,
7,
9,
12,
12,
14,
14,
20,
18,
19,
20,
23,
23,
26,
27,
30,
31,
31,
32,
34,
33,
36,
36,
37,
38,
36,
34,
34,
36,
34,
32,
28,
31,
26,
23,
22,
24,
20,
16,
14,
14,
11,
8,
6,
7,
3,
1,
-2,
-2,
-4,
-5,
-6,
-6,
-8,
-10,
-12,
-12,
-14,
-15,
-17,
-16,
-18,
-20,
-22,
-20,
-24,
-26,
-26,
-26,
-26,
-29,
-28,
-26,
-30,
-30,
-28,
-26,
-26,
-27,
-22,
-22,
-24,
-23,
-20,
-17,
-17,
-16,
-10,
-12,
-12,
-10,
-6,
-4,
-4,
-2,
2,
0,
2,
4,
6,
6,
8,
10,
14,
12,
14,
16,
18,
18,
20,
21,
24,
24,
26,
27,
29,
30,
32,
32,
36,
35,
35,
35,
36,
38,
36,
35,
36,
35,
32,
30,
30,
30,
26,
24,
22,
22,
19,
17,
14,
14,
10,
9,
6,
5,
4,
2,
-1,
-2,
-4,
-5,
-7,
-8,
-8,
-10,
-12,
-12,
-14,
-15,
-17,
-16,
-18,
-20,
-22,
-22,
-23,
-25,
-26,
-26,
-28,
-28,
-28,
-30,
-29,
-31,
-25,
-28,
-28,
-24,
-24,
-26,
-22,
-23,
-16,
-18,
-18,
-14,
-13,
-14,
-10,
-10,
-4,
-6,
-4,
0,
0,
0,
2,
3,
8,
6,
8,
10,
12,
11,
14,
14,
20,
18,
20,
22,
24,
23,
26,
26,
32,
30,
31,
34,
34,
33,
36,
34,
38,
36,
35,
37,
36,
34,
32,
30,
30,
30,
26,
27,
24,
22,
18,
16,
14,
14,
12,
10,
8,
6,
3,
1,
-2,
-1,
-4,
-4,
-6,
-6,
-10,
-10,
-12,
-12,
-14,
-14,
-16,
-16,
-18,
-21,
-22,
-22,
-23,
-24,
-26,
-26,
-29,
-29,
-26,
-28,
-28,
-28,
-26,
-28,
-28,
-27,
-22,
-24,
-24,
-22,
-18,
-18,
-18,
-16,
-10,
-12,
-10,
-10,
-6,
-6,
-4,
-2,
2,
0,
3,
2,
6,
6,
8,
10,
14,
12,
14,
14,
18,
18,
20,
22,
26,
24,
26,
26,
30,
30,
30,
32,
37,
35,
36,
36,
38,
38,
35,
34,
35,
34,
32,
31,
32,
34,
26,
24,
21,
20,
19,
17,
15,
17,
11,
9,
5,
4,
3,
2,
0,
0,
-3,
-5,
-8,
-8,
-9,
-10,
-12,
-10,
-14,
-16,
-16,
-18,
-18,
-19,
-20,
-20,
-24,
-26,
-26,
-28,
-28,
-28,
-26,
-24,
-30,
-28,
-26,
-30,
-27,
-26,
-23,
-20,
-24,
-22,
-18,
-21,
-16,
-15,
-12,
-10,
-11,
-8,
-5,
-8,
-4,
-2,
0,
0,
2,
4,
7,
6,
8,
9,
12,
12,
14,
16,
19,
18,
20,
21,
24,
24,
24,
27,
32,
28,
32,
32,
36,
36,
34,
36,
38,
35,
36,
37,
36,
36,
32,
32,
28,
28,
28,
28,
24,
24,
18,
17,
12,
12,
12,
11,
6,
6,
3,
2,
-2,
-1,
-3,
-4,
-6,
-7,
-8,
-10,
-12,
-12,
-14,
-13,
-16,
-16,
-20,
-20,
-22,
-22,
-23,
-23,
-25,
-25,
-28,
-28,
-28,
-29,
-28,
-26,
-28,
-28,
-28,
-28,
-23,
-24,
-24,
-18,
-20,
-20,
-18,
-16,
-12,
-12,
-11,
-8,
-8,
-8,
-4,
-2,
2,
2,
2,
4,
6,
4,
9,
10,
14,
12,
14,
15,
18,
17,
20,
20,
26,
24,
26,
28,
29,
29,
31,
32,
36,
34,
36,
38,
36,
36,
35,
36,
36,
36,
34,
33,
30,
28,
26,
26,
22,
23,
21,
18,
14,
14,
10,
10,
5,
7,
4,
1,
0,
-1,
-3,
-4,
-7,
-6,
-8,
-10,
-12,
-12,
-14,
-14,
-17,
-17,
-18,
-18,
-20,
-22,
-24,
-24,
-26,
-25,
-26,
-28,
-28,
-29,
-29,
-28,
-26,
-26,
-25,
-29,
-24,
-26,
-23,
-20,
-16,
-17,
-16,
-20,
-14,
-13,
-10,
-8,
-4,
-6,
-2,
-6,
0,
1,
3,
4,
7,
6,
8,
8,
11,
12,
14,
15,
20,
18,
20,
20,
23,
24,
26,
27,
32,
30,
32,
30,
34,
34,
36,
37,
37,
36,
38,
31,
34,
36,
33,
33,
28,
28,
28,
22,
22,
24,
19,
18,
12,
12,
12,
7,
6,
7,
4,
2,
-2,
-2,
-2,
-4,
-7,
-6,
-10,
-10,
-13,
-13,
-14,
-16,
-16,
-16,
-18,
-18,
-22,
-22,
-22,
-26,
-26,
-25,
-27,
-26,
-30,
-30,
-27,
-32,
-29,
-26,
-27,
-25,
-26,
-25,
-22,
-25,
-21,
-18,
-18,
-14,
-16,
-13,
-10,
-10,
-7,
-6,
-4,
-2,
0,
0,
2,
4,
6,
6,
8,
10,
12,
12,
14,
15,
17,
18,
20,
22,
23,
24,
26,
26,
28,
30,
32,
33,
32,
34,
36,
33,
36,
38,
37,
36,
30,
33,
34,
30,
30,
30,
28,
26,
17,
21,
20,
18,
14,
14,
12,
9,
4,
6,
4,
3,
0,
-2,
-2,
-4,
-8,
-7,
-8,
-10,
-12,
-12,
-12,
-15,
-18,
-18,
-18,
-20,
-22,
-22,
-22,
-24,
-28,
-26,
-28,
-29,
-29,
-30,
-26,
-28,
-30,
-26,
-28,
-26,
-26,
-26,
-20,
-20,
-18,
-17,
-18,
-16,
-13,
-14,
-10,
-8,
-4,
-5,
-4,
-2,
0,
